innings,deliveries,non_striker,bowler,batsman,total_runs,batsman_runs,extras,wickets
1st innings,0.1,PA Patel,B Kumar,LMP Simmons,1,1,na,na
1st innings,0.2,LMP Simmons,B Kumar,PA Patel,1,0,{'wides': 1},na
1st innings,0.3,LMP Simmons,B Kumar,PA Patel,0,0,na,na
1st innings,0.4,LMP Simmons,B Kumar,PA Patel,0,0,na,na
1st innings,0.5,LMP Simmons,B Kumar,PA Patel,1,1,na,na
1st innings,0.6,PA Patel,B Kumar,LMP Simmons,0,0,na,na
1st innings,0.7,PA Patel,B Kumar,LMP Simmons,0,0,na,na
1st innings,1.1,LMP Simmons,Mohammad Nabi,PA Patel,0,0,na,na
1st innings,1.2,LMP Simmons,Mohammad Nabi,PA Patel,1,1,na,na
1st innings,1.3,PA Patel,Mohammad Nabi,LMP Simmons,0,0,na,na
1st innings,1.4,PA Patel,Mohammad Nabi,LMP Simmons,0,0,na,"{'player_out': 'LMP Simmons', 'kind': 'bowled'}"
1st innings,1.5,PA Patel,Mohammad Nabi,N Rana,0,0,na,na
1st innings,1.6,PA Patel,Mohammad Nabi,N Rana,0,0,na,na
1st innings,2.1,N Rana,Mohammed Siraj,PA Patel,0,0,na,na
1st innings,2.2,N Rana,Mohammed Siraj,PA Patel,6,6,na,na
1st innings,2.3,N Rana,Mohammed Siraj,PA Patel,1,1,na,na
1st innings,2.4,PA Patel,Mohammed Siraj,N Rana,4,4,na,na
1st innings,2.5,PA Patel,Mohammed Siraj,N Rana,1,0,{'wides': 1},na
1st innings,2.6,PA Patel,Mohammed Siraj,N Rana,4,4,na,na
1st innings,2.7,PA Patel,Mohammed Siraj,N Rana,0,0,na,na
1st innings,3.1,N Rana,Mohammad Nabi,PA Patel,1,1,na,na
1st innings,3.2,PA Patel,Mohammad Nabi,N Rana,0,0,na,na
1st innings,3.3,PA Patel,Mohammad Nabi,N Rana,0,0,na,na
1st innings,3.4,PA Patel,Mohammad Nabi,N Rana,0,0,na,na
1st innings,3.5,PA Patel,Mohammad Nabi,N Rana,0,0,na,na
1st innings,3.6,PA Patel,Mohammad Nabi,N Rana,1,1,na,na
1st innings,4.1,PA Patel,S Kaul,N Rana,0,0,na,"{'player_out': 'N Rana', 'fielders': ['B Kumar'], 'kind': 'caught'}"
1st innings,4.2,RG Sharma,S Kaul,PA Patel,2,2,na,na
1st innings,4.3,RG Sharma,S Kaul,PA Patel,2,2,na,na
1st innings,4.4,RG Sharma,S Kaul,PA Patel,1,1,na,na
1st innings,4.5,PA Patel,S Kaul,RG Sharma,1,1,na,na
1st innings,4.6,RG Sharma,S Kaul,PA Patel,1,1,na,na
1st innings,5.1,RG Sharma,Mohammad Nabi,PA Patel,2,2,na,na
1st innings,5.2,RG Sharma,Mohammad Nabi,PA Patel,4,4,na,na
1st innings,5.3,RG Sharma,Mohammad Nabi,PA Patel,1,1,na,na
1st innings,5.4,PA Patel,Mohammad Nabi,RG Sharma,0,0,na,na
1st innings,5.5,PA Patel,Mohammad Nabi,RG Sharma,0,0,na,na
1st innings,5.6,PA Patel,Mohammad Nabi,RG Sharma,0,0,na,na
1st innings,6.1,RG Sharma,S Kaul,PA Patel,0,0,na,"{'player_out': 'PA Patel', 'fielders': ['DA Warner'], 'kind': 'caught'}"
1st innings,6.2,HH Pandya,S Kaul,RG Sharma,2,2,na,na
1st innings,6.3,HH Pandya,S Kaul,RG Sharma,2,2,na,na
1st innings,6.4,HH Pandya,S Kaul,RG Sharma,0,0,na,na
1st innings,6.5,HH Pandya,S Kaul,RG Sharma,0,0,na,na
1st innings,6.6,HH Pandya,S Kaul,RG Sharma,2,2,na,na
1st innings,7.1,RG Sharma,Mohammad Nabi,HH Pandya,0,0,na,na
1st innings,7.2,RG Sharma,Mohammad Nabi,HH Pandya,0,0,na,na
1st innings,7.3,RG Sharma,Mohammad Nabi,HH Pandya,0,0,na,na
1st innings,7.4,RG Sharma,Mohammad Nabi,HH Pandya,1,1,na,na
1st innings,7.5,HH Pandya,Mohammad Nabi,RG Sharma,1,1,na,na
1st innings,7.6,RG Sharma,Mohammad Nabi,HH Pandya,1,1,na,na
1st innings,8.1,RG Sharma,Rashid Khan,HH Pandya,0,0,na,na
1st innings,8.2,RG Sharma,Rashid Khan,HH Pandya,1,1,na,na
1st innings,8.3,HH Pandya,Rashid Khan,RG Sharma,4,4,na,na
1st innings,8.4,HH Pandya,Rashid Khan,RG Sharma,1,1,na,na
1st innings,8.5,RG Sharma,Rashid Khan,HH Pandya,2,2,na,na
1st innings,8.6,RG Sharma,Rashid Khan,HH Pandya,0,0,na,na
1st innings,9.1,HH Pandya,Mohammed Siraj,RG Sharma,0,0,na,na
1st innings,9.2,HH Pandya,Mohammed Siraj,RG Sharma,1,1,na,na
1st innings,9.3,RG Sharma,Mohammed Siraj,HH Pandya,3,3,na,na
1st innings,9.4,HH Pandya,Mohammed Siraj,RG Sharma,1,1,na,na
1st innings,9.5,RG Sharma,Mohammed Siraj,HH Pandya,0,0,na,na
1st innings,9.6,RG Sharma,Mohammed Siraj,HH Pandya,1,0,{'wides': 1},na
1st innings,9.7,RG Sharma,Mohammed Siraj,HH Pandya,0,0,na,na
1st innings,10.1,HH Pandya,Rashid Khan,RG Sharma,1,1,na,na
1st innings,10.2,RG Sharma,Rashid Khan,HH Pandya,0,0,na,na
1st innings,10.3,RG Sharma,Rashid Khan,HH Pandya,0,0,na,na
1st innings,10.4,RG Sharma,Rashid Khan,HH Pandya,0,0,na,na
1st innings,10.5,RG Sharma,Rashid Khan,HH Pandya,1,1,na,na
1st innings,10.6,HH Pandya,Rashid Khan,RG Sharma,6,6,na,na
1st innings,11.1,RG Sharma,S Kaul,HH Pandya,1,1,na,na
1st innings,11.2,HH Pandya,S Kaul,RG Sharma,1,1,na,na
1st innings,11.3,RG Sharma,S Kaul,HH Pandya,0,0,na,na
1st innings,11.4,RG Sharma,S Kaul,HH Pandya,1,1,na,na
1st innings,11.5,HH Pandya,S Kaul,RG Sharma,1,1,na,na
1st innings,11.6,RG Sharma,S Kaul,HH Pandya,1,1,na,na
1st innings,12.1,RG Sharma,B Kumar,HH Pandya,1,1,na,na
1st innings,12.2,HH Pandya,B Kumar,RG Sharma,1,1,na,na
1st innings,12.3,RG Sharma,B Kumar,HH Pandya,1,1,na,na
1st innings,12.4,HH Pandya,B Kumar,RG Sharma,0,0,na,na
1st innings,12.5,HH Pandya,B Kumar,RG Sharma,4,4,na,na
1st innings,12.6,HH Pandya,B Kumar,RG Sharma,1,1,na,na
1st innings,13.1,HH Pandya,MC Henriques,RG Sharma,4,4,na,na
1st innings,13.2,HH Pandya,MC Henriques,RG Sharma,1,1,na,na
1st innings,13.3,RG Sharma,MC Henriques,HH Pandya,1,1,na,na
1st innings,13.4,HH Pandya,MC Henriques,RG Sharma,4,4,na,na
1st innings,13.5,HH Pandya,MC Henriques,RG Sharma,4,4,na,na
1st innings,13.6,HH Pandya,MC Henriques,RG Sharma,1,1,na,na
1st innings,14.1,HH Pandya,Rashid Khan,RG Sharma,1,1,na,na
1st innings,14.2,RG Sharma,Rashid Khan,HH Pandya,0,0,na,"{'player_out': 'HH Pandya', 'fielders': ['MC Henriques'], 'kind': 'caught'}"
1st innings,14.3,KA Pollard,Rashid Khan,RG Sharma,0,0,na,na
1st innings,14.4,KA Pollard,Rashid Khan,RG Sharma,1,1,na,na
1st innings,14.5,RG Sharma,Rashid Khan,KA Pollard,1,1,na,na
1st innings,14.6,KA Pollard,Rashid Khan,RG Sharma,1,1,na,na
1st innings,15.1,KA Pollard,Mohammed Siraj,RG Sharma,2,2,na,na
1st innings,15.2,KA Pollard,Mohammed Siraj,RG Sharma,1,1,na,na
1st innings,15.3,RG Sharma,Mohammed Siraj,KA Pollard,1,0,{'wides': 1},na
1st innings,15.4,RG Sharma,Mohammed Siraj,KA Pollard,1,1,na,na
1st innings,15.5,KA Pollard,Mohammed Siraj,RG Sharma,1,1,na,na
1st innings,15.6,RG Sharma,Mohammed Siraj,KA Pollard,1,0,{'legbyes': 1},na
1st innings,15.7,KA Pollard,Mohammed Siraj,RG Sharma,4,4,na,na
1st innings,16.1,RG Sharma,Rashid Khan,KA Pollard,1,1,na,na
1st innings,16.2,KA Pollard,Rashid Khan,RG Sharma,0,0,na,na
1st innings,16.3,KA Pollard,Rashid Khan,RG Sharma,0,0,na,na
1st innings,16.4,KA Pollard,Rashid Khan,RG Sharma,1,1,na,na
1st innings,16.5,RG Sharma,Rashid Khan,KA Pollard,0,0,na,na
1st innings,16.6,RG Sharma,Rashid Khan,KA Pollard,0,0,na,na
1st innings,17.1,KA Pollard,B Kumar,RG Sharma,2,2,na,na
1st innings,17.2,KA Pollard,B Kumar,RG Sharma,6,6,na,na
1st innings,17.3,KA Pollard,B Kumar,RG Sharma,1,1,na,na
1st innings,17.4,RG Sharma,B Kumar,KA Pollard,1,1,na,na
1st innings,17.5,KA Pollard,B Kumar,RG Sharma,1,1,na,na
1st innings,17.6,RG Sharma,B Kumar,KA Pollard,2,0,{'wides': 2},na
1st innings,17.7,KA Pollard,B Kumar,RG Sharma,1,1,na,na
1st innings,18.1,KA Pollard,S Kaul,RG Sharma,0,0,na,"{'player_out': 'RG Sharma', 'kind': 'bowled'}"
1st innings,18.2,KA Pollard,S Kaul,KV Sharma,0,0,na,na
1st innings,18.3,KA Pollard,S Kaul,KV Sharma,1,1,na,na
1st innings,18.4,KV Sharma,S Kaul,KA Pollard,1,1,na,na
1st innings,18.5,KA Pollard,S Kaul,KV Sharma,0,0,na,na
1st innings,18.6,KA Pollard,S Kaul,KV Sharma,4,4,na,na
1st innings,19.1,KV Sharma,B Kumar,KA Pollard,0,0,na,"{'player_out': 'KA Pollard', 'fielders': ['V Shankar'], 'kind': 'caught'}"
1st innings,19.2,KV Sharma,B Kumar,Harbhajan Singh,1,0,{'wides': 1},na
1st innings,19.3,KV Sharma,B Kumar,Harbhajan Singh,0,0,na,na
1st innings,19.4,KV Sharma,B Kumar,Harbhajan Singh,2,0,{'byes': 2},na
1st innings,19.5,KV Sharma,B Kumar,Harbhajan Singh,1,1,na,na
1st innings,19.6,Harbhajan Singh,B Kumar,KV Sharma,0,0,na,"{'player_out': 'KV Sharma', 'fielders': ['NV Ojha'], 'kind': 'caught'}"
1st innings,19.7,Harbhajan Singh,B Kumar,MJ McClenaghan,2,2,na,na
2nd innings,0.1,S Dhawan,Harbhajan Singh,DA Warner,0,0,na,na
2nd innings,0.2,S Dhawan,Harbhajan Singh,DA Warner,4,4,na,na
2nd innings,0.3,S Dhawan,Harbhajan Singh,DA Warner,1,1,na,na
2nd innings,0.4,DA Warner,Harbhajan Singh,S Dhawan,1,1,na,na
2nd innings,0.5,S Dhawan,Harbhajan Singh,DA Warner,0,0,na,na
2nd innings,0.6,S Dhawan,Harbhajan Singh,DA Warner,1,1,na,na
2nd innings,1.1,S Dhawan,MJ McClenaghan,DA Warner,0,0,na,"{'player_out': 'DA Warner', 'kind': 'lbw'}"
2nd innings,1.2,S Dhawan,MJ McClenaghan,MC Henriques,1,1,na,na
2nd innings,1.3,MC Henriques,MJ McClenaghan,S Dhawan,0,0,na,na
2nd innings,1.4,MC Henriques,MJ McClenaghan,S Dhawan,0,0,na,na
2nd innings,1.5,MC Henriques,MJ McClenaghan,S Dhawan,1,1,na,na
2nd innings,1.6,S Dhawan,MJ McClenaghan,MC Henriques,1,1,na,na
2nd innings,2.1,S Dhawan,SL Malinga,MC Henriques,2,2,na,na
2nd innings,2.2,S Dhawan,SL Malinga,MC Henriques,1,1,na,na
2nd innings,2.3,MC Henriques,SL Malinga,S Dhawan,1,1,na,na
2nd innings,2.4,S Dhawan,SL Malinga,MC Henriques,1,1,na,na
2nd innings,2.5,MC Henriques,SL Malinga,S Dhawan,4,4,na,na
2nd innings,2.6,MC Henriques,SL Malinga,S Dhawan,2,2,na,na
2nd innings,3.1,S Dhawan,Harbhajan Singh,MC Henriques,2,2,na,na
2nd innings,3.2,S Dhawan,Harbhajan Singh,MC Henriques,1,1,na,na
2nd innings,3.3,MC Henriques,Harbhajan Singh,S Dhawan,1,1,na,na
2nd innings,3.4,S Dhawan,Harbhajan Singh,MC Henriques,0,0,na,na
2nd innings,3.5,S Dhawan,Harbhajan Singh,MC Henriques,0,0,na,na
2nd innings,3.6,S Dhawan,Harbhajan Singh,MC Henriques,1,1,na,na
2nd innings,4.1,S Dhawan,JJ Bumrah,MC Henriques,0,0,na,na
2nd innings,4.2,S Dhawan,JJ Bumrah,MC Henriques,2,2,na,na
2nd innings,4.3,S Dhawan,JJ Bumrah,MC Henriques,4,4,na,na
2nd innings,4.4,S Dhawan,JJ Bumrah,MC Henriques,1,1,na,na
2nd innings,4.5,MC Henriques,JJ Bumrah,S Dhawan,4,4,na,na
2nd innings,4.6,MC Henriques,JJ Bumrah,S Dhawan,0,0,na,na
2nd innings,5.1,S Dhawan,MJ McClenaghan,MC Henriques,0,0,na,na
2nd innings,5.2,S Dhawan,MJ McClenaghan,MC Henriques,4,4,na,na
2nd innings,5.3,S Dhawan,MJ McClenaghan,MC Henriques,1,1,na,na
2nd innings,5.4,MC Henriques,MJ McClenaghan,S Dhawan,0,0,na,na
2nd innings,5.5,MC Henriques,MJ McClenaghan,S Dhawan,1,1,na,na
2nd innings,5.6,S Dhawan,MJ McClenaghan,MC Henriques,0,0,na,na
2nd innings,6.1,MC Henriques,KV Sharma,S Dhawan,0,0,na,na
2nd innings,6.2,MC Henriques,KV Sharma,S Dhawan,6,6,na,na
2nd innings,6.3,MC Henriques,KV Sharma,S Dhawan,1,1,na,na
2nd innings,6.4,S Dhawan,KV Sharma,MC Henriques,1,0,{'legbyes': 1},na
2nd innings,6.5,MC Henriques,KV Sharma,S Dhawan,1,1,na,na
2nd innings,6.6,S Dhawan,KV Sharma,MC Henriques,0,0,na,na
2nd innings,7.1,MC Henriques,HH Pandya,S Dhawan,1,1,na,na
2nd innings,7.2,S Dhawan,HH Pandya,MC Henriques,0,0,na,na
2nd innings,7.3,S Dhawan,HH Pandya,MC Henriques,4,4,na,na
2nd innings,7.4,S Dhawan,HH Pandya,MC Henriques,1,1,na,na
2nd innings,7.5,MC Henriques,HH Pandya,S Dhawan,3,3,na,na
2nd innings,7.6,S Dhawan,HH Pandya,MC Henriques,4,4,na,na
2nd innings,8.1,MC Henriques,KV Sharma,S Dhawan,4,4,na,na
2nd innings,8.2,MC Henriques,KV Sharma,S Dhawan,0,0,na,na
2nd innings,8.3,MC Henriques,KV Sharma,S Dhawan,0,0,na,na
2nd innings,8.4,MC Henriques,KV Sharma,S Dhawan,0,0,na,na
2nd innings,8.5,MC Henriques,KV Sharma,S Dhawan,6,6,na,na
2nd innings,8.6,MC Henriques,KV Sharma,S Dhawan,1,1,na,na
2nd innings,9.1,MC Henriques,Harbhajan Singh,S Dhawan,0,0,na,na
2nd innings,9.2,MC Henriques,Harbhajan Singh,S Dhawan,4,4,na,na
2nd innings,9.3,MC Henriques,Harbhajan Singh,S Dhawan,1,1,na,na
2nd innings,9.4,S Dhawan,Harbhajan Singh,MC Henriques,0,0,na,na
2nd innings,9.5,S Dhawan,Harbhajan Singh,MC Henriques,1,1,na,na
2nd innings,9.6,MC Henriques,Harbhajan Singh,S Dhawan,1,1,na,na
2nd innings,10.1,MC Henriques,SL Malinga,S Dhawan,1,1,na,na
2nd innings,10.2,S Dhawan,SL Malinga,MC Henriques,2,2,na,na
2nd innings,10.3,S Dhawan,SL Malinga,MC Henriques,0,0,na,na
2nd innings,10.4,S Dhawan,SL Malinga,MC Henriques,4,4,na,na
2nd innings,10.5,S Dhawan,SL Malinga,MC Henriques,4,4,na,na
2nd innings,10.6,S Dhawan,SL Malinga,MC Henriques,0,0,na,na
2nd innings,11.1,MC Henriques,Harbhajan Singh,S Dhawan,1,1,na,na
2nd innings,11.2,S Dhawan,Harbhajan Singh,MC Henriques,1,1,na,na
2nd innings,11.3,MC Henriques,Harbhajan Singh,S Dhawan,1,1,na,na
2nd innings,11.4,S Dhawan,Harbhajan Singh,MC Henriques,0,0,na,na
2nd innings,11.5,S Dhawan,Harbhajan Singh,MC Henriques,1,1,na,na
2nd innings,11.6,MC Henriques,Harbhajan Singh,S Dhawan,0,0,na,na
2nd innings,12.1,S Dhawan,JJ Bumrah,MC Henriques,0,0,na,"{'player_out': 'MC Henriques', 'fielders': ['RG Sharma'], 'kind': 'caught'}"
2nd innings,12.2,Yuvraj Singh,JJ Bumrah,S Dhawan,1,0,{'legbyes': 1},na
2nd innings,12.3,S Dhawan,JJ Bumrah,Yuvraj Singh,0,0,na,na
2nd innings,12.4,S Dhawan,JJ Bumrah,Yuvraj Singh,0,0,na,na
2nd innings,12.5,S Dhawan,JJ Bumrah,Yuvraj Singh,0,0,na,na
2nd innings,12.6,S Dhawan,JJ Bumrah,Yuvraj Singh,0,0,na,na
2nd innings,13.1,Yuvraj Singh,MJ McClenaghan,S Dhawan,1,1,na,na
2nd innings,13.2,S Dhawan,MJ McClenaghan,Yuvraj Singh,0,0,na,na
2nd innings,13.3,S Dhawan,MJ McClenaghan,Yuvraj Singh,0,0,na,na
2nd innings,13.4,S Dhawan,MJ McClenaghan,Yuvraj Singh,1,0,{'wides': 1},na
2nd innings,13.5,S Dhawan,MJ McClenaghan,Yuvraj Singh,4,4,na,na
2nd innings,13.6,S Dhawan,MJ McClenaghan,Yuvraj Singh,2,2,na,na
2nd innings,13.7,S Dhawan,MJ McClenaghan,Yuvraj Singh,2,2,na,na
2nd innings,14.1,Yuvraj Singh,SL Malinga,S Dhawan,1,1,na,na
2nd innings,14.2,S Dhawan,SL Malinga,Yuvraj Singh,1,1,na,na
2nd innings,14.3,Yuvraj Singh,SL Malinga,S Dhawan,1,1,na,na
2nd innings,14.4,S Dhawan,SL Malinga,Yuvraj Singh,0,0,na,"{'player_out': 'Yuvraj Singh', 'fielders': ['HH Pandya'], 'kind': 'caught'}"
2nd innings,14.5,V Shankar,SL Malinga,S Dhawan,0,0,na,na
2nd innings,14.6,V Shankar,SL Malinga,S Dhawan,1,1,na,na
2nd innings,15.1,V Shankar,JJ Bumrah,S Dhawan,1,1,na,na
2nd innings,15.2,S Dhawan,JJ Bumrah,V Shankar,2,2,na,na
2nd innings,15.3,S Dhawan,JJ Bumrah,V Shankar,1,1,na,na
2nd innings,15.4,V Shankar,JJ Bumrah,S Dhawan,2,2,na,na
2nd innings,15.5,V Shankar,JJ Bumrah,S Dhawan,1,1,na,na
2nd innings,15.6,S Dhawan,JJ Bumrah,V Shankar,1,1,na,na
2nd innings,16.1,S Dhawan,SL Malinga,V Shankar,0,0,na,na
2nd innings,16.2,S Dhawan,SL Malinga,V Shankar,2,2,na,na
2nd innings,16.3,S Dhawan,SL Malinga,V Shankar,1,0,{'wides': 1},na
2nd innings,16.4,S Dhawan,SL Malinga,V Shankar,1,1,na,na
2nd innings,16.5,V Shankar,SL Malinga,S Dhawan,2,2,na,na
2nd innings,16.6,V Shankar,SL Malinga,S Dhawan,1,1,na,na
2nd innings,16.7,S Dhawan,SL Malinga,V Shankar,1,1,na,na
2nd innings,17.1,S Dhawan,MJ McClenaghan,V Shankar,1,1,na,na
2nd innings,17.2,V Shankar,MJ McClenaghan,S Dhawan,2,2,na,na
2nd innings,17.3,V Shankar,MJ McClenaghan,S Dhawan,1,1,na,na
2nd innings,17.4,S Dhawan,MJ McClenaghan,V Shankar,1,1,na,na
2nd innings,17.5,V Shankar,MJ McClenaghan,S Dhawan,1,1,na,na
2nd innings,17.6,S Dhawan,MJ McClenaghan,V Shankar,1,1,na,na
2nd innings,18.1,S Dhawan,JJ Bumrah,V Shankar,0,0,na,na
2nd innings,18.2,S Dhawan,JJ Bumrah,V Shankar,4,4,na,na
