innings,deliveries,non_striker,bowler,batsman,total_runs,batsman_runs,extras,wickets
1st innings,0.1,Vishnu Vinod,AR Patel,SR Watson,1,1,na,na
1st innings,0.2,SR Watson,AR Patel,Vishnu Vinod,0,0,na,na
1st innings,0.3,SR Watson,AR Patel,Vishnu Vinod,1,1,na,na
1st innings,0.4,Vishnu Vinod,AR Patel,SR Watson,0,0,na,na
1st innings,0.5,Vishnu Vinod,AR Patel,SR Watson,0,0,na,na
1st innings,0.6,Vishnu Vinod,AR Patel,SR Watson,0,0,na,"{'kind': 'bowled', 'player_out': 'SR Watson'}"
1st innings,1.1,AB de Villiers,Sandeep Sharma,Vishnu Vinod,0,0,na,na
1st innings,1.2,AB de Villiers,Sandeep Sharma,Vishnu Vinod,0,0,na,na
1st innings,1.3,AB de Villiers,Sandeep Sharma,Vishnu Vinod,0,0,na,na
1st innings,1.4,AB de Villiers,Sandeep Sharma,Vishnu Vinod,1,1,na,na
1st innings,1.5,Vishnu Vinod,Sandeep Sharma,AB de Villiers,4,4,na,na
1st innings,1.6,Vishnu Vinod,Sandeep Sharma,AB de Villiers,0,0,na,na
1st innings,2.1,AB de Villiers,MM Sharma,Vishnu Vinod,0,0,na,na
1st innings,2.2,AB de Villiers,MM Sharma,Vishnu Vinod,4,4,na,na
1st innings,2.3,AB de Villiers,MM Sharma,Vishnu Vinod,1,1,na,na
1st innings,2.4,Vishnu Vinod,MM Sharma,AB de Villiers,0,0,na,na
1st innings,2.5,Vishnu Vinod,MM Sharma,AB de Villiers,0,0,na,na
1st innings,2.6,Vishnu Vinod,MM Sharma,AB de Villiers,6,6,na,na
1st innings,3.1,AB de Villiers,Sandeep Sharma,Vishnu Vinod,0,0,na,na
1st innings,3.2,AB de Villiers,Sandeep Sharma,Vishnu Vinod,0,0,na,na
1st innings,3.3,AB de Villiers,Sandeep Sharma,Vishnu Vinod,0,0,na,"{'fielders': ['GJ Maxwell'], 'kind': 'caught', 'player_out': 'Vishnu Vinod'}"
1st innings,3.4,KM Jadhav,Sandeep Sharma,AB de Villiers,1,1,na,na
1st innings,3.5,AB de Villiers,Sandeep Sharma,KM Jadhav,0,0,na,na
1st innings,3.6,AB de Villiers,Sandeep Sharma,KM Jadhav,0,0,na,na
1st innings,4.1,KM Jadhav,VR Aaron,AB de Villiers,0,0,na,na
1st innings,4.2,KM Jadhav,VR Aaron,AB de Villiers,0,0,na,na
1st innings,4.3,KM Jadhav,VR Aaron,AB de Villiers,1,1,na,na
1st innings,4.4,AB de Villiers,VR Aaron,KM Jadhav,1,1,na,na
1st innings,4.5,KM Jadhav,VR Aaron,AB de Villiers,1,1,na,na
1st innings,4.6,AB de Villiers,VR Aaron,KM Jadhav,0,0,na,"{'kind': 'lbw', 'player_out': 'KM Jadhav'}"
1st innings,5.1,Mandeep Singh,Sandeep Sharma,AB de Villiers,1,1,na,na
1st innings,5.2,AB de Villiers,Sandeep Sharma,Mandeep Singh,0,0,na,na
1st innings,5.3,AB de Villiers,Sandeep Sharma,Mandeep Singh,0,0,na,na
1st innings,5.4,AB de Villiers,Sandeep Sharma,Mandeep Singh,0,0,na,na
1st innings,5.5,AB de Villiers,Sandeep Sharma,Mandeep Singh,0,0,na,na
1st innings,5.6,AB de Villiers,Sandeep Sharma,Mandeep Singh,0,0,na,na
1st innings,6.1,Mandeep Singh,VR Aaron,AB de Villiers,1,1,na,na
1st innings,6.2,AB de Villiers,VR Aaron,Mandeep Singh,0,0,na,na
1st innings,6.3,AB de Villiers,VR Aaron,Mandeep Singh,0,0,na,na
1st innings,6.4,AB de Villiers,VR Aaron,Mandeep Singh,2,2,na,na
1st innings,6.5,AB de Villiers,VR Aaron,Mandeep Singh,1,1,na,na
1st innings,6.6,Mandeep Singh,VR Aaron,AB de Villiers,4,4,na,na
1st innings,7.1,AB de Villiers,MM Sharma,Mandeep Singh,0,0,na,na
1st innings,7.2,AB de Villiers,MM Sharma,Mandeep Singh,0,0,na,na
1st innings,7.3,AB de Villiers,MM Sharma,Mandeep Singh,0,0,na,na
1st innings,7.4,AB de Villiers,MM Sharma,Mandeep Singh,2,2,na,na
1st innings,7.5,AB de Villiers,MM Sharma,Mandeep Singh,0,0,na,na
1st innings,7.6,AB de Villiers,MM Sharma,Mandeep Singh,1,1,na,na
1st innings,8.1,AB de Villiers,T Natarajan,Mandeep Singh,0,0,na,na
1st innings,8.2,AB de Villiers,T Natarajan,Mandeep Singh,0,0,na,na
1st innings,8.3,AB de Villiers,T Natarajan,Mandeep Singh,1,1,na,na
1st innings,8.4,Mandeep Singh,T Natarajan,AB de Villiers,1,0,{'wides': 1},na
1st innings,8.5,Mandeep Singh,T Natarajan,AB de Villiers,1,1,na,na
1st innings,8.6,AB de Villiers,T Natarajan,Mandeep Singh,6,6,na,na
1st innings,8.7,AB de Villiers,T Natarajan,Mandeep Singh,4,4,na,na
1st innings,9.1,Mandeep Singh,MP Stoinis,AB de Villiers,1,1,na,na
1st innings,9.2,AB de Villiers,MP Stoinis,Mandeep Singh,1,1,na,na
1st innings,9.3,Mandeep Singh,MP Stoinis,AB de Villiers,2,2,na,na
1st innings,9.4,Mandeep Singh,MP Stoinis,AB de Villiers,1,1,na,na
1st innings,9.5,AB de Villiers,MP Stoinis,Mandeep Singh,1,1,na,na
1st innings,9.6,Mandeep Singh,MP Stoinis,AB de Villiers,0,0,na,na
1st innings,10.1,AB de Villiers,AR Patel,Mandeep Singh,2,2,na,na
1st innings,10.2,AB de Villiers,AR Patel,Mandeep Singh,1,1,na,na
1st innings,10.3,Mandeep Singh,AR Patel,AB de Villiers,0,0,na,na
1st innings,10.4,Mandeep Singh,AR Patel,AB de Villiers,1,1,na,na
1st innings,10.5,AB de Villiers,AR Patel,Mandeep Singh,1,1,na,na
1st innings,10.6,Mandeep Singh,AR Patel,AB de Villiers,1,1,na,na
1st innings,11.1,Mandeep Singh,MP Stoinis,AB de Villiers,1,1,na,na
1st innings,11.2,AB de Villiers,MP Stoinis,Mandeep Singh,1,1,na,na
1st innings,11.3,Mandeep Singh,MP Stoinis,AB de Villiers,1,1,na,na
1st innings,11.4,AB de Villiers,MP Stoinis,Mandeep Singh,1,1,na,na
1st innings,11.5,Mandeep Singh,MP Stoinis,AB de Villiers,1,1,na,na
1st innings,11.6,AB de Villiers,MP Stoinis,Mandeep Singh,1,1,na,na
1st innings,12.1,AB de Villiers,AR Patel,Mandeep Singh,0,0,na,na
1st innings,12.2,AB de Villiers,AR Patel,Mandeep Singh,1,1,na,na
1st innings,12.3,Mandeep Singh,AR Patel,AB de Villiers,1,1,na,na
1st innings,12.4,AB de Villiers,AR Patel,Mandeep Singh,0,0,na,na
1st innings,12.5,AB de Villiers,AR Patel,Mandeep Singh,0,0,na,na
1st innings,12.6,AB de Villiers,AR Patel,Mandeep Singh,1,1,na,na
1st innings,13.1,AB de Villiers,VR Aaron,Mandeep Singh,0,0,na,"{'fielders': ['WP Saha'], 'kind': 'caught', 'player_out': 'Mandeep Singh'}"
1st innings,13.2,STR Binny,VR Aaron,AB de Villiers,0,0,na,na
1st innings,13.3,STR Binny,VR Aaron,AB de Villiers,1,1,na,na
1st innings,13.4,AB de Villiers,VR Aaron,STR Binny,0,0,na,na
1st innings,13.5,AB de Villiers,VR Aaron,STR Binny,0,0,na,na
1st innings,13.6,AB de Villiers,VR Aaron,STR Binny,1,1,na,na
1st innings,14.1,AB de Villiers,AR Patel,STR Binny,0,0,na,na
1st innings,14.2,AB de Villiers,AR Patel,STR Binny,0,0,na,na
1st innings,14.3,AB de Villiers,AR Patel,STR Binny,0,0,na,na
1st innings,14.4,AB de Villiers,AR Patel,STR Binny,0,0,na,na
1st innings,14.5,AB de Villiers,AR Patel,STR Binny,1,1,na,na
1st innings,14.6,STR Binny,AR Patel,AB de Villiers,0,0,na,na
1st innings,15.1,AB de Villiers,VR Aaron,STR Binny,0,0,na,na
1st innings,15.2,AB de Villiers,VR Aaron,STR Binny,1,1,na,na
1st innings,15.3,STR Binny,VR Aaron,AB de Villiers,6,6,na,na
1st innings,15.4,STR Binny,VR Aaron,AB de Villiers,1,1,na,na
1st innings,15.5,AB de Villiers,VR Aaron,STR Binny,0,0,na,na
1st innings,15.6,AB de Villiers,VR Aaron,STR Binny,1,0,{'legbyes': 1},na
1st innings,16.1,AB de Villiers,MP Stoinis,STR Binny,1,1,na,na
1st innings,16.2,STR Binny,MP Stoinis,AB de Villiers,0,0,na,na
1st innings,16.3,STR Binny,MP Stoinis,AB de Villiers,6,6,na,na
1st innings,16.4,STR Binny,MP Stoinis,AB de Villiers,1,1,na,na
1st innings,16.5,AB de Villiers,MP Stoinis,STR Binny,1,1,na,na
1st innings,16.6,STR Binny,MP Stoinis,AB de Villiers,1,0,{'wides': 1},na
1st innings,16.7,STR Binny,MP Stoinis,AB de Villiers,6,6,na,na
1st innings,17.1,AB de Villiers,MM Sharma,STR Binny,6,6,na,na
1st innings,17.2,AB de Villiers,MM Sharma,STR Binny,4,4,na,na
1st innings,17.3,AB de Villiers,MM Sharma,STR Binny,1,1,na,na
1st innings,17.4,STR Binny,MM Sharma,AB de Villiers,2,2,na,na
1st innings,17.5,STR Binny,MM Sharma,AB de Villiers,6,6,na,na
1st innings,17.6,STR Binny,MM Sharma,AB de Villiers,0,0,na,na
1st innings,18.1,AB de Villiers,Sandeep Sharma,STR Binny,1,1,na,na
1st innings,18.2,STR Binny,Sandeep Sharma,AB de Villiers,4,4,na,na
1st innings,18.3,STR Binny,Sandeep Sharma,AB de Villiers,6,6,na,na
1st innings,18.4,STR Binny,Sandeep Sharma,AB de Villiers,6,6,na,na
1st innings,18.5,STR Binny,Sandeep Sharma,AB de Villiers,1,0,{'wides': 1},na
1st innings,18.6,STR Binny,Sandeep Sharma,AB de Villiers,0,0,na,na
1st innings,18.7,STR Binny,Sandeep Sharma,AB de Villiers,1,1,na,na
1st innings,19.1,STR Binny,MM Sharma,AB de Villiers,1,1,na,na
1st innings,19.2,AB de Villiers,MM Sharma,STR Binny,0,0,na,na
1st innings,19.3,AB de Villiers,MM Sharma,STR Binny,1,1,na,na
1st innings,19.4,STR Binny,MM Sharma,AB de Villiers,0,0,na,na
1st innings,19.5,STR Binny,MM Sharma,AB de Villiers,6,6,na,na
1st innings,19.6,STR Binny,MM Sharma,AB de Villiers,6,6,na,na
2nd innings,0.1,HM Amla,B Stanlake,M Vohra,0,0,na,na
2nd innings,0.2,HM Amla,B Stanlake,M Vohra,1,1,na,na
2nd innings,0.3,M Vohra,B Stanlake,HM Amla,4,4,na,na
2nd innings,0.4,M Vohra,B Stanlake,HM Amla,0,0,na,na
2nd innings,0.5,M Vohra,B Stanlake,HM Amla,1,1,na,na
2nd innings,0.6,HM Amla,B Stanlake,M Vohra,0,0,na,na
2nd innings,1.1,M Vohra,Iqbal Abdulla,HM Amla,2,2,na,na
2nd innings,1.2,M Vohra,Iqbal Abdulla,HM Amla,4,4,na,na
2nd innings,1.3,M Vohra,Iqbal Abdulla,HM Amla,1,1,na,na
2nd innings,1.4,HM Amla,Iqbal Abdulla,M Vohra,0,0,na,na
2nd innings,1.5,HM Amla,Iqbal Abdulla,M Vohra,1,1,na,na
2nd innings,1.6,M Vohra,Iqbal Abdulla,HM Amla,0,0,na,na
2nd innings,2.1,HM Amla,B Stanlake,M Vohra,1,0,{'wides': 1},na
2nd innings,2.2,HM Amla,B Stanlake,M Vohra,1,1,na,na
2nd innings,2.3,M Vohra,B Stanlake,HM Amla,1,1,na,na
2nd innings,2.4,HM Amla,B Stanlake,M Vohra,6,6,na,na
2nd innings,2.5,HM Amla,B Stanlake,M Vohra,1,1,na,na
2nd innings,2.6,M Vohra,B Stanlake,HM Amla,1,1,na,na
2nd innings,2.7,HM Amla,B Stanlake,M Vohra,1,1,na,na
2nd innings,3.1,HM Amla,SR Watson,M Vohra,4,4,na,na
2nd innings,3.2,HM Amla,SR Watson,M Vohra,4,4,na,na
2nd innings,3.3,HM Amla,SR Watson,M Vohra,3,3,na,na
2nd innings,3.4,M Vohra,SR Watson,HM Amla,1,1,na,na
2nd innings,3.5,HM Amla,SR Watson,M Vohra,4,4,na,na
2nd innings,3.6,HM Amla,SR Watson,M Vohra,1,1,na,na
2nd innings,4.1,HM Amla,B Stanlake,M Vohra,0,0,na,na
2nd innings,4.2,HM Amla,B Stanlake,M Vohra,1,1,na,na
2nd innings,4.3,M Vohra,B Stanlake,HM Amla,4,4,na,na
2nd innings,4.4,M Vohra,B Stanlake,HM Amla,0,0,na,na
2nd innings,4.5,M Vohra,B Stanlake,HM Amla,1,1,na,na
2nd innings,4.6,HM Amla,B Stanlake,M Vohra,1,1,na,na
2nd innings,5.1,HM Amla,TS Mills,M Vohra,1,1,na,na
2nd innings,5.2,M Vohra,TS Mills,HM Amla,6,6,na,na
2nd innings,5.3,M Vohra,TS Mills,HM Amla,1,0,{'legbyes': 1},na
2nd innings,5.4,HM Amla,TS Mills,M Vohra,4,4,na,na
2nd innings,5.5,HM Amla,TS Mills,M Vohra,0,0,na,na
2nd innings,5.6,HM Amla,TS Mills,M Vohra,0,0,na,"{'kind': 'lbw', 'player_out': 'M Vohra'}"
2nd innings,6.1,AR Patel,YS Chahal,HM Amla,2,2,na,na
2nd innings,6.2,AR Patel,YS Chahal,HM Amla,0,0,na,na
2nd innings,6.3,AR Patel,YS Chahal,HM Amla,0,0,na,na
2nd innings,6.4,AR Patel,YS Chahal,HM Amla,1,1,na,na
2nd innings,6.5,HM Amla,YS Chahal,AR Patel,1,1,na,na
2nd innings,6.6,AR Patel,YS Chahal,HM Amla,1,1,na,na
2nd innings,7.1,AR Patel,Iqbal Abdulla,HM Amla,1,1,na,na
2nd innings,7.2,HM Amla,Iqbal Abdulla,AR Patel,0,0,na,na
2nd innings,7.3,HM Amla,Iqbal Abdulla,AR Patel,1,1,na,na
2nd innings,7.4,AR Patel,Iqbal Abdulla,HM Amla,1,0,{'wides': 1},na
2nd innings,7.5,AR Patel,Iqbal Abdulla,HM Amla,1,1,na,na
2nd innings,7.6,HM Amla,Iqbal Abdulla,AR Patel,6,6,na,na
2nd innings,7.7,HM Amla,Iqbal Abdulla,AR Patel,1,1,na,na
2nd innings,8.1,HM Amla,YS Chahal,AR Patel,0,0,na,"{'kind': 'bowled', 'player_out': 'AR Patel'}"
2nd innings,8.2,HM Amla,YS Chahal,GJ Maxwell,1,1,na,na
2nd innings,8.3,GJ Maxwell,YS Chahal,HM Amla,0,0,na,na
2nd innings,8.4,GJ Maxwell,YS Chahal,HM Amla,6,6,na,na
2nd innings,8.5,GJ Maxwell,YS Chahal,HM Amla,0,0,na,na
2nd innings,8.6,GJ Maxwell,YS Chahal,HM Amla,0,0,na,na
2nd innings,9.1,HM Amla,TS Mills,GJ Maxwell,1,0,{'legbyes': 1},na
2nd innings,9.2,GJ Maxwell,TS Mills,HM Amla,1,1,na,na
2nd innings,9.3,HM Amla,TS Mills,GJ Maxwell,4,4,na,na
2nd innings,9.4,HM Amla,TS Mills,GJ Maxwell,0,0,na,na
2nd innings,9.5,HM Amla,TS Mills,GJ Maxwell,6,6,na,na
2nd innings,9.6,HM Amla,TS Mills,GJ Maxwell,0,0,na,na
2nd innings,10.1,GJ Maxwell,YS Chahal,HM Amla,1,1,na,na
2nd innings,10.2,HM Amla,YS Chahal,GJ Maxwell,0,0,na,na
2nd innings,10.3,HM Amla,YS Chahal,GJ Maxwell,1,1,na,na
2nd innings,10.4,GJ Maxwell,YS Chahal,HM Amla,1,1,na,na
2nd innings,10.5,HM Amla,YS Chahal,GJ Maxwell,1,1,na,na
2nd innings,10.6,GJ Maxwell,YS Chahal,HM Amla,6,6,na,na
2nd innings,11.1,HM Amla,SR Watson,GJ Maxwell,1,1,na,na
2nd innings,11.2,GJ Maxwell,SR Watson,HM Amla,1,1,na,na
2nd innings,11.3,HM Amla,SR Watson,GJ Maxwell,1,0,{'legbyes': 1},na
2nd innings,11.4,GJ Maxwell,SR Watson,HM Amla,4,4,na,na
2nd innings,11.5,GJ Maxwell,SR Watson,HM Amla,1,1,na,na
2nd innings,11.6,HM Amla,SR Watson,GJ Maxwell,4,4,na,na
2nd innings,12.1,GJ Maxwell,P Negi,HM Amla,1,1,na,na
2nd innings,12.2,HM Amla,P Negi,GJ Maxwell,4,4,na,na
2nd innings,12.3,HM Amla,P Negi,GJ Maxwell,1,1,na,na
2nd innings,12.4,GJ Maxwell,P Negi,HM Amla,1,1,na,na
2nd innings,12.5,HM Amla,P Negi,GJ Maxwell,0,0,na,na
2nd innings,12.6,HM Amla,P Negi,GJ Maxwell,1,0,{'legbyes': 1},na
2nd innings,13.1,HM Amla,B Stanlake,GJ Maxwell,6,6,na,na
2nd innings,13.2,HM Amla,B Stanlake,GJ Maxwell,1,1,na,na
2nd innings,13.3,GJ Maxwell,B Stanlake,HM Amla,1,1,na,na
2nd innings,13.4,HM Amla,B Stanlake,GJ Maxwell,1,1,na,na
2nd innings,13.5,GJ Maxwell,B Stanlake,HM Amla,1,1,na,na
2nd innings,13.6,HM Amla,B Stanlake,GJ Maxwell,6,6,na,na
2nd innings,14.1,GJ Maxwell,YS Chahal,HM Amla,1,1,na,na
2nd innings,14.2,HM Amla,YS Chahal,GJ Maxwell,0,0,na,na
2nd innings,14.3,HM Amla,YS Chahal,GJ Maxwell,6,6,na,na
