innings,deliveries,non_striker,bowler,batsman,total_runs,batsman_runs,extras,wickets
1st innings,0.1,SP Narine,MG Johnson,CA Lynn,0,0,na,na
1st innings,0.2,SP Narine,MG Johnson,CA Lynn,0,0,na,na
1st innings,0.3,SP Narine,MG Johnson,CA Lynn,0,0,na,na
1st innings,0.4,SP Narine,MG Johnson,CA Lynn,0,0,na,na
1st innings,0.5,SP Narine,MG Johnson,CA Lynn,2,2,na,na
1st innings,0.6,SP Narine,MG Johnson,CA Lynn,1,1,na,na
1st innings,1.1,SP Narine,JJ Bumrah,CA Lynn,1,1,na,na
1st innings,1.2,CA Lynn,JJ Bumrah,SP Narine,1,1,na,na
1st innings,1.3,SP Narine,JJ Bumrah,CA Lynn,0,0,na,"{'fielders': ['KA Pollard'], 'kind': 'caught', 'player_out': 'CA Lynn'}"
1st innings,1.4,SP Narine,JJ Bumrah,G Gambhir,0,0,na,na
1st innings,1.5,SP Narine,JJ Bumrah,G Gambhir,0,0,na,na
1st innings,1.6,SP Narine,JJ Bumrah,G Gambhir,0,0,na,na
1st innings,2.1,G Gambhir,MG Johnson,SP Narine,0,0,na,na
1st innings,2.2,G Gambhir,MG Johnson,SP Narine,1,1,na,na
1st innings,2.3,SP Narine,MG Johnson,G Gambhir,4,4,na,na
1st innings,2.4,SP Narine,MG Johnson,G Gambhir,1,1,na,na
1st innings,2.5,G Gambhir,MG Johnson,SP Narine,1,1,na,na
1st innings,2.6,SP Narine,MG Johnson,G Gambhir,1,0,{'wides': 1},na
1st innings,2.7,SP Narine,MG Johnson,G Gambhir,0,0,na,na
1st innings,3.1,G Gambhir,SL Malinga,SP Narine,1,0,{'legbyes': 1},na
1st innings,3.2,SP Narine,SL Malinga,G Gambhir,1,1,na,na
1st innings,3.3,G Gambhir,SL Malinga,SP Narine,6,6,na,na
1st innings,3.4,G Gambhir,SL Malinga,SP Narine,1,1,na,na
1st innings,3.5,SP Narine,SL Malinga,G Gambhir,0,0,na,na
1st innings,3.6,SP Narine,SL Malinga,G Gambhir,0,0,na,na
1st innings,4.1,G Gambhir,KV Sharma,SP Narine,0,0,na,na
1st innings,4.2,G Gambhir,KV Sharma,SP Narine,1,0,{'legbyes': 1},na
1st innings,4.3,SP Narine,KV Sharma,G Gambhir,1,1,na,na
1st innings,4.4,G Gambhir,KV Sharma,SP Narine,0,0,na,"{'fielders': ['PA Patel'], 'kind': 'stumped', 'player_out': 'SP Narine'}"
1st innings,4.5,G Gambhir,KV Sharma,RV Uthappa,1,1,na,na
1st innings,4.6,RV Uthappa,KV Sharma,G Gambhir,0,0,na,na
1st innings,5.1,G Gambhir,JJ Bumrah,RV Uthappa,0,0,na,na
1st innings,5.2,G Gambhir,JJ Bumrah,RV Uthappa,0,0,na,"{'kind': 'lbw', 'player_out': 'RV Uthappa'}"
1st innings,5.3,G Gambhir,JJ Bumrah,IR Jaggi,0,0,na,na
1st innings,5.4,G Gambhir,JJ Bumrah,IR Jaggi,0,0,na,na
1st innings,5.5,G Gambhir,JJ Bumrah,IR Jaggi,0,0,na,na
1st innings,5.6,G Gambhir,JJ Bumrah,IR Jaggi,0,0,na,na
1st innings,6.1,IR Jaggi,KV Sharma,G Gambhir,4,4,na,na
1st innings,6.2,IR Jaggi,KV Sharma,G Gambhir,1,1,na,na
1st innings,6.3,G Gambhir,KV Sharma,IR Jaggi,1,1,na,na
1st innings,6.4,IR Jaggi,KV Sharma,G Gambhir,0,0,na,na
1st innings,6.5,IR Jaggi,KV Sharma,G Gambhir,0,0,na,"{'fielders': ['HH Pandya'], 'kind': 'caught', 'player_out': 'G Gambhir'}"
1st innings,6.6,IR Jaggi,KV Sharma,C de Grandhomme,0,0,na,"{'kind': 'lbw', 'player_out': 'C de Grandhomme'}"
1st innings,7.1,SA Yadav,KH Pandya,IR Jaggi,0,0,na,na
1st innings,7.2,SA Yadav,KH Pandya,IR Jaggi,1,1,na,na
1st innings,7.3,IR Jaggi,KH Pandya,SA Yadav,2,2,na,na
1st innings,7.4,IR Jaggi,KH Pandya,SA Yadav,1,1,na,na
1st innings,7.5,SA Yadav,KH Pandya,IR Jaggi,1,1,na,na
1st innings,7.6,IR Jaggi,KH Pandya,SA Yadav,0,0,na,na
1st innings,8.1,SA Yadav,KV Sharma,IR Jaggi,0,0,na,na
1st innings,8.2,SA Yadav,KV Sharma,IR Jaggi,0,0,na,na
1st innings,8.3,SA Yadav,KV Sharma,IR Jaggi,0,0,na,na
1st innings,8.4,SA Yadav,KV Sharma,IR Jaggi,1,1,na,na
1st innings,8.5,IR Jaggi,KV Sharma,SA Yadav,1,1,na,na
1st innings,8.6,SA Yadav,KV Sharma,IR Jaggi,1,1,na,na
1st innings,9.1,SA Yadav,SL Malinga,IR Jaggi,0,0,na,na
1st innings,9.2,SA Yadav,SL Malinga,IR Jaggi,0,0,na,na
1st innings,9.3,SA Yadav,SL Malinga,IR Jaggi,0,0,na,na
1st innings,9.4,SA Yadav,SL Malinga,IR Jaggi,1,1,na,na
1st innings,9.5,IR Jaggi,SL Malinga,SA Yadav,1,1,na,na
1st innings,9.6,SA Yadav,SL Malinga,IR Jaggi,2,2,na,na
1st innings,10.1,IR Jaggi,KH Pandya,SA Yadav,6,6,na,na
1st innings,10.2,IR Jaggi,KH Pandya,SA Yadav,0,0,na,na
1st innings,10.3,IR Jaggi,KH Pandya,SA Yadav,1,1,na,na
1st innings,10.4,SA Yadav,KH Pandya,IR Jaggi,1,1,na,na
1st innings,10.5,IR Jaggi,KH Pandya,SA Yadav,1,1,na,na
1st innings,10.6,SA Yadav,KH Pandya,IR Jaggi,1,1,na,na
1st innings,11.1,SA Yadav,MG Johnson,IR Jaggi,4,4,na,na
1st innings,11.2,SA Yadav,MG Johnson,IR Jaggi,3,3,na,na
1st innings,11.3,IR Jaggi,MG Johnson,SA Yadav,0,0,na,na
1st innings,11.4,IR Jaggi,MG Johnson,SA Yadav,0,0,na,na
1st innings,11.5,IR Jaggi,MG Johnson,SA Yadav,1,1,na,na
1st innings,11.6,SA Yadav,MG Johnson,IR Jaggi,0,0,na,na
1st innings,12.1,IR Jaggi,KH Pandya,SA Yadav,4,4,na,na
1st innings,12.2,IR Jaggi,KH Pandya,SA Yadav,4,4,na,na
1st innings,12.3,IR Jaggi,KH Pandya,SA Yadav,1,1,na,na
1st innings,12.4,SA Yadav,KH Pandya,IR Jaggi,1,1,na,na
1st innings,12.5,IR Jaggi,KH Pandya,SA Yadav,0,0,na,na
1st innings,12.6,IR Jaggi,KH Pandya,SA Yadav,0,0,na,na
1st innings,13.1,SA Yadav,SL Malinga,IR Jaggi,4,4,na,na
1st innings,13.2,SA Yadav,SL Malinga,IR Jaggi,1,1,na,na
1st innings,13.3,IR Jaggi,SL Malinga,SA Yadav,1,1,na,na
1st innings,13.4,SA Yadav,SL Malinga,IR Jaggi,1,0,{'legbyes': 1},na
1st innings,13.5,IR Jaggi,SL Malinga,SA Yadav,1,1,na,na
1st innings,13.6,SA Yadav,SL Malinga,IR Jaggi,4,4,na,na
1st innings,14.1,IR Jaggi,KV Sharma,SA Yadav,1,1,na,na
1st innings,14.2,SA Yadav,KV Sharma,IR Jaggi,1,1,na,na
1st innings,14.3,IR Jaggi,KV Sharma,SA Yadav,1,1,na,na
1st innings,14.4,SA Yadav,KV Sharma,IR Jaggi,1,0,{'wides': 1},na
1st innings,14.5,SA Yadav,KV Sharma,IR Jaggi,0,0,na,na
1st innings,14.6,SA Yadav,KV Sharma,IR Jaggi,0,0,na,"{'fielders': ['MG Johnson'], 'kind': 'caught', 'player_out': 'IR Jaggi'}"
1st innings,14.7,SA Yadav,KV Sharma,PP Chawla,1,1,na,na
1st innings,15.1,SA Yadav,HH Pandya,PP Chawla,1,1,na,na
1st innings,15.2,PP Chawla,HH Pandya,SA Yadav,2,2,na,na
1st innings,15.3,PP Chawla,HH Pandya,SA Yadav,1,1,na,na
1st innings,15.4,SA Yadav,HH Pandya,PP Chawla,0,0,na,na
1st innings,15.5,SA Yadav,HH Pandya,PP Chawla,0,0,na,na
1st innings,15.6,SA Yadav,HH Pandya,PP Chawla,0,0,na,na
1st innings,16.1,PP Chawla,MG Johnson,SA Yadav,2,0,{'wides': 2},na
1st innings,16.2,SA Yadav,MG Johnson,PP Chawla,0,0,na,"{'fielders': ['AT Rayudu'], 'kind': 'caught', 'player_out': 'PP Chawla'}"
1st innings,16.3,SA Yadav,MG Johnson,NM Coulter-Nile,0,0,na,na
1st innings,16.4,SA Yadav,MG Johnson,NM Coulter-Nile,6,6,na,na
1st innings,16.5,SA Yadav,MG Johnson,NM Coulter-Nile,0,0,na,na
1st innings,16.6,SA Yadav,MG Johnson,NM Coulter-Nile,0,0,na,"{'fielders': ['HH Pandya'], 'kind': 'caught', 'player_out': 'NM Coulter-Nile'}"
1st innings,16.7,UT Yadav,MG Johnson,SA Yadav,1,1,na,na
1st innings,17.1,UT Yadav,JJ Bumrah,SA Yadav,0,0,na,"{'fielders': ['SL Malinga'], 'kind': 'caught', 'player_out': 'SA Yadav'}"
1st innings,17.2,AS Rajpoot,JJ Bumrah,UT Yadav,1,1,na,na
1st innings,17.3,UT Yadav,JJ Bumrah,AS Rajpoot,4,4,na,na
1st innings,17.4,UT Yadav,JJ Bumrah,AS Rajpoot,0,0,na,na
1st innings,17.5,UT Yadav,JJ Bumrah,AS Rajpoot,0,0,na,na
1st innings,17.6,UT Yadav,JJ Bumrah,AS Rajpoot,0,0,na,na
1st innings,18.1,AS Rajpoot,SL Malinga,UT Yadav,0,0,na,na
1st innings,18.2,AS Rajpoot,SL Malinga,UT Yadav,1,1,na,na
1st innings,18.3,UT Yadav,SL Malinga,AS Rajpoot,0,0,na,na
1st innings,18.4,UT Yadav,SL Malinga,AS Rajpoot,0,0,na,na
1st innings,18.5,UT Yadav,SL Malinga,AS Rajpoot,0,0,na,"{'kind': 'bowled', 'player_out': 'AS Rajpoot'}"
2nd innings,0.1,PA Patel,UT Yadav,LMP Simmons,0,0,na,na
2nd innings,0.2,PA Patel,UT Yadav,LMP Simmons,2,2,na,na
2nd innings,0.3,PA Patel,UT Yadav,LMP Simmons,1,1,na,na
2nd innings,0.4,LMP Simmons,UT Yadav,PA Patel,0,0,na,na
2nd innings,0.5,LMP Simmons,UT Yadav,PA Patel,4,0,{'legbyes': 4},na
2nd innings,0.6,LMP Simmons,UT Yadav,PA Patel,4,4,na,na
2nd innings,1.1,PA Patel,PP Chawla,LMP Simmons,0,0,na,na
2nd innings,1.2,PA Patel,PP Chawla,LMP Simmons,0,0,na,na
2nd innings,1.3,PA Patel,PP Chawla,LMP Simmons,0,0,na,"{'kind': 'lbw', 'player_out': 'LMP Simmons'}"
2nd innings,1.4,PA Patel,PP Chawla,AT Rayudu,1,0,{'wides': 1},na
2nd innings,1.5,PA Patel,PP Chawla,AT Rayudu,1,1,na,na
2nd innings,1.6,AT Rayudu,PP Chawla,PA Patel,0,0,na,na
2nd innings,1.7,AT Rayudu,PP Chawla,PA Patel,1,1,na,na
2nd innings,2.1,AT Rayudu,UT Yadav,PA Patel,4,4,na,na
2nd innings,2.2,AT Rayudu,UT Yadav,PA Patel,4,4,na,na
2nd innings,2.3,AT Rayudu,UT Yadav,PA Patel,1,1,na,na
2nd innings,2.4,PA Patel,UT Yadav,AT Rayudu,1,1,na,na
2nd innings,2.5,AT Rayudu,UT Yadav,PA Patel,0,0,na,"{'fielders': ['RV Uthappa'], 'kind': 'caught', 'player_out': 'PA Patel'}"
2nd innings,2.6,AT Rayudu,UT Yadav,RG Sharma,0,0,na,na
2nd innings,3.1,RG Sharma,NM Coulter-Nile,AT Rayudu,1,1,na,na
2nd innings,3.2,AT Rayudu,NM Coulter-Nile,RG Sharma,2,2,na,na
2nd innings,3.3,AT Rayudu,NM Coulter-Nile,RG Sharma,0,0,na,na
2nd innings,3.4,AT Rayudu,NM Coulter-Nile,RG Sharma,1,1,na,na
2nd innings,3.5,RG Sharma,NM Coulter-Nile,AT Rayudu,1,1,na,na
2nd innings,3.6,AT Rayudu,NM Coulter-Nile,RG Sharma,1,1,na,na
2nd innings,4.1,AT Rayudu,SP Narine,RG Sharma,0,0,na,na
2nd innings,4.2,AT Rayudu,SP Narine,RG Sharma,1,1,na,na
2nd innings,4.3,RG Sharma,SP Narine,AT Rayudu,0,0,na,na
2nd innings,4.4,RG Sharma,SP Narine,AT Rayudu,0,0,na,na
2nd innings,4.5,RG Sharma,SP Narine,AT Rayudu,0,0,na,na
2nd innings,4.6,RG Sharma,SP Narine,AT Rayudu,1,1,na,na
2nd innings,5.1,RG Sharma,PP Chawla,AT Rayudu,1,1,na,na
2nd innings,5.2,AT Rayudu,PP Chawla,RG Sharma,1,1,na,na
2nd innings,5.3,RG Sharma,PP Chawla,AT Rayudu,0,0,na,na
2nd innings,5.4,RG Sharma,PP Chawla,AT Rayudu,0,0,na,"{'kind': 'bowled', 'player_out': 'AT Rayudu'}"
2nd innings,5.5,RG Sharma,PP Chawla,KH Pandya,2,2,na,na
2nd innings,5.6,RG Sharma,PP Chawla,KH Pandya,0,0,na,na
2nd innings,6.1,KH Pandya,SP Narine,RG Sharma,2,2,na,na
2nd innings,6.2,KH Pandya,SP Narine,RG Sharma,1,1,na,na
2nd innings,6.3,RG Sharma,SP Narine,KH Pandya,0,0,na,na
2nd innings,6.4,RG Sharma,SP Narine,KH Pandya,0,0,na,na
2nd innings,6.5,RG Sharma,SP Narine,KH Pandya,4,4,na,na
2nd innings,6.6,RG Sharma,SP Narine,KH Pandya,1,1,na,na
2nd innings,7.1,RG Sharma,NM Coulter-Nile,KH Pandya,1,1,na,na
2nd innings,7.2,KH Pandya,NM Coulter-Nile,RG Sharma,0,0,na,na
2nd innings,7.3,KH Pandya,NM Coulter-Nile,RG Sharma,1,1,na,na
2nd innings,7.4,RG Sharma,NM Coulter-Nile,KH Pandya,2,2,na,na
2nd innings,7.5,RG Sharma,NM Coulter-Nile,KH Pandya,1,1,na,na
2nd innings,7.6,KH Pandya,NM Coulter-Nile,RG Sharma,1,1,na,na
2nd innings,8.1,KH Pandya,PP Chawla,RG Sharma,4,4,na,na
2nd innings,8.2,KH Pandya,PP Chawla,RG Sharma,1,1,na,na
2nd innings,8.3,RG Sharma,PP Chawla,KH Pandya,0,0,na,na
2nd innings,8.4,RG Sharma,PP Chawla,KH Pandya,4,4,na,na
2nd innings,8.5,RG Sharma,PP Chawla,KH Pandya,1,1,na,na
2nd innings,8.6,KH Pandya,PP Chawla,RG Sharma,1,1,na,na
2nd innings,9.1,KH Pandya,SP Narine,RG Sharma,1,1,na,na
2nd innings,9.2,RG Sharma,SP Narine,KH Pandya,0,0,na,na
2nd innings,9.3,RG Sharma,SP Narine,KH Pandya,1,1,na,na
2nd innings,9.4,KH Pandya,SP Narine,RG Sharma,0,0,na,na
2nd innings,9.5,KH Pandya,SP Narine,RG Sharma,1,1,na,na
2nd innings,9.6,RG Sharma,SP Narine,KH Pandya,0,0,na,na
2nd innings,10.1,KH Pandya,PP Chawla,RG Sharma,1,1,na,na
2nd innings,10.2,RG Sharma,PP Chawla,KH Pandya,4,4,na,na
2nd innings,10.3,RG Sharma,PP Chawla,KH Pandya,4,4,na,na
2nd innings,10.4,RG Sharma,PP Chawla,KH Pandya,1,1,na,na
2nd innings,10.5,KH Pandya,PP Chawla,RG Sharma,0,0,na,na
2nd innings,10.6,KH Pandya,PP Chawla,RG Sharma,6,6,na,na
2nd innings,11.1,RG Sharma,SP Narine,KH Pandya,4,4,na,na
2nd innings,11.2,RG Sharma,SP Narine,KH Pandya,0,0,na,na
2nd innings,11.3,RG Sharma,SP Narine,KH Pandya,4,4,na,na
2nd innings,11.4,RG Sharma,SP Narine,KH Pandya,0,0,na,na
2nd innings,11.5,RG Sharma,SP Narine,KH Pandya,0,0,na,na
2nd innings,11.6,RG Sharma,SP Narine,KH Pandya,0,0,na,na
2nd innings,12.1,KH Pandya,NM Coulter-Nile,RG Sharma,0,0,na,na
2nd innings,12.2,KH Pandya,NM Coulter-Nile,RG Sharma,0,0,na,"{'fielders': ['AS Rajpoot'], 'kind': 'caught', 'player_out': 'RG Sharma'}"
2nd innings,12.3,KA Pollard,NM Coulter-Nile,KH Pandya,1,1,na,na
2nd innings,12.4,KH Pandya,NM Coulter-Nile,KA Pollard,0,0,na,na
2nd innings,12.5,KH Pandya,NM Coulter-Nile,KA Pollard,2,2,na,na
2nd innings,12.6,KH Pandya,NM Coulter-Nile,KA Pollard,0,0,na,na
2nd innings,13.1,KA Pollard,AS Rajpoot,KH Pandya,1,1,na,na
2nd innings,13.2,KH Pandya,AS Rajpoot,KA Pollard,4,4,na,na
2nd innings,13.3,KH Pandya,AS Rajpoot,KA Pollard,1,0,{'wides': 1},na
2nd innings,13.4,KH Pandya,AS Rajpoot,KA Pollard,1,1,na,na
2nd innings,13.5,KA Pollard,AS Rajpoot,KH Pandya,1,1,na,na
2nd innings,13.6,KH Pandya,AS Rajpoot,KA Pollard,1,0,{'wides': 1},na
2nd innings,13.7,KH Pandya,AS Rajpoot,KA Pollard,1,1,na,na
2nd innings,13.8,KA Pollard,AS Rajpoot,KH Pandya,4,4,na,na
2nd innings,14.1,KH Pandya,UT Yadav,KA Pollard,1,0,{'wides': 1},na
2nd innings,14.2,KH Pandya,UT Yadav,KA Pollard,1,1,na,na
2nd innings,14.3,KA Pollard,UT Yadav,KH Pandya,0,0,na,na
2nd innings,14.4,KA Pollard,UT Yadav,KH Pandya,4,4,na,na
