innings,deliveries,non_striker,bowler,batsman,total_runs,batsman_runs,extras,wickets
1st innings,0.1,SE Marsh,HH Pandya,HM Amla,1,1,na,na
1st innings,0.2,HM Amla,HH Pandya,SE Marsh,0,0,na,na
1st innings,0.3,HM Amla,HH Pandya,SE Marsh,4,4,na,na
1st innings,0.4,HM Amla,HH Pandya,SE Marsh,0,0,na,na
1st innings,0.5,HM Amla,HH Pandya,SE Marsh,1,1,na,na
1st innings,0.6,SE Marsh,HH Pandya,HM Amla,2,2,na,na
1st innings,1.1,HM Amla,MJ McClenaghan,SE Marsh,1,1,na,na
1st innings,1.2,SE Marsh,MJ McClenaghan,HM Amla,0,0,na,na
1st innings,1.3,SE Marsh,MJ McClenaghan,HM Amla,0,0,na,na
1st innings,1.4,SE Marsh,MJ McClenaghan,HM Amla,4,4,na,na
1st innings,1.5,SE Marsh,MJ McClenaghan,HM Amla,1,1,na,na
1st innings,1.6,HM Amla,MJ McClenaghan,SE Marsh,1,1,na,na
1st innings,2.1,HM Amla,HH Pandya,SE Marsh,1,1,na,na
1st innings,2.2,SE Marsh,HH Pandya,HM Amla,1,0,{'legbyes': 1},na
1st innings,2.3,HM Amla,HH Pandya,SE Marsh,4,4,na,na
1st innings,2.4,HM Amla,HH Pandya,SE Marsh,4,4,na,na
1st innings,2.5,HM Amla,HH Pandya,SE Marsh,1,1,na,na
1st innings,2.6,SE Marsh,HH Pandya,HM Amla,0,0,na,na
1st innings,3.1,HM Amla,Harbhajan Singh,SE Marsh,0,0,na,na
1st innings,3.2,HM Amla,Harbhajan Singh,SE Marsh,0,0,na,na
1st innings,3.3,HM Amla,Harbhajan Singh,SE Marsh,4,4,na,na
1st innings,3.4,HM Amla,Harbhajan Singh,SE Marsh,1,1,na,na
1st innings,3.5,SE Marsh,Harbhajan Singh,HM Amla,1,1,na,na
1st innings,3.6,HM Amla,Harbhajan Singh,SE Marsh,0,0,na,na
1st innings,4.1,SE Marsh,SL Malinga,HM Amla,0,0,na,na
1st innings,4.2,SE Marsh,SL Malinga,HM Amla,6,6,na,na
1st innings,4.3,SE Marsh,SL Malinga,HM Amla,1,1,na,na
1st innings,4.4,HM Amla,SL Malinga,SE Marsh,0,0,na,na
1st innings,4.5,HM Amla,SL Malinga,SE Marsh,0,0,na,na
1st innings,4.6,HM Amla,SL Malinga,SE Marsh,0,0,na,na
1st innings,5.1,SE Marsh,MJ McClenaghan,HM Amla,2,2,na,na
1st innings,5.2,SE Marsh,MJ McClenaghan,HM Amla,1,1,na,na
1st innings,5.3,HM Amla,MJ McClenaghan,SE Marsh,0,0,na,na
1st innings,5.4,HM Amla,MJ McClenaghan,SE Marsh,4,4,na,na
1st innings,5.5,HM Amla,MJ McClenaghan,SE Marsh,0,0,na,"{'fielders': ['KA Pollard'], 'kind': 'caught', 'player_out': 'SE Marsh'}"
1st innings,5.6,HM Amla,MJ McClenaghan,WP Saha,0,0,na,na
1st innings,6.1,WP Saha,KH Pandya,HM Amla,0,0,na,na
1st innings,6.2,WP Saha,KH Pandya,HM Amla,2,2,na,na
1st innings,6.3,WP Saha,KH Pandya,HM Amla,1,1,na,na
1st innings,6.4,HM Amla,KH Pandya,WP Saha,1,1,na,na
1st innings,6.5,WP Saha,KH Pandya,HM Amla,1,1,na,na
1st innings,6.6,HM Amla,KH Pandya,WP Saha,1,1,na,na
1st innings,7.1,HM Amla,Harbhajan Singh,WP Saha,0,0,na,na
1st innings,7.2,HM Amla,Harbhajan Singh,WP Saha,1,1,na,na
1st innings,7.3,WP Saha,Harbhajan Singh,HM Amla,1,1,na,na
1st innings,7.4,HM Amla,Harbhajan Singh,WP Saha,1,1,na,na
1st innings,7.5,WP Saha,Harbhajan Singh,HM Amla,2,2,na,na
1st innings,7.6,WP Saha,Harbhajan Singh,HM Amla,1,1,na,na
1st innings,8.1,WP Saha,KH Pandya,HM Amla,0,0,na,na
1st innings,8.2,WP Saha,KH Pandya,HM Amla,1,0,{'legbyes': 1},na
1st innings,8.3,HM Amla,KH Pandya,WP Saha,1,1,na,na
1st innings,8.4,WP Saha,KH Pandya,HM Amla,1,1,na,na
1st innings,8.5,HM Amla,KH Pandya,WP Saha,1,1,na,na
1st innings,8.6,WP Saha,KH Pandya,HM Amla,1,1,na,na
1st innings,9.1,WP Saha,JJ Bumrah,HM Amla,2,2,na,na
1st innings,9.2,WP Saha,JJ Bumrah,HM Amla,1,1,na,na
1st innings,9.3,HM Amla,JJ Bumrah,WP Saha,0,0,na,na
1st innings,9.4,HM Amla,JJ Bumrah,WP Saha,2,2,na,na
1st innings,9.5,HM Amla,JJ Bumrah,WP Saha,0,0,na,na
1st innings,9.6,HM Amla,JJ Bumrah,WP Saha,1,1,na,na
1st innings,10.1,HM Amla,KH Pandya,WP Saha,1,1,na,na
1st innings,10.2,WP Saha,KH Pandya,HM Amla,6,6,na,na
1st innings,10.3,WP Saha,KH Pandya,HM Amla,1,1,na,na
1st innings,10.4,HM Amla,KH Pandya,WP Saha,1,1,na,na
1st innings,10.5,WP Saha,KH Pandya,HM Amla,1,1,na,na
1st innings,10.6,HM Amla,KH Pandya,WP Saha,1,0,{'wides': 1},na
1st innings,10.7,HM Amla,KH Pandya,WP Saha,0,0,na,"{'kind': 'bowled', 'player_out': 'WP Saha'}"
1st innings,11.1,GJ Maxwell,SL Malinga,HM Amla,4,4,na,na
1st innings,11.2,GJ Maxwell,SL Malinga,HM Amla,1,1,na,na
1st innings,11.3,HM Amla,SL Malinga,GJ Maxwell,1,1,na,na
1st innings,11.4,GJ Maxwell,SL Malinga,HM Amla,4,4,na,na
1st innings,11.5,GJ Maxwell,SL Malinga,HM Amla,1,1,na,na
1st innings,11.6,HM Amla,SL Malinga,GJ Maxwell,0,0,na,na
1st innings,12.1,GJ Maxwell,KH Pandya,HM Amla,4,4,na,na
1st innings,12.2,GJ Maxwell,KH Pandya,HM Amla,1,0,{'wides': 1},na
1st innings,12.3,GJ Maxwell,KH Pandya,HM Amla,0,0,na,na
1st innings,12.4,GJ Maxwell,KH Pandya,HM Amla,1,1,na,na
1st innings,12.5,HM Amla,KH Pandya,GJ Maxwell,1,0,{'legbyes': 1},na
1st innings,12.6,GJ Maxwell,KH Pandya,HM Amla,1,1,na,na
1st innings,12.7,HM Amla,KH Pandya,GJ Maxwell,1,1,na,na
1st innings,13.1,HM Amla,JJ Bumrah,GJ Maxwell,0,0,na,na
1st innings,13.2,HM Amla,JJ Bumrah,GJ Maxwell,1,1,na,na
1st innings,13.3,GJ Maxwell,JJ Bumrah,HM Amla,1,1,na,na
1st innings,13.4,HM Amla,JJ Bumrah,GJ Maxwell,4,4,na,na
1st innings,13.5,HM Amla,JJ Bumrah,GJ Maxwell,4,4,na,na
1st innings,13.6,HM Amla,JJ Bumrah,GJ Maxwell,1,1,na,na
1st innings,14.1,HM Amla,MJ McClenaghan,GJ Maxwell,6,6,na,na
1st innings,14.2,HM Amla,MJ McClenaghan,GJ Maxwell,6,6,na,na
1st innings,14.3,HM Amla,MJ McClenaghan,GJ Maxwell,4,4,na,na
1st innings,14.4,HM Amla,MJ McClenaghan,GJ Maxwell,5,4,{'noballs': 1},na
1st innings,14.5,HM Amla,MJ McClenaghan,GJ Maxwell,6,6,na,na
1st innings,14.6,HM Amla,MJ McClenaghan,GJ Maxwell,1,1,na,na
1st innings,14.7,GJ Maxwell,MJ McClenaghan,HM Amla,0,0,na,na
1st innings,15.1,HM Amla,SL Malinga,GJ Maxwell,1,1,na,na
1st innings,15.2,GJ Maxwell,SL Malinga,HM Amla,6,6,na,na
1st innings,15.3,GJ Maxwell,SL Malinga,HM Amla,1,0,{'wides': 1},na
1st innings,15.4,GJ Maxwell,SL Malinga,HM Amla,6,6,na,na
1st innings,15.5,GJ Maxwell,SL Malinga,HM Amla,4,4,na,na
1st innings,15.6,GJ Maxwell,SL Malinga,HM Amla,0,0,na,na
1st innings,15.7,GJ Maxwell,SL Malinga,HM Amla,4,4,na,na
1st innings,16.1,HM Amla,JJ Bumrah,GJ Maxwell,1,0,{'legbyes': 1},na
1st innings,16.2,GJ Maxwell,JJ Bumrah,HM Amla,1,1,na,na
1st innings,16.3,HM Amla,JJ Bumrah,GJ Maxwell,0,0,na,"{'kind': 'bowled', 'player_out': 'GJ Maxwell'}"
1st innings,16.4,HM Amla,JJ Bumrah,MP Stoinis,0,0,na,na
1st innings,16.5,HM Amla,JJ Bumrah,MP Stoinis,1,1,na,na
1st innings,16.6,MP Stoinis,JJ Bumrah,HM Amla,1,1,na,na
1st innings,17.1,MP Stoinis,MJ McClenaghan,HM Amla,1,0,{'legbyes': 1},na
1st innings,17.2,HM Amla,MJ McClenaghan,MP Stoinis,0,0,na,"{'fielders': ['KA Pollard'], 'kind': 'caught', 'player_out': 'MP Stoinis'}"
1st innings,17.3,AR Patel,MJ McClenaghan,HM Amla,0,0,na,na
1st innings,17.4,AR Patel,MJ McClenaghan,HM Amla,0,0,na,na
1st innings,17.5,AR Patel,MJ McClenaghan,HM Amla,0,0,na,na
1st innings,17.6,AR Patel,MJ McClenaghan,HM Amla,4,4,na,na
1st innings,18.1,HM Amla,JJ Bumrah,AR Patel,0,0,na,na
1st innings,18.2,HM Amla,JJ Bumrah,AR Patel,1,1,na,na
1st innings,18.3,AR Patel,JJ Bumrah,HM Amla,3,2,{'noballs': 1},na
1st innings,18.4,AR Patel,JJ Bumrah,HM Amla,0,0,na,na
1st innings,18.5,AR Patel,JJ Bumrah,HM Amla,4,4,na,na
1st innings,18.6,AR Patel,JJ Bumrah,HM Amla,1,1,na,na
1st innings,18.7,HM Amla,JJ Bumrah,AR Patel,1,0,{'wides': 1},na
1st innings,18.8,HM Amla,JJ Bumrah,AR Patel,0,0,na,na
1st innings,19.1,AR Patel,SL Malinga,HM Amla,1,0,{'wides': 1},na
1st innings,19.2,AR Patel,SL Malinga,HM Amla,6,6,na,na
1st innings,19.3,AR Patel,SL Malinga,HM Amla,6,6,na,na
1st innings,19.4,AR Patel,SL Malinga,HM Amla,1,1,na,na
1st innings,19.5,HM Amla,SL Malinga,AR Patel,2,2,na,na
1st innings,19.6,HM Amla,SL Malinga,AR Patel,1,1,na,na
1st innings,19.7,AR Patel,SL Malinga,HM Amla,1,1,na,na
2nd innings,0.1,JC Buttler,Sandeep Sharma,PA Patel,1,1,na,na
2nd innings,0.2,PA Patel,Sandeep Sharma,JC Buttler,1,1,na,na
2nd innings,0.3,JC Buttler,Sandeep Sharma,PA Patel,1,0,{'wides': 1},na
2nd innings,0.4,JC Buttler,Sandeep Sharma,PA Patel,1,1,na,na
2nd innings,0.5,PA Patel,Sandeep Sharma,JC Buttler,0,0,na,na
2nd innings,0.6,PA Patel,Sandeep Sharma,JC Buttler,0,0,na,na
2nd innings,0.7,PA Patel,Sandeep Sharma,JC Buttler,6,6,na,na
2nd innings,1.1,JC Buttler,I Sharma,PA Patel,1,1,na,na
2nd innings,1.2,PA Patel,I Sharma,JC Buttler,4,4,na,na
2nd innings,1.3,PA Patel,I Sharma,JC Buttler,1,0,{'legbyes': 1},na
2nd innings,1.4,JC Buttler,I Sharma,PA Patel,4,4,na,na
2nd innings,1.5,JC Buttler,I Sharma,PA Patel,1,0,{'legbyes': 1},na
2nd innings,1.6,PA Patel,I Sharma,JC Buttler,0,0,na,na
2nd innings,2.1,JC Buttler,Sandeep Sharma,PA Patel,1,1,na,na
2nd innings,2.2,PA Patel,Sandeep Sharma,JC Buttler,4,4,na,na
2nd innings,2.3,PA Patel,Sandeep Sharma,JC Buttler,1,1,na,na
2nd innings,2.4,JC Buttler,Sandeep Sharma,PA Patel,0,0,na,na
2nd innings,2.5,JC Buttler,Sandeep Sharma,PA Patel,1,1,na,na
2nd innings,2.6,PA Patel,Sandeep Sharma,JC Buttler,6,6,na,na
2nd innings,3.1,JC Buttler,I Sharma,PA Patel,6,6,na,na
2nd innings,3.2,JC Buttler,I Sharma,PA Patel,1,1,na,na
2nd innings,3.3,PA Patel,I Sharma,JC Buttler,4,4,na,na
2nd innings,3.4,PA Patel,I Sharma,JC Buttler,1,1,na,na
2nd innings,3.5,JC Buttler,I Sharma,PA Patel,4,4,na,na
2nd innings,3.6,JC Buttler,I Sharma,PA Patel,1,1,na,na
2nd innings,4.1,JC Buttler,MM Sharma,PA Patel,4,4,na,na
2nd innings,4.2,JC Buttler,MM Sharma,PA Patel,1,1,na,na
2nd innings,4.3,PA Patel,MM Sharma,JC Buttler,4,4,na,na
2nd innings,4.4,PA Patel,MM Sharma,JC Buttler,0,0,na,na
2nd innings,4.5,PA Patel,MM Sharma,JC Buttler,4,4,na,na
2nd innings,4.6,PA Patel,MM Sharma,JC Buttler,4,4,na,na
2nd innings,5.1,JC Buttler,MP Stoinis,PA Patel,6,6,na,na
2nd innings,5.2,JC Buttler,MP Stoinis,PA Patel,4,4,na,na
2nd innings,5.3,JC Buttler,MP Stoinis,PA Patel,1,0,{'wides': 1},na
2nd innings,5.4,JC Buttler,MP Stoinis,PA Patel,1,1,na,na
2nd innings,5.5,PA Patel,MP Stoinis,JC Buttler,1,1,na,na
2nd innings,5.6,JC Buttler,MP Stoinis,PA Patel,0,0,na,"{'fielders': ['GJ Maxwell'], 'kind': 'caught', 'player_out': 'PA Patel'}"
2nd innings,5.7,JC Buttler,MP Stoinis,N Rana,1,1,na,na
2nd innings,6.1,JC Buttler,AR Patel,N Rana,1,1,na,na
2nd innings,6.2,N Rana,AR Patel,JC Buttler,1,1,na,na
2nd innings,6.3,JC Buttler,AR Patel,N Rana,0,0,na,na
2nd innings,6.4,JC Buttler,AR Patel,N Rana,1,0,{'legbyes': 1},na
2nd innings,6.5,N Rana,AR Patel,JC Buttler,2,2,na,na
2nd innings,6.6,N Rana,AR Patel,JC Buttler,0,0,na,na
2nd innings,7.1,JC Buttler,MP Stoinis,N Rana,6,6,na,na
2nd innings,7.2,JC Buttler,MP Stoinis,N Rana,1,1,na,na
2nd innings,7.3,N Rana,MP Stoinis,JC Buttler,1,1,na,na
2nd innings,7.4,JC Buttler,MP Stoinis,N Rana,1,1,na,na
2nd innings,7.5,N Rana,MP Stoinis,JC Buttler,4,4,na,na
2nd innings,7.6,N Rana,MP Stoinis,JC Buttler,1,1,na,na
2nd innings,8.1,N Rana,AR Patel,JC Buttler,1,1,na,na
2nd innings,8.2,JC Buttler,AR Patel,N Rana,0,0,na,na
2nd innings,8.3,JC Buttler,AR Patel,N Rana,6,6,na,na
2nd innings,8.4,JC Buttler,AR Patel,N Rana,1,0,{'wides': 1},na
2nd innings,8.5,JC Buttler,AR Patel,N Rana,1,1,na,na
2nd innings,8.6,N Rana,AR Patel,JC Buttler,6,6,na,na
2nd innings,8.7,N Rana,AR Patel,JC Buttler,1,1,na,na
2nd innings,9.1,N Rana,Swapnil Singh,JC Buttler,1,1,na,na
2nd innings,9.2,JC Buttler,Swapnil Singh,N Rana,1,1,na,na
2nd innings,9.3,N Rana,Swapnil Singh,JC Buttler,1,1,na,na
2nd innings,9.4,JC Buttler,Swapnil Singh,N Rana,1,1,na,na
2nd innings,9.5,N Rana,Swapnil Singh,JC Buttler,1,1,na,na
2nd innings,9.6,JC Buttler,Swapnil Singh,N Rana,1,1,na,na
2nd innings,10.1,JC Buttler,I Sharma,N Rana,6,6,na,na
2nd innings,10.2,JC Buttler,I Sharma,N Rana,1,1,na,na
2nd innings,10.3,N Rana,I Sharma,JC Buttler,1,1,na,na
2nd innings,10.4,JC Buttler,I Sharma,N Rana,1,1,na,na
2nd innings,10.5,N Rana,I Sharma,JC Buttler,1,1,na,na
2nd innings,10.6,JC Buttler,I Sharma,N Rana,1,1,na,na
2nd innings,11.1,JC Buttler,Swapnil Singh,N Rana,6,6,na,na
2nd innings,11.2,JC Buttler,Swapnil Singh,N Rana,6,6,na,na
2nd innings,11.3,JC Buttler,Swapnil Singh,N Rana,1,1,na,na
2nd innings,11.4,N Rana,Swapnil Singh,JC Buttler,1,1,na,na
2nd innings,11.5,JC Buttler,Swapnil Singh,N Rana,0,0,na,na
2nd innings,11.6,JC Buttler,Swapnil Singh,N Rana,2,2,na,na
2nd innings,12.1,N Rana,Sandeep Sharma,JC Buttler,1,0,{'wides': 1},na
2nd innings,12.2,N Rana,Sandeep Sharma,JC Buttler,1,1,na,na
2nd innings,12.3,JC Buttler,Sandeep Sharma,N Rana,1,1,na,na
2nd innings,12.4,N Rana,Sandeep Sharma,JC Buttler,6,6,na,na
2nd innings,12.5,N Rana,Sandeep Sharma,JC Buttler,6,6,na,na
2nd innings,12.6,N Rana,Sandeep Sharma,JC Buttler,1,1,na,na
2nd innings,12.7,JC Buttler,Sandeep Sharma,N Rana,0,0,na,na
2nd innings,13.1,N Rana,MM Sharma,JC Buttler,0,0,na,"{'fielders': ['GJ Maxwell'], 'kind': 'caught', 'player_out': 'JC Buttler'}"
2nd innings,13.2,HH Pandya,MM Sharma,N Rana,0,0,na,na
2nd innings,13.3,HH Pandya,MM Sharma,N Rana,1,0,{'wides': 1},na
2nd innings,13.4,HH Pandya,MM Sharma,N Rana,0,0,na,na
2nd innings,13.5,HH Pandya,MM Sharma,N Rana,1,1,na,na
2nd innings,13.6,N Rana,MM Sharma,HH Pandya,1,1,na,na
2nd innings,13.7,HH Pandya,MM Sharma,N Rana,1,1,na,na
2nd innings,14.1,HH Pandya,I Sharma,N Rana,6,6,na,na
2nd innings,14.2,HH Pandya,I Sharma,N Rana,0,0,na,na
2nd innings,14.3,HH Pandya,I Sharma,N Rana,1,1,na,na
2nd innings,14.4,N Rana,I Sharma,HH Pandya,6,6,na,na
2nd innings,14.5,N Rana,I Sharma,HH Pandya,4,4,na,na
2nd innings,14.6,N Rana,I Sharma,HH Pandya,4,4,na,na
2nd innings,15.1,HH Pandya,MM Sharma,N Rana,0,0,na,na
2nd innings,15.2,HH Pandya,MM Sharma,N Rana,2,2,na,na
2nd innings,15.3,HH Pandya,MM Sharma,N Rana,6,6,na,na
