innings,deliveries,non_striker,bowler,batsman,total_runs,batsman_runs,extras,wickets
1st innings,0.1,CA Lynn,B Kumar,RV Uthappa,0,0,na,na
1st innings,0.2,CA Lynn,B Kumar,RV Uthappa,0,0,na,na
1st innings,0.3,CA Lynn,B Kumar,RV Uthappa,0,0,na,na
1st innings,0.4,CA Lynn,B Kumar,RV Uthappa,0,0,na,na
1st innings,0.5,CA Lynn,B Kumar,RV Uthappa,1,1,na,na
1st innings,0.6,RV Uthappa,B Kumar,CA Lynn,0,0,na,na
1st innings,1.1,CA Lynn,B Stanlake,RV Uthappa,1,1,na,na
1st innings,1.2,RV Uthappa,B Stanlake,CA Lynn,0,0,na,na
1st innings,1.3,RV Uthappa,B Stanlake,CA Lynn,4,4,na,na
1st innings,1.4,RV Uthappa,B Stanlake,CA Lynn,4,4,na,na
1st innings,1.5,RV Uthappa,B Stanlake,CA Lynn,0,0,na,na
1st innings,1.6,RV Uthappa,B Stanlake,CA Lynn,0,0,na,na
1st innings,2.1,CA Lynn,B Kumar,RV Uthappa,1,1,na,na
1st innings,2.2,RV Uthappa,B Kumar,CA Lynn,4,4,na,na
1st innings,2.3,RV Uthappa,B Kumar,CA Lynn,1,1,na,na
1st innings,2.4,CA Lynn,B Kumar,RV Uthappa,0,0,na,"{'player_out': 'RV Uthappa', 'fielders': ['WP Saha'], 'kind': 'caught'}"
1st innings,2.5,CA Lynn,B Kumar,N Rana,4,4,na,na
1st innings,2.6,CA Lynn,B Kumar,N Rana,1,1,na,na
1st innings,3.1,CA Lynn,B Stanlake,N Rana,1,1,na,na
1st innings,3.2,N Rana,B Stanlake,CA Lynn,1,1,na,na
1st innings,3.3,CA Lynn,B Stanlake,N Rana,0,0,na,na
1st innings,3.4,CA Lynn,B Stanlake,N Rana,0,0,na,na
1st innings,3.5,CA Lynn,B Stanlake,N Rana,0,0,na,na
1st innings,3.6,CA Lynn,B Stanlake,N Rana,0,0,na,na
1st innings,4.1,N Rana,S Kaul,CA Lynn,0,0,na,na
1st innings,4.2,N Rana,S Kaul,CA Lynn,4,4,na,na
1st innings,4.3,N Rana,S Kaul,CA Lynn,4,4,na,na
1st innings,4.4,N Rana,S Kaul,CA Lynn,2,2,na,na
1st innings,4.5,N Rana,S Kaul,CA Lynn,0,0,na,na
1st innings,4.6,N Rana,S Kaul,CA Lynn,4,4,na,na
1st innings,5.1,CA Lynn,Rashid Khan,N Rana,0,0,na,na
1st innings,5.2,CA Lynn,Rashid Khan,N Rana,1,1,na,na
1st innings,5.3,N Rana,Rashid Khan,CA Lynn,1,1,na,na
1st innings,5.4,CA Lynn,Rashid Khan,N Rana,6,6,na,na
1st innings,5.5,CA Lynn,Rashid Khan,N Rana,0,0,na,na
1st innings,5.6,CA Lynn,Rashid Khan,N Rana,4,4,na,na
1st innings,6.1,N Rana,Shakib Al Hasan,CA Lynn,0,0,na,na
1st innings,6.2,N Rana,Shakib Al Hasan,CA Lynn,1,1,na,na
1st innings,6.3,CA Lynn,Shakib Al Hasan,N Rana,0,0,na,na
1st innings,6.4,CA Lynn,Shakib Al Hasan,N Rana,1,1,na,na
1st innings,6.5,N Rana,Shakib Al Hasan,CA Lynn,0,0,na,na
1st innings,6.6,N Rana,Shakib Al Hasan,CA Lynn,1,1,na,na
1st innings,7.1,N Rana,B Stanlake,CA Lynn,2,2,na,na
1st innings,7.2,N Rana,B Stanlake,CA Lynn,1,1,na,na
1st innings,7.3,CA Lynn,B Stanlake,N Rana,0,0,na,na
1st innings,7.4,CA Lynn,B Stanlake,N Rana,0,0,na,"{'player_out': 'N Rana', 'fielders': ['MK Pandey'], 'kind': 'caught'}"
1st innings,7.5,CA Lynn,B Stanlake,SP Narine,0,0,na,na
1st innings,7.6,CA Lynn,B Stanlake,SP Narine,0,0,na,na
1st innings,8.1,SP Narine,Shakib Al Hasan,CA Lynn,0,0,na,na
1st innings,8.2,SP Narine,Shakib Al Hasan,CA Lynn,0,0,na,na
1st innings,8.3,SP Narine,Shakib Al Hasan,CA Lynn,1,1,na,na
1st innings,8.4,CA Lynn,Shakib Al Hasan,SP Narine,1,1,na,na
1st innings,8.5,SP Narine,Shakib Al Hasan,CA Lynn,1,1,na,na
1st innings,8.6,CA Lynn,Shakib Al Hasan,SP Narine,1,1,na,na
1st innings,9.1,CA Lynn,S Kaul,SP Narine,0,0,na,na
1st innings,9.2,CA Lynn,S Kaul,SP Narine,1,1,na,na
1st innings,9.3,SP Narine,S Kaul,CA Lynn,6,6,na,na
1st innings,9.4,SP Narine,S Kaul,CA Lynn,0,0,na,na
1st innings,9.5,SP Narine,S Kaul,CA Lynn,4,4,na,na
1st innings,9.6,SP Narine,S Kaul,CA Lynn,0,0,na,na
1st innings,10.1,CA Lynn,Shakib Al Hasan,SP Narine,2,2,na,na
1st innings,10.2,CA Lynn,Shakib Al Hasan,SP Narine,3,0,{'wides': 3},na
1st innings,10.3,CA Lynn,Shakib Al Hasan,SP Narine,0,0,na,na
1st innings,10.4,CA Lynn,Shakib Al Hasan,SP Narine,4,4,na,na
1st innings,10.5,CA Lynn,Shakib Al Hasan,SP Narine,0,0,na,"{'player_out': 'SP Narine', 'fielders': ['KS Williamson'], 'kind': 'caught'}"
1st innings,10.6,KD Karthik,Shakib Al Hasan,CA Lynn,1,1,na,na
1st innings,10.7,CA Lynn,Shakib Al Hasan,KD Karthik,1,1,na,na
1st innings,11.1,CA Lynn,Rashid Khan,KD Karthik,1,1,na,na
1st innings,11.2,KD Karthik,Rashid Khan,CA Lynn,1,1,na,na
1st innings,11.3,CA Lynn,Rashid Khan,KD Karthik,1,1,na,na
1st innings,11.4,KD Karthik,Rashid Khan,CA Lynn,1,1,na,na
1st innings,11.5,CA Lynn,Rashid Khan,KD Karthik,0,0,na,na
1st innings,11.6,CA Lynn,Rashid Khan,KD Karthik,1,1,na,na
1st innings,12.1,CA Lynn,Shakib Al Hasan,KD Karthik,1,0,{'legbyes': 1},na
1st innings,12.2,KD Karthik,Shakib Al Hasan,CA Lynn,0,0,na,"{'player_out': 'CA Lynn', 'kind': 'caught and bowled'}"
1st innings,12.3,KD Karthik,Shakib Al Hasan,AD Russell,2,2,na,na
1st innings,12.4,KD Karthik,Shakib Al Hasan,AD Russell,0,0,na,na
1st innings,12.5,KD Karthik,Shakib Al Hasan,AD Russell,1,1,na,na
1st innings,12.6,AD Russell,Shakib Al Hasan,KD Karthik,0,0,na,na
1st innings,13.1,KD Karthik,B Stanlake,AD Russell,6,6,na,na
1st innings,13.2,KD Karthik,B Stanlake,AD Russell,0,0,na,"{'player_out': 'AD Russell', 'fielders': ['MK Pandey'], 'kind': 'caught'}"
1st innings,13.3,Shubman Gill,B Stanlake,KD Karthik,0,0,na,na
1st innings,13.4,Shubman Gill,B Stanlake,KD Karthik,1,1,na,na
1st innings,13.5,KD Karthik,B Stanlake,Shubman Gill,0,0,na,na
1st innings,13.6,KD Karthik,B Stanlake,Shubman Gill,0,0,na,na
1st innings,14.1,Shubman Gill,S Kaul,KD Karthik,2,2,na,na
1st innings,14.2,Shubman Gill,S Kaul,KD Karthik,4,4,na,na
1st innings,14.3,Shubman Gill,S Kaul,KD Karthik,0,0,na,na
1st innings,14.4,Shubman Gill,S Kaul,KD Karthik,1,1,na,na
1st innings,14.5,KD Karthik,S Kaul,Shubman Gill,1,1,na,na
1st innings,14.6,Shubman Gill,S Kaul,KD Karthik,1,0,{'legbyes': 1},na
1st innings,15.1,Shubman Gill,Rashid Khan,KD Karthik,1,1,na,na
1st innings,15.2,KD Karthik,Rashid Khan,Shubman Gill,1,1,na,na
1st innings,15.3,Shubman Gill,Rashid Khan,KD Karthik,1,1,na,na
1st innings,15.4,KD Karthik,Rashid Khan,Shubman Gill,0,0,na,na
1st innings,15.5,KD Karthik,Rashid Khan,Shubman Gill,1,1,na,na
1st innings,15.6,Shubman Gill,Rashid Khan,KD Karthik,1,1,na,na
1st innings,16.1,Shubman Gill,B Kumar,KD Karthik,1,1,na,na
1st innings,16.2,KD Karthik,B Kumar,Shubman Gill,0,0,na,na
1st innings,16.3,KD Karthik,B Kumar,Shubman Gill,0,0,na,na
1st innings,16.4,KD Karthik,B Kumar,Shubman Gill,0,0,na,"{'player_out': 'Shubman Gill', 'fielders': ['Shakib Al Hasan'], 'kind': 'caught'}"
1st innings,16.5,Shivam Mavi,B Kumar,KD Karthik,1,1,na,na
1st innings,16.6,KD Karthik,B Kumar,Shivam Mavi,0,0,na,na
1st innings,17.1,Shivam Mavi,Rashid Khan,KD Karthik,1,1,na,na
1st innings,17.2,KD Karthik,Rashid Khan,Shivam Mavi,1,1,na,na
1st innings,17.3,Shivam Mavi,Rashid Khan,KD Karthik,0,0,na,na
1st innings,17.4,Shivam Mavi,Rashid Khan,KD Karthik,4,4,na,na
1st innings,17.5,Shivam Mavi,Rashid Khan,KD Karthik,1,1,na,na
1st innings,17.6,KD Karthik,Rashid Khan,Shivam Mavi,2,2,na,na
1st innings,18.1,Shivam Mavi,B Kumar,KD Karthik,1,0,{'noballs': 1},na
1st innings,18.2,Shivam Mavi,B Kumar,KD Karthik,6,6,na,na
1st innings,18.3,Shivam Mavi,B Kumar,KD Karthik,0,0,na,na
1st innings,18.4,Shivam Mavi,B Kumar,KD Karthik,0,0,na,"{'player_out': 'KD Karthik', 'fielders': ['WP Saha'], 'kind': 'caught'}"
1st innings,18.5,Shivam Mavi,B Kumar,MG Johnson,0,0,na,na
1st innings,18.6,Shivam Mavi,B Kumar,MG Johnson,2,1,{'noballs': 1},na
1st innings,18.7,MG Johnson,B Kumar,Shivam Mavi,1,1,na,na
1st innings,18.8,Shivam Mavi,B Kumar,MG Johnson,2,2,na,na
1st innings,19.1,MG Johnson,S Kaul,Shivam Mavi,2,2,na,na
1st innings,19.2,MG Johnson,S Kaul,Shivam Mavi,1,1,na,na
1st innings,19.3,Shivam Mavi,S Kaul,MG Johnson,0,0,na,na
1st innings,19.4,Shivam Mavi,S Kaul,MG Johnson,1,1,na,na
1st innings,19.5,MG Johnson,S Kaul,Shivam Mavi,0,0,na,na
1st innings,19.6,MG Johnson,S Kaul,Shivam Mavi,0,0,na,"{'player_out': 'Shivam Mavi', 'fielders': ['B Kumar'], 'kind': 'caught'}"
2nd innings,0.1,S Dhawan,MG Johnson,WP Saha,1,0,{'wides': 1},na
2nd innings,0.2,S Dhawan,MG Johnson,WP Saha,0,0,na,na
2nd innings,0.3,S Dhawan,MG Johnson,WP Saha,0,0,na,na
2nd innings,0.4,S Dhawan,MG Johnson,WP Saha,1,0,{'wides': 1},na
2nd innings,0.5,S Dhawan,MG Johnson,WP Saha,0,0,na,na
2nd innings,0.6,S Dhawan,MG Johnson,WP Saha,0,0,na,na
2nd innings,0.7,S Dhawan,MG Johnson,WP Saha,4,4,na,na
2nd innings,0.8,S Dhawan,MG Johnson,WP Saha,0,0,na,na
2nd innings,1.1,WP Saha,AD Russell,S Dhawan,1,1,na,na
2nd innings,1.2,S Dhawan,AD Russell,WP Saha,4,4,na,na
2nd innings,1.3,S Dhawan,AD Russell,WP Saha,1,1,na,na
2nd innings,1.4,WP Saha,AD Russell,S Dhawan,0,0,na,na
2nd innings,1.5,WP Saha,AD Russell,S Dhawan,4,4,na,na
2nd innings,1.6,WP Saha,AD Russell,S Dhawan,0,0,na,na
2nd innings,2.1,S Dhawan,MG Johnson,WP Saha,2,2,na,na
2nd innings,2.2,S Dhawan,MG Johnson,WP Saha,0,0,na,na
2nd innings,2.3,S Dhawan,MG Johnson,WP Saha,4,4,na,na
2nd innings,2.4,S Dhawan,MG Johnson,WP Saha,1,0,{'wides': 1},na
2nd innings,2.5,S Dhawan,MG Johnson,WP Saha,4,4,na,na
2nd innings,2.6,S Dhawan,MG Johnson,WP Saha,4,4,na,na
2nd innings,2.7,S Dhawan,MG Johnson,WP Saha,1,1,na,na
2nd innings,3.1,S Dhawan,SP Narine,WP Saha,0,0,na,"{'player_out': 'WP Saha', 'fielders': ['KD Karthik'], 'kind': 'caught'}"
2nd innings,3.2,S Dhawan,SP Narine,KS Williamson,0,0,na,na
2nd innings,3.3,S Dhawan,SP Narine,KS Williamson,0,0,na,na
2nd innings,3.4,S Dhawan,SP Narine,KS Williamson,1,1,na,na
2nd innings,3.5,KS Williamson,SP Narine,S Dhawan,1,1,na,na
2nd innings,3.6,S Dhawan,SP Narine,KS Williamson,1,1,na,na
2nd innings,4.1,S Dhawan,PP Chawla,KS Williamson,1,1,na,na
2nd innings,4.2,KS Williamson,PP Chawla,S Dhawan,1,1,na,na
2nd innings,4.3,S Dhawan,PP Chawla,KS Williamson,4,4,na,na
2nd innings,4.4,S Dhawan,PP Chawla,KS Williamson,4,4,na,na
2nd innings,4.5,S Dhawan,PP Chawla,KS Williamson,0,0,na,na
2nd innings,4.6,S Dhawan,PP Chawla,KS Williamson,0,0,na,na
2nd innings,5.1,KS Williamson,SP Narine,S Dhawan,1,0,{'wides': 1},na
2nd innings,5.2,KS Williamson,SP Narine,S Dhawan,0,0,na,"{'player_out': 'S Dhawan', 'kind': 'bowled'}"
2nd innings,5.3,KS Williamson,SP Narine,MK Pandey,0,0,na,na
2nd innings,5.4,KS Williamson,SP Narine,MK Pandey,0,0,na,na
2nd innings,5.5,KS Williamson,SP Narine,MK Pandey,0,0,na,na
2nd innings,5.6,KS Williamson,SP Narine,MK Pandey,0,0,na,na
2nd innings,5.7,KS Williamson,SP Narine,MK Pandey,0,0,na,na
2nd innings,6.1,MK Pandey,Kuldeep Yadav,KS Williamson,0,0,na,na
2nd innings,6.2,MK Pandey,Kuldeep Yadav,KS Williamson,0,0,na,na
2nd innings,6.3,MK Pandey,Kuldeep Yadav,KS Williamson,1,1,na,na
2nd innings,6.4,KS Williamson,Kuldeep Yadav,MK Pandey,0,0,na,na
2nd innings,6.5,KS Williamson,Kuldeep Yadav,MK Pandey,1,1,na,na
2nd innings,6.6,MK Pandey,Kuldeep Yadav,KS Williamson,1,1,na,na
2nd innings,7.1,MK Pandey,PP Chawla,KS Williamson,0,0,na,na
2nd innings,7.2,MK Pandey,PP Chawla,KS Williamson,0,0,na,na
2nd innings,7.3,MK Pandey,PP Chawla,KS Williamson,1,1,na,na
2nd innings,7.4,KS Williamson,PP Chawla,MK Pandey,1,1,na,na
2nd innings,7.5,MK Pandey,PP Chawla,KS Williamson,1,1,na,na
2nd innings,7.6,KS Williamson,PP Chawla,MK Pandey,1,1,na,na
2nd innings,8.1,KS Williamson,Kuldeep Yadav,MK Pandey,1,1,na,na
2nd innings,8.2,MK Pandey,Kuldeep Yadav,KS Williamson,0,0,na,na
2nd innings,8.3,MK Pandey,Kuldeep Yadav,KS Williamson,1,1,na,na
2nd innings,8.4,KS Williamson,Kuldeep Yadav,MK Pandey,0,0,na,"{'player_out': 'MK Pandey', 'kind': 'lbw'}"
2nd innings,8.5,KS Williamson,Kuldeep Yadav,Shakib Al Hasan,1,1,na,na
2nd innings,8.6,Shakib Al Hasan,Kuldeep Yadav,KS Williamson,2,2,na,na
2nd innings,9.1,KS Williamson,PP Chawla,Shakib Al Hasan,1,1,na,na
2nd innings,9.2,Shakib Al Hasan,PP Chawla,KS Williamson,1,1,na,na
2nd innings,9.3,KS Williamson,PP Chawla,Shakib Al Hasan,0,0,na,na
2nd innings,9.4,KS Williamson,PP Chawla,Shakib Al Hasan,1,1,na,na
2nd innings,9.5,Shakib Al Hasan,PP Chawla,KS Williamson,1,1,na,na
2nd innings,9.6,KS Williamson,PP Chawla,Shakib Al Hasan,0,0,na,na
2nd innings,10.1,Shakib Al Hasan,Kuldeep Yadav,KS Williamson,0,0,na,na
2nd innings,10.2,Shakib Al Hasan,Kuldeep Yadav,KS Williamson,4,4,na,na
2nd innings,10.3,Shakib Al Hasan,Kuldeep Yadav,KS Williamson,4,4,na,na
2nd innings,10.4,Shakib Al Hasan,Kuldeep Yadav,KS Williamson,0,0,na,na
2nd innings,10.5,Shakib Al Hasan,Kuldeep Yadav,KS Williamson,1,1,na,na
2nd innings,10.6,KS Williamson,Kuldeep Yadav,Shakib Al Hasan,1,1,na,na
2nd innings,11.1,KS Williamson,AD Russell,Shakib Al Hasan,1,1,na,na
2nd innings,11.2,Shakib Al Hasan,AD Russell,KS Williamson,1,1,na,na
2nd innings,11.3,KS Williamson,AD Russell,Shakib Al Hasan,0,0,na,na
2nd innings,11.4,KS Williamson,AD Russell,Shakib Al Hasan,4,4,na,na
2nd innings,11.5,KS Williamson,AD Russell,Shakib Al Hasan,4,4,na,na
2nd innings,11.6,KS Williamson,AD Russell,Shakib Al Hasan,6,6,na,na
2nd innings,12.1,Shakib Al Hasan,SP Narine,KS Williamson,1,1,na,na
2nd innings,12.2,KS Williamson,SP Narine,Shakib Al Hasan,2,2,na,na
2nd innings,12.3,KS Williamson,SP Narine,Shakib Al Hasan,1,1,na,na
2nd innings,12.4,Shakib Al Hasan,SP Narine,KS Williamson,2,2,na,na
2nd innings,12.5,Shakib Al Hasan,SP Narine,KS Williamson,2,2,na,na
2nd innings,12.6,Shakib Al Hasan,SP Narine,KS Williamson,1,1,na,na
2nd innings,13.1,Shakib Al Hasan,Kuldeep Yadav,KS Williamson,0,0,na,na
2nd innings,13.2,Shakib Al Hasan,Kuldeep Yadav,KS Williamson,1,1,na,na
2nd innings,13.3,KS Williamson,Kuldeep Yadav,Shakib Al Hasan,1,1,na,na
2nd innings,13.4,Shakib Al Hasan,Kuldeep Yadav,KS Williamson,1,1,na,na
2nd innings,13.5,KS Williamson,Kuldeep Yadav,Shakib Al Hasan,1,1,na,na
2nd innings,13.6,Shakib Al Hasan,Kuldeep Yadav,KS Williamson,1,1,na,na
2nd innings,14.1,Shakib Al Hasan,Shivam Mavi,KS Williamson,1,1,na,na
2nd innings,14.2,KS Williamson,Shivam Mavi,Shakib Al Hasan,1,1,na,na
2nd innings,14.3,Shakib Al Hasan,Shivam Mavi,KS Williamson,6,6,na,na
2nd innings,14.4,Shakib Al Hasan,Shivam Mavi,KS Williamson,0,0,na,na
2nd innings,14.5,Shakib Al Hasan,Shivam Mavi,KS Williamson,1,1,na,na
2nd innings,14.6,KS Williamson,Shivam Mavi,Shakib Al Hasan,1,1,na,na
2nd innings,15.1,KS Williamson,PP Chawla,Shakib Al Hasan,1,1,na,na
2nd innings,15.2,Shakib Al Hasan,PP Chawla,KS Williamson,1,1,na,na
2nd innings,15.3,KS Williamson,PP Chawla,Shakib Al Hasan,0,0,na,na
2nd innings,15.4,KS Williamson,PP Chawla,Shakib Al Hasan,0,0,na,na
2nd innings,15.5,KS Williamson,PP Chawla,Shakib Al Hasan,0,0,na,"{'player_out': 'Shakib Al Hasan', 'kind': 'bowled'}"
2nd innings,15.6,KS Williamson,PP Chawla,DJ Hooda,0,0,na,na
2nd innings,16.1,DJ Hooda,SP Narine,KS Williamson,1,1,na,na
2nd innings,16.2,KS Williamson,SP Narine,DJ Hooda,0,0,na,na
2nd innings,16.3,KS Williamson,SP Narine,DJ Hooda,0,0,na,na
2nd innings,16.4,KS Williamson,SP Narine,DJ Hooda,1,1,na,na
2nd innings,16.5,DJ Hooda,SP Narine,KS Williamson,1,1,na,na
2nd innings,16.6,KS Williamson,SP Narine,DJ Hooda,1,1,na,na
2nd innings,17.1,KS Williamson,MG Johnson,DJ Hooda,1,1,na,na
2nd innings,17.2,DJ Hooda,MG Johnson,KS Williamson,0,0,na,"{'player_out': 'KS Williamson', 'fielders': ['AD Russell'], 'kind': 'caught'}"
2nd innings,17.3,DJ Hooda,MG Johnson,YK Pathan,0,0,na,na
2nd innings,17.4,DJ Hooda,MG Johnson,YK Pathan,0,0,na,na
2nd innings,17.5,DJ Hooda,MG Johnson,YK Pathan,1,0,{'wides': 1},na
2nd innings,17.6,DJ Hooda,MG Johnson,YK Pathan,4,4,na,na
2nd innings,17.7,DJ Hooda,MG Johnson,YK Pathan,2,2,na,na
2nd innings,18.1,YK Pathan,AD Russell,DJ Hooda,0,0,na,na
2nd innings,18.2,YK Pathan,AD Russell,DJ Hooda,1,1,na,na
2nd innings,18.3,DJ Hooda,AD Russell,YK Pathan,4,4,na,na
2nd innings,18.4,DJ Hooda,AD Russell,YK Pathan,1,1,na,na
2nd innings,18.5,YK Pathan,AD Russell,DJ Hooda,1,1,na,na
2nd innings,18.6,DJ Hooda,AD Russell,YK Pathan,6,6,na,na
