innings,deliveries,non_striker,bowler,batsman,total_runs,batsman_runs,extras,wickets
1st innings,0.1,CH Gayle,MJ McClenaghan,KL Rahul,0,0,na,na
1st innings,0.2,CH Gayle,MJ McClenaghan,KL Rahul,1,1,na,na
1st innings,0.3,KL Rahul,MJ McClenaghan,CH Gayle,0,0,na,na
1st innings,0.4,KL Rahul,MJ McClenaghan,CH Gayle,1,1,na,na
1st innings,0.5,CH Gayle,MJ McClenaghan,KL Rahul,6,6,na,na
1st innings,0.6,CH Gayle,MJ McClenaghan,KL Rahul,1,1,na,na
1st innings,1.1,CH Gayle,JJ Bumrah,KL Rahul,6,6,na,na
1st innings,1.2,CH Gayle,JJ Bumrah,KL Rahul,1,1,na,na
1st innings,1.3,KL Rahul,JJ Bumrah,CH Gayle,0,0,na,na
1st innings,1.4,KL Rahul,JJ Bumrah,CH Gayle,0,0,na,na
1st innings,1.5,KL Rahul,JJ Bumrah,CH Gayle,0,0,na,na
1st innings,1.6,KL Rahul,JJ Bumrah,CH Gayle,0,0,na,na
1st innings,2.1,CH Gayle,MJ McClenaghan,KL Rahul,0,0,na,na
1st innings,2.2,CH Gayle,MJ McClenaghan,KL Rahul,0,0,na,na
1st innings,2.3,CH Gayle,MJ McClenaghan,KL Rahul,0,0,na,na
1st innings,2.4,CH Gayle,MJ McClenaghan,KL Rahul,1,1,na,na
1st innings,2.5,KL Rahul,MJ McClenaghan,CH Gayle,0,0,na,na
1st innings,2.6,KL Rahul,MJ McClenaghan,CH Gayle,0,0,na,na
1st innings,3.1,CH Gayle,HH Pandya,KL Rahul,1,1,na,na
1st innings,3.2,KL Rahul,HH Pandya,CH Gayle,1,1,na,na
1st innings,3.3,CH Gayle,HH Pandya,KL Rahul,1,1,na,na
1st innings,3.4,KL Rahul,HH Pandya,CH Gayle,4,4,na,na
1st innings,3.5,KL Rahul,HH Pandya,CH Gayle,4,4,na,na
1st innings,3.6,KL Rahul,HH Pandya,CH Gayle,1,0,{'wides': 1},na
1st innings,3.7,KL Rahul,HH Pandya,CH Gayle,4,4,na,na
1st innings,4.1,CH Gayle,JJ Bumrah,KL Rahul,1,1,na,na
1st innings,4.2,KL Rahul,JJ Bumrah,CH Gayle,0,0,na,na
1st innings,4.3,KL Rahul,JJ Bumrah,CH Gayle,1,1,na,na
1st innings,4.4,CH Gayle,JJ Bumrah,KL Rahul,0,0,na,na
1st innings,4.5,CH Gayle,JJ Bumrah,KL Rahul,1,1,na,na
1st innings,4.6,KL Rahul,JJ Bumrah,CH Gayle,1,1,na,na
1st innings,5.1,KL Rahul,MJ McClenaghan,CH Gayle,0,0,na,na
1st innings,5.2,KL Rahul,MJ McClenaghan,CH Gayle,1,0,{'wides': 1},na
1st innings,5.3,KL Rahul,MJ McClenaghan,CH Gayle,6,6,na,na
1st innings,5.4,KL Rahul,MJ McClenaghan,CH Gayle,4,4,na,na
1st innings,5.5,KL Rahul,MJ McClenaghan,CH Gayle,1,1,na,na
1st innings,5.6,CH Gayle,MJ McClenaghan,KL Rahul,0,0,na,na
1st innings,5.7,CH Gayle,MJ McClenaghan,KL Rahul,0,0,na,na
1st innings,6.1,KL Rahul,M Markande,CH Gayle,1,1,na,na
1st innings,6.2,CH Gayle,M Markande,KL Rahul,4,4,na,na
1st innings,6.3,CH Gayle,M Markande,KL Rahul,0,0,na,na
1st innings,6.4,CH Gayle,M Markande,KL Rahul,0,0,na,"{'player_out': 'KL Rahul', 'fielders': ['JP Duminy'], 'kind': 'caught'}"
1st innings,6.5,CH Gayle,M Markande,Yuvraj Singh,0,0,na,na
1st innings,6.6,CH Gayle,M Markande,Yuvraj Singh,0,0,na,na
1st innings,7.1,Yuvraj Singh,HH Pandya,CH Gayle,1,0,{'wides': 1},na
1st innings,7.2,Yuvraj Singh,HH Pandya,CH Gayle,0,0,na,na
1st innings,7.3,Yuvraj Singh,HH Pandya,CH Gayle,1,1,na,na
1st innings,7.4,CH Gayle,HH Pandya,Yuvraj Singh,1,1,na,na
1st innings,7.5,Yuvraj Singh,HH Pandya,CH Gayle,0,0,na,na
1st innings,7.6,Yuvraj Singh,HH Pandya,CH Gayle,0,0,na,na
1st innings,7.7,Yuvraj Singh,HH Pandya,CH Gayle,1,1,na,na
1st innings,8.1,Yuvraj Singh,M Markande,CH Gayle,1,1,na,na
1st innings,8.2,CH Gayle,M Markande,Yuvraj Singh,0,0,na,na
1st innings,8.3,CH Gayle,M Markande,Yuvraj Singh,1,1,na,na
1st innings,8.4,Yuvraj Singh,M Markande,CH Gayle,6,6,na,na
1st innings,8.5,Yuvraj Singh,M Markande,CH Gayle,4,4,na,na
1st innings,8.6,Yuvraj Singh,M Markande,CH Gayle,1,0,{'wides': 1},na
1st innings,8.7,Yuvraj Singh,M Markande,CH Gayle,1,1,na,na
1st innings,9.1,Yuvraj Singh,HH Pandya,CH Gayle,0,0,na,na
1st innings,9.2,Yuvraj Singh,HH Pandya,CH Gayle,1,1,na,na
1st innings,9.3,CH Gayle,HH Pandya,Yuvraj Singh,1,1,na,na
1st innings,9.4,Yuvraj Singh,HH Pandya,CH Gayle,4,0,{'legbyes': 4},na
1st innings,9.5,Yuvraj Singh,HH Pandya,CH Gayle,0,0,na,na
1st innings,9.6,Yuvraj Singh,HH Pandya,CH Gayle,0,0,na,na
1st innings,10.1,CH Gayle,JP Duminy,Yuvraj Singh,1,1,na,na
1st innings,10.2,Yuvraj Singh,JP Duminy,CH Gayle,1,1,na,na
1st innings,10.3,CH Gayle,JP Duminy,Yuvraj Singh,0,0,na,na
1st innings,10.4,CH Gayle,JP Duminy,Yuvraj Singh,1,1,na,na
1st innings,10.5,Yuvraj Singh,JP Duminy,CH Gayle,4,4,na,na
1st innings,10.6,Yuvraj Singh,JP Duminy,CH Gayle,1,1,na,na
1st innings,11.1,Yuvraj Singh,BCJ Cutting,CH Gayle,1,1,na,na
1st innings,11.2,CH Gayle,BCJ Cutting,Yuvraj Singh,1,1,na,na
1st innings,11.3,Yuvraj Singh,BCJ Cutting,CH Gayle,0,0,na,na
1st innings,11.4,Yuvraj Singh,BCJ Cutting,CH Gayle,0,0,na,"{'player_out': 'CH Gayle', 'fielders': ['SA Yadav'], 'kind': 'caught'}"
1st innings,11.5,KK Nair,BCJ Cutting,Yuvraj Singh,0,0,na,na
1st innings,11.6,KK Nair,BCJ Cutting,Yuvraj Singh,1,1,na,na
1st innings,12.1,KK Nair,KH Pandya,Yuvraj Singh,6,6,na,na
1st innings,12.2,KK Nair,KH Pandya,Yuvraj Singh,1,1,na,na
1st innings,12.3,Yuvraj Singh,KH Pandya,KK Nair,0,0,na,"{'player_out': 'Yuvraj Singh', 'kind': 'run out'}"
1st innings,12.4,KK Nair,KH Pandya,AR Patel,1,1,na,na
1st innings,12.5,AR Patel,KH Pandya,KK Nair,1,1,na,na
1st innings,12.6,KK Nair,KH Pandya,AR Patel,1,1,na,na
1st innings,13.1,KK Nair,BCJ Cutting,AR Patel,0,0,na,na
1st innings,13.2,KK Nair,BCJ Cutting,AR Patel,1,1,na,na
1st innings,13.3,AR Patel,BCJ Cutting,KK Nair,4,4,na,na
1st innings,13.4,AR Patel,BCJ Cutting,KK Nair,6,6,na,na
1st innings,13.5,AR Patel,BCJ Cutting,KK Nair,2,2,na,na
1st innings,13.6,AR Patel,BCJ Cutting,KK Nair,1,1,na,na
1st innings,14.1,AR Patel,M Markande,KK Nair,1,1,na,na
1st innings,14.2,KK Nair,M Markande,AR Patel,6,6,na,na
1st innings,14.3,KK Nair,M Markande,AR Patel,1,1,na,na
1st innings,14.4,AR Patel,M Markande,KK Nair,0,0,na,na
1st innings,14.5,AR Patel,M Markande,KK Nair,1,1,na,na
1st innings,14.6,KK Nair,M Markande,AR Patel,1,1,na,na
1st innings,15.1,KK Nair,MJ McClenaghan,AR Patel,1,1,na,na
1st innings,15.2,AR Patel,MJ McClenaghan,KK Nair,6,6,na,na
1st innings,15.3,AR Patel,MJ McClenaghan,KK Nair,1,1,na,na
1st innings,15.4,KK Nair,MJ McClenaghan,AR Patel,0,0,na,na
1st innings,15.5,KK Nair,MJ McClenaghan,AR Patel,1,1,na,na
1st innings,15.6,AR Patel,MJ McClenaghan,KK Nair,0,0,na,"{'player_out': 'KK Nair', 'fielders': ['HH Pandya'], 'kind': 'caught'}"
1st innings,16.1,AR Patel,JJ Bumrah,MP Stoinis,0,0,na,na
1st innings,16.2,AR Patel,JJ Bumrah,MP Stoinis,1,1,na,na
1st innings,16.3,MP Stoinis,JJ Bumrah,AR Patel,1,0,{'legbyes': 1},na
1st innings,16.4,AR Patel,JJ Bumrah,MP Stoinis,1,1,na,na
1st innings,16.5,MP Stoinis,JJ Bumrah,AR Patel,0,0,na,"{'player_out': 'AR Patel', 'fielders': ['HH Pandya'], 'kind': 'caught'}"
1st innings,16.6,MA Agarwal,JJ Bumrah,MP Stoinis,0,0,na,na
1st innings,17.1,MP Stoinis,BCJ Cutting,MA Agarwal,1,1,na,na
1st innings,17.2,MA Agarwal,BCJ Cutting,MP Stoinis,1,1,na,na
1st innings,17.3,MP Stoinis,BCJ Cutting,MA Agarwal,1,1,na,na
1st innings,17.4,MA Agarwal,BCJ Cutting,MP Stoinis,1,1,na,na
1st innings,17.5,MP Stoinis,BCJ Cutting,MA Agarwal,6,6,na,na
1st innings,17.6,MP Stoinis,BCJ Cutting,MA Agarwal,1,1,na,na
1st innings,18.1,MP Stoinis,JJ Bumrah,MA Agarwal,1,1,na,na
1st innings,18.2,MA Agarwal,JJ Bumrah,MP Stoinis,0,0,na,na
1st innings,18.3,MA Agarwal,JJ Bumrah,MP Stoinis,1,1,na,na
1st innings,18.4,MP Stoinis,JJ Bumrah,MA Agarwal,1,1,na,na
1st innings,18.5,MA Agarwal,JJ Bumrah,MP Stoinis,2,2,na,na
1st innings,18.6,MA Agarwal,JJ Bumrah,MP Stoinis,1,1,na,na
1st innings,19.1,MA Agarwal,HH Pandya,MP Stoinis,1,0,{'wides': 1},na
1st innings,19.2,MA Agarwal,HH Pandya,MP Stoinis,6,6,na,na
1st innings,19.3,MA Agarwal,HH Pandya,MP Stoinis,4,4,na,na
1st innings,19.4,MA Agarwal,HH Pandya,MP Stoinis,1,1,na,na
1st innings,19.5,MP Stoinis,HH Pandya,MA Agarwal,0,0,na,"{'player_out': 'MA Agarwal', 'kind': 'caught and bowled'}"
1st innings,19.6,R Ashwin,HH Pandya,MP Stoinis,6,6,na,na
1st innings,19.7,R Ashwin,HH Pandya,MP Stoinis,4,4,na,na
2nd innings,0.1,E Lewis,R Ashwin,SA Yadav,1,1,na,na
2nd innings,0.2,SA Yadav,R Ashwin,E Lewis,1,1,na,na
2nd innings,0.3,E Lewis,R Ashwin,SA Yadav,1,1,na,na
2nd innings,0.4,SA Yadav,R Ashwin,E Lewis,1,1,na,na
2nd innings,0.5,E Lewis,R Ashwin,SA Yadav,1,1,na,na
2nd innings,0.6,SA Yadav,R Ashwin,E Lewis,1,1,na,na
2nd innings,1.1,SA Yadav,AS Rajpoot,E Lewis,1,1,na,na
2nd innings,1.2,E Lewis,AS Rajpoot,SA Yadav,0,0,na,na
2nd innings,1.3,E Lewis,AS Rajpoot,SA Yadav,0,0,na,na
2nd innings,1.4,E Lewis,AS Rajpoot,SA Yadav,0,0,na,na
2nd innings,1.5,E Lewis,AS Rajpoot,SA Yadav,0,0,na,na
2nd innings,1.6,E Lewis,AS Rajpoot,SA Yadav,6,6,na,na
2nd innings,2.1,SA Yadav,R Ashwin,E Lewis,1,1,na,na
2nd innings,2.2,E Lewis,R Ashwin,SA Yadav,1,1,na,na
2nd innings,2.3,SA Yadav,R Ashwin,E Lewis,1,1,na,na
2nd innings,2.4,E Lewis,R Ashwin,SA Yadav,1,1,na,na
2nd innings,2.5,SA Yadav,R Ashwin,E Lewis,2,2,na,na
2nd innings,2.6,SA Yadav,R Ashwin,E Lewis,1,1,na,na
2nd innings,3.1,SA Yadav,AS Rajpoot,E Lewis,1,1,na,na
2nd innings,3.2,E Lewis,AS Rajpoot,SA Yadav,6,6,na,na
2nd innings,3.3,E Lewis,AS Rajpoot,SA Yadav,0,0,na,na
2nd innings,3.4,E Lewis,AS Rajpoot,SA Yadav,4,4,na,na
2nd innings,3.5,E Lewis,AS Rajpoot,SA Yadav,1,1,na,na
2nd innings,3.6,SA Yadav,AS Rajpoot,E Lewis,0,0,na,na
2nd innings,4.1,E Lewis,AJ Tye,SA Yadav,4,4,na,na
2nd innings,4.2,E Lewis,AJ Tye,SA Yadav,0,0,na,na
2nd innings,4.3,E Lewis,AJ Tye,SA Yadav,0,0,na,na
2nd innings,4.4,E Lewis,AJ Tye,SA Yadav,0,0,na,na
2nd innings,4.5,E Lewis,AJ Tye,SA Yadav,1,1,na,na
2nd innings,4.6,SA Yadav,AJ Tye,E Lewis,0,0,na,na
2nd innings,5.1,E Lewis,Mujeeb Ur Rahman,SA Yadav,0,0,na,na
2nd innings,5.2,E Lewis,Mujeeb Ur Rahman,SA Yadav,1,1,na,na
2nd innings,5.3,SA Yadav,Mujeeb Ur Rahman,E Lewis,0,0,na,na
2nd innings,5.4,SA Yadav,Mujeeb Ur Rahman,E Lewis,0,0,na,"{'player_out': 'E Lewis', 'fielders': ['KL Rahul'], 'kind': 'caught'}"
2nd innings,5.5,SA Yadav,Mujeeb Ur Rahman,Ishan Kishan,0,0,na,na
2nd innings,5.6,SA Yadav,Mujeeb Ur Rahman,Ishan Kishan,1,0,{'wides': 1},na
2nd innings,5.7,SA Yadav,Mujeeb Ur Rahman,Ishan Kishan,0,0,na,na
2nd innings,6.1,Ishan Kishan,R Ashwin,SA Yadav,0,0,na,na
2nd innings,6.2,Ishan Kishan,R Ashwin,SA Yadav,0,0,na,na
2nd innings,6.3,Ishan Kishan,R Ashwin,SA Yadav,1,1,na,na
2nd innings,6.4,SA Yadav,R Ashwin,Ishan Kishan,0,0,na,na
2nd innings,6.5,SA Yadav,R Ashwin,Ishan Kishan,0,0,na,na
2nd innings,6.6,SA Yadav,R Ashwin,Ishan Kishan,0,0,na,na
2nd innings,7.1,Ishan Kishan,AR Patel,SA Yadav,4,4,na,na
2nd innings,7.2,Ishan Kishan,AR Patel,SA Yadav,1,1,na,na
2nd innings,7.3,SA Yadav,AR Patel,Ishan Kishan,2,2,na,na
2nd innings,7.4,SA Yadav,AR Patel,Ishan Kishan,1,1,na,na
2nd innings,7.5,Ishan Kishan,AR Patel,SA Yadav,1,1,na,na
2nd innings,7.6,SA Yadav,AR Patel,Ishan Kishan,0,0,na,na
2nd innings,8.1,Ishan Kishan,MP Stoinis,SA Yadav,4,4,na,na
2nd innings,8.2,Ishan Kishan,MP Stoinis,SA Yadav,0,0,na,na
2nd innings,8.3,Ishan Kishan,MP Stoinis,SA Yadav,0,0,na,na
2nd innings,8.4,Ishan Kishan,MP Stoinis,SA Yadav,1,1,na,na
2nd innings,8.5,SA Yadav,MP Stoinis,Ishan Kishan,0,0,na,na
2nd innings,8.6,SA Yadav,MP Stoinis,Ishan Kishan,1,1,na,na
2nd innings,9.1,SA Yadav,AS Rajpoot,Ishan Kishan,1,1,na,na
2nd innings,9.2,Ishan Kishan,AS Rajpoot,SA Yadav,0,0,na,na
2nd innings,9.3,Ishan Kishan,AS Rajpoot,SA Yadav,6,6,na,na
2nd innings,9.4,Ishan Kishan,AS Rajpoot,SA Yadav,4,4,na,na
2nd innings,9.5,Ishan Kishan,AS Rajpoot,SA Yadav,1,1,na,na
2nd innings,9.6,SA Yadav,AS Rajpoot,Ishan Kishan,0,0,na,na
2nd innings,10.1,Ishan Kishan,R Ashwin,SA Yadav,1,1,na,na
2nd innings,10.2,SA Yadav,R Ashwin,Ishan Kishan,1,1,na,na
2nd innings,10.3,Ishan Kishan,R Ashwin,SA Yadav,0,0,na,na
2nd innings,10.4,Ishan Kishan,R Ashwin,SA Yadav,1,1,na,na
2nd innings,10.5,SA Yadav,R Ashwin,Ishan Kishan,6,6,na,na
2nd innings,10.6,SA Yadav,R Ashwin,Ishan Kishan,0,0,na,na
2nd innings,11.1,Ishan Kishan,MP Stoinis,SA Yadav,4,4,na,na
2nd innings,11.2,Ishan Kishan,MP Stoinis,SA Yadav,0,0,na,na
2nd innings,11.3,Ishan Kishan,MP Stoinis,SA Yadav,0,0,na,na
2nd innings,11.4,Ishan Kishan,MP Stoinis,SA Yadav,0,0,na,"{'player_out': 'SA Yadav', 'fielders': ['KL Rahul'], 'kind': 'caught'}"
2nd innings,11.5,Ishan Kishan,MP Stoinis,HH Pandya,1,1,na,na
2nd innings,11.6,HH Pandya,MP Stoinis,Ishan Kishan,6,6,na,na
2nd innings,12.1,Ishan Kishan,Mujeeb Ur Rahman,HH Pandya,1,1,na,na
2nd innings,12.2,HH Pandya,Mujeeb Ur Rahman,Ishan Kishan,1,1,na,na
2nd innings,12.3,Ishan Kishan,Mujeeb Ur Rahman,HH Pandya,4,4,na,na
2nd innings,12.4,Ishan Kishan,Mujeeb Ur Rahman,HH Pandya,1,1,na,na
2nd innings,12.5,HH Pandya,Mujeeb Ur Rahman,Ishan Kishan,6,6,na,na
2nd innings,12.6,HH Pandya,Mujeeb Ur Rahman,Ishan Kishan,0,0,na,"{'player_out': 'Ishan Kishan', 'kind': 'bowled'}"
2nd innings,13.1,RG Sharma,AJ Tye,HH Pandya,1,1,na,na
2nd innings,13.2,HH Pandya,AJ Tye,RG Sharma,1,1,na,na
2nd innings,13.3,RG Sharma,AJ Tye,HH Pandya,4,4,na,na
2nd innings,13.4,RG Sharma,AJ Tye,HH Pandya,2,2,na,na
2nd innings,13.5,RG Sharma,AJ Tye,HH Pandya,1,1,na,na
2nd innings,13.6,HH Pandya,AJ Tye,RG Sharma,1,1,na,na
2nd innings,14.1,HH Pandya,Mujeeb Ur Rahman,RG Sharma,1,1,na,na
2nd innings,14.2,RG Sharma,Mujeeb Ur Rahman,HH Pandya,6,6,na,na
2nd innings,14.3,RG Sharma,Mujeeb Ur Rahman,HH Pandya,0,0,na,na
2nd innings,14.4,RG Sharma,Mujeeb Ur Rahman,HH Pandya,1,1,na,na
2nd innings,14.5,HH Pandya,Mujeeb Ur Rahman,RG Sharma,0,0,na,na
2nd innings,14.6,HH Pandya,Mujeeb Ur Rahman,RG Sharma,0,0,na,na
2nd innings,15.1,RG Sharma,AJ Tye,HH Pandya,1,1,na,na
2nd innings,15.2,HH Pandya,AJ Tye,RG Sharma,1,1,na,na
2nd innings,15.3,RG Sharma,AJ Tye,HH Pandya,0,0,na,"{'player_out': 'HH Pandya', 'kind': 'bowled'}"
2nd innings,15.4,RG Sharma,AJ Tye,KH Pandya,1,0,{'wides': 1},na
2nd innings,15.5,RG Sharma,AJ Tye,KH Pandya,4,4,na,na
2nd innings,15.6,RG Sharma,AJ Tye,KH Pandya,0,0,na,na
2nd innings,15.7,RG Sharma,AJ Tye,KH Pandya,0,0,na,na
2nd innings,16.1,KH Pandya,Mujeeb Ur Rahman,RG Sharma,6,6,na,na
2nd innings,16.2,KH Pandya,Mujeeb Ur Rahman,RG Sharma,0,0,na,na
2nd innings,16.3,KH Pandya,Mujeeb Ur Rahman,RG Sharma,0,0,na,na
2nd innings,16.4,KH Pandya,Mujeeb Ur Rahman,RG Sharma,1,1,na,na
2nd innings,16.5,RG Sharma,Mujeeb Ur Rahman,KH Pandya,1,1,na,na
2nd innings,16.6,KH Pandya,Mujeeb Ur Rahman,RG Sharma,6,6,na,na
2nd innings,17.1,RG Sharma,MP Stoinis,KH Pandya,1,1,na,na
2nd innings,17.2,KH Pandya,MP Stoinis,RG Sharma,4,4,na,na
2nd innings,17.3,KH Pandya,MP Stoinis,RG Sharma,1,1,na,na
2nd innings,17.4,RG Sharma,MP Stoinis,KH Pandya,4,4,na,na
2nd innings,17.5,RG Sharma,MP Stoinis,KH Pandya,4,4,na,na
2nd innings,17.6,RG Sharma,MP Stoinis,KH Pandya,6,6,na,na
2nd innings,18.1,KH Pandya,AJ Tye,RG Sharma,1,1,na,na
2nd innings,18.2,RG Sharma,AJ Tye,KH Pandya,4,4,na,na
2nd innings,18.3,RG Sharma,AJ Tye,KH Pandya,6,6,na,na
2nd innings,18.4,RG Sharma,AJ Tye,KH Pandya,1,1,na,na
2nd innings,18.5,KH Pandya,AJ Tye,RG Sharma,1,1,na,na
2nd innings,18.6,RG Sharma,AJ Tye,KH Pandya,4,0,{'legbyes': 4},na
