innings,deliveries,non_striker,bowler,batsman,total_runs,batsman_runs,extras,wickets
1st innings,0.1,SP Goswami,DL Chahar,S Dhawan,0,0,na,"{'player_out': 'S Dhawan', 'kind': 'bowled'}"
1st innings,0.2,SP Goswami,DL Chahar,KS Williamson,0,0,na,na
1st innings,0.3,SP Goswami,DL Chahar,KS Williamson,0,0,na,na
1st innings,0.4,SP Goswami,DL Chahar,KS Williamson,4,4,na,na
1st innings,0.5,SP Goswami,DL Chahar,KS Williamson,4,4,na,na
1st innings,0.6,SP Goswami,DL Chahar,KS Williamson,4,4,na,na
1st innings,1.1,KS Williamson,L Ngidi,SP Goswami,1,1,na,na
1st innings,1.2,SP Goswami,L Ngidi,KS Williamson,0,0,na,na
1st innings,1.3,SP Goswami,L Ngidi,KS Williamson,0,0,na,na
1st innings,1.4,SP Goswami,L Ngidi,KS Williamson,1,1,na,na
1st innings,1.5,KS Williamson,L Ngidi,SP Goswami,0,0,na,na
1st innings,1.6,KS Williamson,L Ngidi,SP Goswami,4,4,na,na
1st innings,2.1,SP Goswami,DL Chahar,KS Williamson,1,1,na,na
1st innings,2.2,KS Williamson,DL Chahar,SP Goswami,1,1,na,na
1st innings,2.3,SP Goswami,DL Chahar,KS Williamson,4,4,na,na
1st innings,2.4,SP Goswami,DL Chahar,KS Williamson,3,3,na,na
1st innings,2.5,KS Williamson,DL Chahar,SP Goswami,1,1,na,na
1st innings,2.6,SP Goswami,DL Chahar,KS Williamson,0,0,na,na
1st innings,3.1,KS Williamson,L Ngidi,SP Goswami,0,0,na,na
1st innings,3.2,KS Williamson,L Ngidi,SP Goswami,4,4,na,na
1st innings,3.3,KS Williamson,L Ngidi,SP Goswami,1,1,na,na
1st innings,3.4,SP Goswami,L Ngidi,KS Williamson,1,1,na,na
1st innings,3.5,KS Williamson,L Ngidi,SP Goswami,0,0,na,"{'player_out': 'SP Goswami', 'kind': 'caught and bowled'}"
1st innings,3.6,KS Williamson,L Ngidi,MK Pandey,0,0,na,na
1st innings,4.1,MK Pandey,SN Thakur,KS Williamson,2,2,na,na
1st innings,4.2,MK Pandey,SN Thakur,KS Williamson,0,0,na,"{'player_out': 'KS Williamson', 'fielders': ['MS Dhoni'], 'kind': 'caught'}"
1st innings,4.3,MK Pandey,SN Thakur,Shakib Al Hasan,4,4,na,na
1st innings,4.4,MK Pandey,SN Thakur,Shakib Al Hasan,0,0,na,na
1st innings,4.5,MK Pandey,SN Thakur,Shakib Al Hasan,1,1,na,na
1st innings,4.6,Shakib Al Hasan,SN Thakur,MK Pandey,0,0,na,na
1st innings,5.1,MK Pandey,DL Chahar,Shakib Al Hasan,0,0,na,na
1st innings,5.2,MK Pandey,DL Chahar,Shakib Al Hasan,0,0,na,na
1st innings,5.3,MK Pandey,DL Chahar,Shakib Al Hasan,4,4,na,na
1st innings,5.4,MK Pandey,DL Chahar,Shakib Al Hasan,0,0,na,na
1st innings,5.5,MK Pandey,DL Chahar,Shakib Al Hasan,1,1,na,na
1st innings,5.6,Shakib Al Hasan,DL Chahar,MK Pandey,1,1,na,na
1st innings,6.1,Shakib Al Hasan,DJ Bravo,MK Pandey,0,0,na,na
1st innings,6.2,Shakib Al Hasan,DJ Bravo,MK Pandey,1,1,na,na
1st innings,6.3,MK Pandey,DJ Bravo,Shakib Al Hasan,2,2,na,na
1st innings,6.4,MK Pandey,DJ Bravo,Shakib Al Hasan,0,0,na,"{'player_out': 'Shakib Al Hasan', 'fielders': ['MS Dhoni'], 'kind': 'caught'}"
1st innings,6.5,MK Pandey,DJ Bravo,YK Pathan,0,0,na,na
1st innings,6.6,MK Pandey,DJ Bravo,YK Pathan,1,1,na,na
1st innings,7.1,MK Pandey,RA Jadeja,YK Pathan,0,0,na,na
1st innings,7.2,MK Pandey,RA Jadeja,YK Pathan,1,1,na,na
1st innings,7.3,YK Pathan,RA Jadeja,MK Pandey,1,1,na,na
1st innings,7.4,MK Pandey,RA Jadeja,YK Pathan,1,1,na,na
1st innings,7.5,YK Pathan,RA Jadeja,MK Pandey,0,0,na,na
1st innings,7.6,YK Pathan,RA Jadeja,MK Pandey,0,0,na,na
1st innings,8.1,MK Pandey,DJ Bravo,YK Pathan,0,0,na,na
1st innings,8.2,MK Pandey,DJ Bravo,YK Pathan,1,0,{'wides': 1},na
1st innings,8.3,MK Pandey,DJ Bravo,YK Pathan,0,0,na,na
1st innings,8.4,MK Pandey,DJ Bravo,YK Pathan,2,2,na,na
1st innings,8.5,MK Pandey,DJ Bravo,YK Pathan,2,2,na,na
1st innings,8.6,MK Pandey,DJ Bravo,YK Pathan,1,1,na,na
1st innings,8.7,YK Pathan,DJ Bravo,MK Pandey,1,1,na,na
1st innings,9.1,YK Pathan,RA Jadeja,MK Pandey,0,0,na,na
1st innings,9.2,YK Pathan,RA Jadeja,MK Pandey,1,1,na,na
1st innings,9.3,MK Pandey,RA Jadeja,YK Pathan,0,0,na,na
1st innings,9.4,MK Pandey,RA Jadeja,YK Pathan,1,1,na,na
1st innings,9.5,YK Pathan,RA Jadeja,MK Pandey,1,1,na,na
1st innings,9.6,MK Pandey,RA Jadeja,YK Pathan,0,0,na,na
1st innings,10.1,YK Pathan,DL Chahar,MK Pandey,0,0,na,na
1st innings,10.2,YK Pathan,DL Chahar,MK Pandey,1,1,na,na
1st innings,10.3,MK Pandey,DL Chahar,YK Pathan,0,0,na,na
1st innings,10.4,MK Pandey,DL Chahar,YK Pathan,1,0,{'wides': 1},na
1st innings,10.5,MK Pandey,DL Chahar,YK Pathan,0,0,na,na
1st innings,10.6,MK Pandey,DL Chahar,YK Pathan,0,0,na,na
1st innings,10.7,MK Pandey,DL Chahar,YK Pathan,1,0,{'wides': 1},na
1st innings,10.8,MK Pandey,DL Chahar,YK Pathan,0,0,na,na
1st innings,11.1,YK Pathan,RA Jadeja,MK Pandey,1,1,na,na
1st innings,11.2,MK Pandey,RA Jadeja,YK Pathan,1,1,na,na
1st innings,11.3,YK Pathan,RA Jadeja,MK Pandey,0,0,na,"{'player_out': 'MK Pandey', 'kind': 'caught and bowled'}"
1st innings,11.4,YK Pathan,RA Jadeja,CR Brathwaite,0,0,na,na
1st innings,11.5,YK Pathan,RA Jadeja,CR Brathwaite,0,0,na,na
1st innings,11.6,YK Pathan,RA Jadeja,CR Brathwaite,0,0,na,na
1st innings,12.1,CR Brathwaite,SN Thakur,YK Pathan,1,1,na,na
1st innings,12.2,YK Pathan,SN Thakur,CR Brathwaite,0,0,na,na
1st innings,12.3,YK Pathan,SN Thakur,CR Brathwaite,1,1,na,na
1st innings,12.4,CR Brathwaite,SN Thakur,YK Pathan,0,0,na,na
1st innings,12.5,CR Brathwaite,SN Thakur,YK Pathan,0,0,na,na
1st innings,12.6,CR Brathwaite,SN Thakur,YK Pathan,4,4,na,na
1st innings,13.1,YK Pathan,RA Jadeja,CR Brathwaite,0,0,na,na
1st innings,13.2,YK Pathan,RA Jadeja,CR Brathwaite,1,1,na,na
1st innings,13.3,CR Brathwaite,RA Jadeja,YK Pathan,0,0,na,na
1st innings,13.4,CR Brathwaite,RA Jadeja,YK Pathan,0,0,na,na
1st innings,13.5,CR Brathwaite,RA Jadeja,YK Pathan,0,0,na,na
1st innings,13.6,CR Brathwaite,RA Jadeja,YK Pathan,4,4,na,na
1st innings,14.1,YK Pathan,DJ Bravo,CR Brathwaite,0,0,na,na
1st innings,14.2,YK Pathan,DJ Bravo,CR Brathwaite,1,0,{'wides': 1},na
1st innings,14.3,YK Pathan,DJ Bravo,CR Brathwaite,1,1,na,na
1st innings,14.4,CR Brathwaite,DJ Bravo,YK Pathan,1,1,na,na
1st innings,14.5,YK Pathan,DJ Bravo,CR Brathwaite,1,1,na,na
1st innings,14.6,CR Brathwaite,DJ Bravo,YK Pathan,4,4,na,na
1st innings,14.7,CR Brathwaite,DJ Bravo,YK Pathan,0,0,na,"{'player_out': 'YK Pathan', 'kind': 'caught and bowled'}"
1st innings,15.1,B Kumar,L Ngidi,CR Brathwaite,1,1,na,na
1st innings,15.2,CR Brathwaite,L Ngidi,B Kumar,0,0,na,na
1st innings,15.3,CR Brathwaite,L Ngidi,B Kumar,1,1,na,na
1st innings,15.4,B Kumar,L Ngidi,CR Brathwaite,0,0,na,na
1st innings,15.5,B Kumar,L Ngidi,CR Brathwaite,1,1,na,na
1st innings,15.6,CR Brathwaite,L Ngidi,B Kumar,1,1,na,na
1st innings,16.1,CR Brathwaite,DJ Bravo,B Kumar,1,0,{'wides': 1},na
1st innings,16.2,CR Brathwaite,DJ Bravo,B Kumar,1,0,{'wides': 1},na
1st innings,16.3,CR Brathwaite,DJ Bravo,B Kumar,1,1,na,na
1st innings,16.4,B Kumar,DJ Bravo,CR Brathwaite,1,1,na,na
1st innings,16.5,CR Brathwaite,DJ Bravo,B Kumar,0,0,na,na
1st innings,16.6,CR Brathwaite,DJ Bravo,B Kumar,0,0,na,na
1st innings,16.7,CR Brathwaite,DJ Bravo,B Kumar,1,1,na,na
1st innings,16.8,B Kumar,DJ Bravo,CR Brathwaite,1,1,na,na
1st innings,17.1,B Kumar,SN Thakur,CR Brathwaite,6,6,na,na
1st innings,17.2,B Kumar,SN Thakur,CR Brathwaite,6,6,na,na
1st innings,17.3,B Kumar,SN Thakur,CR Brathwaite,0,0,na,na
1st innings,17.4,B Kumar,SN Thakur,CR Brathwaite,1,1,na,na
1st innings,17.5,CR Brathwaite,SN Thakur,B Kumar,1,1,na,na
1st innings,17.6,B Kumar,SN Thakur,CR Brathwaite,1,0,{'wides': 1},na
1st innings,17.7,B Kumar,SN Thakur,CR Brathwaite,2,2,na,na
1st innings,18.1,CR Brathwaite,L Ngidi,B Kumar,1,1,na,na
1st innings,18.2,B Kumar,L Ngidi,CR Brathwaite,0,0,na,na
1st innings,18.3,B Kumar,L Ngidi,CR Brathwaite,1,1,na,na
1st innings,18.4,CR Brathwaite,L Ngidi,B Kumar,0,0,na,na
1st innings,18.5,CR Brathwaite,L Ngidi,B Kumar,1,1,na,na
1st innings,18.6,B Kumar,L Ngidi,CR Brathwaite,1,1,na,na
1st innings,19.1,B Kumar,SN Thakur,CR Brathwaite,0,0,na,na
1st innings,19.2,B Kumar,SN Thakur,CR Brathwaite,1,0,{'wides': 1},na
1st innings,19.3,B Kumar,SN Thakur,CR Brathwaite,2,2,na,na
1st innings,19.4,B Kumar,SN Thakur,CR Brathwaite,6,6,na,na
1st innings,19.5,B Kumar,SN Thakur,CR Brathwaite,4,4,na,na
1st innings,19.6,B Kumar,SN Thakur,CR Brathwaite,1,0,{'wides': 1},na
1st innings,19.7,B Kumar,SN Thakur,CR Brathwaite,6,6,na,na
1st innings,19.8,B Kumar,SN Thakur,CR Brathwaite,0,0,na,"{'player_out': 'B Kumar', 'kind': 'run out'}"
2nd innings,0.1,F du Plessis,B Kumar,SR Watson,0,0,na,na
2nd innings,0.2,F du Plessis,B Kumar,SR Watson,0,0,na,na
2nd innings,0.3,F du Plessis,B Kumar,SR Watson,0,0,na,na
2nd innings,0.4,F du Plessis,B Kumar,SR Watson,0,0,na,na
2nd innings,0.5,F du Plessis,B Kumar,SR Watson,0,0,na,"{'player_out': 'SR Watson', 'fielders': ['SP Goswami'], 'kind': 'caught'}"
2nd innings,0.6,F du Plessis,B Kumar,SK Raina,1,1,na,na
2nd innings,1.1,F du Plessis,Sandeep Sharma,SK Raina,4,4,na,na
2nd innings,1.2,F du Plessis,Sandeep Sharma,SK Raina,4,4,na,na
2nd innings,1.3,F du Plessis,Sandeep Sharma,SK Raina,4,4,na,na
2nd innings,1.4,F du Plessis,Sandeep Sharma,SK Raina,0,0,na,na
2nd innings,1.5,F du Plessis,Sandeep Sharma,SK Raina,0,0,na,na
2nd innings,1.6,F du Plessis,Sandeep Sharma,SK Raina,1,1,na,na
2nd innings,2.1,F du Plessis,B Kumar,SK Raina,2,2,na,na
2nd innings,2.2,F du Plessis,B Kumar,SK Raina,1,1,na,na
2nd innings,2.3,SK Raina,B Kumar,F du Plessis,0,0,na,na
2nd innings,2.4,SK Raina,B Kumar,F du Plessis,0,0,na,na
2nd innings,2.5,SK Raina,B Kumar,F du Plessis,1,1,na,na
2nd innings,2.6,F du Plessis,B Kumar,SK Raina,1,0,{'wides': 1},na
2nd innings,2.7,F du Plessis,B Kumar,SK Raina,1,1,na,na
2nd innings,3.1,F du Plessis,S Kaul,SK Raina,0,0,na,na
2nd innings,3.2,F du Plessis,S Kaul,SK Raina,4,4,na,na
2nd innings,3.3,F du Plessis,S Kaul,SK Raina,0,0,na,"{'player_out': 'SK Raina', 'kind': 'bowled'}"
2nd innings,3.4,F du Plessis,S Kaul,AT Rayudu,0,0,na,"{'player_out': 'AT Rayudu', 'kind': 'bowled'}"
2nd innings,3.5,F du Plessis,S Kaul,MS Dhoni,0,0,na,na
2nd innings,3.6,F du Plessis,S Kaul,MS Dhoni,0,0,na,na
2nd innings,4.1,MS Dhoni,B Kumar,F du Plessis,1,1,na,na
2nd innings,4.2,F du Plessis,B Kumar,MS Dhoni,0,0,na,na
2nd innings,4.3,F du Plessis,B Kumar,MS Dhoni,0,0,na,na
2nd innings,4.4,F du Plessis,B Kumar,MS Dhoni,0,0,na,na
2nd innings,4.5,F du Plessis,B Kumar,MS Dhoni,0,0,na,na
2nd innings,4.6,F du Plessis,B Kumar,MS Dhoni,0,0,na,na
2nd innings,5.1,MS Dhoni,S Kaul,F du Plessis,1,1,na,na
2nd innings,5.2,F du Plessis,S Kaul,MS Dhoni,0,0,na,na
2nd innings,5.3,F du Plessis,S Kaul,MS Dhoni,2,2,na,na
2nd innings,5.4,F du Plessis,S Kaul,MS Dhoni,4,4,na,na
2nd innings,5.5,F du Plessis,S Kaul,MS Dhoni,1,1,na,na
2nd innings,5.6,MS Dhoni,S Kaul,F du Plessis,0,0,na,na
2nd innings,6.1,F du Plessis,CR Brathwaite,MS Dhoni,1,0,{'wides': 1},na
2nd innings,6.2,F du Plessis,CR Brathwaite,MS Dhoni,1,1,na,na
2nd innings,6.3,MS Dhoni,CR Brathwaite,F du Plessis,0,0,na,na
2nd innings,6.4,MS Dhoni,CR Brathwaite,F du Plessis,1,1,na,na
2nd innings,6.5,F du Plessis,CR Brathwaite,MS Dhoni,0,0,na,na
2nd innings,6.6,F du Plessis,CR Brathwaite,MS Dhoni,0,0,na,na
2nd innings,6.7,F du Plessis,CR Brathwaite,MS Dhoni,1,0,{'legbyes': 1},na
2nd innings,7.1,F du Plessis,Rashid Khan,MS Dhoni,0,0,na,na
2nd innings,7.2,F du Plessis,Rashid Khan,MS Dhoni,1,1,na,na
2nd innings,7.3,MS Dhoni,Rashid Khan,F du Plessis,1,1,na,na
2nd innings,7.4,F du Plessis,Rashid Khan,MS Dhoni,0,0,na,"{'player_out': 'MS Dhoni', 'kind': 'bowled'}"
2nd innings,7.5,F du Plessis,Rashid Khan,DJ Bravo,0,0,na,na
2nd innings,7.6,F du Plessis,Rashid Khan,DJ Bravo,1,1,na,na
2nd innings,8.1,F du Plessis,CR Brathwaite,DJ Bravo,1,1,na,na
2nd innings,8.2,DJ Bravo,CR Brathwaite,F du Plessis,0,0,na,na
2nd innings,8.3,DJ Bravo,CR Brathwaite,F du Plessis,0,0,na,na
2nd innings,8.4,DJ Bravo,CR Brathwaite,F du Plessis,6,6,na,na
2nd innings,8.5,DJ Bravo,CR Brathwaite,F du Plessis,1,1,na,na
2nd innings,8.6,F du Plessis,CR Brathwaite,DJ Bravo,0,0,na,na
2nd innings,9.1,DJ Bravo,Rashid Khan,F du Plessis,0,0,na,na
2nd innings,9.2,DJ Bravo,Rashid Khan,F du Plessis,0,0,na,na
2nd innings,9.3,DJ Bravo,Rashid Khan,F du Plessis,0,0,na,na
2nd innings,9.4,DJ Bravo,Rashid Khan,F du Plessis,1,1,na,na
2nd innings,9.5,F du Plessis,Rashid Khan,DJ Bravo,0,0,na,na
2nd innings,9.6,F du Plessis,Rashid Khan,DJ Bravo,1,1,na,na
2nd innings,10.1,F du Plessis,Shakib Al Hasan,DJ Bravo,2,2,na,na
2nd innings,10.2,F du Plessis,Shakib Al Hasan,DJ Bravo,0,0,na,na
2nd innings,10.3,F du Plessis,Shakib Al Hasan,DJ Bravo,1,1,na,na
2nd innings,10.4,DJ Bravo,Shakib Al Hasan,F du Plessis,1,1,na,na
2nd innings,10.5,F du Plessis,Shakib Al Hasan,DJ Bravo,1,1,na,na
2nd innings,10.6,DJ Bravo,Shakib Al Hasan,F du Plessis,1,1,na,na
2nd innings,11.1,DJ Bravo,Rashid Khan,F du Plessis,1,1,na,na
2nd innings,11.2,F du Plessis,Rashid Khan,DJ Bravo,0,0,na,"{'player_out': 'DJ Bravo', 'fielders': ['S Dhawan'], 'kind': 'caught'}"
2nd innings,11.3,F du Plessis,Rashid Khan,RA Jadeja,2,2,na,na
2nd innings,11.4,F du Plessis,Rashid Khan,RA Jadeja,1,1,na,na
2nd innings,11.5,RA Jadeja,Rashid Khan,F du Plessis,1,1,na,na
2nd innings,11.6,F du Plessis,Rashid Khan,RA Jadeja,0,0,na,na
2nd innings,12.1,RA Jadeja,Sandeep Sharma,F du Plessis,1,1,na,na
2nd innings,12.2,F du Plessis,Sandeep Sharma,RA Jadeja,0,0,na,na
2nd innings,12.3,F du Plessis,Sandeep Sharma,RA Jadeja,0,0,na,"{'player_out': 'RA Jadeja', 'kind': 'caught and bowled'}"
2nd innings,12.4,F du Plessis,Sandeep Sharma,DL Chahar,1,1,na,na
2nd innings,12.5,DL Chahar,Sandeep Sharma,F du Plessis,2,2,na,na
2nd innings,12.6,DL Chahar,Sandeep Sharma,F du Plessis,1,1,na,na
2nd innings,13.1,DL Chahar,Shakib Al Hasan,F du Plessis,1,1,na,na
2nd innings,13.2,F du Plessis,Shakib Al Hasan,DL Chahar,1,1,na,na
2nd innings,13.3,DL Chahar,Shakib Al Hasan,F du Plessis,1,1,na,na
2nd innings,13.4,F du Plessis,Shakib Al Hasan,DL Chahar,1,1,na,na
2nd innings,13.5,DL Chahar,Shakib Al Hasan,F du Plessis,4,4,na,na
2nd innings,13.6,DL Chahar,Shakib Al Hasan,F du Plessis,6,6,na,na
2nd innings,14.1,F du Plessis,Sandeep Sharma,DL Chahar,6,6,na,na
2nd innings,14.2,F du Plessis,Sandeep Sharma,DL Chahar,1,1,na,na
2nd innings,14.3,DL Chahar,Sandeep Sharma,F du Plessis,0,0,na,na
2nd innings,14.4,DL Chahar,Sandeep Sharma,F du Plessis,4,4,na,na
2nd innings,14.5,DL Chahar,Sandeep Sharma,F du Plessis,1,1,na,na
2nd innings,14.6,F du Plessis,Sandeep Sharma,DL Chahar,0,0,na,"{'player_out': 'DL Chahar', 'fielders': ['CR Brathwaite'], 'kind': 'caught'}"
2nd innings,15.1,Harbhajan Singh,Rashid Khan,F du Plessis,0,0,na,na
2nd innings,15.2,Harbhajan Singh,Rashid Khan,F du Plessis,1,1,na,na
2nd innings,15.3,F du Plessis,Rashid Khan,Harbhajan Singh,0,0,na,na
2nd innings,15.4,F du Plessis,Rashid Khan,Harbhajan Singh,0,0,na,na
2nd innings,15.5,F du Plessis,Rashid Khan,Harbhajan Singh,0,0,na,na
2nd innings,15.6,F du Plessis,Rashid Khan,Harbhajan Singh,0,0,na,na
2nd innings,16.1,Harbhajan Singh,S Kaul,F du Plessis,1,1,na,na
2nd innings,16.2,F du Plessis,S Kaul,Harbhajan Singh,0,0,na,na
2nd innings,16.3,F du Plessis,S Kaul,Harbhajan Singh,1,0,{'legbyes': 1},na
2nd innings,16.4,Harbhajan Singh,S Kaul,F du Plessis,1,1,na,na
2nd innings,16.5,F du Plessis,S Kaul,Harbhajan Singh,0,0,na,na
2nd innings,16.6,F du Plessis,S Kaul,Harbhajan Singh,1,1,na,na
2nd innings,17.1,F du Plessis,CR Brathwaite,Harbhajan Singh,1,1,na,na
2nd innings,17.2,Harbhajan Singh,CR Brathwaite,F du Plessis,4,4,na,na
2nd innings,17.3,Harbhajan Singh,CR Brathwaite,F du Plessis,6,6,na,na
2nd innings,17.4,Harbhajan Singh,CR Brathwaite,F du Plessis,4,4,na,na
2nd innings,17.5,Harbhajan Singh,CR Brathwaite,F du Plessis,1,1,na,"{'player_out': 'Harbhajan Singh', 'kind': 'run out'}"
2nd innings,17.6,SN Thakur,CR Brathwaite,F du Plessis,4,4,na,na
2nd innings,18.1,F du Plessis,S Kaul,SN Thakur,4,4,na,na
2nd innings,18.2,F du Plessis,S Kaul,SN Thakur,4,4,na,na
2nd innings,18.3,F du Plessis,S Kaul,SN Thakur,1,1,na,na
2nd innings,18.4,SN Thakur,S Kaul,F du Plessis,1,0,{'wides': 1},na
2nd innings,18.5,SN Thakur,S Kaul,F du Plessis,1,1,na,na
2nd innings,18.6,F du Plessis,S Kaul,SN Thakur,2,2,na,na
2nd innings,18.7,F du Plessis,S Kaul,SN Thakur,4,4,na,na
2nd innings,19.1,SN Thakur,B Kumar,F du Plessis,6,6,na,na
