innings,deliveries,non_striker,bowler,batsman,total_runs,batsman_runs,extras,wickets
1st innings,0.1,F du Plessis,B Kumar,SR Watson,0,0,na,na
1st innings,0.2,F du Plessis,B Kumar,SR Watson,1,1,na,na
1st innings,0.3,SR Watson,B Kumar,F du Plessis,0,0,na,na
1st innings,0.4,SR Watson,B Kumar,F du Plessis,1,1,na,na
1st innings,0.5,F du Plessis,B Kumar,SR Watson,0,0,na,na
1st innings,0.6,F du Plessis,B Kumar,SR Watson,0,0,na,na
1st innings,1.1,SR Watson,B Stanlake,F du Plessis,1,1,na,na
1st innings,1.2,F du Plessis,B Stanlake,SR Watson,0,0,na,na
1st innings,1.3,F du Plessis,B Stanlake,SR Watson,0,0,na,na
1st innings,1.4,F du Plessis,B Stanlake,SR Watson,1,0,{'wides': 1},na
1st innings,1.5,F du Plessis,B Stanlake,SR Watson,0,0,na,na
1st innings,1.6,F du Plessis,B Stanlake,SR Watson,0,0,na,na
1st innings,1.7,F du Plessis,B Stanlake,SR Watson,0,0,na,na
1st innings,2.1,SR Watson,Shakib Al Hasan,F du Plessis,0,0,na,na
1st innings,2.2,SR Watson,Shakib Al Hasan,F du Plessis,1,1,na,na
1st innings,2.3,F du Plessis,Shakib Al Hasan,SR Watson,1,1,na,na
1st innings,2.4,SR Watson,Shakib Al Hasan,F du Plessis,1,1,na,na
1st innings,2.5,F du Plessis,Shakib Al Hasan,SR Watson,0,0,na,na
1st innings,2.6,F du Plessis,Shakib Al Hasan,SR Watson,1,1,na,na
1st innings,3.1,F du Plessis,B Kumar,SR Watson,0,0,na,na
1st innings,3.2,F du Plessis,B Kumar,SR Watson,6,6,na,na
1st innings,3.3,F du Plessis,B Kumar,SR Watson,0,0,na,"{'player_out': 'SR Watson', 'fielders': ['DJ Hooda'], 'kind': 'caught'}"
1st innings,3.4,F du Plessis,B Kumar,SK Raina,0,0,na,na
1st innings,3.5,F du Plessis,B Kumar,SK Raina,0,0,na,na
1st innings,3.6,F du Plessis,B Kumar,SK Raina,1,1,na,na
1st innings,4.1,F du Plessis,B Stanlake,SK Raina,0,0,na,na
1st innings,4.2,F du Plessis,B Stanlake,SK Raina,0,0,na,na
1st innings,4.3,F du Plessis,B Stanlake,SK Raina,4,4,na,na
1st innings,4.4,F du Plessis,B Stanlake,SK Raina,0,0,na,na
1st innings,4.5,F du Plessis,B Stanlake,SK Raina,2,2,na,na
1st innings,4.6,F du Plessis,B Stanlake,SK Raina,0,0,na,na
1st innings,5.1,SK Raina,S Kaul,F du Plessis,4,4,na,na
1st innings,5.2,SK Raina,S Kaul,F du Plessis,0,0,na,na
1st innings,5.3,SK Raina,S Kaul,F du Plessis,0,0,na,na
1st innings,5.4,SK Raina,S Kaul,F du Plessis,1,1,na,na
1st innings,5.5,F du Plessis,S Kaul,SK Raina,0,0,na,na
1st innings,5.6,F du Plessis,S Kaul,SK Raina,1,1,na,na
1st innings,6.1,F du Plessis,Shakib Al Hasan,SK Raina,0,0,na,na
1st innings,6.2,F du Plessis,Shakib Al Hasan,SK Raina,1,1,na,na
1st innings,6.3,SK Raina,Shakib Al Hasan,F du Plessis,1,1,na,na
1st innings,6.4,F du Plessis,Shakib Al Hasan,SK Raina,0,0,na,na
1st innings,6.5,F du Plessis,Shakib Al Hasan,SK Raina,1,0,{'wides': 1},na
1st innings,6.6,F du Plessis,Shakib Al Hasan,SK Raina,1,1,na,na
1st innings,6.7,SK Raina,Shakib Al Hasan,F du Plessis,1,1,na,na
1st innings,7.1,SK Raina,Rashid Khan,F du Plessis,0,0,na,"{'player_out': 'F du Plessis', 'fielders': ['WP Saha'], 'kind': 'stumped'}"
1st innings,7.2,SK Raina,Rashid Khan,AT Rayudu,0,0,na,na
1st innings,7.3,SK Raina,Rashid Khan,AT Rayudu,4,4,na,na
1st innings,7.4,SK Raina,Rashid Khan,AT Rayudu,0,0,na,na
1st innings,7.5,SK Raina,Rashid Khan,AT Rayudu,1,1,na,na
1st innings,7.6,AT Rayudu,Rashid Khan,SK Raina,0,0,na,na
1st innings,8.1,SK Raina,S Kaul,AT Rayudu,1,1,na,na
1st innings,8.2,AT Rayudu,S Kaul,SK Raina,0,0,na,na
1st innings,8.3,AT Rayudu,S Kaul,SK Raina,0,0,na,na
1st innings,8.4,AT Rayudu,S Kaul,SK Raina,0,0,na,na
1st innings,8.5,AT Rayudu,S Kaul,SK Raina,1,1,na,na
1st innings,8.6,SK Raina,S Kaul,AT Rayudu,1,0,{'wides': 1},na
1st innings,8.7,SK Raina,S Kaul,AT Rayudu,1,1,na,na
1st innings,9.1,SK Raina,B Kumar,AT Rayudu,0,0,na,na
1st innings,9.2,SK Raina,B Kumar,AT Rayudu,6,6,na,na
1st innings,9.3,SK Raina,B Kumar,AT Rayudu,1,1,na,na
1st innings,9.4,AT Rayudu,B Kumar,SK Raina,1,1,na,na
1st innings,9.5,SK Raina,B Kumar,AT Rayudu,1,1,na,na
1st innings,9.6,AT Rayudu,B Kumar,SK Raina,4,4,na,na
1st innings,10.1,SK Raina,DJ Hooda,AT Rayudu,4,4,na,na
1st innings,10.2,SK Raina,DJ Hooda,AT Rayudu,1,1,na,na
1st innings,10.3,AT Rayudu,DJ Hooda,SK Raina,0,0,na,na
1st innings,10.4,AT Rayudu,DJ Hooda,SK Raina,1,1,na,na
1st innings,10.5,SK Raina,DJ Hooda,AT Rayudu,1,1,na,na
1st innings,10.6,AT Rayudu,DJ Hooda,SK Raina,1,1,na,na
1st innings,11.1,AT Rayudu,Rashid Khan,SK Raina,1,1,na,na
1st innings,11.2,SK Raina,Rashid Khan,AT Rayudu,1,1,na,na
1st innings,11.3,AT Rayudu,Rashid Khan,SK Raina,1,1,na,na
1st innings,11.4,SK Raina,Rashid Khan,AT Rayudu,1,1,na,na
1st innings,11.5,AT Rayudu,Rashid Khan,SK Raina,6,6,na,na
1st innings,11.6,AT Rayudu,Rashid Khan,SK Raina,6,6,na,na
1st innings,12.1,SK Raina,Shakib Al Hasan,AT Rayudu,2,2,na,na
1st innings,12.2,SK Raina,Shakib Al Hasan,AT Rayudu,1,1,na,na
1st innings,12.3,AT Rayudu,Shakib Al Hasan,SK Raina,1,1,na,na
1st innings,12.4,SK Raina,Shakib Al Hasan,AT Rayudu,0,0,na,na
1st innings,12.5,SK Raina,Shakib Al Hasan,AT Rayudu,4,4,na,na
1st innings,12.6,SK Raina,Shakib Al Hasan,AT Rayudu,1,1,na,na
1st innings,13.1,SK Raina,B Stanlake,AT Rayudu,0,0,na,na
1st innings,13.2,SK Raina,B Stanlake,AT Rayudu,4,4,na,na
1st innings,13.3,SK Raina,B Stanlake,AT Rayudu,0,0,na,na
1st innings,13.4,SK Raina,B Stanlake,AT Rayudu,4,4,na,na
1st innings,13.5,SK Raina,B Stanlake,AT Rayudu,1,0,{'wides': 1},na
1st innings,13.6,SK Raina,B Stanlake,AT Rayudu,6,6,na,na
1st innings,13.7,SK Raina,B Stanlake,AT Rayudu,4,4,na,na
1st innings,14.1,AT Rayudu,Shakib Al Hasan,SK Raina,1,1,na,na
1st innings,14.2,SK Raina,Shakib Al Hasan,AT Rayudu,1,1,na,na
1st innings,14.3,AT Rayudu,Shakib Al Hasan,SK Raina,1,1,na,na
1st innings,14.4,SK Raina,Shakib Al Hasan,AT Rayudu,6,6,na,na
1st innings,14.5,SK Raina,Shakib Al Hasan,AT Rayudu,4,4,na,na
1st innings,14.6,SK Raina,Shakib Al Hasan,AT Rayudu,1,1,na,na
1st innings,15.1,SK Raina,Rashid Khan,AT Rayudu,1,1,na,na
1st innings,15.2,AT Rayudu,Rashid Khan,SK Raina,1,1,na,na
1st innings,15.3,SK Raina,Rashid Khan,AT Rayudu,4,4,na,na
1st innings,15.4,SK Raina,Rashid Khan,AT Rayudu,6,6,na,na
1st innings,15.5,SK Raina,Rashid Khan,AT Rayudu,1,1,na,na
1st innings,15.6,AT Rayudu,Rashid Khan,SK Raina,4,4,na,na
1st innings,16.1,SK Raina,S Kaul,AT Rayudu,1,1,na,na
1st innings,16.2,AT Rayudu,S Kaul,SK Raina,1,1,na,na
1st innings,16.3,SK Raina,S Kaul,AT Rayudu,4,4,na,na
1st innings,16.4,SK Raina,S Kaul,AT Rayudu,1,1,na,"{'player_out': 'AT Rayudu', 'kind': 'run out'}"
1st innings,16.5,MS Dhoni,S Kaul,SK Raina,1,1,na,na
1st innings,16.6,SK Raina,S Kaul,MS Dhoni,1,1,na,na
1st innings,17.1,SK Raina,Rashid Khan,MS Dhoni,0,0,na,na
1st innings,17.2,SK Raina,Rashid Khan,MS Dhoni,4,4,na,na
1st innings,17.3,SK Raina,Rashid Khan,MS Dhoni,1,1,na,na
1st innings,17.4,MS Dhoni,Rashid Khan,SK Raina,1,1,na,na
1st innings,17.5,SK Raina,Rashid Khan,MS Dhoni,1,1,na,na
1st innings,17.6,MS Dhoni,Rashid Khan,SK Raina,4,4,na,na
1st innings,18.1,SK Raina,S Kaul,MS Dhoni,4,4,na,na
1st innings,18.2,SK Raina,S Kaul,MS Dhoni,1,1,na,na
1st innings,18.3,MS Dhoni,S Kaul,SK Raina,4,4,na,na
1st innings,18.4,MS Dhoni,S Kaul,SK Raina,1,1,na,na
1st innings,18.5,SK Raina,S Kaul,MS Dhoni,4,4,na,na
1st innings,18.6,SK Raina,S Kaul,MS Dhoni,0,0,na,na
1st innings,19.1,MS Dhoni,B Stanlake,SK Raina,1,1,na,na
1st innings,19.2,SK Raina,B Stanlake,MS Dhoni,6,6,na,na
1st innings,19.3,SK Raina,B Stanlake,MS Dhoni,1,1,na,na
1st innings,19.4,MS Dhoni,B Stanlake,SK Raina,0,0,na,na
1st innings,19.5,MS Dhoni,B Stanlake,SK Raina,1,1,na,na
1st innings,19.6,SK Raina,B Stanlake,MS Dhoni,2,2,na,na
2nd innings,0.1,KS Williamson,DL Chahar,RK Bhui,0,0,na,na
2nd innings,0.2,KS Williamson,DL Chahar,RK Bhui,0,0,na,na
2nd innings,0.3,KS Williamson,DL Chahar,RK Bhui,0,0,na,na
2nd innings,0.4,KS Williamson,DL Chahar,RK Bhui,0,0,na,na
2nd innings,0.5,KS Williamson,DL Chahar,RK Bhui,0,0,na,"{'player_out': 'RK Bhui', 'fielders': ['SR Watson'], 'kind': 'caught'}"
2nd innings,0.6,KS Williamson,DL Chahar,MK Pandey,0,0,na,na
2nd innings,1.1,MK Pandey,SN Thakur,KS Williamson,0,0,na,na
2nd innings,1.2,MK Pandey,SN Thakur,KS Williamson,2,2,na,na
2nd innings,1.3,MK Pandey,SN Thakur,KS Williamson,0,0,na,na
2nd innings,1.4,MK Pandey,SN Thakur,KS Williamson,4,4,na,na
2nd innings,1.5,MK Pandey,SN Thakur,KS Williamson,0,0,na,na
2nd innings,1.6,MK Pandey,SN Thakur,KS Williamson,4,4,na,na
2nd innings,2.1,KS Williamson,DL Chahar,MK Pandey,0,0,na,"{'player_out': 'MK Pandey', 'fielders': ['KV Sharma'], 'kind': 'caught'}"
2nd innings,2.2,DJ Hooda,DL Chahar,KS Williamson,1,1,na,na
2nd innings,2.3,KS Williamson,DL Chahar,DJ Hooda,0,0,na,na
2nd innings,2.4,KS Williamson,DL Chahar,DJ Hooda,0,0,na,na
2nd innings,2.5,KS Williamson,DL Chahar,DJ Hooda,0,0,na,na
2nd innings,2.6,KS Williamson,DL Chahar,DJ Hooda,0,0,na,na
2nd innings,3.1,DJ Hooda,SN Thakur,KS Williamson,1,0,{'wides': 1},na
2nd innings,3.2,DJ Hooda,SN Thakur,KS Williamson,1,1,na,na
2nd innings,3.3,KS Williamson,SN Thakur,DJ Hooda,1,1,na,na
2nd innings,3.4,DJ Hooda,SN Thakur,KS Williamson,0,0,na,na
2nd innings,3.5,DJ Hooda,SN Thakur,KS Williamson,4,4,na,na
2nd innings,3.6,DJ Hooda,SN Thakur,KS Williamson,0,0,na,na
2nd innings,3.7,DJ Hooda,SN Thakur,KS Williamson,4,4,na,na
2nd innings,4.1,KS Williamson,DL Chahar,DJ Hooda,0,0,na,na
2nd innings,4.2,KS Williamson,DL Chahar,DJ Hooda,0,0,na,"{'player_out': 'DJ Hooda', 'fielders': ['RA Jadeja'], 'kind': 'caught'}"
2nd innings,4.3,Shakib Al Hasan,DL Chahar,KS Williamson,0,0,na,na
2nd innings,4.4,Shakib Al Hasan,DL Chahar,KS Williamson,6,6,na,na
2nd innings,4.5,Shakib Al Hasan,DL Chahar,KS Williamson,0,0,na,na
2nd innings,4.6,Shakib Al Hasan,DL Chahar,KS Williamson,0,0,na,na
2nd innings,5.1,KS Williamson,SR Watson,Shakib Al Hasan,0,0,na,na
2nd innings,5.2,KS Williamson,SR Watson,Shakib Al Hasan,4,4,na,na
2nd innings,5.3,KS Williamson,SR Watson,Shakib Al Hasan,1,1,na,na
2nd innings,5.4,Shakib Al Hasan,SR Watson,KS Williamson,1,1,na,na
2nd innings,5.5,KS Williamson,SR Watson,Shakib Al Hasan,0,0,na,na
2nd innings,5.6,KS Williamson,SR Watson,Shakib Al Hasan,6,6,na,na
2nd innings,6.1,Shakib Al Hasan,RA Jadeja,KS Williamson,1,1,na,na
2nd innings,6.2,KS Williamson,RA Jadeja,Shakib Al Hasan,1,1,na,na
2nd innings,6.3,Shakib Al Hasan,RA Jadeja,KS Williamson,0,0,na,na
2nd innings,6.4,Shakib Al Hasan,RA Jadeja,KS Williamson,0,0,na,na
2nd innings,6.5,Shakib Al Hasan,RA Jadeja,KS Williamson,1,1,na,na
2nd innings,6.6,KS Williamson,RA Jadeja,Shakib Al Hasan,0,0,na,na
2nd innings,7.1,Shakib Al Hasan,DL Chahar,KS Williamson,1,1,na,na
2nd innings,7.2,KS Williamson,DL Chahar,Shakib Al Hasan,1,1,na,na
2nd innings,7.3,Shakib Al Hasan,DL Chahar,KS Williamson,1,1,na,na
2nd innings,7.4,KS Williamson,DL Chahar,Shakib Al Hasan,0,0,na,na
2nd innings,7.5,KS Williamson,DL Chahar,Shakib Al Hasan,4,4,na,na
2nd innings,7.6,KS Williamson,DL Chahar,Shakib Al Hasan,1,1,na,na
2nd innings,8.1,KS Williamson,RA Jadeja,Shakib Al Hasan,1,1,na,na
2nd innings,8.2,Shakib Al Hasan,RA Jadeja,KS Williamson,4,4,na,na
2nd innings,8.3,Shakib Al Hasan,RA Jadeja,KS Williamson,0,0,na,na
2nd innings,8.4,Shakib Al Hasan,RA Jadeja,KS Williamson,2,2,na,na
2nd innings,8.5,Shakib Al Hasan,RA Jadeja,KS Williamson,1,1,na,na
2nd innings,8.6,KS Williamson,RA Jadeja,Shakib Al Hasan,1,1,na,na
2nd innings,9.1,KS Williamson,SR Watson,Shakib Al Hasan,1,1,na,na
2nd innings,9.2,Shakib Al Hasan,SR Watson,KS Williamson,4,4,na,na
2nd innings,9.3,Shakib Al Hasan,SR Watson,KS Williamson,2,2,na,na
2nd innings,9.4,Shakib Al Hasan,SR Watson,KS Williamson,1,1,na,na
2nd innings,9.5,KS Williamson,SR Watson,Shakib Al Hasan,2,2,na,na
2nd innings,9.6,KS Williamson,SR Watson,Shakib Al Hasan,1,1,na,na
2nd innings,10.1,KS Williamson,KV Sharma,Shakib Al Hasan,0,0,na,na
2nd innings,10.2,KS Williamson,KV Sharma,Shakib Al Hasan,0,0,na,na
2nd innings,10.3,KS Williamson,KV Sharma,Shakib Al Hasan,0,0,na,"{'player_out': 'Shakib Al Hasan', 'fielders': ['SK Raina'], 'kind': 'caught'}"
2nd innings,10.4,KS Williamson,KV Sharma,YK Pathan,0,0,na,na
2nd innings,10.5,KS Williamson,KV Sharma,YK Pathan,1,1,na,na
2nd innings,10.6,YK Pathan,KV Sharma,KS Williamson,1,1,na,na
2nd innings,11.1,YK Pathan,RA Jadeja,KS Williamson,1,1,na,na
2nd innings,11.2,KS Williamson,RA Jadeja,YK Pathan,1,1,na,na
2nd innings,11.3,YK Pathan,RA Jadeja,KS Williamson,1,1,na,na
2nd innings,11.4,KS Williamson,RA Jadeja,YK Pathan,1,1,na,na
2nd innings,11.5,YK Pathan,RA Jadeja,KS Williamson,1,1,na,na
2nd innings,11.6,KS Williamson,RA Jadeja,YK Pathan,0,0,na,na
2nd innings,12.1,YK Pathan,KV Sharma,KS Williamson,1,1,na,na
2nd innings,12.2,KS Williamson,KV Sharma,YK Pathan,0,0,na,na
2nd innings,12.3,KS Williamson,KV Sharma,YK Pathan,1,1,na,na
2nd innings,12.4,YK Pathan,KV Sharma,KS Williamson,1,1,na,na
2nd innings,12.5,KS Williamson,KV Sharma,YK Pathan,2,2,na,na
2nd innings,12.6,KS Williamson,KV Sharma,YK Pathan,1,1,na,na
2nd innings,13.1,KS Williamson,RA Jadeja,YK Pathan,1,1,na,na
2nd innings,13.2,YK Pathan,RA Jadeja,KS Williamson,1,1,na,na
2nd innings,13.3,KS Williamson,RA Jadeja,YK Pathan,1,0,{'wides': 1},na
2nd innings,13.4,KS Williamson,RA Jadeja,YK Pathan,1,1,na,na
2nd innings,13.5,YK Pathan,RA Jadeja,KS Williamson,0,0,na,na
2nd innings,13.6,YK Pathan,RA Jadeja,KS Williamson,6,6,na,na
2nd innings,13.7,YK Pathan,RA Jadeja,KS Williamson,1,1,na,na
2nd innings,14.1,YK Pathan,KV Sharma,KS Williamson,2,2,na,na
2nd innings,14.2,YK Pathan,KV Sharma,KS Williamson,6,6,na,na
2nd innings,14.3,YK Pathan,KV Sharma,KS Williamson,1,1,na,na
2nd innings,14.4,KS Williamson,KV Sharma,YK Pathan,1,1,na,na
2nd innings,14.5,YK Pathan,KV Sharma,KS Williamson,6,6,na,na
2nd innings,14.6,YK Pathan,KV Sharma,KS Williamson,6,6,na,na
2nd innings,15.1,KS Williamson,DJ Bravo,YK Pathan,1,1,na,na
2nd innings,15.2,YK Pathan,DJ Bravo,KS Williamson,1,1,na,na
2nd innings,15.3,KS Williamson,DJ Bravo,YK Pathan,0,0,na,na
2nd innings,15.4,KS Williamson,DJ Bravo,YK Pathan,6,6,na,na
2nd innings,15.5,KS Williamson,DJ Bravo,YK Pathan,0,0,na,na
2nd innings,15.6,KS Williamson,DJ Bravo,YK Pathan,6,6,na,na
2nd innings,16.1,YK Pathan,SN Thakur,KS Williamson,2,2,na,na
2nd innings,16.2,YK Pathan,SN Thakur,KS Williamson,1,1,na,na
2nd innings,16.3,KS Williamson,SN Thakur,YK Pathan,6,6,na,na
2nd innings,16.4,KS Williamson,SN Thakur,YK Pathan,1,1,na,na
2nd innings,16.5,YK Pathan,SN Thakur,KS Williamson,0,0,na,na
2nd innings,16.6,YK Pathan,SN Thakur,KS Williamson,0,0,na,na
2nd innings,17.1,KS Williamson,DJ Bravo,YK Pathan,4,4,na,na
2nd innings,17.2,KS Williamson,DJ Bravo,YK Pathan,0,0,na,na
2nd innings,17.3,KS Williamson,DJ Bravo,YK Pathan,2,2,na,na
2nd innings,17.4,KS Williamson,DJ Bravo,YK Pathan,2,2,na,na
2nd innings,17.5,KS Williamson,DJ Bravo,YK Pathan,1,1,na,na
2nd innings,17.6,YK Pathan,DJ Bravo,KS Williamson,0,0,na,"{'player_out': 'KS Williamson', 'fielders': ['RA Jadeja'], 'kind': 'caught'}"
2nd innings,18.1,YK Pathan,SN Thakur,WP Saha,1,1,na,na
2nd innings,18.2,WP Saha,SN Thakur,YK Pathan,6,6,na,na
2nd innings,18.3,WP Saha,SN Thakur,YK Pathan,0,0,na,na
2nd innings,18.4,WP Saha,SN Thakur,YK Pathan,0,0,na,"{'player_out': 'YK Pathan', 'fielders': ['SK Raina'], 'kind': 'caught'}"
2nd innings,18.5,Rashid Khan,SN Thakur,WP Saha,1,1,na,na
2nd innings,18.6,WP Saha,SN Thakur,Rashid Khan,6,6,na,na
2nd innings,19.1,Rashid Khan,DJ Bravo,WP Saha,0,0,na,na
2nd innings,19.2,Rashid Khan,DJ Bravo,WP Saha,2,2,na,na
2nd innings,19.3,Rashid Khan,DJ Bravo,WP Saha,1,1,na,na
2nd innings,19.4,WP Saha,DJ Bravo,Rashid Khan,6,6,na,na
2nd innings,19.5,WP Saha,DJ Bravo,Rashid Khan,4,4,na,na
2nd innings,19.6,WP Saha,DJ Bravo,Rashid Khan,1,1,na,na
