innings,deliveries,non_striker,bowler,batsman,total_runs,batsman_runs,extras,wickets
1st innings,0.1,AT Rayudu,MJ McClenaghan,SR Watson,1,1,na,na
1st innings,0.2,SR Watson,MJ McClenaghan,AT Rayudu,0,0,na,na
1st innings,0.3,SR Watson,MJ McClenaghan,AT Rayudu,6,6,na,na
1st innings,0.4,SR Watson,MJ McClenaghan,AT Rayudu,0,0,na,na
1st innings,0.5,SR Watson,MJ McClenaghan,AT Rayudu,1,1,na,na
1st innings,0.6,AT Rayudu,MJ McClenaghan,SR Watson,0,0,na,na
1st innings,1.1,SR Watson,JJ Bumrah,AT Rayudu,0,0,na,na
1st innings,1.2,SR Watson,JJ Bumrah,AT Rayudu,0,0,na,na
1st innings,1.3,SR Watson,JJ Bumrah,AT Rayudu,0,0,na,na
1st innings,1.4,SR Watson,JJ Bumrah,AT Rayudu,0,0,na,na
1st innings,1.5,SR Watson,JJ Bumrah,AT Rayudu,1,1,na,na
1st innings,1.6,AT Rayudu,JJ Bumrah,SR Watson,1,1,na,na
1st innings,2.1,AT Rayudu,MJ McClenaghan,SR Watson,0,0,na,na
1st innings,2.2,AT Rayudu,MJ McClenaghan,SR Watson,4,4,na,na
1st innings,2.3,AT Rayudu,MJ McClenaghan,SR Watson,0,0,na,na
1st innings,2.4,AT Rayudu,MJ McClenaghan,SR Watson,1,1,na,na
1st innings,2.5,SR Watson,MJ McClenaghan,AT Rayudu,1,1,na,na
1st innings,2.6,AT Rayudu,MJ McClenaghan,SR Watson,2,2,na,na
1st innings,3.1,SR Watson,HH Pandya,AT Rayudu,1,1,na,na
1st innings,3.2,AT Rayudu,HH Pandya,SR Watson,1,1,na,na
1st innings,3.3,SR Watson,HH Pandya,AT Rayudu,0,0,na,na
1st innings,3.4,SR Watson,HH Pandya,AT Rayudu,4,4,na,na
1st innings,3.5,SR Watson,HH Pandya,AT Rayudu,0,0,na,na
1st innings,3.6,SR Watson,HH Pandya,AT Rayudu,0,0,na,na
1st innings,4.1,AT Rayudu,KH Pandya,SR Watson,2,2,na,na
1st innings,4.2,AT Rayudu,KH Pandya,SR Watson,0,0,na,"{'player_out': 'SR Watson', 'fielders': ['M Markande'], 'kind': 'caught'}"
1st innings,4.3,SK Raina,KH Pandya,AT Rayudu,6,6,na,na
1st innings,4.4,SK Raina,KH Pandya,AT Rayudu,1,1,na,na
1st innings,4.5,AT Rayudu,KH Pandya,SK Raina,0,0,na,na
1st innings,4.6,AT Rayudu,KH Pandya,SK Raina,6,6,na,na
1st innings,5.1,SK Raina,HH Pandya,AT Rayudu,1,1,na,na
1st innings,5.2,AT Rayudu,HH Pandya,SK Raina,1,0,{'legbyes': 1},na
1st innings,5.3,SK Raina,HH Pandya,AT Rayudu,0,0,na,na
1st innings,5.4,SK Raina,HH Pandya,AT Rayudu,0,0,na,na
1st innings,5.5,SK Raina,HH Pandya,AT Rayudu,4,4,na,na
1st innings,5.6,SK Raina,HH Pandya,AT Rayudu,6,6,na,na
1st innings,6.1,AT Rayudu,KH Pandya,SK Raina,4,4,na,na
1st innings,6.2,AT Rayudu,KH Pandya,SK Raina,0,0,na,na
1st innings,6.3,AT Rayudu,KH Pandya,SK Raina,0,0,na,na
1st innings,6.4,AT Rayudu,KH Pandya,SK Raina,1,0,{'wides': 1},na
1st innings,6.5,AT Rayudu,KH Pandya,SK Raina,1,1,na,na
1st innings,6.6,SK Raina,KH Pandya,AT Rayudu,1,1,na,na
1st innings,6.7,AT Rayudu,KH Pandya,SK Raina,2,2,na,na
1st innings,7.1,SK Raina,M Markande,AT Rayudu,1,1,na,na
1st innings,7.2,AT Rayudu,M Markande,SK Raina,1,1,na,na
1st innings,7.3,SK Raina,M Markande,AT Rayudu,0,0,na,na
1st innings,7.4,SK Raina,M Markande,AT Rayudu,1,1,na,na
1st innings,7.5,AT Rayudu,M Markande,SK Raina,0,0,na,na
1st innings,7.6,AT Rayudu,M Markande,SK Raina,0,0,na,na
1st innings,8.1,SK Raina,BCJ Cutting,AT Rayudu,1,0,{'wides': 1},na
1st innings,8.2,SK Raina,BCJ Cutting,AT Rayudu,6,6,na,na
1st innings,8.3,SK Raina,BCJ Cutting,AT Rayudu,1,1,na,na
1st innings,8.4,AT Rayudu,BCJ Cutting,SK Raina,4,4,na,na
1st innings,8.5,AT Rayudu,BCJ Cutting,SK Raina,1,1,na,na
1st innings,8.6,SK Raina,BCJ Cutting,AT Rayudu,0,0,na,na
1st innings,8.7,SK Raina,BCJ Cutting,AT Rayudu,1,1,na,na
1st innings,9.1,SK Raina,M Markande,AT Rayudu,1,1,na,na
1st innings,9.2,AT Rayudu,M Markande,SK Raina,1,1,na,na
1st innings,9.3,SK Raina,M Markande,AT Rayudu,1,1,na,na
1st innings,9.4,AT Rayudu,M Markande,SK Raina,4,4,na,na
1st innings,9.5,AT Rayudu,M Markande,SK Raina,6,6,na,na
1st innings,9.6,AT Rayudu,M Markande,SK Raina,1,1,na,na
1st innings,10.1,AT Rayudu,MJ McClenaghan,SK Raina,4,4,na,na
1st innings,10.2,AT Rayudu,MJ McClenaghan,SK Raina,0,0,na,na
1st innings,10.3,AT Rayudu,MJ McClenaghan,SK Raina,1,1,na,na
1st innings,10.4,SK Raina,MJ McClenaghan,AT Rayudu,1,1,na,na
1st innings,10.5,AT Rayudu,MJ McClenaghan,SK Raina,0,0,na,na
1st innings,10.6,AT Rayudu,MJ McClenaghan,SK Raina,0,0,na,na
1st innings,11.1,SK Raina,KH Pandya,AT Rayudu,0,0,na,na
1st innings,11.2,SK Raina,KH Pandya,AT Rayudu,0,0,na,"{'player_out': 'AT Rayudu', 'fielders': ['BCJ Cutting'], 'kind': 'caught'}"
1st innings,11.3,SK Raina,KH Pandya,MS Dhoni,0,0,na,na
1st innings,11.4,SK Raina,KH Pandya,MS Dhoni,0,0,na,na
1st innings,11.5,SK Raina,KH Pandya,MS Dhoni,1,1,na,na
1st innings,11.6,MS Dhoni,KH Pandya,SK Raina,1,1,na,na
1st innings,12.1,MS Dhoni,JJ Bumrah,SK Raina,0,0,na,na
1st innings,12.2,MS Dhoni,JJ Bumrah,SK Raina,1,1,na,na
1st innings,12.3,SK Raina,JJ Bumrah,MS Dhoni,0,0,na,na
1st innings,12.4,SK Raina,JJ Bumrah,MS Dhoni,0,0,na,na
1st innings,12.5,SK Raina,JJ Bumrah,MS Dhoni,0,0,na,na
1st innings,12.6,SK Raina,JJ Bumrah,MS Dhoni,0,0,na,na
1st innings,13.1,MS Dhoni,KH Pandya,SK Raina,0,0,na,na
1st innings,13.2,MS Dhoni,KH Pandya,SK Raina,2,2,na,na
1st innings,13.3,MS Dhoni,KH Pandya,SK Raina,1,1,na,na
1st innings,13.4,SK Raina,KH Pandya,MS Dhoni,1,1,na,na
1st innings,13.5,MS Dhoni,KH Pandya,SK Raina,1,1,na,na
1st innings,13.6,SK Raina,KH Pandya,MS Dhoni,1,1,na,na
1st innings,14.1,SK Raina,HH Pandya,MS Dhoni,1,1,na,na
1st innings,14.2,MS Dhoni,HH Pandya,SK Raina,0,0,na,na
1st innings,14.3,MS Dhoni,HH Pandya,SK Raina,1,1,na,na
1st innings,14.4,SK Raina,HH Pandya,MS Dhoni,4,4,na,na
1st innings,14.5,SK Raina,HH Pandya,MS Dhoni,4,4,na,na
1st innings,14.6,SK Raina,HH Pandya,MS Dhoni,1,1,na,na
1st innings,15.1,SK Raina,M Markande,MS Dhoni,0,0,na,na
1st innings,15.2,SK Raina,M Markande,MS Dhoni,4,4,na,na
1st innings,15.3,SK Raina,M Markande,MS Dhoni,1,0,{'wides': 1},na
1st innings,15.4,SK Raina,M Markande,MS Dhoni,6,6,na,na
1st innings,15.5,SK Raina,M Markande,MS Dhoni,1,1,na,na
1st innings,15.6,MS Dhoni,M Markande,SK Raina,1,0,{'legbyes': 1},na
1st innings,15.7,SK Raina,M Markande,MS Dhoni,1,1,na,na
1st innings,16.1,SK Raina,JJ Bumrah,MS Dhoni,1,0,{'wides': 1},na
1st innings,16.2,SK Raina,JJ Bumrah,MS Dhoni,1,1,na,na
1st innings,16.3,MS Dhoni,JJ Bumrah,SK Raina,4,4,na,na
1st innings,16.4,MS Dhoni,JJ Bumrah,SK Raina,0,0,na,na
1st innings,16.5,MS Dhoni,JJ Bumrah,SK Raina,4,4,na,na
1st innings,16.6,MS Dhoni,JJ Bumrah,SK Raina,1,1,na,na
1st innings,16.7,SK Raina,JJ Bumrah,MS Dhoni,1,0,{'legbyes': 1},na
1st innings,17.1,SK Raina,MJ McClenaghan,MS Dhoni,0,0,na,"{'player_out': 'MS Dhoni', 'fielders': ['E Lewis'], 'kind': 'caught'}"
1st innings,17.2,DJ Bravo,MJ McClenaghan,SK Raina,1,1,na,na
1st innings,17.3,SK Raina,MJ McClenaghan,DJ Bravo,0,0,na,"{'player_out': 'DJ Bravo', 'fielders': ['M Markande'], 'kind': 'caught'}"
1st innings,17.4,SW Billings,MJ McClenaghan,SK Raina,1,1,na,na
1st innings,17.5,SK Raina,MJ McClenaghan,SW Billings,1,1,na,na
1st innings,17.6,SW Billings,MJ McClenaghan,SK Raina,1,1,na,na
1st innings,18.1,SW Billings,JJ Bumrah,SK Raina,2,2,na,na
1st innings,18.2,SW Billings,JJ Bumrah,SK Raina,6,6,na,na
1st innings,18.3,SW Billings,JJ Bumrah,SK Raina,1,1,na,na
1st innings,18.4,SK Raina,JJ Bumrah,SW Billings,1,1,na,na
1st innings,18.5,SW Billings,JJ Bumrah,SK Raina,1,1,na,na
1st innings,18.6,SK Raina,JJ Bumrah,SW Billings,0,0,na,na
1st innings,19.1,SW Billings,HH Pandya,SK Raina,1,1,na,na
1st innings,19.2,SK Raina,HH Pandya,SW Billings,1,1,na,na
1st innings,19.3,SW Billings,HH Pandya,SK Raina,1,1,na,na
1st innings,19.4,SK Raina,HH Pandya,SW Billings,0,0,na,"{'player_out': 'SW Billings', 'fielders': ['BCJ Cutting'], 'kind': 'caught'}"
1st innings,19.5,RA Jadeja,HH Pandya,SK Raina,2,2,na,na
1st innings,19.6,RA Jadeja,HH Pandya,SK Raina,6,6,na,na
2nd innings,0.1,E Lewis,DL Chahar,SA Yadav,0,0,na,na
2nd innings,0.2,E Lewis,DL Chahar,SA Yadav,4,4,na,na
2nd innings,0.3,E Lewis,DL Chahar,SA Yadav,2,2,na,na
2nd innings,0.4,E Lewis,DL Chahar,SA Yadav,0,0,na,na
2nd innings,0.5,E Lewis,DL Chahar,SA Yadav,0,0,na,na
2nd innings,0.6,E Lewis,DL Chahar,SA Yadav,1,0,{'wides': 1},na
2nd innings,0.7,E Lewis,DL Chahar,SA Yadav,0,0,na,na
2nd innings,1.1,SA Yadav,SN Thakur,E Lewis,1,0,{'wides': 1},na
2nd innings,1.2,SA Yadav,SN Thakur,E Lewis,0,0,na,na
2nd innings,1.3,SA Yadav,SN Thakur,E Lewis,2,2,na,na
2nd innings,1.4,SA Yadav,SN Thakur,E Lewis,0,0,na,na
2nd innings,1.5,SA Yadav,SN Thakur,E Lewis,0,0,na,na
2nd innings,1.6,SA Yadav,SN Thakur,E Lewis,0,0,na,na
2nd innings,1.7,SA Yadav,SN Thakur,E Lewis,4,4,na,na
2nd innings,2.1,E Lewis,DL Chahar,SA Yadav,4,4,na,na
2nd innings,2.2,E Lewis,DL Chahar,SA Yadav,0,0,na,na
2nd innings,2.3,E Lewis,DL Chahar,SA Yadav,0,0,na,na
2nd innings,2.4,E Lewis,DL Chahar,SA Yadav,4,4,na,na
2nd innings,2.5,E Lewis,DL Chahar,SA Yadav,1,1,na,na
2nd innings,2.6,SA Yadav,DL Chahar,E Lewis,2,2,na,na
2nd innings,3.1,E Lewis,SR Watson,SA Yadav,0,0,na,na
2nd innings,3.2,E Lewis,SR Watson,SA Yadav,4,4,na,na
2nd innings,3.3,E Lewis,SR Watson,SA Yadav,2,2,na,na
2nd innings,3.4,E Lewis,SR Watson,SA Yadav,0,0,na,na
2nd innings,3.5,E Lewis,SR Watson,SA Yadav,2,2,na,na
2nd innings,3.6,E Lewis,SR Watson,SA Yadav,1,1,na,na
2nd innings,4.1,E Lewis,DL Chahar,SA Yadav,1,1,na,na
2nd innings,4.2,SA Yadav,Harbhajan Singh,E Lewis,0,0,na,na
2nd innings,4.3,SA Yadav,Harbhajan Singh,E Lewis,1,1,na,na
2nd innings,4.4,E Lewis,Harbhajan Singh,SA Yadav,0,0,na,na
2nd innings,4.5,E Lewis,Harbhajan Singh,SA Yadav,4,4,na,na
2nd innings,4.6,E Lewis,Harbhajan Singh,SA Yadav,1,1,na,na
2nd innings,5.1,E Lewis,SN Thakur,SA Yadav,0,0,na,na
2nd innings,5.2,E Lewis,SN Thakur,SA Yadav,1,1,na,na
2nd innings,5.3,SA Yadav,SN Thakur,E Lewis,1,1,na,na
2nd innings,5.4,E Lewis,SN Thakur,SA Yadav,6,6,na,na
2nd innings,5.5,E Lewis,SN Thakur,SA Yadav,0,0,na,na
2nd innings,5.6,E Lewis,SN Thakur,SA Yadav,1,1,na,na
2nd innings,6.1,E Lewis,SR Watson,SA Yadav,0,0,na,na
2nd innings,6.2,E Lewis,SR Watson,SA Yadav,1,1,na,na
2nd innings,6.3,SA Yadav,SR Watson,E Lewis,1,1,na,na
2nd innings,6.4,E Lewis,SR Watson,SA Yadav,1,1,na,na
2nd innings,6.5,SA Yadav,SR Watson,E Lewis,0,0,na,na
2nd innings,6.6,SA Yadav,SR Watson,E Lewis,1,1,na,na
2nd innings,7.1,SA Yadav,Harbhajan Singh,E Lewis,1,1,na,na
2nd innings,7.2,E Lewis,Harbhajan Singh,SA Yadav,1,1,na,na
2nd innings,7.3,SA Yadav,Harbhajan Singh,E Lewis,0,0,na,na
2nd innings,7.4,SA Yadav,Harbhajan Singh,E Lewis,0,0,na,na
2nd innings,7.5,SA Yadav,Harbhajan Singh,E Lewis,0,0,na,na
2nd innings,7.6,SA Yadav,Harbhajan Singh,E Lewis,0,0,na,na
2nd innings,8.1,E Lewis,Imran Tahir,SA Yadav,1,1,na,na
2nd innings,8.2,SA Yadav,Imran Tahir,E Lewis,0,0,na,na
2nd innings,8.3,SA Yadav,Imran Tahir,E Lewis,0,0,na,na
2nd innings,8.4,SA Yadav,Imran Tahir,E Lewis,0,0,na,na
2nd innings,8.5,SA Yadav,Imran Tahir,E Lewis,4,0,{'byes': 4},na
2nd innings,8.6,SA Yadav,Imran Tahir,E Lewis,4,4,na,na
2nd innings,9.1,E Lewis,Harbhajan Singh,SA Yadav,1,1,na,na
2nd innings,9.2,SA Yadav,Harbhajan Singh,E Lewis,1,1,na,na
2nd innings,9.3,E Lewis,Harbhajan Singh,SA Yadav,1,1,na,na
2nd innings,9.4,SA Yadav,Harbhajan Singh,E Lewis,1,1,na,na
2nd innings,9.5,E Lewis,Harbhajan Singh,SA Yadav,0,0,na,"{'player_out': 'SA Yadav', 'fielders': ['RA Jadeja'], 'kind': 'caught'}"
2nd innings,9.6,RG Sharma,Harbhajan Singh,E Lewis,2,2,na,na
2nd innings,10.1,E Lewis,Imran Tahir,RG Sharma,1,1,na,na
2nd innings,10.2,RG Sharma,Imran Tahir,E Lewis,6,6,na,na
2nd innings,10.3,RG Sharma,Imran Tahir,E Lewis,1,0,{'wides': 1},na
2nd innings,10.4,RG Sharma,Imran Tahir,E Lewis,1,1,na,na
2nd innings,10.5,E Lewis,Imran Tahir,RG Sharma,1,1,na,na
2nd innings,10.6,RG Sharma,Imran Tahir,E Lewis,6,6,na,na
2nd innings,10.7,RG Sharma,Imran Tahir,E Lewis,0,0,na,na
2nd innings,11.1,E Lewis,Harbhajan Singh,RG Sharma,1,1,na,na
2nd innings,11.2,RG Sharma,Harbhajan Singh,E Lewis,1,1,na,na
2nd innings,11.3,E Lewis,Harbhajan Singh,RG Sharma,1,1,na,na
2nd innings,11.4,RG Sharma,Harbhajan Singh,E Lewis,1,1,na,na
2nd innings,11.5,E Lewis,Harbhajan Singh,RG Sharma,1,1,na,na
2nd innings,11.6,RG Sharma,Harbhajan Singh,E Lewis,1,1,na,na
2nd innings,12.1,RG Sharma,DJ Bravo,E Lewis,0,0,na,na
2nd innings,12.2,RG Sharma,DJ Bravo,E Lewis,1,1,na,na
2nd innings,12.3,E Lewis,DJ Bravo,RG Sharma,1,1,na,na
2nd innings,12.4,RG Sharma,DJ Bravo,E Lewis,1,1,na,na
2nd innings,12.5,E Lewis,DJ Bravo,RG Sharma,1,0,{'legbyes': 1},na
2nd innings,12.6,RG Sharma,DJ Bravo,E Lewis,4,4,na,na
2nd innings,13.1,E Lewis,SR Watson,RG Sharma,6,6,na,na
2nd innings,13.2,E Lewis,SR Watson,RG Sharma,0,0,na,na
2nd innings,13.3,E Lewis,SR Watson,RG Sharma,0,0,na,na
2nd innings,13.4,E Lewis,SR Watson,RG Sharma,6,6,na,na
2nd innings,13.5,E Lewis,SR Watson,RG Sharma,0,0,na,na
2nd innings,13.6,E Lewis,SR Watson,RG Sharma,1,1,na,na
2nd innings,14.1,E Lewis,DJ Bravo,RG Sharma,1,0,{'wides': 1},na
2nd innings,14.2,E Lewis,DJ Bravo,RG Sharma,4,4,na,na
2nd innings,14.3,E Lewis,DJ Bravo,RG Sharma,0,0,na,na
2nd innings,14.4,E Lewis,DJ Bravo,RG Sharma,1,1,na,na
2nd innings,14.5,RG Sharma,DJ Bravo,E Lewis,1,1,na,na
2nd innings,14.6,E Lewis,DJ Bravo,RG Sharma,1,1,na,na
2nd innings,14.7,RG Sharma,DJ Bravo,E Lewis,1,1,na,na
2nd innings,15.1,RG Sharma,SN Thakur,E Lewis,1,1,na,na
2nd innings,15.2,E Lewis,SN Thakur,RG Sharma,0,0,na,na
2nd innings,15.3,E Lewis,SN Thakur,RG Sharma,2,2,na,na
2nd innings,15.4,E Lewis,SN Thakur,RG Sharma,1,1,na,na
2nd innings,15.5,RG Sharma,SN Thakur,E Lewis,0,0,na,na
2nd innings,15.6,RG Sharma,SN Thakur,E Lewis,1,1,na,na
2nd innings,16.1,RG Sharma,DJ Bravo,E Lewis,0,0,na,"{'player_out': 'E Lewis', 'fielders': ['SN Thakur'], 'kind': 'caught'}"
2nd innings,16.2,HH Pandya,DJ Bravo,RG Sharma,1,1,na,na
2nd innings,16.3,RG Sharma,DJ Bravo,HH Pandya,1,1,na,na
2nd innings,16.4,HH Pandya,DJ Bravo,RG Sharma,1,1,na,na
2nd innings,16.5,RG Sharma,DJ Bravo,HH Pandya,2,2,na,na
2nd innings,16.6,RG Sharma,DJ Bravo,HH Pandya,0,0,na,na
2nd innings,17.1,HH Pandya,SR Watson,RG Sharma,0,0,na,na
2nd innings,17.2,HH Pandya,SR Watson,RG Sharma,1,0,{'wides': 1},na
2nd innings,17.3,HH Pandya,SR Watson,RG Sharma,4,4,na,na
2nd innings,17.4,HH Pandya,SR Watson,RG Sharma,1,1,na,na
2nd innings,17.5,RG Sharma,SR Watson,HH Pandya,6,6,na,na
2nd innings,17.6,RG Sharma,SR Watson,HH Pandya,1,1,na,na
2nd innings,17.7,HH Pandya,SR Watson,RG Sharma,2,2,na,na
2nd innings,18.1,RG Sharma,SN Thakur,HH Pandya,1,1,na,na
2nd innings,18.2,HH Pandya,SN Thakur,RG Sharma,4,4,na,na
2nd innings,18.3,HH Pandya,SN Thakur,RG Sharma,4,4,na,na
2nd innings,18.4,HH Pandya,SN Thakur,RG Sharma,4,4,na,na
2nd innings,18.5,HH Pandya,SN Thakur,RG Sharma,0,0,na,na
2nd innings,18.6,HH Pandya,SN Thakur,RG Sharma,4,4,na,na
2nd innings,19.1,RG Sharma,Imran Tahir,HH Pandya,1,1,na,na
2nd innings,19.2,HH Pandya,Imran Tahir,RG Sharma,2,2,na,na
2nd innings,19.3,HH Pandya,Imran Tahir,RG Sharma,1,1,na,na
2nd innings,19.4,RG Sharma,Imran Tahir,HH Pandya,1,1,na,na
