innings,deliveries,non_striker,bowler,batsman,total_runs,batsman_runs,extras,wickets
1st innings,0.1,SP Narine,TA Boult,CA Lynn,0,0,na,na
1st innings,0.2,SP Narine,TA Boult,CA Lynn,0,0,na,na
1st innings,0.3,SP Narine,TA Boult,CA Lynn,0,0,na,na
1st innings,0.4,SP Narine,TA Boult,CA Lynn,0,0,na,na
1st innings,0.5,SP Narine,TA Boult,CA Lynn,0,0,na,na
1st innings,0.6,SP Narine,TA Boult,CA Lynn,0,0,na,na
1st innings,1.1,CA Lynn,CH Morris,SP Narine,1,1,na,na
1st innings,1.2,SP Narine,CH Morris,CA Lynn,0,0,na,na
1st innings,1.3,SP Narine,CH Morris,CA Lynn,0,0,na,na
1st innings,1.4,SP Narine,CH Morris,CA Lynn,6,6,na,na
1st innings,1.5,SP Narine,CH Morris,CA Lynn,0,0,na,na
1st innings,1.6,SP Narine,CH Morris,CA Lynn,0,0,na,na
1st innings,2.1,CA Lynn,TA Boult,SP Narine,0,0,na,na
1st innings,2.2,CA Lynn,TA Boult,SP Narine,0,0,na,na
1st innings,2.3,CA Lynn,TA Boult,SP Narine,0,0,na,"{'player_out': 'SP Narine', 'fielders': ['GJ Maxwell'], 'kind': 'caught'}"
1st innings,2.4,CA Lynn,TA Boult,RV Uthappa,0,0,na,na
1st innings,2.5,CA Lynn,TA Boult,RV Uthappa,1,1,na,na
1st innings,2.6,RV Uthappa,TA Boult,CA Lynn,4,4,na,na
1st innings,3.1,CA Lynn,S Nadeem,RV Uthappa,1,1,na,na
1st innings,3.2,RV Uthappa,S Nadeem,CA Lynn,0,0,na,na
1st innings,3.3,RV Uthappa,S Nadeem,CA Lynn,4,4,na,na
1st innings,3.4,RV Uthappa,S Nadeem,CA Lynn,1,1,na,na
1st innings,3.5,CA Lynn,S Nadeem,RV Uthappa,1,1,na,na
1st innings,3.6,RV Uthappa,S Nadeem,CA Lynn,0,0,na,na
1st innings,4.1,CA Lynn,TA Boult,RV Uthappa,0,0,na,na
1st innings,4.2,CA Lynn,TA Boult,RV Uthappa,0,0,na,na
1st innings,4.3,CA Lynn,TA Boult,RV Uthappa,4,4,na,na
1st innings,4.4,CA Lynn,TA Boult,RV Uthappa,1,1,na,na
1st innings,4.5,RV Uthappa,TA Boult,CA Lynn,4,4,na,na
1st innings,4.6,RV Uthappa,TA Boult,CA Lynn,4,4,na,na
1st innings,5.1,CA Lynn,S Nadeem,RV Uthappa,0,0,na,na
1st innings,5.2,CA Lynn,S Nadeem,RV Uthappa,6,6,na,na
1st innings,5.3,CA Lynn,S Nadeem,RV Uthappa,2,2,na,na
1st innings,5.4,CA Lynn,S Nadeem,RV Uthappa,6,6,na,na
1st innings,5.5,CA Lynn,S Nadeem,RV Uthappa,4,4,na,na
1st innings,5.6,CA Lynn,S Nadeem,RV Uthappa,0,0,na,na
1st innings,6.1,RV Uthappa,R Tewatia,CA Lynn,1,1,na,na
1st innings,6.2,CA Lynn,R Tewatia,RV Uthappa,6,6,na,na
1st innings,6.3,CA Lynn,R Tewatia,RV Uthappa,1,1,na,na
1st innings,6.4,RV Uthappa,R Tewatia,CA Lynn,1,1,na,na
1st innings,6.5,CA Lynn,R Tewatia,RV Uthappa,1,1,na,na
1st innings,6.6,RV Uthappa,R Tewatia,CA Lynn,0,0,na,na
1st innings,7.1,CA Lynn,S Nadeem,RV Uthappa,1,1,na,na
1st innings,7.2,RV Uthappa,S Nadeem,CA Lynn,1,1,na,na
1st innings,7.3,CA Lynn,S Nadeem,RV Uthappa,0,0,na,"{'player_out': 'RV Uthappa', 'kind': 'caught and bowled'}"
1st innings,7.4,N Rana,S Nadeem,CA Lynn,0,0,na,na
1st innings,7.5,N Rana,S Nadeem,CA Lynn,1,1,na,na
1st innings,7.6,CA Lynn,S Nadeem,N Rana,1,1,na,na
1st innings,8.1,CA Lynn,R Tewatia,N Rana,0,0,na,na
1st innings,8.2,CA Lynn,R Tewatia,N Rana,0,0,na,na
1st innings,8.3,CA Lynn,R Tewatia,N Rana,0,0,na,na
1st innings,8.4,CA Lynn,R Tewatia,N Rana,6,6,na,na
1st innings,8.5,CA Lynn,R Tewatia,N Rana,0,0,na,na
1st innings,8.6,CA Lynn,R Tewatia,N Rana,1,1,na,na
1st innings,9.1,CA Lynn,S Nadeem,N Rana,2,2,na,na
1st innings,9.2,CA Lynn,S Nadeem,N Rana,6,6,na,na
1st innings,9.3,CA Lynn,S Nadeem,N Rana,4,4,na,na
1st innings,9.4,CA Lynn,S Nadeem,N Rana,1,1,na,na
1st innings,9.5,N Rana,S Nadeem,CA Lynn,1,1,na,na
1st innings,9.6,CA Lynn,S Nadeem,N Rana,0,0,na,na
1st innings,10.1,N Rana,Mohammed Shami,CA Lynn,1,1,na,na
1st innings,10.2,CA Lynn,Mohammed Shami,N Rana,1,1,na,na
1st innings,10.3,N Rana,Mohammed Shami,CA Lynn,2,2,na,na
1st innings,10.4,N Rana,Mohammed Shami,CA Lynn,0,0,na,na
1st innings,10.5,N Rana,Mohammed Shami,CA Lynn,0,0,na,"{'player_out': 'CA Lynn', 'fielders': ['JJ Roy'], 'kind': 'caught'}"
1st innings,10.6,N Rana,Mohammed Shami,KD Karthik,1,0,{'wides': 1},na
1st innings,10.7,N Rana,Mohammed Shami,KD Karthik,0,0,na,na
1st innings,11.1,KD Karthik,V Shankar,N Rana,0,0,na,na
1st innings,11.2,KD Karthik,V Shankar,N Rana,4,4,na,na
1st innings,11.3,KD Karthik,V Shankar,N Rana,1,1,na,na
1st innings,11.4,N Rana,V Shankar,KD Karthik,6,6,na,na
1st innings,11.5,N Rana,V Shankar,KD Karthik,1,1,na,na
1st innings,11.6,KD Karthik,V Shankar,N Rana,0,0,na,na
1st innings,12.1,N Rana,Mohammed Shami,KD Karthik,0,0,na,na
1st innings,12.2,N Rana,Mohammed Shami,KD Karthik,2,2,na,na
1st innings,12.3,N Rana,Mohammed Shami,KD Karthik,1,1,na,na
1st innings,12.4,KD Karthik,Mohammed Shami,N Rana,1,1,na,na
1st innings,12.5,N Rana,Mohammed Shami,KD Karthik,1,1,na,na
1st innings,12.6,KD Karthik,Mohammed Shami,N Rana,1,1,na,na
1st innings,13.1,KD Karthik,CH Morris,N Rana,1,1,na,na
1st innings,13.2,N Rana,CH Morris,KD Karthik,4,4,na,na
1st innings,13.3,N Rana,CH Morris,KD Karthik,4,4,na,na
1st innings,13.4,N Rana,CH Morris,KD Karthik,0,0,na,"{'player_out': 'KD Karthik', 'fielders': ['TA Boult'], 'kind': 'caught'}"
1st innings,13.5,AD Russell,CH Morris,N Rana,6,6,na,na
1st innings,13.6,AD Russell,CH Morris,N Rana,0,0,na,na
1st innings,14.1,N Rana,Mohammed Shami,AD Russell,1,1,na,na
1st innings,14.2,AD Russell,Mohammed Shami,N Rana,1,1,na,na
1st innings,14.3,N Rana,Mohammed Shami,AD Russell,6,6,na,na
1st innings,14.4,N Rana,Mohammed Shami,AD Russell,2,2,na,na
1st innings,14.5,N Rana,Mohammed Shami,AD Russell,6,6,na,na
1st innings,14.6,N Rana,Mohammed Shami,AD Russell,6,6,na,na
1st innings,15.1,AD Russell,CH Morris,N Rana,6,6,na,na
1st innings,15.2,AD Russell,CH Morris,N Rana,0,0,na,na
1st innings,15.3,AD Russell,CH Morris,N Rana,4,4,na,na
1st innings,15.4,AD Russell,CH Morris,N Rana,1,1,na,na
1st innings,15.5,N Rana,CH Morris,AD Russell,0,0,na,na
1st innings,15.6,N Rana,CH Morris,AD Russell,1,1,na,na
1st innings,16.1,N Rana,Mohammed Shami,AD Russell,6,6,na,na
1st innings,16.2,N Rana,Mohammed Shami,AD Russell,1,1,na,na
1st innings,16.3,AD Russell,Mohammed Shami,N Rana,0,0,na,na
1st innings,16.4,AD Russell,Mohammed Shami,N Rana,1,1,na,na
1st innings,16.5,N Rana,Mohammed Shami,AD Russell,6,6,na,na
1st innings,16.6,N Rana,Mohammed Shami,AD Russell,6,6,na,na
1st innings,17.1,AD Russell,TA Boult,N Rana,1,1,na,na
1st innings,17.2,N Rana,TA Boult,AD Russell,0,0,na,"{'player_out': 'AD Russell', 'kind': 'bowled'}"
1st innings,17.3,N Rana,TA Boult,Shubman Gill,4,4,na,na
1st innings,17.4,N Rana,TA Boult,Shubman Gill,1,1,na,na
1st innings,17.5,Shubman Gill,TA Boult,N Rana,4,4,na,na
1st innings,17.6,Shubman Gill,TA Boult,N Rana,1,1,na,na
1st innings,18.1,Shubman Gill,CH Morris,N Rana,1,0,{'wides': 1},na
1st innings,18.2,Shubman Gill,CH Morris,N Rana,4,4,na,na
1st innings,18.3,Shubman Gill,CH Morris,N Rana,0,0,na,na
1st innings,18.4,Shubman Gill,CH Morris,N Rana,0,0,na,"{'player_out': 'N Rana', 'fielders': ['G Gambhir'], 'kind': 'caught'}"
1st innings,18.5,TK Curran,CH Morris,Shubman Gill,1,1,na,na
1st innings,18.6,Shubman Gill,CH Morris,TK Curran,1,1,na,na
1st innings,18.7,TK Curran,CH Morris,Shubman Gill,4,0,{'legbyes': 4},na
1st innings,19.1,Shubman Gill,R Tewatia,TK Curran,1,1,na,na
1st innings,19.2,TK Curran,R Tewatia,Shubman Gill,0,0,na,"{'player_out': 'Shubman Gill', 'fielders': ['CH Morris'], 'kind': 'caught'}"
1st innings,19.3,TK Curran,R Tewatia,PP Chawla,0,0,na,na
1st innings,19.4,TK Curran,R Tewatia,PP Chawla,0,0,na,na
1st innings,19.5,TK Curran,R Tewatia,PP Chawla,0,0,na,"{'player_out': 'PP Chawla', 'fielders': ['RR Pant'], 'kind': 'caught'}"
1st innings,19.6,Shivam Mavi,R Tewatia,TK Curran,0,0,na,"{'player_out': 'TK Curran', 'fielders': ['GJ Maxwell'], 'kind': 'caught'}"
2nd innings,0.1,JJ Roy,PP Chawla,G Gambhir,1,1,na,na
2nd innings,0.2,G Gambhir,PP Chawla,JJ Roy,0,0,na,na
2nd innings,0.3,G Gambhir,PP Chawla,JJ Roy,1,1,na,na
2nd innings,0.4,JJ Roy,PP Chawla,G Gambhir,1,1,na,na
2nd innings,0.5,G Gambhir,PP Chawla,JJ Roy,0,0,na,na
2nd innings,0.6,G Gambhir,PP Chawla,JJ Roy,1,0,{'wides': 1},na
2nd innings,0.7,G Gambhir,PP Chawla,SS Iyer,0,0,na,na
2nd innings,1.1,SS Iyer,AD Russell,G Gambhir,0,0,na,na
2nd innings,1.2,SS Iyer,AD Russell,G Gambhir,4,4,na,na
2nd innings,1.3,SS Iyer,AD Russell,G Gambhir,1,1,na,na
2nd innings,1.4,G Gambhir,AD Russell,SS Iyer,4,4,na,na
2nd innings,1.5,G Gambhir,AD Russell,SS Iyer,0,0,na,"{'player_out': 'SS Iyer', 'fielders': ['N Rana'], 'kind': 'caught'}"
2nd innings,1.6,G Gambhir,AD Russell,RR Pant,1,0,{'wides': 1},na
2nd innings,1.7,G Gambhir,AD Russell,RR Pant,1,0,{'wides': 1},na
2nd innings,1.8,G Gambhir,AD Russell,RR Pant,0,0,na,na
2nd innings,2.1,RR Pant,Shivam Mavi,G Gambhir,1,1,na,na
2nd innings,2.2,G Gambhir,Shivam Mavi,RR Pant,0,0,na,na
2nd innings,2.3,G Gambhir,Shivam Mavi,RR Pant,1,0,{'wides': 1},na
2nd innings,2.4,G Gambhir,Shivam Mavi,RR Pant,2,2,na,na
2nd innings,2.5,G Gambhir,Shivam Mavi,RR Pant,4,4,na,na
2nd innings,2.6,G Gambhir,Shivam Mavi,RR Pant,1,1,na,na
2nd innings,2.7,RR Pant,Shivam Mavi,G Gambhir,0,0,na,"{'player_out': 'G Gambhir', 'kind': 'bowled'}"
2nd innings,3.1,GJ Maxwell,AD Russell,RR Pant,0,0,na,na
2nd innings,3.2,GJ Maxwell,AD Russell,RR Pant,4,4,na,na
2nd innings,3.3,GJ Maxwell,AD Russell,RR Pant,1,0,{'wides': 1},na
2nd innings,3.4,GJ Maxwell,AD Russell,RR Pant,4,4,na,na
2nd innings,3.5,GJ Maxwell,AD Russell,RR Pant,1,1,na,na
2nd innings,3.6,RR Pant,AD Russell,GJ Maxwell,0,0,na,na
2nd innings,3.7,RR Pant,AD Russell,GJ Maxwell,4,4,na,na
2nd innings,4.1,GJ Maxwell,Shivam Mavi,RR Pant,0,0,na,na
2nd innings,4.2,GJ Maxwell,Shivam Mavi,RR Pant,1,0,{'legbyes': 1},na
2nd innings,4.3,RR Pant,Shivam Mavi,GJ Maxwell,1,0,{'legbyes': 1},na
2nd innings,4.4,GJ Maxwell,Shivam Mavi,RR Pant,1,1,na,na
2nd innings,4.5,RR Pant,Shivam Mavi,GJ Maxwell,4,4,na,na
2nd innings,4.6,RR Pant,Shivam Mavi,GJ Maxwell,0,0,na,na
2nd innings,5.1,GJ Maxwell,SP Narine,RR Pant,1,1,na,na
2nd innings,5.2,RR Pant,SP Narine,GJ Maxwell,1,1,na,na
2nd innings,5.3,GJ Maxwell,SP Narine,RR Pant,4,4,na,na
2nd innings,5.4,GJ Maxwell,SP Narine,RR Pant,4,4,na,na
2nd innings,5.5,GJ Maxwell,SP Narine,RR Pant,0,0,na,na
2nd innings,5.6,GJ Maxwell,SP Narine,RR Pant,1,1,na,na
2nd innings,6.1,GJ Maxwell,PP Chawla,RR Pant,6,6,na,na
2nd innings,6.2,GJ Maxwell,PP Chawla,RR Pant,4,4,na,na
2nd innings,6.3,GJ Maxwell,PP Chawla,RR Pant,0,0,na,na
2nd innings,6.4,GJ Maxwell,PP Chawla,RR Pant,1,1,na,na
2nd innings,6.5,RR Pant,PP Chawla,GJ Maxwell,1,1,na,na
2nd innings,6.6,GJ Maxwell,PP Chawla,RR Pant,1,0,{'legbyes': 1},na
2nd innings,7.1,GJ Maxwell,TK Curran,RR Pant,4,4,na,na
2nd innings,7.2,GJ Maxwell,TK Curran,RR Pant,1,1,na,na
2nd innings,7.3,RR Pant,TK Curran,GJ Maxwell,6,6,na,na
2nd innings,7.4,RR Pant,TK Curran,GJ Maxwell,0,0,na,na
2nd innings,7.5,RR Pant,TK Curran,GJ Maxwell,1,1,na,na
2nd innings,7.6,GJ Maxwell,TK Curran,RR Pant,0,0,na,na
2nd innings,8.1,RR Pant,Kuldeep Yadav,GJ Maxwell,4,4,na,na
2nd innings,8.2,RR Pant,Kuldeep Yadav,GJ Maxwell,1,1,na,na
2nd innings,8.3,GJ Maxwell,Kuldeep Yadav,RR Pant,0,0,na,"{'player_out': 'RR Pant', 'fielders': ['PP Chawla'], 'kind': 'caught'}"
2nd innings,8.4,GJ Maxwell,Kuldeep Yadav,R Tewatia,1,1,na,na
2nd innings,8.5,R Tewatia,Kuldeep Yadav,GJ Maxwell,2,2,na,na
2nd innings,8.6,R Tewatia,Kuldeep Yadav,GJ Maxwell,1,1,na,na
2nd innings,9.1,R Tewatia,TK Curran,GJ Maxwell,6,6,na,na
2nd innings,9.2,R Tewatia,TK Curran,GJ Maxwell,1,1,na,na
2nd innings,9.3,GJ Maxwell,TK Curran,R Tewatia,0,0,na,"{'player_out': 'R Tewatia', 'fielders': ['AD Russell'], 'kind': 'caught'}"
2nd innings,9.4,GJ Maxwell,TK Curran,V Shankar,1,1,na,na
2nd innings,9.5,V Shankar,TK Curran,GJ Maxwell,1,1,na,na
2nd innings,9.6,GJ Maxwell,TK Curran,V Shankar,0,0,na,na
2nd innings,10.1,V Shankar,Kuldeep Yadav,GJ Maxwell,2,2,na,na
2nd innings,10.2,V Shankar,Kuldeep Yadav,GJ Maxwell,0,0,na,na
2nd innings,10.3,V Shankar,Kuldeep Yadav,GJ Maxwell,6,6,na,na
2nd innings,10.4,V Shankar,Kuldeep Yadav,GJ Maxwell,6,6,na,na
2nd innings,10.5,V Shankar,Kuldeep Yadav,GJ Maxwell,0,0,na,"{'player_out': 'GJ Maxwell', 'fielders': ['RV Uthappa'], 'kind': 'caught'}"
2nd innings,10.6,V Shankar,Kuldeep Yadav,CH Morris,1,1,na,na
2nd innings,11.1,V Shankar,SP Narine,CH Morris,1,1,na,na
2nd innings,11.2,CH Morris,SP Narine,V Shankar,1,1,na,na
2nd innings,11.3,V Shankar,SP Narine,CH Morris,0,0,na,"{'player_out': 'CH Morris', 'kind': 'bowled'}"
2nd innings,11.4,V Shankar,SP Narine,Mohammed Shami,1,1,na,na
2nd innings,11.5,Mohammed Shami,SP Narine,V Shankar,0,0,na,"{'player_out': 'V Shankar', 'kind': 'lbw'}"
2nd innings,11.6,Mohammed Shami,SP Narine,S Nadeem,1,1,na,na
2nd innings,12.1,Mohammed Shami,Kuldeep Yadav,S Nadeem,1,1,na,na
2nd innings,12.2,S Nadeem,Kuldeep Yadav,Mohammed Shami,1,1,na,na
2nd innings,12.3,Mohammed Shami,Kuldeep Yadav,S Nadeem,0,0,na,na
2nd innings,12.4,Mohammed Shami,Kuldeep Yadav,S Nadeem,1,1,na,na
2nd innings,12.5,S Nadeem,Kuldeep Yadav,Mohammed Shami,0,0,na,na
2nd innings,12.6,S Nadeem,Kuldeep Yadav,Mohammed Shami,4,4,na,na
2nd innings,13.1,Mohammed Shami,SP Narine,S Nadeem,0,0,na,na
2nd innings,13.2,Mohammed Shami,SP Narine,S Nadeem,1,1,na,na
2nd innings,13.3,S Nadeem,SP Narine,Mohammed Shami,1,1,na,na
2nd innings,13.4,Mohammed Shami,SP Narine,S Nadeem,1,1,na,na
2nd innings,13.5,S Nadeem,SP Narine,Mohammed Shami,0,0,na,"{'player_out': 'Mohammed Shami', 'fielders': ['AD Russell'], 'kind': 'caught'}"
2nd innings,13.6,S Nadeem,SP Narine,TA Boult,0,0,na,na
2nd innings,14.1,TA Boult,Kuldeep Yadav,S Nadeem,1,1,na,na
2nd innings,14.2,S Nadeem,Kuldeep Yadav,TA Boult,0,0,na,"{'player_out': 'TA Boult', 'kind': 'caught and bowled'}"
