innings,deliveries,non_striker,bowler,batsman,total_runs,batsman_runs,extras,wickets
1st innings,0.1,PA Patel,DL Chahar,V Kohli,1,1,na,na
1st innings,0.2,V Kohli,DL Chahar,PA Patel,0,0,na,na
1st innings,0.3,V Kohli,DL Chahar,PA Patel,0,0,na,na
1st innings,0.4,V Kohli,DL Chahar,PA Patel,0,0,na,na
1st innings,0.5,V Kohli,DL Chahar,PA Patel,4,4,na,na
1st innings,0.6,V Kohli,DL Chahar,PA Patel,0,0,na,na
1st innings,1.1,PA Patel,Harbhajan Singh,V Kohli,1,1,na,na
1st innings,1.2,V Kohli,Harbhajan Singh,PA Patel,1,1,na,na
1st innings,1.3,PA Patel,Harbhajan Singh,V Kohli,1,1,na,na
1st innings,1.4,V Kohli,Harbhajan Singh,PA Patel,2,2,na,na
1st innings,1.5,V Kohli,Harbhajan Singh,PA Patel,1,0,{'legbyes': 1},na
1st innings,1.6,PA Patel,Harbhajan Singh,V Kohli,1,1,na,na
1st innings,2.1,PA Patel,DL Chahar,V Kohli,2,2,na,na
1st innings,2.2,PA Patel,DL Chahar,V Kohli,0,0,na,na
1st innings,2.3,PA Patel,DL Chahar,V Kohli,0,0,na,na
1st innings,2.4,PA Patel,DL Chahar,V Kohli,0,0,na,na
1st innings,2.5,PA Patel,DL Chahar,V Kohli,0,0,na,na
1st innings,2.6,PA Patel,DL Chahar,V Kohli,1,0,{'noballs': 1},na
1st innings,2.7,PA Patel,DL Chahar,V Kohli,0,0,na,na
1st innings,3.1,V Kohli,Harbhajan Singh,PA Patel,0,0,na,na
1st innings,3.2,V Kohli,Harbhajan Singh,PA Patel,1,1,na,na
1st innings,3.3,PA Patel,Harbhajan Singh,V Kohli,0,0,na,"{'player_out': 'V Kohli', 'fielders': ['RA Jadeja'], 'kind': 'caught'}"
1st innings,3.4,PA Patel,Harbhajan Singh,MM Ali,0,0,na,na
1st innings,3.5,PA Patel,Harbhajan Singh,MM Ali,0,0,na,na
1st innings,3.6,PA Patel,Harbhajan Singh,MM Ali,6,6,na,na
1st innings,4.1,MM Ali,DL Chahar,PA Patel,1,1,na,na
1st innings,4.2,PA Patel,DL Chahar,MM Ali,1,1,na,na
1st innings,4.3,MM Ali,DL Chahar,PA Patel,1,1,na,na
1st innings,4.4,PA Patel,DL Chahar,MM Ali,1,1,na,na
1st innings,4.5,MM Ali,DL Chahar,PA Patel,1,1,na,na
1st innings,4.6,PA Patel,DL Chahar,MM Ali,1,1,na,na
1st innings,5.1,PA Patel,Harbhajan Singh,MM Ali,0,0,na,na
1st innings,5.2,PA Patel,Harbhajan Singh,MM Ali,0,0,na,"{'player_out': 'MM Ali', 'kind': 'caught and bowled'}"
1st innings,5.3,PA Patel,Harbhajan Singh,AB de Villiers,2,2,na,na
1st innings,5.4,PA Patel,Harbhajan Singh,AB de Villiers,2,2,na,na
1st innings,5.5,PA Patel,Harbhajan Singh,AB de Villiers,1,1,na,na
1st innings,5.6,AB de Villiers,Harbhajan Singh,PA Patel,0,0,na,na
1st innings,6.1,PA Patel,DL Chahar,AB de Villiers,1,1,na,na
1st innings,6.2,AB de Villiers,DL Chahar,PA Patel,1,1,na,na
1st innings,6.3,PA Patel,DL Chahar,AB de Villiers,0,0,na,na
1st innings,6.4,PA Patel,DL Chahar,AB de Villiers,0,0,na,na
1st innings,6.5,PA Patel,DL Chahar,AB de Villiers,0,0,na,na
1st innings,6.6,PA Patel,DL Chahar,AB de Villiers,1,1,na,na
1st innings,7.1,PA Patel,Harbhajan Singh,AB de Villiers,2,2,na,na
1st innings,7.2,PA Patel,Harbhajan Singh,AB de Villiers,0,0,na,"{'player_out': 'AB de Villiers', 'fielders': ['RA Jadeja'], 'kind': 'caught'}"
1st innings,7.3,SO Hetmyer,Harbhajan Singh,PA Patel,0,0,na,na
1st innings,7.4,SO Hetmyer,Harbhajan Singh,PA Patel,1,0,{'legbyes': 1},na
1st innings,7.5,PA Patel,Harbhajan Singh,SO Hetmyer,0,0,na,na
1st innings,7.6,PA Patel,Harbhajan Singh,SO Hetmyer,0,0,na,"{'player_out': 'SO Hetmyer', 'kind': 'run out'}"
1st innings,8.1,S Dube,SK Raina,PA Patel,1,1,na,na
1st innings,8.2,PA Patel,SK Raina,S Dube,0,0,na,na
1st innings,8.3,PA Patel,SK Raina,S Dube,1,1,na,na
1st innings,8.4,S Dube,SK Raina,PA Patel,2,2,na,na
1st innings,8.5,S Dube,SK Raina,PA Patel,1,1,na,na
1st innings,8.6,PA Patel,SK Raina,S Dube,1,1,na,na
1st innings,9.1,PA Patel,Imran Tahir,S Dube,0,0,na,na
1st innings,9.2,PA Patel,Imran Tahir,S Dube,0,0,na,"{'player_out': 'S Dube', 'fielders': ['SR Watson'], 'kind': 'caught'}"
1st innings,9.3,PA Patel,Imran Tahir,C de Grandhomme,0,0,na,na
1st innings,9.4,PA Patel,Imran Tahir,C de Grandhomme,0,0,na,na
1st innings,9.5,PA Patel,Imran Tahir,C de Grandhomme,4,4,na,na
1st innings,9.6,PA Patel,Imran Tahir,C de Grandhomme,0,0,na,na
1st innings,10.1,C de Grandhomme,RA Jadeja,PA Patel,1,1,na,na
1st innings,10.2,PA Patel,RA Jadeja,C de Grandhomme,0,0,na,na
1st innings,10.3,PA Patel,RA Jadeja,C de Grandhomme,0,0,na,"{'player_out': 'C de Grandhomme', 'fielders': ['MS Dhoni'], 'kind': 'caught'}"
1st innings,10.4,PA Patel,RA Jadeja,NA Saini,1,1,na,na
1st innings,10.5,NA Saini,RA Jadeja,PA Patel,1,1,na,na
1st innings,10.6,PA Patel,RA Jadeja,NA Saini,1,1,na,na
1st innings,11.1,PA Patel,Imran Tahir,NA Saini,0,0,na,"{'player_out': 'NA Saini', 'fielders': ['SR Watson'], 'kind': 'caught'}"
1st innings,11.2,PA Patel,Imran Tahir,YS Chahal,0,0,na,na
1st innings,11.3,PA Patel,Imran Tahir,YS Chahal,0,0,na,na
1st innings,11.4,PA Patel,Imran Tahir,YS Chahal,1,1,na,na
1st innings,11.5,YS Chahal,Imran Tahir,PA Patel,1,1,na,na
1st innings,11.6,PA Patel,Imran Tahir,YS Chahal,0,0,na,na
1st innings,12.1,YS Chahal,RA Jadeja,PA Patel,0,0,na,na
1st innings,12.2,YS Chahal,RA Jadeja,PA Patel,1,1,na,na
1st innings,12.3,PA Patel,RA Jadeja,YS Chahal,0,0,na,na
1st innings,12.4,PA Patel,RA Jadeja,YS Chahal,0,0,na,na
1st innings,12.5,PA Patel,RA Jadeja,YS Chahal,0,0,na,na
1st innings,12.6,PA Patel,RA Jadeja,YS Chahal,3,3,na,na
1st innings,13.1,PA Patel,Imran Tahir,YS Chahal,0,0,na,na
1st innings,13.2,PA Patel,Imran Tahir,YS Chahal,0,0,na,na
1st innings,13.3,PA Patel,Imran Tahir,YS Chahal,0,0,na,na
1st innings,13.4,PA Patel,Imran Tahir,YS Chahal,0,0,na,"{'player_out': 'YS Chahal', 'fielders': ['Harbhajan Singh'], 'kind': 'caught'}"
1st innings,13.5,PA Patel,Imran Tahir,UT Yadav,0,0,na,na
1st innings,13.6,PA Patel,Imran Tahir,UT Yadav,0,0,na,na
1st innings,14.1,UT Yadav,RA Jadeja,PA Patel,4,4,na,na
1st innings,14.2,UT Yadav,RA Jadeja,PA Patel,0,0,na,na
1st innings,14.3,UT Yadav,RA Jadeja,PA Patel,2,2,na,na
1st innings,14.4,UT Yadav,RA Jadeja,PA Patel,0,0,na,na
1st innings,14.5,UT Yadav,RA Jadeja,PA Patel,1,1,na,na
1st innings,14.6,PA Patel,RA Jadeja,UT Yadav,0,0,na,na
1st innings,15.1,UT Yadav,Imran Tahir,PA Patel,1,1,na,na
1st innings,15.2,PA Patel,Imran Tahir,UT Yadav,0,0,na,na
1st innings,15.3,PA Patel,Imran Tahir,UT Yadav,0,0,na,na
1st innings,15.4,PA Patel,Imran Tahir,UT Yadav,1,1,na,na
1st innings,15.5,UT Yadav,Imran Tahir,PA Patel,0,0,na,na
1st innings,15.6,UT Yadav,Imran Tahir,PA Patel,1,1,na,na
1st innings,16.1,UT Yadav,RA Jadeja,PA Patel,1,0,{'legbyes': 1},na
1st innings,16.2,PA Patel,RA Jadeja,UT Yadav,0,0,na,na
1st innings,16.3,PA Patel,RA Jadeja,UT Yadav,0,0,na,na
1st innings,16.4,PA Patel,RA Jadeja,UT Yadav,0,0,na,na
1st innings,16.5,PA Patel,RA Jadeja,UT Yadav,0,0,na,"{'player_out': 'UT Yadav', 'kind': 'bowled'}"
1st innings,16.6,PA Patel,RA Jadeja,Mohammed Siraj,0,0,na,na
1st innings,17.1,Mohammed Siraj,DJ Bravo,PA Patel,0,0,na,"{'player_out': 'PA Patel', 'fielders': ['KM Jadhav'], 'kind': 'caught'}"
2nd innings,0.1,AT Rayudu,YS Chahal,SR Watson,0,0,na,na
2nd innings,0.2,AT Rayudu,YS Chahal,SR Watson,0,0,na,na
2nd innings,0.3,AT Rayudu,YS Chahal,SR Watson,0,0,na,na
2nd innings,0.4,AT Rayudu,YS Chahal,SR Watson,0,0,na,na
2nd innings,0.5,AT Rayudu,YS Chahal,SR Watson,0,0,na,na
2nd innings,0.6,AT Rayudu,YS Chahal,SR Watson,0,0,na,na
2nd innings,1.1,SR Watson,NA Saini,AT Rayudu,0,0,na,na
2nd innings,1.2,SR Watson,NA Saini,AT Rayudu,1,1,na,na
2nd innings,1.3,AT Rayudu,NA Saini,SR Watson,0,0,na,na
2nd innings,1.4,AT Rayudu,NA Saini,SR Watson,0,0,na,na
2nd innings,1.5,AT Rayudu,NA Saini,SR Watson,1,0,{'legbyes': 1},na
2nd innings,1.6,SR Watson,NA Saini,AT Rayudu,6,6,na,na
2nd innings,2.1,AT Rayudu,YS Chahal,SR Watson,0,0,na,"{'player_out': 'SR Watson', 'kind': 'bowled'}"
2nd innings,2.2,AT Rayudu,YS Chahal,SK Raina,0,0,na,na
2nd innings,2.3,AT Rayudu,YS Chahal,SK Raina,1,1,na,na
2nd innings,2.4,SK Raina,YS Chahal,AT Rayudu,0,0,na,na
2nd innings,2.5,SK Raina,YS Chahal,AT Rayudu,1,1,na,na
2nd innings,2.6,AT Rayudu,YS Chahal,SK Raina,0,0,na,na
2nd innings,3.1,SK Raina,MM Ali,AT Rayudu,0,0,na,na
2nd innings,3.2,SK Raina,MM Ali,AT Rayudu,0,0,na,na
2nd innings,3.3,SK Raina,MM Ali,AT Rayudu,0,0,na,na
2nd innings,3.4,SK Raina,MM Ali,AT Rayudu,0,0,na,na
2nd innings,3.5,SK Raina,MM Ali,AT Rayudu,0,0,na,na
2nd innings,3.6,SK Raina,MM Ali,AT Rayudu,1,1,na,na
2nd innings,4.1,SK Raina,YS Chahal,AT Rayudu,0,0,na,na
2nd innings,4.2,SK Raina,YS Chahal,AT Rayudu,0,0,na,na
2nd innings,4.3,SK Raina,YS Chahal,AT Rayudu,1,1,na,na
2nd innings,4.4,AT Rayudu,YS Chahal,SK Raina,1,1,na,na
2nd innings,4.5,SK Raina,YS Chahal,AT Rayudu,1,1,na,na
2nd innings,4.6,AT Rayudu,YS Chahal,SK Raina,0,0,na,na
2nd innings,5.1,SK Raina,MM Ali,AT Rayudu,0,0,na,na
2nd innings,5.2,SK Raina,MM Ali,AT Rayudu,0,0,na,na
2nd innings,5.3,SK Raina,MM Ali,AT Rayudu,0,0,na,na
2nd innings,5.4,SK Raina,MM Ali,AT Rayudu,1,1,na,na
2nd innings,5.5,AT Rayudu,MM Ali,SK Raina,1,1,na,na
2nd innings,5.6,SK Raina,MM Ali,AT Rayudu,0,0,na,na
2nd innings,6.1,AT Rayudu,NA Saini,SK Raina,0,0,na,na
2nd innings,6.2,AT Rayudu,NA Saini,SK Raina,0,0,na,na
2nd innings,6.3,AT Rayudu,NA Saini,SK Raina,2,1,{'noballs': 1},na
2nd innings,6.4,SK Raina,NA Saini,AT Rayudu,4,4,na,na
2nd innings,6.5,SK Raina,NA Saini,AT Rayudu,1,1,na,na
2nd innings,6.6,AT Rayudu,NA Saini,SK Raina,0,0,na,na
2nd innings,6.7,AT Rayudu,NA Saini,SK Raina,0,0,na,na
2nd innings,7.1,SK Raina,MM Ali,AT Rayudu,1,1,na,na
2nd innings,7.2,AT Rayudu,MM Ali,SK Raina,4,4,na,na
2nd innings,7.3,AT Rayudu,MM Ali,SK Raina,4,4,na,na
2nd innings,7.4,AT Rayudu,MM Ali,SK Raina,0,0,na,na
2nd innings,7.5,AT Rayudu,MM Ali,SK Raina,0,0,na,na
2nd innings,7.6,AT Rayudu,MM Ali,SK Raina,1,1,na,na
2nd innings,8.1,AT Rayudu,UT Yadav,SK Raina,0,0,na,na
2nd innings,8.2,AT Rayudu,UT Yadav,SK Raina,1,1,na,na
2nd innings,8.3,SK Raina,UT Yadav,AT Rayudu,0,0,na,na
2nd innings,8.4,SK Raina,UT Yadav,AT Rayudu,1,1,na,na
2nd innings,8.5,AT Rayudu,UT Yadav,SK Raina,1,1,na,na
2nd innings,8.6,SK Raina,UT Yadav,AT Rayudu,0,0,na,na
2nd innings,9.1,AT Rayudu,MM Ali,SK Raina,4,4,na,na
2nd innings,9.2,AT Rayudu,MM Ali,SK Raina,0,0,na,"{'player_out': 'SK Raina', 'fielders': ['S Dube'], 'kind': 'caught'}"
2nd innings,9.3,AT Rayudu,MM Ali,KM Jadhav,0,0,na,na
2nd innings,9.4,AT Rayudu,MM Ali,KM Jadhav,2,2,na,na
2nd innings,9.5,AT Rayudu,MM Ali,KM Jadhav,0,0,na,na
2nd innings,9.6,AT Rayudu,MM Ali,KM Jadhav,0,0,na,na
2nd innings,10.1,KM Jadhav,UT Yadav,AT Rayudu,0,0,na,na
2nd innings,10.2,KM Jadhav,UT Yadav,AT Rayudu,1,1,na,na
2nd innings,10.3,AT Rayudu,UT Yadav,KM Jadhav,0,0,na,na
2nd innings,10.4,AT Rayudu,UT Yadav,KM Jadhav,0,0,na,na
2nd innings,10.5,AT Rayudu,UT Yadav,KM Jadhav,0,0,na,na
2nd innings,10.6,AT Rayudu,UT Yadav,KM Jadhav,4,4,na,na
2nd innings,11.1,KM Jadhav,NA Saini,AT Rayudu,0,0,na,na
2nd innings,11.2,KM Jadhav,NA Saini,AT Rayudu,0,0,na,na
2nd innings,11.3,KM Jadhav,NA Saini,AT Rayudu,0,0,na,na
2nd innings,11.4,KM Jadhav,NA Saini,AT Rayudu,0,0,na,na
2nd innings,11.5,KM Jadhav,NA Saini,AT Rayudu,4,4,na,na
2nd innings,11.6,KM Jadhav,NA Saini,AT Rayudu,0,0,na,na
2nd innings,12.1,AT Rayudu,YS Chahal,KM Jadhav,0,0,na,na
2nd innings,12.2,AT Rayudu,YS Chahal,KM Jadhav,1,1,na,na
2nd innings,12.3,KM Jadhav,YS Chahal,AT Rayudu,0,0,na,na
2nd innings,12.4,KM Jadhav,YS Chahal,AT Rayudu,0,0,na,na
2nd innings,12.5,KM Jadhav,YS Chahal,AT Rayudu,0,0,na,na
2nd innings,12.6,KM Jadhav,YS Chahal,AT Rayudu,0,0,na,na
2nd innings,13.1,AT Rayudu,NA Saini,KM Jadhav,0,0,na,na
2nd innings,13.2,AT Rayudu,NA Saini,KM Jadhav,1,0,{'wides': 1},na
2nd innings,13.3,AT Rayudu,NA Saini,KM Jadhav,0,0,na,na
2nd innings,13.4,AT Rayudu,NA Saini,KM Jadhav,1,1,na,na
2nd innings,13.5,KM Jadhav,NA Saini,AT Rayudu,2,2,na,na
2nd innings,13.6,KM Jadhav,NA Saini,AT Rayudu,2,2,na,na
2nd innings,13.7,KM Jadhav,NA Saini,AT Rayudu,0,0,na,na
2nd innings,14.1,AT Rayudu,Mohammed Siraj,KM Jadhav,1,1,na,na
2nd innings,14.2,KM Jadhav,Mohammed Siraj,AT Rayudu,0,0,na,"{'player_out': 'AT Rayudu', 'kind': 'bowled'}"
2nd innings,14.3,KM Jadhav,Mohammed Siraj,RA Jadeja,0,0,na,na
2nd innings,14.4,KM Jadhav,Mohammed Siraj,RA Jadeja,2,2,na,na
2nd innings,14.5,KM Jadhav,Mohammed Siraj,RA Jadeja,1,1,na,na
2nd innings,14.6,RA Jadeja,Mohammed Siraj,KM Jadhav,1,1,na,na
2nd innings,15.1,RA Jadeja,UT Yadav,KM Jadhav,1,1,na,na
2nd innings,15.2,KM Jadhav,UT Yadav,RA Jadeja,0,0,na,na
2nd innings,15.3,KM Jadhav,UT Yadav,RA Jadeja,1,1,na,na
2nd innings,15.4,RA Jadeja,UT Yadav,KM Jadhav,1,1,na,na
2nd innings,15.5,KM Jadhav,UT Yadav,RA Jadeja,1,0,{'wides': 1},na
2nd innings,15.6,KM Jadhav,UT Yadav,RA Jadeja,1,1,na,na
2nd innings,15.7,RA Jadeja,UT Yadav,KM Jadhav,0,0,na,na
2nd innings,16.1,KM Jadhav,Mohammed Siraj,RA Jadeja,0,0,na,na
2nd innings,16.2,KM Jadhav,Mohammed Siraj,RA Jadeja,0,0,na,na
2nd innings,16.3,KM Jadhav,Mohammed Siraj,RA Jadeja,0,0,na,na
2nd innings,16.4,KM Jadhav,Mohammed Siraj,RA Jadeja,0,0,na,na
2nd innings,16.5,KM Jadhav,Mohammed Siraj,RA Jadeja,0,0,na,na
2nd innings,16.6,KM Jadhav,Mohammed Siraj,RA Jadeja,0,0,na,na
2nd innings,17.1,RA Jadeja,S Dube,KM Jadhav,1,1,na,na
2nd innings,17.2,KM Jadhav,S Dube,RA Jadeja,1,0,{'wides': 1},na
2nd innings,17.3,KM Jadhav,S Dube,RA Jadeja,0,0,na,na
2nd innings,17.4,KM Jadhav,S Dube,RA Jadeja,0,0,na,na
2nd innings,17.5,KM Jadhav,S Dube,RA Jadeja,1,1,na,na
