innings,deliveries,non_striker,bowler,batsman,total_runs,batsman_runs,extras,wickets
1st innings,0.1,KL Rahul,S Sandeep Warrier,CH Gayle,0,0,na,na
1st innings,0.2,KL Rahul,S Sandeep Warrier,CH Gayle,1,1,na,na
1st innings,0.3,CH Gayle,S Sandeep Warrier,KL Rahul,0,0,na,na
1st innings,0.4,CH Gayle,S Sandeep Warrier,KL Rahul,1,1,na,na
1st innings,0.5,KL Rahul,S Sandeep Warrier,CH Gayle,4,4,na,na
1st innings,0.6,KL Rahul,S Sandeep Warrier,CH Gayle,4,4,na,na
1st innings,1.1,CH Gayle,HF Gurney,KL Rahul,0,0,na,na
1st innings,1.2,CH Gayle,HF Gurney,KL Rahul,1,1,na,na
1st innings,1.3,KL Rahul,HF Gurney,CH Gayle,0,0,na,na
1st innings,1.4,KL Rahul,HF Gurney,CH Gayle,2,2,na,na
1st innings,1.5,KL Rahul,HF Gurney,CH Gayle,0,0,na,na
1st innings,1.6,KL Rahul,HF Gurney,CH Gayle,0,0,na,na
1st innings,2.1,CH Gayle,S Sandeep Warrier,KL Rahul,0,0,na,na
1st innings,2.2,CH Gayle,S Sandeep Warrier,KL Rahul,0,0,na,na
1st innings,2.3,CH Gayle,S Sandeep Warrier,KL Rahul,0,0,na,"{'player_out': 'KL Rahul', 'fielders': ['CA Lynn'], 'kind': 'caught'}"
1st innings,2.4,CH Gayle,S Sandeep Warrier,MA Agarwal,4,4,na,na
1st innings,2.5,CH Gayle,S Sandeep Warrier,MA Agarwal,1,1,na,na
1st innings,2.6,MA Agarwal,S Sandeep Warrier,CH Gayle,1,1,na,na
1st innings,3.1,MA Agarwal,SP Narine,CH Gayle,1,1,na,na
1st innings,3.2,CH Gayle,SP Narine,MA Agarwal,0,0,na,na
1st innings,3.3,CH Gayle,SP Narine,MA Agarwal,1,1,na,na
1st innings,3.4,MA Agarwal,SP Narine,CH Gayle,0,0,na,na
1st innings,3.5,MA Agarwal,SP Narine,CH Gayle,0,0,na,na
1st innings,3.6,MA Agarwal,SP Narine,CH Gayle,1,1,na,na
1st innings,4.1,MA Agarwal,S Sandeep Warrier,CH Gayle,0,0,na,"{'player_out': 'CH Gayle', 'fielders': ['Shubman Gill'], 'kind': 'caught'}"
1st innings,4.2,MA Agarwal,S Sandeep Warrier,N Pooran,0,0,na,na
1st innings,4.3,MA Agarwal,S Sandeep Warrier,N Pooran,0,0,na,na
1st innings,4.4,MA Agarwal,S Sandeep Warrier,N Pooran,0,0,na,na
1st innings,4.5,MA Agarwal,S Sandeep Warrier,N Pooran,4,4,na,na
1st innings,4.6,MA Agarwal,S Sandeep Warrier,N Pooran,2,2,na,na
1st innings,5.1,N Pooran,HF Gurney,MA Agarwal,2,2,na,na
1st innings,5.2,N Pooran,HF Gurney,MA Agarwal,1,1,na,na
1st innings,5.3,MA Agarwal,HF Gurney,N Pooran,2,2,na,na
1st innings,5.4,MA Agarwal,HF Gurney,N Pooran,2,2,na,na
1st innings,5.5,MA Agarwal,HF Gurney,N Pooran,6,6,na,na
1st innings,5.6,MA Agarwal,HF Gurney,N Pooran,0,0,na,na
1st innings,6.1,N Pooran,AD Russell,MA Agarwal,1,1,na,na
1st innings,6.2,MA Agarwal,AD Russell,N Pooran,6,6,na,na
1st innings,6.3,MA Agarwal,AD Russell,N Pooran,0,0,na,na
1st innings,6.4,MA Agarwal,AD Russell,N Pooran,4,4,na,na
1st innings,6.5,MA Agarwal,AD Russell,N Pooran,1,0,{'wides': 1},na
1st innings,6.6,MA Agarwal,AD Russell,N Pooran,0,0,na,na
1st innings,6.7,MA Agarwal,AD Russell,N Pooran,1,1,na,na
1st innings,7.1,MA Agarwal,PP Chawla,N Pooran,6,6,na,na
1st innings,7.2,MA Agarwal,PP Chawla,N Pooran,1,1,na,na
1st innings,7.3,N Pooran,PP Chawla,MA Agarwal,1,1,na,na
1st innings,7.4,MA Agarwal,PP Chawla,N Pooran,4,4,na,na
1st innings,7.5,MA Agarwal,PP Chawla,N Pooran,1,1,na,na
1st innings,7.6,N Pooran,PP Chawla,MA Agarwal,1,1,na,na
1st innings,8.1,N Pooran,SP Narine,MA Agarwal,1,1,na,na
1st innings,8.2,MA Agarwal,SP Narine,N Pooran,0,0,na,na
1st innings,8.3,MA Agarwal,SP Narine,N Pooran,2,2,na,na
1st innings,8.4,MA Agarwal,SP Narine,N Pooran,0,0,na,na
1st innings,8.5,MA Agarwal,SP Narine,N Pooran,1,1,na,na
1st innings,8.6,N Pooran,SP Narine,MA Agarwal,1,1,na,na
1st innings,9.1,N Pooran,PP Chawla,MA Agarwal,0,0,na,na
1st innings,9.2,N Pooran,PP Chawla,MA Agarwal,4,4,na,na
1st innings,9.3,N Pooran,PP Chawla,MA Agarwal,1,1,na,na
1st innings,9.4,MA Agarwal,PP Chawla,N Pooran,0,0,na,na
1st innings,9.5,MA Agarwal,PP Chawla,N Pooran,6,6,na,na
1st innings,9.6,MA Agarwal,PP Chawla,N Pooran,0,0,na,na
1st innings,10.1,N Pooran,N Rana,MA Agarwal,0,0,na,na
1st innings,10.2,N Pooran,N Rana,MA Agarwal,6,6,na,na
1st innings,10.3,N Pooran,N Rana,MA Agarwal,1,1,na,na
1st innings,10.4,MA Agarwal,N Rana,N Pooran,0,0,na,na
1st innings,10.5,MA Agarwal,N Rana,N Pooran,0,0,na,"{'player_out': 'N Pooran', 'fielders': ['S Sandeep Warrier'], 'kind': 'caught'}"
1st innings,10.6,MA Agarwal,N Rana,Mandeep Singh,1,1,na,na
1st innings,11.1,MA Agarwal,PP Chawla,Mandeep Singh,1,1,na,na
1st innings,11.2,Mandeep Singh,PP Chawla,MA Agarwal,2,2,na,na
1st innings,11.3,Mandeep Singh,PP Chawla,MA Agarwal,2,2,na,na
1st innings,11.4,Mandeep Singh,PP Chawla,MA Agarwal,1,1,na,na
1st innings,11.5,MA Agarwal,PP Chawla,Mandeep Singh,1,1,na,na
1st innings,11.6,Mandeep Singh,PP Chawla,MA Agarwal,1,1,na,na
1st innings,12.1,Mandeep Singh,S Sandeep Warrier,MA Agarwal,1,1,na,na
1st innings,12.2,MA Agarwal,S Sandeep Warrier,Mandeep Singh,1,1,na,na
1st innings,12.3,Mandeep Singh,S Sandeep Warrier,MA Agarwal,1,1,na,na
1st innings,12.4,MA Agarwal,S Sandeep Warrier,Mandeep Singh,4,4,na,na
1st innings,12.5,MA Agarwal,S Sandeep Warrier,Mandeep Singh,1,1,na,na
1st innings,12.6,Mandeep Singh,S Sandeep Warrier,MA Agarwal,1,1,na,na
1st innings,13.1,Mandeep Singh,SP Narine,MA Agarwal,0,0,na,na
1st innings,13.2,Mandeep Singh,SP Narine,MA Agarwal,1,1,na,na
1st innings,13.3,MA Agarwal,SP Narine,Mandeep Singh,1,1,na,"{'player_out': 'MA Agarwal', 'kind': 'run out'}"
1st innings,13.4,SM Curran,SP Narine,Mandeep Singh,1,1,na,na
1st innings,13.5,Mandeep Singh,SP Narine,SM Curran,1,1,na,na
1st innings,13.6,SM Curran,SP Narine,Mandeep Singh,2,2,na,na
1st innings,14.1,Mandeep Singh,PP Chawla,SM Curran,1,1,na,na
1st innings,14.2,SM Curran,PP Chawla,Mandeep Singh,1,1,na,na
1st innings,14.3,Mandeep Singh,PP Chawla,SM Curran,0,0,na,na
1st innings,14.4,Mandeep Singh,PP Chawla,SM Curran,1,1,na,na
1st innings,14.5,SM Curran,PP Chawla,Mandeep Singh,6,6,na,na
1st innings,14.6,SM Curran,PP Chawla,Mandeep Singh,1,1,na,na
1st innings,15.1,SM Curran,AD Russell,Mandeep Singh,1,1,na,na
1st innings,15.2,Mandeep Singh,AD Russell,SM Curran,2,2,na,na
1st innings,15.3,Mandeep Singh,AD Russell,SM Curran,0,0,na,na
1st innings,15.4,Mandeep Singh,AD Russell,SM Curran,4,4,na,na
1st innings,15.5,Mandeep Singh,AD Russell,SM Curran,0,0,na,na
1st innings,15.6,Mandeep Singh,AD Russell,SM Curran,0,0,na,na
1st innings,16.1,SM Curran,SP Narine,Mandeep Singh,1,1,na,na
1st innings,16.2,Mandeep Singh,SP Narine,SM Curran,6,6,na,na
1st innings,16.3,Mandeep Singh,SP Narine,SM Curran,2,2,na,na
1st innings,16.4,Mandeep Singh,SP Narine,SM Curran,1,1,na,na
1st innings,16.5,SM Curran,SP Narine,Mandeep Singh,1,1,na,na
1st innings,16.6,Mandeep Singh,SP Narine,SM Curran,4,4,na,na
1st innings,17.1,SM Curran,HF Gurney,Mandeep Singh,1,1,na,na
1st innings,17.2,Mandeep Singh,HF Gurney,SM Curran,1,1,na,na
1st innings,17.3,SM Curran,HF Gurney,Mandeep Singh,0,0,na,"{'player_out': 'Mandeep Singh', 'fielders': ['RV Uthappa'], 'kind': 'caught'}"
1st innings,17.4,R Ashwin,HF Gurney,SM Curran,1,1,na,na
1st innings,17.5,SM Curran,HF Gurney,R Ashwin,0,0,na,na
1st innings,17.6,SM Curran,HF Gurney,R Ashwin,1,0,{'legbyes': 1},na
1st innings,18.1,SM Curran,AD Russell,R Ashwin,0,0,na,"{'player_out': 'R Ashwin', 'kind': 'bowled'}"
1st innings,18.2,SM Curran,AD Russell,AJ Tye,1,0,{'legbyes': 1},na
1st innings,18.3,AJ Tye,AD Russell,SM Curran,4,4,na,na
1st innings,18.4,AJ Tye,AD Russell,SM Curran,4,4,na,na
1st innings,18.5,AJ Tye,AD Russell,SM Curran,1,1,na,na
1st innings,18.6,SM Curran,AD Russell,AJ Tye,0,0,na,na
1st innings,19.1,AJ Tye,HF Gurney,SM Curran,2,2,na,na
1st innings,19.2,AJ Tye,HF Gurney,SM Curran,2,2,na,na
1st innings,19.3,AJ Tye,HF Gurney,SM Curran,4,4,na,na
1st innings,19.4,AJ Tye,HF Gurney,SM Curran,6,6,na,na
1st innings,19.5,AJ Tye,HF Gurney,SM Curran,4,4,na,na
1st innings,19.6,AJ Tye,HF Gurney,SM Curran,4,4,na,na
2nd innings,0.1,CA Lynn,Mohammed Shami,Shubman Gill,0,0,na,na
2nd innings,0.2,CA Lynn,Mohammed Shami,Shubman Gill,1,1,na,na
2nd innings,0.3,Shubman Gill,Mohammed Shami,CA Lynn,1,1,na,na
2nd innings,0.4,CA Lynn,Mohammed Shami,Shubman Gill,1,1,na,na
2nd innings,0.5,Shubman Gill,Mohammed Shami,CA Lynn,0,0,na,na
2nd innings,0.6,Shubman Gill,Mohammed Shami,CA Lynn,0,0,na,na
2nd innings,1.1,CA Lynn,Arshdeep Singh,Shubman Gill,0,0,na,na
2nd innings,1.2,CA Lynn,Arshdeep Singh,Shubman Gill,0,0,na,na
2nd innings,1.3,CA Lynn,Arshdeep Singh,Shubman Gill,1,1,na,na
2nd innings,1.4,Shubman Gill,Arshdeep Singh,CA Lynn,2,2,na,na
2nd innings,1.5,Shubman Gill,Arshdeep Singh,CA Lynn,6,6,na,na
2nd innings,1.6,Shubman Gill,Arshdeep Singh,CA Lynn,1,1,na,na
2nd innings,2.1,Shubman Gill,Mohammed Shami,CA Lynn,1,1,na,na
2nd innings,2.2,CA Lynn,Mohammed Shami,Shubman Gill,0,0,na,na
2nd innings,2.3,CA Lynn,Mohammed Shami,Shubman Gill,4,4,na,na
2nd innings,2.4,CA Lynn,Mohammed Shami,Shubman Gill,1,1,na,na
2nd innings,2.5,Shubman Gill,Mohammed Shami,CA Lynn,1,1,na,na
2nd innings,2.6,CA Lynn,Mohammed Shami,Shubman Gill,0,0,na,na
2nd innings,3.1,Shubman Gill,Arshdeep Singh,CA Lynn,0,0,na,na
2nd innings,3.2,Shubman Gill,Arshdeep Singh,CA Lynn,4,4,na,na
2nd innings,3.3,Shubman Gill,Arshdeep Singh,CA Lynn,4,4,na,na
2nd innings,3.4,Shubman Gill,Arshdeep Singh,CA Lynn,4,4,na,na
2nd innings,3.5,Shubman Gill,Arshdeep Singh,CA Lynn,1,0,{'legbyes': 1},na
2nd innings,3.6,CA Lynn,Arshdeep Singh,Shubman Gill,2,2,na,na
2nd innings,4.1,Shubman Gill,R Ashwin,CA Lynn,4,4,na,na
2nd innings,4.2,Shubman Gill,R Ashwin,CA Lynn,0,0,na,na
2nd innings,4.3,Shubman Gill,R Ashwin,CA Lynn,6,6,na,na
2nd innings,4.4,Shubman Gill,R Ashwin,CA Lynn,0,0,na,na
2nd innings,4.5,Shubman Gill,R Ashwin,CA Lynn,0,0,na,na
2nd innings,4.6,Shubman Gill,R Ashwin,CA Lynn,2,2,na,na
2nd innings,5.1,CA Lynn,AJ Tye,Shubman Gill,4,4,na,na
2nd innings,5.2,CA Lynn,AJ Tye,Shubman Gill,0,0,na,na
2nd innings,5.3,CA Lynn,AJ Tye,Shubman Gill,1,1,na,na
2nd innings,5.4,Shubman Gill,AJ Tye,CA Lynn,6,6,na,na
2nd innings,5.5,Shubman Gill,AJ Tye,CA Lynn,4,4,na,na
2nd innings,5.6,Shubman Gill,AJ Tye,CA Lynn,0,0,na,"{'player_out': 'CA Lynn', 'kind': 'caught and bowled'}"
2nd innings,6.1,Shubman Gill,M Ashwin,RV Uthappa,1,1,na,na
2nd innings,6.2,RV Uthappa,M Ashwin,Shubman Gill,2,2,na,na
2nd innings,6.3,RV Uthappa,M Ashwin,Shubman Gill,1,1,na,na
2nd innings,6.4,Shubman Gill,M Ashwin,RV Uthappa,1,1,na,na
2nd innings,6.5,RV Uthappa,M Ashwin,Shubman Gill,1,1,na,na
2nd innings,6.6,Shubman Gill,M Ashwin,RV Uthappa,1,1,na,na
2nd innings,7.1,Shubman Gill,R Ashwin,RV Uthappa,1,1,na,na
2nd innings,7.2,RV Uthappa,R Ashwin,Shubman Gill,1,1,na,na
2nd innings,7.3,Shubman Gill,R Ashwin,RV Uthappa,0,0,na,na
2nd innings,7.4,Shubman Gill,R Ashwin,RV Uthappa,0,0,na,na
2nd innings,7.5,Shubman Gill,R Ashwin,RV Uthappa,1,1,na,na
2nd innings,7.6,RV Uthappa,R Ashwin,Shubman Gill,1,1,na,na
2nd innings,8.1,RV Uthappa,M Ashwin,Shubman Gill,1,1,na,na
2nd innings,8.2,Shubman Gill,M Ashwin,RV Uthappa,4,4,na,na
2nd innings,8.3,Shubman Gill,M Ashwin,RV Uthappa,6,6,na,na
2nd innings,8.4,Shubman Gill,M Ashwin,RV Uthappa,4,4,na,na
2nd innings,8.5,Shubman Gill,M Ashwin,RV Uthappa,1,1,na,na
2nd innings,8.6,RV Uthappa,M Ashwin,Shubman Gill,1,1,na,na
2nd innings,9.1,RV Uthappa,SM Curran,Shubman Gill,1,1,na,na
2nd innings,9.2,Shubman Gill,SM Curran,RV Uthappa,1,1,na,na
2nd innings,9.3,RV Uthappa,SM Curran,Shubman Gill,4,4,na,na
2nd innings,9.4,RV Uthappa,SM Curran,Shubman Gill,0,0,na,na
2nd innings,9.5,RV Uthappa,SM Curran,Shubman Gill,0,0,na,na
2nd innings,9.6,RV Uthappa,SM Curran,Shubman Gill,2,2,na,na
2nd innings,10.1,Shubman Gill,R Ashwin,RV Uthappa,1,1,na,na
2nd innings,10.2,RV Uthappa,R Ashwin,Shubman Gill,1,1,na,na
2nd innings,10.3,Shubman Gill,R Ashwin,RV Uthappa,0,0,na,"{'player_out': 'RV Uthappa', 'fielders': ['MA Agarwal'], 'kind': 'caught'}"
2nd innings,10.4,Shubman Gill,R Ashwin,AD Russell,1,1,na,na
2nd innings,10.5,AD Russell,R Ashwin,Shubman Gill,0,0,na,na
2nd innings,10.6,AD Russell,R Ashwin,Shubman Gill,1,1,na,na
2nd innings,11.1,AD Russell,SM Curran,Shubman Gill,1,1,na,na
2nd innings,11.2,Shubman Gill,SM Curran,AD Russell,1,0,{'wides': 1},na
2nd innings,11.3,Shubman Gill,SM Curran,AD Russell,1,1,na,na
2nd innings,11.4,AD Russell,SM Curran,Shubman Gill,1,1,na,na
2nd innings,11.5,Shubman Gill,SM Curran,AD Russell,4,4,na,na
2nd innings,11.6,Shubman Gill,SM Curran,AD Russell,0,0,na,na
2nd innings,11.7,Shubman Gill,SM Curran,AD Russell,0,0,na,na
2nd innings,12.1,AD Russell,R Ashwin,Shubman Gill,6,6,na,na
2nd innings,12.2,AD Russell,R Ashwin,Shubman Gill,0,0,na,na
2nd innings,12.3,AD Russell,R Ashwin,Shubman Gill,6,6,na,na
2nd innings,12.4,AD Russell,R Ashwin,Shubman Gill,0,0,na,na
2nd innings,12.5,AD Russell,R Ashwin,Shubman Gill,1,0,{'wides': 1},na
2nd innings,12.6,AD Russell,R Ashwin,Shubman Gill,4,4,na,na
2nd innings,12.7,AD Russell,R Ashwin,Shubman Gill,1,1,na,na
2nd innings,13.1,AD Russell,AJ Tye,Shubman Gill,1,1,na,na
2nd innings,13.2,Shubman Gill,AJ Tye,AD Russell,2,2,na,na
2nd innings,13.3,Shubman Gill,AJ Tye,AD Russell,1,0,{'wides': 1},na
2nd innings,13.4,Shubman Gill,AJ Tye,AD Russell,6,6,na,na
2nd innings,13.5,Shubman Gill,AJ Tye,AD Russell,1,0,{'wides': 1},na
2nd innings,13.6,Shubman Gill,AJ Tye,AD Russell,0,0,na,na
2nd innings,13.7,Shubman Gill,AJ Tye,AD Russell,0,0,na,na
2nd innings,13.8,Shubman Gill,AJ Tye,AD Russell,6,6,na,na
2nd innings,14.1,AD Russell,Mohammed Shami,Shubman Gill,1,1,na,na
2nd innings,14.2,Shubman Gill,Mohammed Shami,AD Russell,0,0,na,na
2nd innings,14.3,Shubman Gill,Mohammed Shami,AD Russell,4,4,na,na
2nd innings,14.4,Shubman Gill,Mohammed Shami,AD Russell,0,0,na,na
2nd innings,14.5,Shubman Gill,Mohammed Shami,AD Russell,0,0,na,"{'player_out': 'AD Russell', 'fielders': ['AJ Tye'], 'kind': 'caught'}"
2nd innings,14.6,KD Karthik,Mohammed Shami,Shubman Gill,1,0,{'legbyes': 1},na
2nd innings,15.1,KD Karthik,SM Curran,Shubman Gill,1,1,na,na
2nd innings,15.2,Shubman Gill,SM Curran,KD Karthik,1,1,na,na
2nd innings,15.3,KD Karthik,SM Curran,Shubman Gill,2,2,na,na
2nd innings,15.4,KD Karthik,SM Curran,Shubman Gill,0,0,na,na
2nd innings,15.5,KD Karthik,SM Curran,Shubman Gill,0,0,na,na
2nd innings,15.6,KD Karthik,SM Curran,Shubman Gill,2,2,na,na
2nd innings,16.1,Shubman Gill,AJ Tye,KD Karthik,1,1,na,na
2nd innings,16.2,KD Karthik,AJ Tye,Shubman Gill,1,1,na,na
2nd innings,16.3,Shubman Gill,AJ Tye,KD Karthik,1,1,na,na
2nd innings,16.4,KD Karthik,AJ Tye,Shubman Gill,4,4,na,na
2nd innings,16.5,KD Karthik,AJ Tye,Shubman Gill,1,1,na,na
2nd innings,16.6,Shubman Gill,AJ Tye,KD Karthik,1,1,na,na
2nd innings,17.1,Shubman Gill,SM Curran,KD Karthik,1,1,na,na
2nd innings,17.2,KD Karthik,SM Curran,Shubman Gill,1,1,na,na
2nd innings,17.3,Shubman Gill,SM Curran,KD Karthik,4,4,na,na
2nd innings,17.4,Shubman Gill,SM Curran,KD Karthik,1,0,{'wides': 1},na
2nd innings,17.5,Shubman Gill,SM Curran,KD Karthik,2,2,na,na
2nd innings,17.6,Shubman Gill,SM Curran,KD Karthik,6,6,na,na
2nd innings,17.7,Shubman Gill,SM Curran,KD Karthik,4,4,na,na
