innings,deliveries,non_striker,bowler,batsman,total_runs,batsman_runs,extras,wickets
1st innings,0.1,F du Plessis,B Kumar,SR Watson,0,0,na,na
1st innings,0.2,F du Plessis,B Kumar,SR Watson,0,0,na,na
1st innings,0.3,F du Plessis,B Kumar,SR Watson,0,0,na,na
1st innings,0.4,F du Plessis,B Kumar,SR Watson,1,1,na,na
1st innings,0.5,SR Watson,B Kumar,F du Plessis,0,0,na,na
1st innings,0.6,SR Watson,B Kumar,F du Plessis,0,0,na,na
1st innings,1.1,F du Plessis,KK Ahmed,SR Watson,1,1,na,na
1st innings,1.2,SR Watson,KK Ahmed,F du Plessis,1,1,na,na
1st innings,1.3,F du Plessis,KK Ahmed,SR Watson,0,0,na,na
1st innings,1.4,F du Plessis,KK Ahmed,SR Watson,1,0,{'legbyes': 1},na
1st innings,1.5,SR Watson,KK Ahmed,F du Plessis,0,0,na,na
1st innings,1.6,SR Watson,KK Ahmed,F du Plessis,0,0,na,na
1st innings,2.1,F du Plessis,B Kumar,SR Watson,0,0,na,na
1st innings,2.2,F du Plessis,B Kumar,SR Watson,0,0,na,na
1st innings,2.3,F du Plessis,B Kumar,SR Watson,4,4,na,na
1st innings,2.4,F du Plessis,B Kumar,SR Watson,2,2,na,na
1st innings,2.5,F du Plessis,B Kumar,SR Watson,0,0,na,na
1st innings,2.6,F du Plessis,B Kumar,SR Watson,0,0,na,na
1st innings,3.1,SR Watson,KK Ahmed,F du Plessis,0,0,na,na
1st innings,3.2,SR Watson,KK Ahmed,F du Plessis,4,4,na,na
1st innings,3.3,SR Watson,KK Ahmed,F du Plessis,0,0,na,na
1st innings,3.4,SR Watson,KK Ahmed,F du Plessis,0,0,na,na
1st innings,3.5,SR Watson,KK Ahmed,F du Plessis,0,0,na,na
1st innings,3.6,SR Watson,KK Ahmed,F du Plessis,1,1,na,na
1st innings,4.1,SR Watson,Sandeep Sharma,F du Plessis,0,0,na,na
1st innings,4.2,SR Watson,Sandeep Sharma,F du Plessis,4,4,na,na
1st innings,4.3,SR Watson,Sandeep Sharma,F du Plessis,1,1,na,na
1st innings,4.4,F du Plessis,Sandeep Sharma,SR Watson,4,4,na,na
1st innings,4.5,F du Plessis,Sandeep Sharma,SR Watson,1,1,na,na
1st innings,4.6,SR Watson,Sandeep Sharma,F du Plessis,2,2,na,na
1st innings,5.1,F du Plessis,KK Ahmed,SR Watson,0,0,na,na
1st innings,5.2,F du Plessis,KK Ahmed,SR Watson,1,1,na,na
1st innings,5.3,SR Watson,KK Ahmed,F du Plessis,6,6,na,na
1st innings,5.4,SR Watson,KK Ahmed,F du Plessis,4,4,na,na
1st innings,5.5,SR Watson,KK Ahmed,F du Plessis,2,0,{'byes': 2},na
1st innings,5.6,SR Watson,KK Ahmed,F du Plessis,1,1,na,na
1st innings,6.1,SR Watson,S Nadeem,F du Plessis,1,1,na,na
1st innings,6.2,F du Plessis,S Nadeem,SR Watson,1,1,na,na
1st innings,6.3,SR Watson,S Nadeem,F du Plessis,6,6,na,na
1st innings,6.4,SR Watson,S Nadeem,F du Plessis,1,1,na,na
1st innings,6.5,F du Plessis,S Nadeem,SR Watson,4,4,na,na
1st innings,6.6,F du Plessis,S Nadeem,SR Watson,1,1,na,na
1st innings,7.1,F du Plessis,Rashid Khan,SR Watson,4,4,na,na
1st innings,7.2,F du Plessis,Rashid Khan,SR Watson,1,1,na,na
1st innings,7.3,SR Watson,Rashid Khan,F du Plessis,1,1,na,na
1st innings,7.4,F du Plessis,Rashid Khan,SR Watson,1,1,na,na
1st innings,7.5,SR Watson,Rashid Khan,F du Plessis,1,1,na,na
1st innings,7.6,F du Plessis,Rashid Khan,SR Watson,0,0,na,na
1st innings,8.1,SR Watson,Sandeep Sharma,F du Plessis,1,1,na,na
1st innings,8.2,F du Plessis,Sandeep Sharma,SR Watson,1,1,na,na
1st innings,8.3,SR Watson,Sandeep Sharma,F du Plessis,1,1,na,na
1st innings,8.4,F du Plessis,Sandeep Sharma,SR Watson,1,1,na,na
1st innings,8.5,SR Watson,Sandeep Sharma,F du Plessis,1,1,na,na
1st innings,8.6,F du Plessis,Sandeep Sharma,SR Watson,2,2,na,na
1st innings,9.1,SR Watson,S Nadeem,F du Plessis,1,1,na,na
1st innings,9.2,F du Plessis,S Nadeem,SR Watson,1,1,na,na
1st innings,9.3,SR Watson,S Nadeem,F du Plessis,6,6,na,na
1st innings,9.4,SR Watson,S Nadeem,F du Plessis,1,1,na,na
1st innings,9.5,F du Plessis,S Nadeem,SR Watson,0,0,na,"{'player_out': 'SR Watson', 'kind': 'bowled'}"
1st innings,9.6,F du Plessis,S Nadeem,SK Raina,1,1,na,na
1st innings,10.1,F du Plessis,V Shankar,SK Raina,1,1,na,na
1st innings,10.2,SK Raina,V Shankar,F du Plessis,0,0,na,"{'player_out': 'F du Plessis', 'fielders': ['JM Bairstow'], 'kind': 'caught'}"
1st innings,10.3,SK Raina,V Shankar,AT Rayudu,1,1,na,na
1st innings,10.4,AT Rayudu,V Shankar,SK Raina,0,0,na,na
1st innings,10.5,AT Rayudu,V Shankar,SK Raina,1,1,na,na
1st innings,10.6,SK Raina,V Shankar,AT Rayudu,0,0,na,na
1st innings,11.1,AT Rayudu,Rashid Khan,SK Raina,0,0,na,na
1st innings,11.2,AT Rayudu,Rashid Khan,SK Raina,0,0,na,na
1st innings,11.3,AT Rayudu,Rashid Khan,SK Raina,0,0,na,na
1st innings,11.4,AT Rayudu,Rashid Khan,SK Raina,4,4,na,na
1st innings,11.5,AT Rayudu,Rashid Khan,SK Raina,1,1,na,na
1st innings,11.6,SK Raina,Rashid Khan,AT Rayudu,1,1,na,na
1st innings,12.1,SK Raina,V Shankar,AT Rayudu,1,1,na,na
1st innings,12.2,AT Rayudu,V Shankar,SK Raina,4,4,na,na
1st innings,12.3,AT Rayudu,V Shankar,SK Raina,0,0,na,na
1st innings,12.4,AT Rayudu,V Shankar,SK Raina,1,1,na,na
1st innings,12.5,SK Raina,V Shankar,AT Rayudu,2,2,na,na
1st innings,12.6,SK Raina,V Shankar,AT Rayudu,0,0,na,na
1st innings,13.1,AT Rayudu,Rashid Khan,SK Raina,0,0,na,"{'player_out': 'SK Raina', 'kind': 'lbw'}"
1st innings,13.2,AT Rayudu,Rashid Khan,KM Jadhav,1,1,na,na
1st innings,13.3,KM Jadhav,Rashid Khan,AT Rayudu,1,1,na,na
1st innings,13.4,AT Rayudu,Rashid Khan,KM Jadhav,0,0,na,"{'player_out': 'KM Jadhav', 'kind': 'lbw'}"
1st innings,13.5,AT Rayudu,Rashid Khan,SW Billings,0,0,na,na
1st innings,13.6,AT Rayudu,Rashid Khan,SW Billings,0,0,na,na
1st innings,14.1,SW Billings,KK Ahmed,AT Rayudu,0,0,na,na
1st innings,14.2,SW Billings,KK Ahmed,AT Rayudu,1,1,na,na
1st innings,14.3,AT Rayudu,KK Ahmed,SW Billings,0,0,na,na
1st innings,14.4,AT Rayudu,KK Ahmed,SW Billings,1,0,{'wides': 1},na
1st innings,14.5,AT Rayudu,KK Ahmed,SW Billings,0,0,na,"{'player_out': 'SW Billings', 'fielders': ['V Shankar'], 'kind': 'caught'}"
1st innings,14.6,AT Rayudu,KK Ahmed,RA Jadeja,0,0,na,na
1st innings,14.7,AT Rayudu,KK Ahmed,RA Jadeja,1,1,na,na
1st innings,15.1,AT Rayudu,Sandeep Sharma,RA Jadeja,1,0,{'wides': 1},na
1st innings,15.2,AT Rayudu,Sandeep Sharma,RA Jadeja,0,0,na,na
1st innings,15.3,AT Rayudu,Sandeep Sharma,RA Jadeja,0,0,na,na
1st innings,15.4,AT Rayudu,Sandeep Sharma,RA Jadeja,0,0,na,na
1st innings,15.5,AT Rayudu,Sandeep Sharma,RA Jadeja,0,0,na,na
1st innings,15.6,AT Rayudu,Sandeep Sharma,RA Jadeja,1,1,na,na
1st innings,15.7,RA Jadeja,Sandeep Sharma,AT Rayudu,4,4,na,na
1st innings,16.1,AT Rayudu,Rashid Khan,RA Jadeja,0,0,na,na
1st innings,16.2,AT Rayudu,Rashid Khan,RA Jadeja,0,0,na,na
1st innings,16.3,AT Rayudu,Rashid Khan,RA Jadeja,0,0,na,na
1st innings,16.4,AT Rayudu,Rashid Khan,RA Jadeja,0,0,na,na
1st innings,16.5,AT Rayudu,Rashid Khan,RA Jadeja,1,1,na,na
1st innings,16.6,RA Jadeja,Rashid Khan,AT Rayudu,0,0,na,na
1st innings,17.1,AT Rayudu,B Kumar,RA Jadeja,1,1,na,na
1st innings,17.2,RA Jadeja,B Kumar,AT Rayudu,4,4,na,na
1st innings,17.3,RA Jadeja,B Kumar,AT Rayudu,1,1,na,na
1st innings,17.4,AT Rayudu,B Kumar,RA Jadeja,2,2,na,na
1st innings,17.5,AT Rayudu,B Kumar,RA Jadeja,1,0,{'legbyes': 1},na
1st innings,17.6,RA Jadeja,B Kumar,AT Rayudu,1,1,na,na
1st innings,18.1,RA Jadeja,Sandeep Sharma,AT Rayudu,2,2,na,na
1st innings,18.2,RA Jadeja,Sandeep Sharma,AT Rayudu,2,2,na,na
1st innings,18.3,RA Jadeja,Sandeep Sharma,AT Rayudu,1,1,na,na
1st innings,18.4,AT Rayudu,Sandeep Sharma,RA Jadeja,1,0,{'wides': 1},na
1st innings,18.5,AT Rayudu,Sandeep Sharma,RA Jadeja,1,1,na,na
1st innings,18.6,RA Jadeja,Sandeep Sharma,AT Rayudu,0,0,na,na
1st innings,18.7,RA Jadeja,Sandeep Sharma,AT Rayudu,1,1,na,na
1st innings,19.1,RA Jadeja,B Kumar,AT Rayudu,1,1,na,na
1st innings,19.2,AT Rayudu,B Kumar,RA Jadeja,1,1,na,na
1st innings,19.3,RA Jadeja,B Kumar,AT Rayudu,1,1,na,na
1st innings,19.4,AT Rayudu,B Kumar,RA Jadeja,0,0,na,na
1st innings,19.5,AT Rayudu,B Kumar,RA Jadeja,0,0,na,na
1st innings,19.6,AT Rayudu,B Kumar,RA Jadeja,2,2,na,na
2nd innings,0.1,JM Bairstow,DL Chahar,DA Warner,1,1,na,na
2nd innings,0.2,DA Warner,DL Chahar,JM Bairstow,4,4,na,na
2nd innings,0.3,DA Warner,DL Chahar,JM Bairstow,1,1,na,na
2nd innings,0.4,JM Bairstow,DL Chahar,DA Warner,2,2,na,na
2nd innings,0.5,JM Bairstow,DL Chahar,DA Warner,0,0,na,na
2nd innings,0.6,JM Bairstow,DL Chahar,DA Warner,2,2,na,na
2nd innings,1.1,DA Warner,SN Thakur,JM Bairstow,4,4,na,na
2nd innings,1.2,DA Warner,SN Thakur,JM Bairstow,1,1,na,na
2nd innings,1.3,JM Bairstow,SN Thakur,DA Warner,4,4,na,na
2nd innings,1.4,JM Bairstow,SN Thakur,DA Warner,0,0,na,na
2nd innings,1.5,JM Bairstow,SN Thakur,DA Warner,0,0,na,na
2nd innings,1.6,JM Bairstow,SN Thakur,DA Warner,1,0,{'wides': 1},na
2nd innings,1.7,JM Bairstow,SN Thakur,DA Warner,1,1,na,na
2nd innings,2.1,JM Bairstow,DL Chahar,DA Warner,1,1,na,na
2nd innings,2.2,DA Warner,DL Chahar,JM Bairstow,1,1,na,na
2nd innings,2.3,JM Bairstow,DL Chahar,DA Warner,4,4,na,na
2nd innings,2.4,JM Bairstow,DL Chahar,DA Warner,4,4,na,na
2nd innings,2.5,JM Bairstow,DL Chahar,DA Warner,1,1,na,na
2nd innings,2.6,DA Warner,DL Chahar,JM Bairstow,0,0,na,na
2nd innings,3.1,JM Bairstow,SN Thakur,DA Warner,0,0,na,na
2nd innings,3.2,JM Bairstow,SN Thakur,DA Warner,1,1,na,na
2nd innings,3.3,DA Warner,SN Thakur,JM Bairstow,3,3,na,na
2nd innings,3.4,JM Bairstow,SN Thakur,DA Warner,0,0,na,na
2nd innings,3.5,JM Bairstow,SN Thakur,DA Warner,4,4,na,na
2nd innings,3.6,JM Bairstow,SN Thakur,DA Warner,4,4,na,na
2nd innings,4.1,DA Warner,Imran Tahir,JM Bairstow,1,1,na,na
2nd innings,4.2,JM Bairstow,Imran Tahir,DA Warner,4,4,na,na
2nd innings,4.3,JM Bairstow,Imran Tahir,DA Warner,4,4,na,na
2nd innings,4.4,JM Bairstow,Imran Tahir,DA Warner,4,4,na,na
2nd innings,4.5,JM Bairstow,Imran Tahir,DA Warner,1,1,na,na
2nd innings,4.6,DA Warner,Imran Tahir,JM Bairstow,0,0,na,na
2nd innings,5.1,JM Bairstow,DL Chahar,DA Warner,0,0,na,na
2nd innings,5.2,JM Bairstow,DL Chahar,DA Warner,4,4,na,na
2nd innings,5.3,JM Bairstow,DL Chahar,DA Warner,4,4,na,na
2nd innings,5.4,JM Bairstow,DL Chahar,DA Warner,0,0,na,"{'player_out': 'DA Warner', 'fielders': ['F du Plessis'], 'kind': 'caught'}"
2nd innings,5.5,JM Bairstow,DL Chahar,KS Williamson,2,2,na,na
2nd innings,5.6,JM Bairstow,DL Chahar,KS Williamson,0,0,na,na
2nd innings,6.1,KS Williamson,Imran Tahir,JM Bairstow,0,0,na,na
2nd innings,6.2,KS Williamson,Imran Tahir,JM Bairstow,1,1,na,na
2nd innings,6.3,JM Bairstow,Imran Tahir,KS Williamson,0,0,na,na
2nd innings,6.4,JM Bairstow,Imran Tahir,KS Williamson,1,1,na,na
2nd innings,6.5,KS Williamson,Imran Tahir,JM Bairstow,1,1,na,na
2nd innings,6.6,JM Bairstow,Imran Tahir,KS Williamson,0,0,na,"{'player_out': 'KS Williamson', 'kind': 'caught and bowled'}"
2nd innings,7.1,V Shankar,RA Jadeja,JM Bairstow,1,1,na,na
2nd innings,7.2,JM Bairstow,RA Jadeja,V Shankar,1,1,na,na
2nd innings,7.3,V Shankar,RA Jadeja,JM Bairstow,0,0,na,na
2nd innings,7.4,V Shankar,RA Jadeja,JM Bairstow,0,0,na,na
2nd innings,7.5,V Shankar,RA Jadeja,JM Bairstow,1,1,na,na
2nd innings,7.6,JM Bairstow,RA Jadeja,V Shankar,1,1,na,na
2nd innings,8.1,JM Bairstow,Imran Tahir,V Shankar,1,1,na,na
2nd innings,8.2,V Shankar,Imran Tahir,JM Bairstow,0,0,na,na
2nd innings,8.3,V Shankar,Imran Tahir,JM Bairstow,0,0,na,na
2nd innings,8.4,V Shankar,Imran Tahir,JM Bairstow,0,0,na,na
2nd innings,8.5,V Shankar,Imran Tahir,JM Bairstow,1,1,na,na
2nd innings,8.6,JM Bairstow,Imran Tahir,V Shankar,0,0,na,na
2nd innings,9.1,V Shankar,RA Jadeja,JM Bairstow,0,0,na,na
2nd innings,9.2,V Shankar,RA Jadeja,JM Bairstow,2,2,na,na
2nd innings,9.3,V Shankar,RA Jadeja,JM Bairstow,4,4,na,na
2nd innings,9.4,V Shankar,RA Jadeja,JM Bairstow,2,2,na,na
2nd innings,9.5,V Shankar,RA Jadeja,JM Bairstow,0,0,na,na
2nd innings,9.6,V Shankar,RA Jadeja,JM Bairstow,0,0,na,na
2nd innings,10.1,JM Bairstow,KV Sharma,V Shankar,1,1,na,na
2nd innings,10.2,V Shankar,KV Sharma,JM Bairstow,6,6,na,na
2nd innings,10.3,V Shankar,KV Sharma,JM Bairstow,0,0,na,na
2nd innings,10.4,V Shankar,KV Sharma,JM Bairstow,6,6,na,na
2nd innings,10.5,V Shankar,KV Sharma,JM Bairstow,1,1,na,na
2nd innings,10.6,JM Bairstow,KV Sharma,V Shankar,1,1,na,na
2nd innings,11.1,JM Bairstow,RA Jadeja,V Shankar,0,0,na,na
2nd innings,11.2,JM Bairstow,RA Jadeja,V Shankar,1,1,na,na
2nd innings,11.3,V Shankar,RA Jadeja,JM Bairstow,1,1,na,na
2nd innings,11.4,JM Bairstow,RA Jadeja,V Shankar,1,1,na,na
2nd innings,11.5,V Shankar,RA Jadeja,JM Bairstow,1,1,na,na
2nd innings,11.6,JM Bairstow,RA Jadeja,V Shankar,0,0,na,na
2nd innings,12.1,V Shankar,Imran Tahir,JM Bairstow,1,1,na,na
2nd innings,12.2,JM Bairstow,Imran Tahir,V Shankar,0,0,na,"{'player_out': 'V Shankar', 'fielders': ['SW Billings'], 'kind': 'caught'}"
2nd innings,12.3,JM Bairstow,Imran Tahir,DJ Hooda,0,0,na,na
2nd innings,12.4,JM Bairstow,Imran Tahir,DJ Hooda,0,0,na,na
2nd innings,12.5,JM Bairstow,Imran Tahir,DJ Hooda,0,0,na,na
2nd innings,12.6,JM Bairstow,Imran Tahir,DJ Hooda,0,0,na,na
2nd innings,13.1,DJ Hooda,RA Jadeja,JM Bairstow,2,2,na,na
2nd innings,13.2,DJ Hooda,RA Jadeja,JM Bairstow,1,1,na,na
2nd innings,13.3,JM Bairstow,RA Jadeja,DJ Hooda,1,1,na,na
2nd innings,13.4,DJ Hooda,RA Jadeja,JM Bairstow,1,1,na,na
2nd innings,13.5,JM Bairstow,RA Jadeja,DJ Hooda,0,0,na,na
2nd innings,13.6,JM Bairstow,RA Jadeja,DJ Hooda,1,1,na,na
2nd innings,14.1,JM Bairstow,KV Sharma,DJ Hooda,0,0,na,na
2nd innings,14.2,JM Bairstow,KV Sharma,DJ Hooda,1,1,na,na
2nd innings,14.3,DJ Hooda,KV Sharma,JM Bairstow,1,1,na,na
2nd innings,14.4,JM Bairstow,KV Sharma,DJ Hooda,1,1,na,na
2nd innings,14.5,DJ Hooda,KV Sharma,JM Bairstow,0,0,na,na
2nd innings,14.6,DJ Hooda,KV Sharma,JM Bairstow,2,2,na,na
2nd innings,15.1,JM Bairstow,SN Thakur,DJ Hooda,1,1,na,na
2nd innings,15.2,DJ Hooda,SN Thakur,JM Bairstow,1,0,{'wides': 1},na
2nd innings,15.3,DJ Hooda,SN Thakur,JM Bairstow,1,1,na,na
2nd innings,15.4,JM Bairstow,SN Thakur,DJ Hooda,1,1,na,na
2nd innings,15.5,DJ Hooda,SN Thakur,JM Bairstow,1,0,{'wides': 1},na
2nd innings,15.6,DJ Hooda,SN Thakur,JM Bairstow,1,1,na,na
2nd innings,15.7,JM Bairstow,SN Thakur,DJ Hooda,1,1,na,na
2nd innings,15.8,DJ Hooda,SN Thakur,JM Bairstow,1,1,na,na
2nd innings,16.1,DJ Hooda,KV Sharma,JM Bairstow,1,1,na,na
2nd innings,16.2,JM Bairstow,KV Sharma,DJ Hooda,2,2,na,na
2nd innings,16.3,JM Bairstow,KV Sharma,DJ Hooda,4,4,na,na
2nd innings,16.4,JM Bairstow,KV Sharma,DJ Hooda,0,0,na,"{'player_out': 'DJ Hooda', 'fielders': ['F du Plessis'], 'kind': 'caught'}"
2nd innings,16.5,YK Pathan,KV Sharma,JM Bairstow,6,6,na,na
