innings,deliveries,non_striker,bowler,batsman,total_runs,batsman_runs,extras,wickets
1st innings,0.1,RG Sharma,DL Chahar,Q de Kock,1,1,na,na
1st innings,0.2,Q de Kock,DL Chahar,RG Sharma,1,1,na,na
1st innings,0.3,RG Sharma,DL Chahar,Q de Kock,0,0,na,na
1st innings,0.4,RG Sharma,DL Chahar,Q de Kock,0,0,na,na
1st innings,0.5,RG Sharma,DL Chahar,Q de Kock,0,0,na,na
1st innings,0.6,RG Sharma,DL Chahar,Q de Kock,0,0,na,na
1st innings,1.1,Q de Kock,SN Thakur,RG Sharma,2,2,na,na
1st innings,1.2,Q de Kock,SN Thakur,RG Sharma,0,0,na,na
1st innings,1.3,Q de Kock,SN Thakur,RG Sharma,0,0,na,na
1st innings,1.4,Q de Kock,SN Thakur,RG Sharma,0,0,na,na
1st innings,1.5,Q de Kock,SN Thakur,RG Sharma,6,6,na,na
1st innings,1.6,Q de Kock,SN Thakur,RG Sharma,0,0,na,na
1st innings,2.1,RG Sharma,DL Chahar,Q de Kock,6,6,na,na
1st innings,2.2,RG Sharma,DL Chahar,Q de Kock,1,0,{'wides': 1},na
1st innings,2.3,RG Sharma,DL Chahar,Q de Kock,0,0,na,na
1st innings,2.4,RG Sharma,DL Chahar,Q de Kock,6,6,na,na
1st innings,2.5,RG Sharma,DL Chahar,Q de Kock,0,0,na,na
1st innings,2.6,RG Sharma,DL Chahar,Q de Kock,6,6,na,na
1st innings,2.7,RG Sharma,DL Chahar,Q de Kock,1,1,na,na
1st innings,3.1,RG Sharma,Harbhajan Singh,Q de Kock,1,1,na,na
1st innings,3.2,Q de Kock,Harbhajan Singh,RG Sharma,1,1,na,na
1st innings,3.3,RG Sharma,Harbhajan Singh,Q de Kock,1,1,na,na
1st innings,3.4,Q de Kock,Harbhajan Singh,RG Sharma,0,0,na,na
1st innings,3.5,Q de Kock,Harbhajan Singh,RG Sharma,0,0,na,na
1st innings,3.6,Q de Kock,Harbhajan Singh,RG Sharma,4,4,na,na
1st innings,4.1,RG Sharma,SN Thakur,Q de Kock,1,1,na,na
1st innings,4.2,Q de Kock,SN Thakur,RG Sharma,1,1,na,na
1st innings,4.3,RG Sharma,SN Thakur,Q de Kock,0,0,na,na
1st innings,4.4,RG Sharma,SN Thakur,Q de Kock,6,6,na,na
1st innings,4.5,RG Sharma,SN Thakur,Q de Kock,0,0,na,"{'player_out': 'Q de Kock', 'fielders': ['MS Dhoni'], 'kind': 'caught'}"
1st innings,4.6,RG Sharma,SN Thakur,SA Yadav,0,0,na,na
1st innings,5.1,SA Yadav,DL Chahar,RG Sharma,0,0,na,na
1st innings,5.2,SA Yadav,DL Chahar,RG Sharma,0,0,na,"{'player_out': 'RG Sharma', 'fielders': ['MS Dhoni'], 'kind': 'caught'}"
1st innings,5.3,SA Yadav,DL Chahar,Ishan Kishan,0,0,na,na
1st innings,5.4,SA Yadav,DL Chahar,Ishan Kishan,0,0,na,na
1st innings,5.5,SA Yadav,DL Chahar,Ishan Kishan,0,0,na,na
1st innings,5.6,SA Yadav,DL Chahar,Ishan Kishan,0,0,na,na
1st innings,6.1,Ishan Kishan,Harbhajan Singh,SA Yadav,1,1,na,na
1st innings,6.2,SA Yadav,Harbhajan Singh,Ishan Kishan,1,1,na,na
1st innings,6.3,Ishan Kishan,Harbhajan Singh,SA Yadav,1,1,na,na
1st innings,6.4,SA Yadav,Harbhajan Singh,Ishan Kishan,1,1,na,na
1st innings,6.5,Ishan Kishan,Harbhajan Singh,SA Yadav,0,0,na,na
1st innings,6.6,Ishan Kishan,Harbhajan Singh,SA Yadav,1,1,na,na
1st innings,7.1,Ishan Kishan,DJ Bravo,SA Yadav,0,0,na,na
1st innings,7.2,Ishan Kishan,DJ Bravo,SA Yadav,1,1,na,na
1st innings,7.3,SA Yadav,DJ Bravo,Ishan Kishan,1,1,na,na
1st innings,7.4,Ishan Kishan,DJ Bravo,SA Yadav,1,1,na,na
1st innings,7.5,SA Yadav,DJ Bravo,Ishan Kishan,0,0,na,na
1st innings,7.6,SA Yadav,DJ Bravo,Ishan Kishan,0,0,na,na
1st innings,8.1,Ishan Kishan,Harbhajan Singh,SA Yadav,1,1,na,na
1st innings,8.2,SA Yadav,Harbhajan Singh,Ishan Kishan,1,0,{'wides': 1},na
1st innings,8.3,SA Yadav,Harbhajan Singh,Ishan Kishan,0,0,na,na
1st innings,8.4,SA Yadav,Harbhajan Singh,Ishan Kishan,1,1,na,na
1st innings,8.5,Ishan Kishan,Harbhajan Singh,SA Yadav,1,1,na,na
1st innings,8.6,SA Yadav,Harbhajan Singh,Ishan Kishan,0,0,na,na
1st innings,8.7,SA Yadav,Harbhajan Singh,Ishan Kishan,1,1,na,na
1st innings,9.1,SA Yadav,DJ Bravo,Ishan Kishan,4,4,na,na
1st innings,9.2,SA Yadav,DJ Bravo,Ishan Kishan,1,0,{'wides': 1},na
1st innings,9.3,SA Yadav,DJ Bravo,Ishan Kishan,1,1,na,na
1st innings,9.4,Ishan Kishan,DJ Bravo,SA Yadav,0,0,na,na
1st innings,9.5,Ishan Kishan,DJ Bravo,SA Yadav,1,1,na,na
1st innings,9.6,SA Yadav,DJ Bravo,Ishan Kishan,4,4,na,na
1st innings,9.7,SA Yadav,DJ Bravo,Ishan Kishan,1,1,na,na
1st innings,10.1,SA Yadav,Harbhajan Singh,Ishan Kishan,0,0,na,na
1st innings,10.2,SA Yadav,Harbhajan Singh,Ishan Kishan,1,1,na,na
1st innings,10.3,Ishan Kishan,Harbhajan Singh,SA Yadav,4,4,na,na
1st innings,10.4,Ishan Kishan,Harbhajan Singh,SA Yadav,0,0,na,na
1st innings,10.5,Ishan Kishan,Harbhajan Singh,SA Yadav,1,1,na,na
1st innings,10.6,SA Yadav,Harbhajan Singh,Ishan Kishan,4,4,na,na
1st innings,11.1,Ishan Kishan,Imran Tahir,SA Yadav,2,2,na,na
1st innings,11.2,Ishan Kishan,Imran Tahir,SA Yadav,0,0,na,"{'player_out': 'SA Yadav', 'kind': 'bowled'}"
1st innings,11.3,Ishan Kishan,Imran Tahir,KH Pandya,0,0,na,na
1st innings,11.4,Ishan Kishan,Imran Tahir,KH Pandya,2,2,na,na
1st innings,11.5,Ishan Kishan,Imran Tahir,KH Pandya,0,0,na,na
1st innings,11.6,Ishan Kishan,Imran Tahir,KH Pandya,1,1,na,na
1st innings,12.1,Ishan Kishan,SN Thakur,KH Pandya,2,2,na,na
1st innings,12.2,Ishan Kishan,SN Thakur,KH Pandya,2,2,na,na
1st innings,12.3,Ishan Kishan,SN Thakur,KH Pandya,0,0,na,"{'player_out': 'KH Pandya', 'kind': 'caught and bowled'}"
1st innings,12.4,KA Pollard,SN Thakur,Ishan Kishan,1,1,na,na
1st innings,12.5,Ishan Kishan,SN Thakur,KA Pollard,0,0,na,na
1st innings,12.6,Ishan Kishan,SN Thakur,KA Pollard,0,0,na,na
1st innings,13.1,KA Pollard,RA Jadeja,Ishan Kishan,0,0,na,na
1st innings,13.2,KA Pollard,RA Jadeja,Ishan Kishan,0,0,na,na
1st innings,13.3,KA Pollard,RA Jadeja,Ishan Kishan,1,1,na,na
1st innings,13.4,Ishan Kishan,RA Jadeja,KA Pollard,1,1,na,na
1st innings,13.5,KA Pollard,RA Jadeja,Ishan Kishan,1,1,na,na
1st innings,13.6,Ishan Kishan,RA Jadeja,KA Pollard,1,1,na,na
1st innings,14.1,Ishan Kishan,Imran Tahir,KA Pollard,6,6,na,na
1st innings,14.2,Ishan Kishan,Imran Tahir,KA Pollard,0,0,na,na
1st innings,14.3,Ishan Kishan,Imran Tahir,KA Pollard,1,1,na,na
1st innings,14.4,KA Pollard,Imran Tahir,Ishan Kishan,0,0,na,"{'player_out': 'Ishan Kishan', 'fielders': ['SK Raina'], 'kind': 'caught'}"
1st innings,14.5,HH Pandya,Imran Tahir,KA Pollard,0,0,na,na
1st innings,14.6,HH Pandya,Imran Tahir,KA Pollard,1,1,na,na
1st innings,15.1,HH Pandya,RA Jadeja,KA Pollard,1,1,na,na
1st innings,15.2,KA Pollard,RA Jadeja,HH Pandya,0,0,na,na
1st innings,15.3,KA Pollard,RA Jadeja,HH Pandya,1,1,na,na
1st innings,15.4,HH Pandya,RA Jadeja,KA Pollard,4,4,na,na
1st innings,15.5,HH Pandya,RA Jadeja,KA Pollard,1,1,na,na
1st innings,15.6,KA Pollard,RA Jadeja,HH Pandya,1,1,na,na
1st innings,16.1,KA Pollard,Imran Tahir,HH Pandya,1,1,na,na
1st innings,16.2,HH Pandya,Imran Tahir,KA Pollard,1,1,na,na
1st innings,16.3,KA Pollard,Imran Tahir,HH Pandya,1,1,na,na
1st innings,16.4,HH Pandya,Imran Tahir,KA Pollard,0,0,na,na
1st innings,16.5,HH Pandya,Imran Tahir,KA Pollard,6,6,na,na
1st innings,16.6,HH Pandya,Imran Tahir,KA Pollard,1,1,na,na
1st innings,17.1,HH Pandya,SN Thakur,KA Pollard,1,1,na,na
1st innings,17.2,KA Pollard,SN Thakur,HH Pandya,1,1,na,na
1st innings,17.3,HH Pandya,SN Thakur,KA Pollard,6,6,na,na
1st innings,17.4,HH Pandya,SN Thakur,KA Pollard,1,1,na,na
1st innings,17.5,KA Pollard,SN Thakur,HH Pandya,6,6,na,na
1st innings,17.6,KA Pollard,SN Thakur,HH Pandya,1,1,na,na
1st innings,18.1,KA Pollard,DL Chahar,HH Pandya,4,4,na,na
1st innings,18.2,KA Pollard,DL Chahar,HH Pandya,0,0,na,"{'player_out': 'HH Pandya', 'kind': 'lbw'}"
1st innings,18.3,KA Pollard,DL Chahar,RD Chahar,0,0,na,na
1st innings,18.4,KA Pollard,DL Chahar,RD Chahar,0,0,na,"{'player_out': 'RD Chahar', 'fielders': ['F du Plessis'], 'kind': 'caught'}"
1st innings,18.5,KA Pollard,DL Chahar,MJ McClenaghan,0,0,na,na
1st innings,18.6,KA Pollard,DL Chahar,MJ McClenaghan,0,0,na,na
1st innings,19.1,MJ McClenaghan,DJ Bravo,KA Pollard,0,0,na,na
1st innings,19.2,MJ McClenaghan,DJ Bravo,KA Pollard,0,0,na,na
1st innings,19.3,MJ McClenaghan,DJ Bravo,KA Pollard,0,0,na,na
1st innings,19.4,MJ McClenaghan,DJ Bravo,KA Pollard,1,1,na,"{'player_out': 'MJ McClenaghan', 'kind': 'run out'}"
1st innings,19.5,JJ Bumrah,DJ Bravo,KA Pollard,4,4,na,na
1st innings,19.6,JJ Bumrah,DJ Bravo,KA Pollard,4,4,na,na
2nd innings,0.1,SR Watson,MJ McClenaghan,F du Plessis,0,0,na,na
2nd innings,0.2,SR Watson,MJ McClenaghan,F du Plessis,0,0,na,na
2nd innings,0.3,SR Watson,MJ McClenaghan,F du Plessis,4,4,na,na
2nd innings,0.4,SR Watson,MJ McClenaghan,F du Plessis,1,1,na,na
2nd innings,0.5,F du Plessis,MJ McClenaghan,SR Watson,0,0,na,na
2nd innings,0.6,F du Plessis,MJ McClenaghan,SR Watson,2,2,na,na
2nd innings,1.1,SR Watson,KH Pandya,F du Plessis,1,1,na,na
2nd innings,1.2,F du Plessis,KH Pandya,SR Watson,0,0,na,na
2nd innings,1.3,F du Plessis,KH Pandya,SR Watson,0,0,na,na
2nd innings,1.4,F du Plessis,KH Pandya,SR Watson,4,4,na,na
2nd innings,1.5,F du Plessis,KH Pandya,SR Watson,0,0,na,na
2nd innings,1.6,F du Plessis,KH Pandya,SR Watson,0,0,na,na
2nd innings,2.1,SR Watson,SL Malinga,F du Plessis,1,1,na,na
2nd innings,2.2,F du Plessis,SL Malinga,SR Watson,0,0,na,na
2nd innings,2.3,F du Plessis,SL Malinga,SR Watson,0,0,na,na
2nd innings,2.4,F du Plessis,SL Malinga,SR Watson,0,0,na,na
2nd innings,2.5,F du Plessis,SL Malinga,SR Watson,1,1,na,na
2nd innings,2.6,SR Watson,SL Malinga,F du Plessis,5,5,na,na
2nd innings,3.1,SR Watson,KH Pandya,F du Plessis,0,0,na,na
2nd innings,3.2,SR Watson,KH Pandya,F du Plessis,4,4,na,na
2nd innings,3.3,SR Watson,KH Pandya,F du Plessis,6,6,na,na
2nd innings,3.4,SR Watson,KH Pandya,F du Plessis,4,4,na,na
2nd innings,3.5,SR Watson,KH Pandya,F du Plessis,0,0,na,na
2nd innings,3.6,SR Watson,KH Pandya,F du Plessis,0,0,na,"{'player_out': 'F du Plessis', 'fielders': ['Q de Kock'], 'kind': 'stumped'}"
2nd innings,4.1,SK Raina,JJ Bumrah,SR Watson,1,1,na,na
2nd innings,4.2,SR Watson,JJ Bumrah,SK Raina,0,0,na,na
2nd innings,4.3,SR Watson,JJ Bumrah,SK Raina,1,1,na,na
2nd innings,4.4,SK Raina,JJ Bumrah,SR Watson,1,1,na,na
2nd innings,4.5,SR Watson,JJ Bumrah,SK Raina,2,2,na,na
2nd innings,4.6,SR Watson,JJ Bumrah,SK Raina,0,0,na,na
2nd innings,5.1,SK Raina,SL Malinga,SR Watson,0,0,na,na
2nd innings,5.2,SK Raina,SL Malinga,SR Watson,4,4,na,na
2nd innings,5.3,SK Raina,SL Malinga,SR Watson,0,0,na,na
2nd innings,5.4,SK Raina,SL Malinga,SR Watson,6,6,na,na
2nd innings,5.5,SK Raina,SL Malinga,SR Watson,1,0,{'wides': 1},na
2nd innings,5.6,SK Raina,SL Malinga,SR Watson,4,4,na,na
2nd innings,5.7,SK Raina,SL Malinga,SR Watson,0,0,na,na
2nd innings,6.1,SR Watson,MJ McClenaghan,SK Raina,1,1,na,na
2nd innings,6.2,SK Raina,MJ McClenaghan,SR Watson,1,1,na,na
2nd innings,6.3,SR Watson,MJ McClenaghan,SK Raina,1,0,{'wides': 1},na
2nd innings,6.4,SR Watson,MJ McClenaghan,SK Raina,0,0,na,na
2nd innings,6.5,SR Watson,MJ McClenaghan,SK Raina,1,1,na,na
2nd innings,6.6,SK Raina,MJ McClenaghan,SR Watson,0,0,na,na
2nd innings,6.7,SK Raina,MJ McClenaghan,SR Watson,0,0,na,na
2nd innings,7.1,SR Watson,RD Chahar,SK Raina,1,1,na,na
2nd innings,7.2,SK Raina,RD Chahar,SR Watson,0,0,na,na
2nd innings,7.3,SK Raina,RD Chahar,SR Watson,1,1,na,na
2nd innings,7.4,SR Watson,RD Chahar,SK Raina,0,0,na,na
2nd innings,7.5,SR Watson,RD Chahar,SK Raina,0,0,na,na
2nd innings,7.6,SR Watson,RD Chahar,SK Raina,1,1,na,na
2nd innings,8.1,SR Watson,MJ McClenaghan,SK Raina,1,1,na,na
2nd innings,8.2,SK Raina,MJ McClenaghan,SR Watson,4,4,na,na
2nd innings,8.3,SK Raina,MJ McClenaghan,SR Watson,1,0,{'wides': 1},na
2nd innings,8.4,SK Raina,MJ McClenaghan,SR Watson,2,2,na,na
2nd innings,8.5,SK Raina,MJ McClenaghan,SR Watson,2,2,na,na
2nd innings,8.6,SK Raina,MJ McClenaghan,SR Watson,0,0,na,na
2nd innings,8.7,SK Raina,MJ McClenaghan,SR Watson,0,0,na,na
2nd innings,9.1,SR Watson,RD Chahar,SK Raina,0,0,na,na
2nd innings,9.2,SR Watson,RD Chahar,SK Raina,0,0,na,"{'player_out': 'SK Raina', 'kind': 'lbw'}"
2nd innings,9.3,SR Watson,RD Chahar,AT Rayudu,1,1,na,na
2nd innings,9.4,AT Rayudu,RD Chahar,SR Watson,1,1,na,na
2nd innings,9.5,SR Watson,RD Chahar,AT Rayudu,0,0,na,na
2nd innings,9.6,SR Watson,RD Chahar,AT Rayudu,0,0,na,na
2nd innings,10.1,AT Rayudu,JJ Bumrah,SR Watson,0,0,na,na
2nd innings,10.2,AT Rayudu,JJ Bumrah,SR Watson,1,1,na,na
2nd innings,10.3,SR Watson,JJ Bumrah,AT Rayudu,0,0,na,"{'player_out': 'AT Rayudu', 'fielders': ['Q de Kock'], 'kind': 'caught'}"
2nd innings,10.4,SR Watson,JJ Bumrah,MS Dhoni,0,0,na,na
2nd innings,10.5,SR Watson,JJ Bumrah,MS Dhoni,0,0,na,na
2nd innings,10.6,SR Watson,JJ Bumrah,MS Dhoni,0,0,na,na
2nd innings,11.1,MS Dhoni,RD Chahar,SR Watson,1,1,na,na
2nd innings,11.2,SR Watson,RD Chahar,MS Dhoni,0,0,na,na
2nd innings,11.3,SR Watson,RD Chahar,MS Dhoni,0,0,na,na
2nd innings,11.4,SR Watson,RD Chahar,MS Dhoni,0,0,na,na
2nd innings,11.5,SR Watson,RD Chahar,MS Dhoni,1,1,na,na
2nd innings,11.6,MS Dhoni,RD Chahar,SR Watson,4,4,na,na
2nd innings,12.1,SR Watson,HH Pandya,MS Dhoni,1,1,na,na
2nd innings,12.2,MS Dhoni,HH Pandya,SR Watson,0,0,na,na
2nd innings,12.3,MS Dhoni,HH Pandya,SR Watson,1,0,{'wides': 1},na
2nd innings,12.4,MS Dhoni,HH Pandya,SR Watson,0,0,na,na
2nd innings,12.5,MS Dhoni,HH Pandya,SR Watson,1,1,na,"{'player_out': 'MS Dhoni', 'kind': 'run out'}"
2nd innings,12.6,DJ Bravo,HH Pandya,SR Watson,0,0,na,na
2nd innings,12.7,DJ Bravo,HH Pandya,SR Watson,0,0,na,na
2nd innings,13.1,SR Watson,RD Chahar,DJ Bravo,0,0,na,na
2nd innings,13.2,SR Watson,RD Chahar,DJ Bravo,1,1,na,na
2nd innings,13.3,DJ Bravo,RD Chahar,SR Watson,1,1,na,na
2nd innings,13.4,SR Watson,RD Chahar,DJ Bravo,1,1,na,na
2nd innings,13.5,DJ Bravo,RD Chahar,SR Watson,0,0,na,na
2nd innings,13.6,DJ Bravo,RD Chahar,SR Watson,0,0,na,na
2nd innings,14.1,SR Watson,MJ McClenaghan,DJ Bravo,0,0,na,na
2nd innings,14.2,SR Watson,MJ McClenaghan,DJ Bravo,0,0,na,na
2nd innings,14.3,SR Watson,MJ McClenaghan,DJ Bravo,0,0,na,na
2nd innings,14.4,SR Watson,MJ McClenaghan,DJ Bravo,2,2,na,na
2nd innings,14.5,SR Watson,MJ McClenaghan,DJ Bravo,0,0,na,na
2nd innings,14.6,SR Watson,MJ McClenaghan,DJ Bravo,1,1,na,na
2nd innings,15.1,SR Watson,SL Malinga,DJ Bravo,6,6,na,na
2nd innings,15.2,SR Watson,SL Malinga,DJ Bravo,1,1,na,na
2nd innings,15.3,DJ Bravo,SL Malinga,SR Watson,4,4,na,na
2nd innings,15.4,DJ Bravo,SL Malinga,SR Watson,4,4,na,na
2nd innings,15.5,DJ Bravo,SL Malinga,SR Watson,4,4,na,na
2nd innings,15.6,DJ Bravo,SL Malinga,SR Watson,1,1,na,na
2nd innings,16.1,DJ Bravo,JJ Bumrah,SR Watson,1,1,na,na
2nd innings,16.2,SR Watson,JJ Bumrah,DJ Bravo,1,1,na,na
2nd innings,16.3,DJ Bravo,JJ Bumrah,SR Watson,0,0,na,na
2nd innings,16.4,DJ Bravo,JJ Bumrah,SR Watson,0,0,na,na
2nd innings,16.5,DJ Bravo,JJ Bumrah,SR Watson,1,0,{'byes': 1},na
2nd innings,16.6,SR Watson,JJ Bumrah,DJ Bravo,1,1,na,na
2nd innings,17.1,SR Watson,KH Pandya,DJ Bravo,1,1,na,na
2nd innings,17.2,DJ Bravo,KH Pandya,SR Watson,6,6,na,na
2nd innings,17.3,DJ Bravo,KH Pandya,SR Watson,6,6,na,na
2nd innings,17.4,DJ Bravo,KH Pandya,SR Watson,6,6,na,na
2nd innings,17.5,DJ Bravo,KH Pandya,SR Watson,0,0,na,na
2nd innings,17.6,DJ Bravo,KH Pandya,SR Watson,1,1,na,na
2nd innings,18.1,DJ Bravo,JJ Bumrah,SR Watson,1,1,na,na
2nd innings,18.2,SR Watson,JJ Bumrah,DJ Bravo,0,0,na,"{'player_out': 'DJ Bravo', 'fielders': ['Q de Kock'], 'kind': 'caught'}"
2nd innings,18.3,SR Watson,JJ Bumrah,RA Jadeja,2,2,na,na
2nd innings,18.4,SR Watson,JJ Bumrah,RA Jadeja,0,0,na,na
2nd innings,18.5,SR Watson,JJ Bumrah,RA Jadeja,2,2,na,na
2nd innings,18.6,SR Watson,JJ Bumrah,RA Jadeja,4,0,{'byes': 4},na
2nd innings,19.1,RA Jadeja,SL Malinga,SR Watson,1,1,na,na
2nd innings,19.2,SR Watson,SL Malinga,RA Jadeja,1,1,na,na
2nd innings,19.3,RA Jadeja,SL Malinga,SR Watson,2,2,na,na
2nd innings,19.4,RA Jadeja,SL Malinga,SR Watson,1,1,na,"{'player_out': 'SR Watson', 'kind': 'run out'}"
2nd innings,19.5,RA Jadeja,SL Malinga,SN Thakur,2,2,na,na
2nd innings,19.6,RA Jadeja,SL Malinga,SN Thakur,0,0,na,"{'player_out': 'SN Thakur', 'kind': 'lbw'}"
