innings,deliveries,non_striker,bowler,batsman,total_runs,batsman_runs,extras,wickets
1st innings,0.1,AJ Finch,B Kumar,D Padikkal,0,0,na,na
1st innings,0.2,AJ Finch,B Kumar,D Padikkal,0,0,na,na
1st innings,0.3,AJ Finch,B Kumar,D Padikkal,1,0,{'wides': 1},na
1st innings,0.4,AJ Finch,B Kumar,D Padikkal,0,0,na,na
1st innings,0.5,AJ Finch,B Kumar,D Padikkal,1,1,na,na
1st innings,0.6,D Padikkal,B Kumar,AJ Finch,0,0,na,na
1st innings,0.7,D Padikkal,B Kumar,AJ Finch,0,0,na,na
1st innings,1.1,AJ Finch,Sandeep Sharma,D Padikkal,4,4,na,na
1st innings,1.2,AJ Finch,Sandeep Sharma,D Padikkal,0,0,na,na
1st innings,1.3,AJ Finch,Sandeep Sharma,D Padikkal,4,4,na,na
1st innings,1.4,AJ Finch,Sandeep Sharma,D Padikkal,2,2,na,na
1st innings,1.5,AJ Finch,Sandeep Sharma,D Padikkal,1,1,na,na
1st innings,1.6,D Padikkal,Sandeep Sharma,AJ Finch,0,0,na,na
1st innings,2.1,AJ Finch,B Kumar,D Padikkal,0,0,na,na
1st innings,2.2,AJ Finch,B Kumar,D Padikkal,0,0,na,na
1st innings,2.3,AJ Finch,B Kumar,D Padikkal,4,4,na,na
1st innings,2.4,AJ Finch,B Kumar,D Padikkal,1,1,na,na
1st innings,2.5,D Padikkal,B Kumar,AJ Finch,2,2,na,na
1st innings,2.6,D Padikkal,B Kumar,AJ Finch,0,0,na,na
1st innings,3.1,AJ Finch,T Natarajan,D Padikkal,0,0,na,na
1st innings,3.2,AJ Finch,T Natarajan,D Padikkal,4,4,na,na
1st innings,3.3,AJ Finch,T Natarajan,D Padikkal,4,4,na,na
1st innings,3.4,AJ Finch,T Natarajan,D Padikkal,0,0,na,na
1st innings,3.5,AJ Finch,T Natarajan,D Padikkal,4,4,na,na
1st innings,3.6,AJ Finch,T Natarajan,D Padikkal,0,0,na,na
1st innings,4.1,D Padikkal,MR Marsh,AJ Finch,0,0,na,na
1st innings,4.2,D Padikkal,MR Marsh,AJ Finch,1,1,na,na
1st innings,4.3,AJ Finch,MR Marsh,D Padikkal,4,4,na,na
1st innings,4.4,AJ Finch,MR Marsh,D Padikkal,1,1,na,na
1st innings,4.5,D Padikkal,V Shankar,AJ Finch,1,0,{'noballs': 1},na
1st innings,4.6,D Padikkal,V Shankar,AJ Finch,7,6,{'noballs': 1},na
1st innings,4.7,D Padikkal,V Shankar,AJ Finch,1,1,na,na
1st innings,4.8,AJ Finch,V Shankar,D Padikkal,1,0,{'wides': 1},na
1st innings,4.9,AJ Finch,V Shankar,D Padikkal,0,0,na,na
1st innings,5.1,D Padikkal,Sandeep Sharma,AJ Finch,1,1,na,na
1st innings,5.2,AJ Finch,Sandeep Sharma,D Padikkal,2,2,na,na
1st innings,5.3,AJ Finch,Sandeep Sharma,D Padikkal,0,0,na,na
1st innings,5.4,AJ Finch,Sandeep Sharma,D Padikkal,0,0,na,na
1st innings,5.5,AJ Finch,Sandeep Sharma,D Padikkal,1,1,na,na
1st innings,5.6,D Padikkal,Sandeep Sharma,AJ Finch,1,1,na,na
1st innings,6.1,D Padikkal,Rashid Khan,AJ Finch,1,1,na,na
1st innings,6.2,AJ Finch,Rashid Khan,D Padikkal,1,1,na,na
1st innings,6.3,D Padikkal,Rashid Khan,AJ Finch,1,1,na,na
1st innings,6.4,AJ Finch,Rashid Khan,D Padikkal,1,1,na,na
1st innings,6.5,D Padikkal,Rashid Khan,AJ Finch,1,1,na,na
1st innings,6.6,AJ Finch,Rashid Khan,D Padikkal,1,1,na,na
1st innings,7.1,AJ Finch,T Natarajan,D Padikkal,1,1,na,na
1st innings,7.2,D Padikkal,T Natarajan,AJ Finch,0,0,na,na
1st innings,7.3,D Padikkal,T Natarajan,AJ Finch,1,1,na,na
1st innings,7.4,AJ Finch,T Natarajan,D Padikkal,1,1,na,na
1st innings,7.5,D Padikkal,T Natarajan,AJ Finch,1,1,na,na
1st innings,7.6,AJ Finch,T Natarajan,D Padikkal,1,1,na,na
1st innings,8.1,AJ Finch,Rashid Khan,D Padikkal,1,0,{'legbyes': 1},na
1st innings,8.2,D Padikkal,Rashid Khan,AJ Finch,0,0,na,na
1st innings,8.3,D Padikkal,Rashid Khan,AJ Finch,0,0,na,na
1st innings,8.4,D Padikkal,Rashid Khan,AJ Finch,4,4,na,na
1st innings,8.5,D Padikkal,Rashid Khan,AJ Finch,6,6,na,na
1st innings,8.6,D Padikkal,Rashid Khan,AJ Finch,0,0,na,na
1st innings,9.1,AJ Finch,Abhishek Sharma,D Padikkal,2,2,na,na
1st innings,9.2,AJ Finch,Abhishek Sharma,D Padikkal,2,2,na,na
1st innings,9.3,AJ Finch,Abhishek Sharma,D Padikkal,4,4,na,na
1st innings,9.4,AJ Finch,Abhishek Sharma,D Padikkal,1,1,na,na
1st innings,9.5,D Padikkal,Abhishek Sharma,AJ Finch,1,1,na,na
1st innings,9.6,AJ Finch,Abhishek Sharma,D Padikkal,1,1,na,na
1st innings,10.1,AJ Finch,V Shankar,D Padikkal,2,2,na,na
1st innings,10.2,AJ Finch,V Shankar,D Padikkal,0,0,na,na
1st innings,10.3,AJ Finch,V Shankar,D Padikkal,1,1,na,na
1st innings,10.4,D Padikkal,V Shankar,AJ Finch,0,0,na,na
1st innings,10.5,D Padikkal,V Shankar,AJ Finch,1,1,na,na
1st innings,10.6,AJ Finch,V Shankar,D Padikkal,0,0,na,"{'player_out': 'D Padikkal', 'kind': 'bowled'}"
1st innings,11.1,V Kohli,Abhishek Sharma,AJ Finch,0,0,na,"{'player_out': 'AJ Finch', 'kind': 'lbw'}"
1st innings,11.2,V Kohli,Abhishek Sharma,AB de Villiers,0,0,na,na
1st innings,11.3,V Kohli,Abhishek Sharma,AB de Villiers,1,1,na,na
1st innings,11.4,AB de Villiers,Abhishek Sharma,V Kohli,2,2,na,na
1st innings,11.5,AB de Villiers,Abhishek Sharma,V Kohli,1,1,na,na
1st innings,11.6,V Kohli,Abhishek Sharma,AB de Villiers,1,1,na,na
1st innings,12.1,V Kohli,Rashid Khan,AB de Villiers,1,1,na,na
1st innings,12.2,AB de Villiers,Rashid Khan,V Kohli,1,1,na,na
1st innings,12.3,V Kohli,Rashid Khan,AB de Villiers,1,1,na,na
1st innings,12.4,AB de Villiers,Rashid Khan,V Kohli,1,1,na,na
1st innings,12.5,V Kohli,Rashid Khan,AB de Villiers,1,1,na,na
1st innings,12.6,AB de Villiers,Rashid Khan,V Kohli,2,2,na,na
1st innings,13.1,V Kohli,Sandeep Sharma,AB de Villiers,1,1,na,na
1st innings,13.2,AB de Villiers,Sandeep Sharma,V Kohli,1,1,na,na
1st innings,13.3,V Kohli,Sandeep Sharma,AB de Villiers,1,1,na,na
1st innings,13.4,AB de Villiers,Sandeep Sharma,V Kohli,2,2,na,na
1st innings,13.5,AB de Villiers,Sandeep Sharma,V Kohli,0,0,na,na
1st innings,13.6,AB de Villiers,Sandeep Sharma,V Kohli,1,1,na,na
1st innings,14.1,AB de Villiers,Rashid Khan,V Kohli,1,1,na,na
1st innings,14.2,V Kohli,Rashid Khan,AB de Villiers,2,2,na,na
1st innings,14.3,V Kohli,Rashid Khan,AB de Villiers,1,1,na,na
1st innings,14.4,AB de Villiers,Rashid Khan,V Kohli,1,1,na,na
1st innings,14.5,V Kohli,Rashid Khan,AB de Villiers,2,2,na,na
1st innings,14.6,V Kohli,Rashid Khan,AB de Villiers,1,1,na,na
1st innings,15.1,V Kohli,T Natarajan,AB de Villiers,1,1,na,na
1st innings,15.2,AB de Villiers,T Natarajan,V Kohli,1,1,na,na
1st innings,15.3,V Kohli,T Natarajan,AB de Villiers,4,4,na,na
1st innings,15.4,V Kohli,T Natarajan,AB de Villiers,1,1,na,na
1st innings,15.5,AB de Villiers,T Natarajan,V Kohli,0,0,na,"{'player_out': 'V Kohli', 'fielders': ['Rashid Khan'], 'kind': 'caught'}"
1st innings,15.6,S Dube,T Natarajan,AB de Villiers,1,1,na,na
1st innings,16.1,S Dube,B Kumar,AB de Villiers,1,1,na,na
1st innings,16.2,AB de Villiers,B Kumar,S Dube,1,1,na,na
1st innings,16.3,S Dube,B Kumar,AB de Villiers,0,0,na,na
1st innings,16.4,S Dube,B Kumar,AB de Villiers,4,4,na,na
1st innings,16.5,S Dube,B Kumar,AB de Villiers,1,1,na,na
1st innings,16.6,AB de Villiers,B Kumar,S Dube,1,1,na,na
1st innings,17.1,AB de Villiers,T Natarajan,S Dube,1,1,na,na
1st innings,17.2,S Dube,T Natarajan,AB de Villiers,4,4,na,na
1st innings,17.3,S Dube,T Natarajan,AB de Villiers,1,1,na,na
1st innings,17.4,AB de Villiers,T Natarajan,S Dube,0,0,na,na
1st innings,17.5,AB de Villiers,T Natarajan,S Dube,2,2,na,na
1st innings,17.6,AB de Villiers,T Natarajan,S Dube,1,1,na,na
1st innings,18.1,AB de Villiers,Sandeep Sharma,S Dube,1,1,na,na
1st innings,18.2,S Dube,Sandeep Sharma,AB de Villiers,0,0,na,na
1st innings,18.3,S Dube,Sandeep Sharma,AB de Villiers,6,6,na,na
1st innings,18.4,S Dube,Sandeep Sharma,AB de Villiers,6,6,na,na
1st innings,18.5,S Dube,Sandeep Sharma,AB de Villiers,0,0,na,na
1st innings,18.6,S Dube,Sandeep Sharma,AB de Villiers,1,1,na,na
1st innings,19.1,S Dube,B Kumar,AB de Villiers,4,4,na,na
1st innings,19.2,S Dube,B Kumar,AB de Villiers,2,2,na,na
1st innings,19.3,S Dube,B Kumar,AB de Villiers,1,1,na,"{'player_out': 'AB de Villiers', 'kind': 'run out'}"
1st innings,19.4,S Dube,B Kumar,JR Philippe,0,0,na,na
1st innings,19.5,S Dube,B Kumar,JR Philippe,1,1,na,na
1st innings,19.6,JR Philippe,B Kumar,S Dube,0,0,na,"{'player_out': 'S Dube', 'kind': 'run out'}"
2nd innings,0.1,JM Bairstow,DW Steyn,DA Warner,0,0,na,na
2nd innings,0.2,JM Bairstow,DW Steyn,DA Warner,4,4,na,na
2nd innings,0.3,JM Bairstow,DW Steyn,DA Warner,2,2,na,na
2nd innings,0.4,JM Bairstow,DW Steyn,DA Warner,0,0,na,na
2nd innings,0.5,JM Bairstow,DW Steyn,DA Warner,0,0,na,na
2nd innings,0.6,JM Bairstow,DW Steyn,DA Warner,0,0,na,na
2nd innings,1.1,DA Warner,UT Yadav,JM Bairstow,0,0,na,na
2nd innings,1.2,DA Warner,UT Yadav,JM Bairstow,1,0,{'wides': 1},na
2nd innings,1.3,DA Warner,UT Yadav,JM Bairstow,1,0,{'wides': 1},na
2nd innings,1.4,DA Warner,UT Yadav,JM Bairstow,4,4,na,na
2nd innings,1.5,DA Warner,UT Yadav,JM Bairstow,6,6,na,na
2nd innings,1.6,DA Warner,UT Yadav,JM Bairstow,0,0,na,"{'player_out': 'DA Warner', 'kind': 'run out'}"
2nd innings,1.7,MK Pandey,UT Yadav,JM Bairstow,0,0,na,na
2nd innings,1.8,MK Pandey,UT Yadav,JM Bairstow,0,0,na,na
2nd innings,2.1,JM Bairstow,DW Steyn,MK Pandey,0,0,na,na
2nd innings,2.2,JM Bairstow,DW Steyn,MK Pandey,0,0,na,na
2nd innings,2.3,JM Bairstow,DW Steyn,MK Pandey,2,2,na,na
2nd innings,2.4,JM Bairstow,DW Steyn,MK Pandey,0,0,na,na
2nd innings,2.5,JM Bairstow,DW Steyn,MK Pandey,4,4,na,na
2nd innings,2.6,JM Bairstow,DW Steyn,MK Pandey,1,1,na,na
2nd innings,3.1,JM Bairstow,NA Saini,MK Pandey,1,1,na,na
2nd innings,3.2,MK Pandey,NA Saini,JM Bairstow,0,0,na,na
2nd innings,3.3,MK Pandey,NA Saini,JM Bairstow,1,1,na,na
2nd innings,3.4,JM Bairstow,NA Saini,MK Pandey,1,1,na,na
2nd innings,3.5,MK Pandey,NA Saini,JM Bairstow,0,0,na,na
2nd innings,3.6,MK Pandey,NA Saini,JM Bairstow,2,2,na,na
2nd innings,4.1,JM Bairstow,UT Yadav,MK Pandey,4,4,na,na
2nd innings,4.2,JM Bairstow,UT Yadav,MK Pandey,4,4,na,na
2nd innings,4.3,JM Bairstow,UT Yadav,MK Pandey,0,0,na,na
2nd innings,4.4,JM Bairstow,UT Yadav,MK Pandey,1,1,na,na
2nd innings,4.5,MK Pandey,UT Yadav,JM Bairstow,1,1,na,na
2nd innings,4.6,JM Bairstow,UT Yadav,MK Pandey,0,0,na,na
2nd innings,5.1,MK Pandey,NA Saini,JM Bairstow,1,1,na,na
2nd innings,5.2,JM Bairstow,NA Saini,MK Pandey,0,0,na,na
2nd innings,5.3,JM Bairstow,NA Saini,MK Pandey,1,1,na,na
2nd innings,5.4,MK Pandey,NA Saini,JM Bairstow,4,4,na,na
2nd innings,5.5,MK Pandey,NA Saini,JM Bairstow,1,1,na,na
2nd innings,5.6,JM Bairstow,NA Saini,MK Pandey,1,1,na,na
2nd innings,6.1,JM Bairstow,Washington Sundar,MK Pandey,0,0,na,na
2nd innings,6.2,JM Bairstow,Washington Sundar,MK Pandey,6,6,na,na
2nd innings,6.3,JM Bairstow,Washington Sundar,MK Pandey,0,0,na,na
2nd innings,6.4,JM Bairstow,Washington Sundar,MK Pandey,0,0,na,na
2nd innings,6.5,JM Bairstow,Washington Sundar,MK Pandey,0,0,na,na
2nd innings,6.6,JM Bairstow,Washington Sundar,MK Pandey,1,1,na,na
2nd innings,7.1,JM Bairstow,YS Chahal,MK Pandey,0,0,na,na
2nd innings,7.2,JM Bairstow,YS Chahal,MK Pandey,0,0,na,na
2nd innings,7.3,JM Bairstow,YS Chahal,MK Pandey,1,1,na,na
2nd innings,7.4,MK Pandey,YS Chahal,JM Bairstow,0,0,na,na
2nd innings,7.5,MK Pandey,YS Chahal,JM Bairstow,2,2,na,na
2nd innings,7.6,MK Pandey,YS Chahal,JM Bairstow,1,1,na,na
2nd innings,8.1,MK Pandey,UT Yadav,JM Bairstow,1,1,na,na
2nd innings,8.2,JM Bairstow,UT Yadav,MK Pandey,1,1,na,na
2nd innings,8.3,MK Pandey,UT Yadav,JM Bairstow,0,0,na,na
2nd innings,8.4,MK Pandey,UT Yadav,JM Bairstow,6,6,na,na
2nd innings,8.5,MK Pandey,UT Yadav,JM Bairstow,4,4,na,na
2nd innings,8.6,MK Pandey,UT Yadav,JM Bairstow,1,1,na,na
2nd innings,9.1,MK Pandey,YS Chahal,JM Bairstow,1,1,na,na
2nd innings,9.2,JM Bairstow,YS Chahal,MK Pandey,1,1,na,na
2nd innings,9.3,MK Pandey,YS Chahal,JM Bairstow,2,2,na,na
2nd innings,9.4,MK Pandey,YS Chahal,JM Bairstow,0,0,na,na
2nd innings,9.5,MK Pandey,YS Chahal,JM Bairstow,1,1,na,na
2nd innings,9.6,JM Bairstow,YS Chahal,MK Pandey,1,1,na,na
2nd innings,10.1,JM Bairstow,NA Saini,MK Pandey,1,1,na,na
2nd innings,10.2,MK Pandey,NA Saini,JM Bairstow,1,1,na,na
2nd innings,10.3,JM Bairstow,NA Saini,MK Pandey,1,1,na,na
2nd innings,10.4,MK Pandey,NA Saini,JM Bairstow,2,2,na,na
2nd innings,10.5,MK Pandey,NA Saini,JM Bairstow,0,0,na,na
2nd innings,10.6,MK Pandey,NA Saini,JM Bairstow,0,0,na,na
2nd innings,11.1,JM Bairstow,YS Chahal,MK Pandey,1,1,na,na
2nd innings,11.2,MK Pandey,YS Chahal,JM Bairstow,4,0,{'byes': 4},na
2nd innings,11.3,MK Pandey,YS Chahal,JM Bairstow,0,0,na,na
2nd innings,11.4,MK Pandey,YS Chahal,JM Bairstow,1,1,na,na
2nd innings,11.5,JM Bairstow,YS Chahal,MK Pandey,0,0,na,na
2nd innings,11.6,JM Bairstow,YS Chahal,MK Pandey,0,0,na,"{'player_out': 'MK Pandey', 'fielders': ['NA Saini'], 'kind': 'caught'}"
2nd innings,12.1,PK Garg,S Dube,JM Bairstow,1,1,na,na
2nd innings,12.2,JM Bairstow,S Dube,PK Garg,2,2,na,na
2nd innings,12.3,JM Bairstow,S Dube,PK Garg,0,0,na,na
2nd innings,12.4,JM Bairstow,S Dube,PK Garg,2,0,{'legbyes': 2},na
2nd innings,12.5,JM Bairstow,S Dube,PK Garg,0,0,na,na
2nd innings,12.6,JM Bairstow,S Dube,PK Garg,0,0,na,na
2nd innings,13.1,PK Garg,UT Yadav,JM Bairstow,2,2,na,na
2nd innings,13.2,PK Garg,UT Yadav,JM Bairstow,2,2,na,na
2nd innings,13.3,PK Garg,UT Yadav,JM Bairstow,4,4,na,na
2nd innings,13.4,PK Garg,UT Yadav,JM Bairstow,1,0,{'byes': 1},na
2nd innings,13.5,JM Bairstow,UT Yadav,PK Garg,1,1,na,na
2nd innings,13.6,PK Garg,UT Yadav,JM Bairstow,4,4,na,na
2nd innings,14.1,JM Bairstow,DW Steyn,PK Garg,1,1,na,na
2nd innings,14.2,PK Garg,DW Steyn,JM Bairstow,4,4,na,na
2nd innings,14.3,PK Garg,DW Steyn,JM Bairstow,1,0,{'wides': 1},na
2nd innings,14.4,PK Garg,DW Steyn,JM Bairstow,1,1,na,na
2nd innings,14.5,JM Bairstow,DW Steyn,PK Garg,4,4,na,na
2nd innings,14.6,JM Bairstow,DW Steyn,PK Garg,2,2,na,na
2nd innings,14.7,JM Bairstow,DW Steyn,PK Garg,0,0,na,na
2nd innings,15.1,PK Garg,YS Chahal,JM Bairstow,0,0,na,na
2nd innings,15.2,PK Garg,YS Chahal,JM Bairstow,0,0,na,"{'player_out': 'JM Bairstow', 'kind': 'bowled'}"
2nd innings,15.3,PK Garg,YS Chahal,V Shankar,0,0,na,"{'player_out': 'V Shankar', 'kind': 'bowled'}"
2nd innings,15.4,PK Garg,YS Chahal,Abhishek Sharma,1,1,na,na
2nd innings,15.5,Abhishek Sharma,YS Chahal,PK Garg,1,1,na,na
2nd innings,15.6,PK Garg,YS Chahal,Abhishek Sharma,4,4,na,na
2nd innings,16.1,Abhishek Sharma,S Dube,PK Garg,1,1,na,na
2nd innings,16.2,PK Garg,S Dube,Abhishek Sharma,1,1,na,na
2nd innings,16.3,Abhishek Sharma,S Dube,PK Garg,0,0,na,"{'player_out': 'PK Garg', 'kind': 'bowled'}"
2nd innings,16.4,Abhishek Sharma,S Dube,Rashid Khan,4,4,na,na
2nd innings,16.5,Abhishek Sharma,S Dube,Rashid Khan,1,1,na,na
2nd innings,16.6,Rashid Khan,S Dube,Abhishek Sharma,1,1,na,"{'player_out': 'Abhishek Sharma', 'kind': 'run out'}"
2nd innings,17.1,B Kumar,NA Saini,Rashid Khan,0,0,na,na
2nd innings,17.2,B Kumar,NA Saini,Rashid Khan,5,0,{'wides': 5},na
2nd innings,17.3,B Kumar,NA Saini,Rashid Khan,1,1,na,na
2nd innings,17.4,Rashid Khan,NA Saini,B Kumar,0,0,na,na
2nd innings,17.5,Rashid Khan,NA Saini,B Kumar,0,0,na,"{'player_out': 'B Kumar', 'kind': 'bowled'}"
2nd innings,17.6,Rashid Khan,NA Saini,Sandeep Sharma,1,1,na,na
2nd innings,17.7,Sandeep Sharma,NA Saini,Rashid Khan,0,0,na,"{'player_out': 'Rashid Khan', 'kind': 'bowled'}"
2nd innings,18.1,MR Marsh,S Dube,Sandeep Sharma,1,1,na,na
2nd innings,18.2,Sandeep Sharma,S Dube,MR Marsh,0,0,na,"{'player_out': 'MR Marsh', 'fielders': ['V Kohli'], 'kind': 'caught'}"
2nd innings,18.3,Sandeep Sharma,S Dube,T Natarajan,0,0,na,na
2nd innings,18.4,Sandeep Sharma,S Dube,T Natarajan,1,1,na,na
2nd innings,18.5,T Natarajan,S Dube,Sandeep Sharma,1,1,na,na
2nd innings,18.6,Sandeep Sharma,S Dube,T Natarajan,1,1,na,na
2nd innings,19.1,Sandeep Sharma,DW Steyn,T Natarajan,1,1,na,na
2nd innings,19.2,T Natarajan,DW Steyn,Sandeep Sharma,2,2,na,na
2nd innings,19.3,T Natarajan,DW Steyn,Sandeep Sharma,4,4,na,na
2nd innings,19.4,T Natarajan,DW Steyn,Sandeep Sharma,0,0,na,"{'player_out': 'Sandeep Sharma', 'fielders': ['V Kohli'], 'kind': 'caught'}"
