innings,deliveries,non_striker,bowler,batsman,total_runs,batsman_runs,extras,wickets
1st innings,0.1,D Padikkal,Sandeep Sharma,JR Philippe,0,0,na,na
1st innings,0.2,D Padikkal,Sandeep Sharma,JR Philippe,1,1,na,na
1st innings,0.3,JR Philippe,Sandeep Sharma,D Padikkal,0,0,na,na
1st innings,0.4,JR Philippe,Sandeep Sharma,D Padikkal,0,0,na,na
1st innings,0.5,JR Philippe,Sandeep Sharma,D Padikkal,1,1,na,na
1st innings,0.6,D Padikkal,Sandeep Sharma,JR Philippe,1,1,na,na
1st innings,1.1,D Padikkal,JO Holder,JR Philippe,0,0,na,na
1st innings,1.2,D Padikkal,JO Holder,JR Philippe,1,1,na,na
1st innings,1.3,JR Philippe,JO Holder,D Padikkal,0,0,na,na
1st innings,1.4,JR Philippe,JO Holder,D Padikkal,0,0,na,na
1st innings,1.5,JR Philippe,JO Holder,D Padikkal,0,0,na,na
1st innings,1.6,JR Philippe,JO Holder,D Padikkal,4,4,na,na
1st innings,2.1,D Padikkal,Sandeep Sharma,JR Philippe,0,0,na,na
1st innings,2.2,D Padikkal,Sandeep Sharma,JR Philippe,0,0,na,na
1st innings,2.3,D Padikkal,Sandeep Sharma,JR Philippe,4,4,na,na
1st innings,2.4,D Padikkal,Sandeep Sharma,JR Philippe,1,1,na,na
1st innings,2.5,JR Philippe,Sandeep Sharma,D Padikkal,0,0,na,"{'player_out': 'D Padikkal', 'kind': 'bowled'}"
1st innings,2.6,JR Philippe,Sandeep Sharma,V Kohli,0,0,na,na
1st innings,3.1,V Kohli,JO Holder,JR Philippe,1,0,{'wides': 1},na
1st innings,3.2,V Kohli,JO Holder,JR Philippe,1,1,na,na
1st innings,3.3,JR Philippe,JO Holder,V Kohli,2,2,na,na
1st innings,3.4,JR Philippe,JO Holder,V Kohli,1,1,na,na
1st innings,3.5,V Kohli,JO Holder,JR Philippe,1,0,{'legbyes': 1},na
1st innings,3.6,JR Philippe,JO Holder,V Kohli,1,1,na,na
1st innings,3.7,V Kohli,JO Holder,JR Philippe,4,4,na,na
1st innings,4.1,JR Philippe,Sandeep Sharma,V Kohli,1,1,na,na
1st innings,4.2,V Kohli,Sandeep Sharma,JR Philippe,1,1,na,na
1st innings,4.3,JR Philippe,Sandeep Sharma,V Kohli,2,2,na,na
1st innings,4.4,JR Philippe,Sandeep Sharma,V Kohli,0,0,na,"{'player_out': 'V Kohli', 'fielders': ['KS Williamson'], 'kind': 'caught'}"
1st innings,4.5,JR Philippe,Sandeep Sharma,AB de Villiers,1,1,na,na
1st innings,4.6,AB de Villiers,Sandeep Sharma,JR Philippe,0,0,na,na
1st innings,5.1,JR Philippe,T Natarajan,AB de Villiers,0,0,na,na
1st innings,5.2,JR Philippe,T Natarajan,AB de Villiers,0,0,na,na
1st innings,5.3,JR Philippe,T Natarajan,AB de Villiers,0,0,na,na
1st innings,5.4,JR Philippe,T Natarajan,AB de Villiers,1,1,na,na
1st innings,5.5,AB de Villiers,T Natarajan,JR Philippe,0,0,na,na
1st innings,5.6,AB de Villiers,T Natarajan,JR Philippe,0,0,na,na
1st innings,6.1,JR Philippe,S Nadeem,AB de Villiers,1,1,na,na
1st innings,6.2,AB de Villiers,S Nadeem,JR Philippe,1,1,na,na
1st innings,6.3,JR Philippe,S Nadeem,AB de Villiers,1,1,na,na
1st innings,6.4,AB de Villiers,S Nadeem,JR Philippe,4,4,na,na
1st innings,6.5,AB de Villiers,S Nadeem,JR Philippe,1,1,na,na
1st innings,6.6,JR Philippe,S Nadeem,AB de Villiers,0,0,na,na
1st innings,7.1,AB de Villiers,Rashid Khan,JR Philippe,1,1,na,na
1st innings,7.2,JR Philippe,Rashid Khan,AB de Villiers,0,0,na,na
1st innings,7.3,JR Philippe,Rashid Khan,AB de Villiers,0,0,na,na
1st innings,7.4,JR Philippe,Rashid Khan,AB de Villiers,0,0,na,na
1st innings,7.5,JR Philippe,Rashid Khan,AB de Villiers,0,0,na,na
1st innings,7.6,JR Philippe,Rashid Khan,AB de Villiers,1,0,{'wides': 1},na
1st innings,7.7,JR Philippe,Rashid Khan,AB de Villiers,2,2,na,na
1st innings,8.1,AB de Villiers,S Nadeem,JR Philippe,2,2,na,na
1st innings,8.2,AB de Villiers,S Nadeem,JR Philippe,1,1,na,na
1st innings,8.3,JR Philippe,S Nadeem,AB de Villiers,1,1,na,na
1st innings,8.4,AB de Villiers,S Nadeem,JR Philippe,4,4,na,na
1st innings,8.5,AB de Villiers,S Nadeem,JR Philippe,1,1,na,na
1st innings,8.6,JR Philippe,S Nadeem,AB de Villiers,1,1,na,na
1st innings,9.1,JR Philippe,Rashid Khan,AB de Villiers,1,1,na,na
1st innings,9.2,AB de Villiers,Rashid Khan,JR Philippe,1,1,na,na
1st innings,9.3,JR Philippe,Rashid Khan,AB de Villiers,1,1,na,na
1st innings,9.4,AB de Villiers,Rashid Khan,JR Philippe,1,1,na,na
1st innings,9.5,JR Philippe,Rashid Khan,AB de Villiers,4,4,na,na
1st innings,9.6,JR Philippe,Rashid Khan,AB de Villiers,1,1,na,na
1st innings,10.1,JR Philippe,S Nadeem,AB de Villiers,0,0,na,na
1st innings,10.2,JR Philippe,S Nadeem,AB de Villiers,6,6,na,na
1st innings,10.3,JR Philippe,S Nadeem,AB de Villiers,2,2,na,na
1st innings,10.4,JR Philippe,S Nadeem,AB de Villiers,1,1,na,na
1st innings,10.5,AB de Villiers,S Nadeem,JR Philippe,1,1,na,na
1st innings,10.6,JR Philippe,S Nadeem,AB de Villiers,0,0,na,"{'player_out': 'AB de Villiers', 'fielders': ['Abhishek Sharma'], 'kind': 'caught'}"
1st innings,11.1,Washington Sundar,Rashid Khan,JR Philippe,0,0,na,na
1st innings,11.2,Washington Sundar,Rashid Khan,JR Philippe,0,0,na,na
1st innings,11.3,Washington Sundar,Rashid Khan,JR Philippe,5,0,{'wides': 5},na
1st innings,11.4,Washington Sundar,Rashid Khan,JR Philippe,0,0,na,na
1st innings,11.5,Washington Sundar,Rashid Khan,JR Philippe,0,0,na,"{'player_out': 'JR Philippe', 'fielders': ['MK Pandey'], 'kind': 'caught'}"
1st innings,11.6,Washington Sundar,Rashid Khan,Gurkeerat Singh,0,0,na,na
1st innings,11.7,Washington Sundar,Rashid Khan,Gurkeerat Singh,0,0,na,na
1st innings,12.1,Gurkeerat Singh,S Nadeem,Washington Sundar,1,1,na,na
1st innings,12.2,Washington Sundar,S Nadeem,Gurkeerat Singh,1,1,na,na
1st innings,12.3,Gurkeerat Singh,S Nadeem,Washington Sundar,2,2,na,na
1st innings,12.4,Gurkeerat Singh,S Nadeem,Washington Sundar,1,1,na,na
1st innings,12.5,Washington Sundar,S Nadeem,Gurkeerat Singh,1,1,na,na
1st innings,12.6,Gurkeerat Singh,S Nadeem,Washington Sundar,1,1,na,na
1st innings,13.1,Gurkeerat Singh,T Natarajan,Washington Sundar,1,1,na,na
1st innings,13.2,Washington Sundar,T Natarajan,Gurkeerat Singh,0,0,na,na
1st innings,13.3,Washington Sundar,T Natarajan,Gurkeerat Singh,0,0,na,na
1st innings,13.4,Washington Sundar,T Natarajan,Gurkeerat Singh,1,1,na,na
1st innings,13.5,Gurkeerat Singh,T Natarajan,Washington Sundar,1,1,na,na
1st innings,13.6,Washington Sundar,T Natarajan,Gurkeerat Singh,0,0,na,na
1st innings,14.1,Gurkeerat Singh,JO Holder,Washington Sundar,4,4,na,na
1st innings,14.2,Gurkeerat Singh,JO Holder,Washington Sundar,1,1,na,na
1st innings,14.3,Washington Sundar,JO Holder,Gurkeerat Singh,0,0,na,na
1st innings,14.4,Washington Sundar,JO Holder,Gurkeerat Singh,1,1,na,na
1st innings,14.5,Gurkeerat Singh,JO Holder,Washington Sundar,0,0,na,na
1st innings,14.6,Gurkeerat Singh,JO Holder,Washington Sundar,1,1,na,na
1st innings,15.1,Gurkeerat Singh,Rashid Khan,Washington Sundar,1,1,na,na
1st innings,15.2,Washington Sundar,Rashid Khan,Gurkeerat Singh,0,0,na,na
1st innings,15.3,Washington Sundar,Rashid Khan,Gurkeerat Singh,1,1,na,na
1st innings,15.4,Gurkeerat Singh,Rashid Khan,Washington Sundar,0,0,na,na
1st innings,15.5,Gurkeerat Singh,Rashid Khan,Washington Sundar,4,4,na,na
1st innings,15.6,Gurkeerat Singh,Rashid Khan,Washington Sundar,0,0,na,na
1st innings,16.1,Washington Sundar,Sandeep Sharma,Gurkeerat Singh,1,1,na,na
1st innings,16.2,Gurkeerat Singh,Sandeep Sharma,Washington Sundar,1,0,{'wides': 1},na
1st innings,16.3,Gurkeerat Singh,Sandeep Sharma,Washington Sundar,1,1,na,na
1st innings,16.4,Washington Sundar,Sandeep Sharma,Gurkeerat Singh,1,1,na,na
1st innings,16.5,Gurkeerat Singh,Sandeep Sharma,Washington Sundar,1,1,na,na
1st innings,16.6,Washington Sundar,Sandeep Sharma,Gurkeerat Singh,1,1,na,na
1st innings,16.7,Gurkeerat Singh,Sandeep Sharma,Washington Sundar,1,1,na,na
1st innings,17.1,Gurkeerat Singh,T Natarajan,Washington Sundar,0,0,na,"{'player_out': 'Washington Sundar', 'kind': 'caught and bowled'}"
1st innings,17.2,Gurkeerat Singh,T Natarajan,CH Morris,0,0,na,na
1st innings,17.3,Gurkeerat Singh,T Natarajan,CH Morris,1,1,na,na
1st innings,17.4,CH Morris,T Natarajan,Gurkeerat Singh,4,4,na,na
1st innings,17.5,CH Morris,T Natarajan,Gurkeerat Singh,0,0,na,na
1st innings,17.6,CH Morris,T Natarajan,Gurkeerat Singh,0,0,na,na
1st innings,18.1,Gurkeerat Singh,JO Holder,CH Morris,2,2,na,na
1st innings,18.2,Gurkeerat Singh,JO Holder,CH Morris,0,0,na,"{'player_out': 'CH Morris', 'fielders': ['DA Warner'], 'kind': 'caught'}"
1st innings,18.3,I Udana,JO Holder,Gurkeerat Singh,1,1,na,na
1st innings,18.4,Gurkeerat Singh,JO Holder,I Udana,0,0,na,"{'player_out': 'I Udana', 'fielders': ['KS Williamson'], 'kind': 'caught'}"
1st innings,18.5,Mohammed Siraj,JO Holder,Gurkeerat Singh,1,1,na,na
1st innings,18.6,Gurkeerat Singh,JO Holder,Mohammed Siraj,1,1,na,na
1st innings,19.1,Gurkeerat Singh,T Natarajan,Mohammed Siraj,1,0,{'byes': 1},na
1st innings,19.2,Mohammed Siraj,T Natarajan,Gurkeerat Singh,0,0,na,na
1st innings,19.3,Mohammed Siraj,T Natarajan,Gurkeerat Singh,0,0,na,na
1st innings,19.4,Mohammed Siraj,T Natarajan,Gurkeerat Singh,1,1,na,na
1st innings,19.5,Gurkeerat Singh,T Natarajan,Mohammed Siraj,1,1,na,na
1st innings,19.6,Mohammed Siraj,T Natarajan,Gurkeerat Singh,1,0,{'legbyes': 1},na
2nd innings,0.1,WP Saha,CH Morris,DA Warner,1,0,{'wides': 1},na
2nd innings,0.2,WP Saha,CH Morris,DA Warner,1,1,na,na
2nd innings,0.3,DA Warner,CH Morris,WP Saha,0,0,na,na
2nd innings,0.4,DA Warner,CH Morris,WP Saha,1,1,na,na
2nd innings,0.5,WP Saha,CH Morris,DA Warner,0,0,na,na
2nd innings,0.6,WP Saha,CH Morris,DA Warner,1,1,na,na
2nd innings,0.7,DA Warner,CH Morris,WP Saha,0,0,na,na
2nd innings,1.1,WP Saha,Washington Sundar,DA Warner,6,6,na,na
2nd innings,1.2,WP Saha,Washington Sundar,DA Warner,0,0,na,"{'player_out': 'DA Warner', 'fielders': ['I Udana'], 'kind': 'caught'}"
2nd innings,1.3,WP Saha,Washington Sundar,MK Pandey,0,0,na,na
2nd innings,1.4,WP Saha,Washington Sundar,MK Pandey,0,0,na,na
2nd innings,1.5,WP Saha,Washington Sundar,MK Pandey,0,0,na,na
2nd innings,1.6,WP Saha,Washington Sundar,MK Pandey,1,1,na,na
2nd innings,2.1,WP Saha,NA Saini,MK Pandey,0,0,na,na
2nd innings,2.2,WP Saha,NA Saini,MK Pandey,4,4,na,na
2nd innings,2.3,WP Saha,NA Saini,MK Pandey,0,0,na,na
2nd innings,2.4,WP Saha,NA Saini,MK Pandey,6,6,na,na
2nd innings,2.5,WP Saha,NA Saini,MK Pandey,1,1,na,na
2nd innings,2.6,MK Pandey,NA Saini,WP Saha,0,0,na,na
2nd innings,3.1,WP Saha,Washington Sundar,MK Pandey,3,3,na,na
2nd innings,3.2,MK Pandey,Washington Sundar,WP Saha,0,0,na,na
2nd innings,3.3,MK Pandey,Washington Sundar,WP Saha,4,4,na,na
2nd innings,3.4,MK Pandey,Washington Sundar,WP Saha,1,1,na,na
2nd innings,3.5,WP Saha,Washington Sundar,MK Pandey,0,0,na,na
2nd innings,3.6,WP Saha,Washington Sundar,MK Pandey,1,1,na,na
2nd innings,4.1,WP Saha,CH Morris,MK Pandey,4,4,na,na
2nd innings,4.2,WP Saha,CH Morris,MK Pandey,1,0,{'wides': 1},na
2nd innings,4.3,WP Saha,CH Morris,MK Pandey,0,0,na,na
2nd innings,4.4,WP Saha,CH Morris,MK Pandey,1,1,na,na
2nd innings,4.5,MK Pandey,CH Morris,WP Saha,1,0,{'wides': 1},na
2nd innings,4.6,MK Pandey,CH Morris,WP Saha,2,2,na,na
2nd innings,4.7,MK Pandey,CH Morris,WP Saha,1,0,{'wides': 1},na
2nd innings,4.8,MK Pandey,CH Morris,WP Saha,1,1,na,na
2nd innings,4.9,WP Saha,CH Morris,MK Pandey,4,4,na,na
2nd innings,5.1,MK Pandey,Mohammed Siraj,WP Saha,0,0,na,na
2nd innings,5.2,MK Pandey,Mohammed Siraj,WP Saha,4,4,na,na
2nd innings,5.3,MK Pandey,Mohammed Siraj,WP Saha,2,2,na,na
2nd innings,5.4,MK Pandey,Mohammed Siraj,WP Saha,0,0,na,na
2nd innings,5.5,MK Pandey,Mohammed Siraj,WP Saha,6,6,na,na
2nd innings,5.6,MK Pandey,Mohammed Siraj,WP Saha,0,0,na,na
2nd innings,6.1,WP Saha,YS Chahal,MK Pandey,1,1,na,na
2nd innings,6.2,MK Pandey,YS Chahal,WP Saha,1,1,na,na
2nd innings,6.3,WP Saha,YS Chahal,MK Pandey,0,0,na,na
2nd innings,6.4,WP Saha,YS Chahal,MK Pandey,0,0,na,"{'player_out': 'MK Pandey', 'fielders': ['CH Morris'], 'kind': 'caught'}"
2nd innings,6.5,KS Williamson,YS Chahal,WP Saha,0,0,na,na
2nd innings,6.6,KS Williamson,YS Chahal,WP Saha,0,0,na,na
2nd innings,7.1,WP Saha,I Udana,KS Williamson,1,1,na,na
2nd innings,7.2,KS Williamson,I Udana,WP Saha,2,2,na,na
2nd innings,7.3,KS Williamson,I Udana,WP Saha,1,1,na,na
2nd innings,7.4,WP Saha,I Udana,KS Williamson,0,0,na,na
2nd innings,7.5,WP Saha,I Udana,KS Williamson,0,0,na,na
2nd innings,7.6,WP Saha,I Udana,KS Williamson,0,0,na,na
2nd innings,8.1,KS Williamson,YS Chahal,WP Saha,0,0,na,na
2nd innings,8.2,KS Williamson,YS Chahal,WP Saha,1,1,na,na
2nd innings,8.3,WP Saha,YS Chahal,KS Williamson,1,1,na,na
2nd innings,8.4,KS Williamson,YS Chahal,WP Saha,0,0,na,na
2nd innings,8.5,KS Williamson,YS Chahal,WP Saha,0,0,na,na
2nd innings,8.6,KS Williamson,YS Chahal,WP Saha,1,1,na,na
2nd innings,9.1,KS Williamson,I Udana,WP Saha,4,4,na,na
2nd innings,9.2,KS Williamson,I Udana,WP Saha,1,1,na,na
2nd innings,9.3,WP Saha,I Udana,KS Williamson,1,1,na,na
2nd innings,9.4,KS Williamson,I Udana,WP Saha,1,1,na,na
2nd innings,9.5,WP Saha,I Udana,KS Williamson,0,0,na,na
2nd innings,9.6,WP Saha,I Udana,KS Williamson,0,0,na,na
2nd innings,10.1,KS Williamson,YS Chahal,WP Saha,4,4,na,na
2nd innings,10.2,KS Williamson,YS Chahal,WP Saha,1,1,na,na
2nd innings,10.3,WP Saha,YS Chahal,KS Williamson,1,1,na,na
2nd innings,10.4,KS Williamson,YS Chahal,WP Saha,1,1,na,na
2nd innings,10.5,WP Saha,YS Chahal,KS Williamson,1,1,na,na
2nd innings,10.6,KS Williamson,YS Chahal,WP Saha,0,0,na,"{'player_out': 'WP Saha', 'fielders': ['AB de Villiers'], 'kind': 'stumped'}"
2nd innings,11.1,Abhishek Sharma,Washington Sundar,KS Williamson,1,1,na,na
2nd innings,11.2,KS Williamson,Washington Sundar,Abhishek Sharma,1,1,na,na
2nd innings,11.3,Abhishek Sharma,Washington Sundar,KS Williamson,1,1,na,na
2nd innings,11.4,KS Williamson,Washington Sundar,Abhishek Sharma,1,1,na,na
2nd innings,11.5,Abhishek Sharma,Washington Sundar,KS Williamson,1,1,na,na
2nd innings,11.6,KS Williamson,Washington Sundar,Abhishek Sharma,0,0,na,na
2nd innings,12.1,Abhishek Sharma,I Udana,KS Williamson,0,0,na,"{'player_out': 'KS Williamson', 'fielders': ['V Kohli'], 'kind': 'caught'}"
2nd innings,12.2,Abhishek Sharma,I Udana,JO Holder,0,0,na,na
2nd innings,12.3,Abhishek Sharma,I Udana,JO Holder,2,2,na,na
2nd innings,12.4,Abhishek Sharma,I Udana,JO Holder,6,6,na,na
2nd innings,12.5,Abhishek Sharma,I Udana,JO Holder,0,0,na,na
2nd innings,12.6,Abhishek Sharma,I Udana,JO Holder,1,1,na,na
2nd innings,13.1,Abhishek Sharma,NA Saini,JO Holder,0,0,na,na
2nd innings,13.2,Abhishek Sharma,NA Saini,JO Holder,6,6,na,na
2nd innings,13.3,Abhishek Sharma,NA Saini,JO Holder,4,4,na,na
2nd innings,13.4,Abhishek Sharma,NA Saini,JO Holder,2,0,{'wides': 2},na
2nd innings,13.5,JO Holder,NA Saini,Abhishek Sharma,6,6,na,na
2nd innings,13.6,JO Holder,NA Saini,Abhishek Sharma,0,0,na,"{'player_out': 'Abhishek Sharma', 'fielders': ['Gurkeerat Singh'], 'kind': 'caught'}"
2nd innings,13.7,Abdul Samad,NA Saini,JO Holder,1,1,na,na
2nd innings,14.1,Abdul Samad,YS Chahal,JO Holder,6,6,na,na
