innings,deliveries,non_striker,bowler,batsman,total_runs,batsman_runs,extras,wickets
1st innings,0.1,RG Sharma,S Sandeep Warrier,Q de Kock,1,1,na,na
1st innings,0.2,Q de Kock,S Sandeep Warrier,RG Sharma,0,0,na,na
1st innings,0.3,Q de Kock,S Sandeep Warrier,RG Sharma,0,0,na,na
1st innings,0.4,Q de Kock,S Sandeep Warrier,RG Sharma,0,0,na,na
1st innings,0.5,Q de Kock,S Sandeep Warrier,RG Sharma,0,0,na,na
1st innings,0.6,Q de Kock,S Sandeep Warrier,RG Sharma,1,0,{'wides': 1},na
1st innings,0.7,Q de Kock,S Sandeep Warrier,RG Sharma,6,6,na,na
1st innings,1.1,RG Sharma,Shivam Mavi,Q de Kock,0,0,na,na
1st innings,1.2,RG Sharma,Shivam Mavi,Q de Kock,0,0,na,"{'player_out': 'Q de Kock', 'fielders': ['NS Naik'], 'kind': 'caught'}"
1st innings,1.3,SA Yadav,Shivam Mavi,RG Sharma,0,0,na,na
1st innings,1.4,SA Yadav,Shivam Mavi,RG Sharma,0,0,na,na
1st innings,1.5,SA Yadav,Shivam Mavi,RG Sharma,0,0,na,na
1st innings,1.6,SA Yadav,Shivam Mavi,RG Sharma,0,0,na,na
1st innings,2.1,RG Sharma,S Sandeep Warrier,SA Yadav,4,4,na,na
1st innings,2.2,RG Sharma,S Sandeep Warrier,SA Yadav,0,0,na,na
1st innings,2.3,RG Sharma,S Sandeep Warrier,SA Yadav,0,0,na,na
1st innings,2.4,RG Sharma,S Sandeep Warrier,SA Yadav,4,4,na,na
1st innings,2.5,RG Sharma,S Sandeep Warrier,SA Yadav,4,4,na,na
1st innings,2.6,RG Sharma,S Sandeep Warrier,SA Yadav,4,4,na,na
1st innings,3.1,SA Yadav,Shivam Mavi,RG Sharma,2,2,na,na
1st innings,3.2,SA Yadav,Shivam Mavi,RG Sharma,0,0,na,na
1st innings,3.3,SA Yadav,Shivam Mavi,RG Sharma,2,2,na,na
1st innings,3.4,SA Yadav,Shivam Mavi,RG Sharma,3,3,na,na
1st innings,3.5,RG Sharma,Shivam Mavi,SA Yadav,0,0,na,na
1st innings,3.6,RG Sharma,Shivam Mavi,SA Yadav,2,2,na,na
1st innings,4.1,SA Yadav,PJ Cummins,RG Sharma,1,0,{'wides': 1},na
1st innings,4.2,SA Yadav,PJ Cummins,RG Sharma,6,6,na,na
1st innings,4.3,SA Yadav,PJ Cummins,RG Sharma,1,1,na,na
1st innings,4.4,RG Sharma,PJ Cummins,SA Yadav,1,1,na,na
1st innings,4.5,SA Yadav,PJ Cummins,RG Sharma,0,0,na,na
1st innings,4.6,SA Yadav,PJ Cummins,RG Sharma,6,6,na,na
1st innings,4.7,SA Yadav,PJ Cummins,RG Sharma,0,0,na,na
1st innings,5.1,RG Sharma,SP Narine,SA Yadav,4,4,na,na
1st innings,5.2,RG Sharma,SP Narine,SA Yadav,1,1,na,na
1st innings,5.3,SA Yadav,SP Narine,RG Sharma,1,1,na,na
1st innings,5.4,RG Sharma,SP Narine,SA Yadav,4,4,na,na
1st innings,5.5,RG Sharma,SP Narine,SA Yadav,1,1,na,na
1st innings,5.6,SA Yadav,SP Narine,RG Sharma,0,0,na,na
1st innings,6.1,RG Sharma,AD Russell,SA Yadav,1,1,na,na
1st innings,6.2,SA Yadav,AD Russell,RG Sharma,0,0,na,na
1st innings,6.3,SA Yadav,AD Russell,RG Sharma,4,4,na,na
1st innings,6.4,SA Yadav,AD Russell,RG Sharma,0,0,na,na
1st innings,6.5,SA Yadav,AD Russell,RG Sharma,6,6,na,na
1st innings,6.6,SA Yadav,AD Russell,RG Sharma,2,2,na,na
1st innings,7.1,RG Sharma,Kuldeep Yadav,SA Yadav,1,1,na,na
1st innings,7.2,SA Yadav,Kuldeep Yadav,RG Sharma,1,1,na,na
1st innings,7.3,RG Sharma,Kuldeep Yadav,SA Yadav,1,1,na,na
1st innings,7.4,SA Yadav,Kuldeep Yadav,RG Sharma,1,1,na,na
1st innings,7.5,RG Sharma,Kuldeep Yadav,SA Yadav,6,6,na,na
1st innings,7.6,RG Sharma,Kuldeep Yadav,SA Yadav,1,1,na,na
1st innings,8.1,RG Sharma,SP Narine,SA Yadav,1,1,na,na
1st innings,8.2,SA Yadav,SP Narine,RG Sharma,1,1,na,na
1st innings,8.3,RG Sharma,SP Narine,SA Yadav,0,0,na,na
1st innings,8.4,RG Sharma,SP Narine,SA Yadav,1,1,na,na
1st innings,8.5,SA Yadav,SP Narine,RG Sharma,1,1,na,na
1st innings,8.6,RG Sharma,SP Narine,SA Yadav,1,1,na,na
1st innings,9.1,RG Sharma,Kuldeep Yadav,SA Yadav,1,1,na,na
1st innings,9.2,SA Yadav,Kuldeep Yadav,RG Sharma,1,1,na,na
1st innings,9.3,RG Sharma,Kuldeep Yadav,SA Yadav,1,0,{'noballs': 1},na
1st innings,9.4,RG Sharma,Kuldeep Yadav,SA Yadav,1,1,na,na
1st innings,9.5,SA Yadav,Kuldeep Yadav,RG Sharma,1,1,na,na
1st innings,9.6,RG Sharma,Kuldeep Yadav,SA Yadav,1,1,na,na
1st innings,9.7,SA Yadav,Kuldeep Yadav,RG Sharma,0,0,na,na
1st innings,10.1,RG Sharma,SP Narine,SA Yadav,1,1,na,na
1st innings,10.2,SA Yadav,SP Narine,RG Sharma,0,0,na,na
1st innings,10.3,SA Yadav,SP Narine,RG Sharma,1,1,na,na
1st innings,10.4,RG Sharma,SP Narine,SA Yadav,1,1,na,na
1st innings,10.5,SA Yadav,SP Narine,RG Sharma,1,1,na,"{'player_out': 'SA Yadav', 'kind': 'run out'}"
1st innings,10.6,SS Tiwary,SP Narine,RG Sharma,1,1,na,na
1st innings,11.1,SS Tiwary,Kuldeep Yadav,RG Sharma,1,0,{'legbyes': 1},na
1st innings,11.2,RG Sharma,Kuldeep Yadav,SS Tiwary,1,1,na,na
1st innings,11.3,SS Tiwary,Kuldeep Yadav,RG Sharma,1,1,na,na
1st innings,11.4,RG Sharma,Kuldeep Yadav,SS Tiwary,0,0,na,na
1st innings,11.5,RG Sharma,Kuldeep Yadav,SS Tiwary,1,1,na,na
1st innings,11.6,SS Tiwary,Kuldeep Yadav,RG Sharma,2,2,na,na
1st innings,12.1,RG Sharma,S Sandeep Warrier,SS Tiwary,1,1,na,na
1st innings,12.2,SS Tiwary,S Sandeep Warrier,RG Sharma,1,0,{'wides': 1},na
1st innings,12.3,SS Tiwary,S Sandeep Warrier,RG Sharma,4,4,na,na
1st innings,12.4,SS Tiwary,S Sandeep Warrier,RG Sharma,0,0,na,na
1st innings,12.5,SS Tiwary,S Sandeep Warrier,RG Sharma,1,0,{'wides': 1},na
1st innings,12.6,SS Tiwary,S Sandeep Warrier,RG Sharma,0,0,na,na
1st innings,12.7,SS Tiwary,S Sandeep Warrier,RG Sharma,1,1,na,na
1st innings,12.8,RG Sharma,S Sandeep Warrier,SS Tiwary,2,2,na,na
1st innings,13.1,SS Tiwary,Kuldeep Yadav,RG Sharma,6,6,na,na
1st innings,13.2,SS Tiwary,Kuldeep Yadav,RG Sharma,1,1,na,na
1st innings,13.3,RG Sharma,Kuldeep Yadav,SS Tiwary,1,1,na,na
1st innings,13.4,SS Tiwary,Kuldeep Yadav,RG Sharma,6,6,na,na
1st innings,13.5,SS Tiwary,Kuldeep Yadav,RG Sharma,1,1,na,na
1st innings,13.6,RG Sharma,Kuldeep Yadav,SS Tiwary,1,0,{'wides': 1},na
1st innings,13.7,RG Sharma,Kuldeep Yadav,SS Tiwary,1,1,na,na
1st innings,14.1,RG Sharma,PJ Cummins,SS Tiwary,4,4,na,na
1st innings,14.2,RG Sharma,PJ Cummins,SS Tiwary,6,6,na,na
1st innings,14.3,RG Sharma,PJ Cummins,SS Tiwary,1,1,na,na
1st innings,14.4,SS Tiwary,PJ Cummins,RG Sharma,1,1,na,na
1st innings,14.5,RG Sharma,PJ Cummins,SS Tiwary,2,2,na,na
1st innings,14.6,RG Sharma,PJ Cummins,SS Tiwary,1,1,na,na
1st innings,15.1,RG Sharma,SP Narine,SS Tiwary,0,0,na,"{'player_out': 'SS Tiwary', 'fielders': ['PJ Cummins'], 'kind': 'caught'}"
1st innings,15.2,HH Pandya,SP Narine,RG Sharma,1,1,na,na
1st innings,15.3,RG Sharma,SP Narine,HH Pandya,0,0,na,na
1st innings,15.4,RG Sharma,SP Narine,HH Pandya,0,0,na,na
1st innings,15.5,RG Sharma,SP Narine,HH Pandya,0,0,na,na
1st innings,15.6,RG Sharma,SP Narine,HH Pandya,0,0,na,na
1st innings,16.1,HH Pandya,PJ Cummins,RG Sharma,1,0,{'wides': 1},na
1st innings,16.2,HH Pandya,PJ Cummins,RG Sharma,1,1,na,na
1st innings,16.3,RG Sharma,PJ Cummins,HH Pandya,1,1,na,na
1st innings,16.4,HH Pandya,PJ Cummins,RG Sharma,2,0,{'wides': 2},na
1st innings,16.5,RG Sharma,PJ Cummins,HH Pandya,4,4,na,na
1st innings,16.6,RG Sharma,PJ Cummins,HH Pandya,4,4,na,na
1st innings,16.7,RG Sharma,PJ Cummins,HH Pandya,0,0,na,na
1st innings,16.8,RG Sharma,PJ Cummins,HH Pandya,6,6,na,na
1st innings,17.1,HH Pandya,Shivam Mavi,RG Sharma,1,0,{'wides': 1},na
1st innings,17.2,HH Pandya,Shivam Mavi,RG Sharma,2,2,na,na
1st innings,17.3,HH Pandya,Shivam Mavi,RG Sharma,4,4,na,na
1st innings,17.4,HH Pandya,Shivam Mavi,RG Sharma,1,0,{'wides': 1},na
1st innings,17.5,HH Pandya,Shivam Mavi,RG Sharma,1,1,na,na
1st innings,17.6,RG Sharma,Shivam Mavi,HH Pandya,1,1,na,na
1st innings,17.7,HH Pandya,Shivam Mavi,RG Sharma,0,0,na,"{'player_out': 'RG Sharma', 'fielders': ['PJ Cummins'], 'kind': 'caught'}"
1st innings,17.8,KA Pollard,Shivam Mavi,HH Pandya,1,1,na,na
1st innings,18.1,KA Pollard,AD Russell,HH Pandya,1,1,na,na
1st innings,18.2,HH Pandya,AD Russell,KA Pollard,1,1,na,na
1st innings,18.3,KA Pollard,AD Russell,HH Pandya,0,0,na,"{'player_out': 'HH Pandya', 'kind': 'hit wicket'}"
1st innings,18.4,KA Pollard,AD Russell,KH Pandya,1,1,na,na
1st innings,18.5,KH Pandya,AD Russell,KA Pollard,1,1,na,na
1st innings,18.6,KA Pollard,AD Russell,KH Pandya,0,0,na,na
1st innings,19.1,KH Pandya,Shivam Mavi,KA Pollard,1,1,na,na
1st innings,19.2,KA Pollard,Shivam Mavi,KH Pandya,1,0,{'legbyes': 1},na
1st innings,19.3,KH Pandya,Shivam Mavi,KA Pollard,1,0,{'wides': 1},na
1st innings,19.4,KH Pandya,Shivam Mavi,KA Pollard,4,4,na,na
1st innings,19.5,KH Pandya,Shivam Mavi,KA Pollard,2,2,na,na
1st innings,19.6,KH Pandya,Shivam Mavi,KA Pollard,2,2,na,na
1st innings,19.7,KH Pandya,Shivam Mavi,KA Pollard,2,2,na,na
2nd innings,0.1,SP Narine,TA Boult,Shubman Gill,0,0,na,na
2nd innings,0.2,SP Narine,TA Boult,Shubman Gill,0,0,na,na
2nd innings,0.3,SP Narine,TA Boult,Shubman Gill,0,0,na,na
2nd innings,0.4,SP Narine,TA Boult,Shubman Gill,0,0,na,na
2nd innings,0.5,SP Narine,TA Boult,Shubman Gill,0,0,na,na
2nd innings,0.6,SP Narine,TA Boult,Shubman Gill,0,0,na,na
2nd innings,1.1,Shubman Gill,JL Pattinson,SP Narine,0,0,na,na
2nd innings,1.2,Shubman Gill,JL Pattinson,SP Narine,0,0,na,na
2nd innings,1.3,Shubman Gill,JL Pattinson,SP Narine,1,1,na,na
2nd innings,1.4,SP Narine,JL Pattinson,Shubman Gill,1,1,na,na
2nd innings,1.5,Shubman Gill,JL Pattinson,SP Narine,6,6,na,na
2nd innings,1.6,Shubman Gill,JL Pattinson,SP Narine,0,0,na,na
2nd innings,2.1,SP Narine,TA Boult,Shubman Gill,2,2,na,na
2nd innings,2.2,SP Narine,TA Boult,Shubman Gill,0,0,na,na
2nd innings,2.3,SP Narine,TA Boult,Shubman Gill,4,4,na,na
2nd innings,2.4,SP Narine,TA Boult,Shubman Gill,0,0,na,"{'player_out': 'Shubman Gill', 'fielders': ['KA Pollard'], 'kind': 'caught'}"
2nd innings,2.5,SP Narine,TA Boult,KD Karthik,0,0,na,na
2nd innings,2.6,SP Narine,TA Boult,KD Karthik,4,4,na,na
2nd innings,3.1,KD Karthik,JJ Bumrah,SP Narine,0,0,na,na
2nd innings,3.2,KD Karthik,JJ Bumrah,SP Narine,0,0,na,na
2nd innings,3.3,KD Karthik,JJ Bumrah,SP Narine,1,1,na,na
2nd innings,3.4,SP Narine,JJ Bumrah,KD Karthik,0,0,na,na
2nd innings,3.5,SP Narine,JJ Bumrah,KD Karthik,0,0,na,na
2nd innings,3.6,SP Narine,JJ Bumrah,KD Karthik,0,0,na,na
2nd innings,4.1,KD Karthik,JL Pattinson,SP Narine,1,1,na,na
2nd innings,4.2,SP Narine,JL Pattinson,KD Karthik,4,4,na,na
2nd innings,4.3,SP Narine,JL Pattinson,KD Karthik,0,0,na,na
2nd innings,4.4,SP Narine,JL Pattinson,KD Karthik,1,1,na,na
2nd innings,4.5,KD Karthik,JL Pattinson,SP Narine,0,0,na,"{'player_out': 'SP Narine', 'fielders': ['Q de Kock'], 'kind': 'caught'}"
2nd innings,4.6,KD Karthik,JL Pattinson,N Rana,0,0,na,na
2nd innings,5.1,N Rana,RD Chahar,KD Karthik,1,1,na,na
2nd innings,5.2,KD Karthik,RD Chahar,N Rana,0,0,na,na
2nd innings,5.3,KD Karthik,RD Chahar,N Rana,6,6,na,na
2nd innings,5.4,KD Karthik,RD Chahar,N Rana,0,0,na,na
2nd innings,5.5,KD Karthik,RD Chahar,N Rana,0,0,na,na
2nd innings,5.6,KD Karthik,RD Chahar,N Rana,1,1,na,na
2nd innings,6.1,KD Karthik,KA Pollard,N Rana,1,1,na,na
2nd innings,6.2,N Rana,KA Pollard,KD Karthik,4,4,na,na
2nd innings,6.3,N Rana,KA Pollard,KD Karthik,1,1,na,na
2nd innings,6.4,KD Karthik,KA Pollard,N Rana,0,0,na,na
2nd innings,6.5,KD Karthik,KA Pollard,N Rana,1,1,na,na
2nd innings,6.6,N Rana,KA Pollard,KD Karthik,1,1,na,na
2nd innings,7.1,N Rana,RD Chahar,KD Karthik,4,4,na,na
2nd innings,7.2,N Rana,RD Chahar,KD Karthik,1,1,na,na
2nd innings,7.3,KD Karthik,RD Chahar,N Rana,2,2,na,na
2nd innings,7.4,KD Karthik,RD Chahar,N Rana,4,4,na,na
2nd innings,7.5,KD Karthik,RD Chahar,N Rana,1,1,na,na
2nd innings,7.6,N Rana,RD Chahar,KD Karthik,1,1,na,na
2nd innings,8.1,N Rana,KH Pandya,KD Karthik,0,0,na,na
2nd innings,8.2,N Rana,KH Pandya,KD Karthik,4,4,na,na
2nd innings,8.3,N Rana,KH Pandya,KD Karthik,1,1,na,na
2nd innings,8.4,KD Karthik,KH Pandya,N Rana,4,4,na,na
2nd innings,8.5,KD Karthik,KH Pandya,N Rana,1,1,na,na
2nd innings,8.6,N Rana,KH Pandya,KD Karthik,0,0,na,na
2nd innings,9.1,KD Karthik,KA Pollard,N Rana,1,0,{'wides': 1},na
2nd innings,9.2,KD Karthik,KA Pollard,N Rana,1,1,na,na
2nd innings,9.3,N Rana,KA Pollard,KD Karthik,1,1,na,na
2nd innings,9.4,KD Karthik,KA Pollard,N Rana,1,1,na,na
2nd innings,9.5,N Rana,KA Pollard,KD Karthik,1,1,na,na
2nd innings,9.6,KD Karthik,KA Pollard,N Rana,1,1,na,na
2nd innings,9.7,N Rana,KA Pollard,KD Karthik,1,1,na,na
2nd innings,10.1,N Rana,RD Chahar,KD Karthik,0,0,na,"{'player_out': 'KD Karthik', 'kind': 'lbw'}"
2nd innings,10.2,N Rana,RD Chahar,EJG Morgan,0,0,na,na
2nd innings,10.3,N Rana,RD Chahar,EJG Morgan,0,0,na,na
2nd innings,10.4,N Rana,RD Chahar,EJG Morgan,0,0,na,na
2nd innings,10.5,N Rana,RD Chahar,EJG Morgan,0,0,na,na
2nd innings,10.6,N Rana,RD Chahar,EJG Morgan,1,1,na,na
2nd innings,11.1,N Rana,KA Pollard,EJG Morgan,4,4,na,na
2nd innings,11.2,N Rana,KA Pollard,EJG Morgan,0,0,na,na
2nd innings,11.3,N Rana,KA Pollard,EJG Morgan,1,1,na,na
2nd innings,11.4,EJG Morgan,KA Pollard,N Rana,0,0,na,"{'player_out': 'N Rana', 'fielders': ['HH Pandya'], 'kind': 'caught'}"
2nd innings,11.5,AD Russell,KA Pollard,EJG Morgan,0,0,na,na
2nd innings,11.6,AD Russell,KA Pollard,EJG Morgan,1,1,na,na
2nd innings,12.1,AD Russell,JJ Bumrah,EJG Morgan,1,1,na,na
2nd innings,12.2,EJG Morgan,JJ Bumrah,AD Russell,0,0,na,na
2nd innings,12.3,EJG Morgan,JJ Bumrah,AD Russell,2,0,{'legbyes': 2},na
2nd innings,12.4,EJG Morgan,JJ Bumrah,AD Russell,1,1,na,na
2nd innings,12.5,AD Russell,JJ Bumrah,EJG Morgan,0,0,na,na
2nd innings,12.6,AD Russell,JJ Bumrah,EJG Morgan,0,0,na,na
2nd innings,13.1,EJG Morgan,JL Pattinson,AD Russell,0,0,na,na
2nd innings,13.2,EJG Morgan,JL Pattinson,AD Russell,1,1,na,na
2nd innings,13.3,AD Russell,JL Pattinson,EJG Morgan,0,0,na,na
2nd innings,13.4,AD Russell,JL Pattinson,EJG Morgan,6,6,na,na
2nd innings,13.5,AD Russell,JL Pattinson,EJG Morgan,1,1,na,na
2nd innings,13.6,EJG Morgan,JL Pattinson,AD Russell,0,0,na,na
2nd innings,14.1,AD Russell,TA Boult,EJG Morgan,1,1,na,na
2nd innings,14.2,EJG Morgan,TA Boult,AD Russell,4,4,na,na
2nd innings,14.3,EJG Morgan,TA Boult,AD Russell,0,0,na,na
2nd innings,14.4,EJG Morgan,TA Boult,AD Russell,4,4,na,na
2nd innings,14.5,EJG Morgan,TA Boult,AD Russell,1,1,na,na
2nd innings,14.6,AD Russell,TA Boult,EJG Morgan,0,0,na,na
2nd innings,15.1,EJG Morgan,JJ Bumrah,AD Russell,0,0,na,"{'player_out': 'AD Russell', 'kind': 'bowled'}"
2nd innings,15.2,EJG Morgan,JJ Bumrah,NS Naik,1,1,na,na
2nd innings,15.3,NS Naik,JJ Bumrah,EJG Morgan,0,0,na,na
2nd innings,15.4,NS Naik,JJ Bumrah,EJG Morgan,0,0,na,"{'player_out': 'EJG Morgan', 'fielders': ['Q de Kock'], 'kind': 'caught'}"
2nd innings,15.5,NS Naik,JJ Bumrah,PJ Cummins,0,0,na,na
2nd innings,15.6,NS Naik,JJ Bumrah,PJ Cummins,1,1,na,na
2nd innings,16.1,NS Naik,TA Boult,PJ Cummins,1,1,na,na
2nd innings,16.2,PJ Cummins,TA Boult,NS Naik,0,0,na,na
2nd innings,16.3,PJ Cummins,TA Boult,NS Naik,0,0,na,"{'player_out': 'NS Naik', 'fielders': ['HH Pandya'], 'kind': 'caught'}"
2nd innings,16.4,Shivam Mavi,TA Boult,PJ Cummins,4,4,na,na
2nd innings,16.5,Shivam Mavi,TA Boult,PJ Cummins,1,1,na,na
2nd innings,16.6,PJ Cummins,TA Boult,Shivam Mavi,4,4,na,na
2nd innings,17.1,Shivam Mavi,JJ Bumrah,PJ Cummins,6,6,na,na
2nd innings,17.2,Shivam Mavi,JJ Bumrah,PJ Cummins,0,0,na,na
2nd innings,17.3,Shivam Mavi,JJ Bumrah,PJ Cummins,6,6,na,na
2nd innings,17.4,Shivam Mavi,JJ Bumrah,PJ Cummins,2,2,na,na
2nd innings,17.5,Shivam Mavi,JJ Bumrah,PJ Cummins,6,6,na,na
2nd innings,17.6,Shivam Mavi,JJ Bumrah,PJ Cummins,1,0,{'wides': 1},na
2nd innings,17.7,Shivam Mavi,JJ Bumrah,PJ Cummins,6,6,na,na
2nd innings,18.1,PJ Cummins,JL Pattinson,Shivam Mavi,1,1,na,na
2nd innings,18.2,Shivam Mavi,JL Pattinson,PJ Cummins,1,0,{'wides': 1},na
2nd innings,18.3,Shivam Mavi,JL Pattinson,PJ Cummins,0,0,na,"{'player_out': 'PJ Cummins', 'fielders': ['HH Pandya'], 'kind': 'caught'}"
2nd innings,18.4,Kuldeep Yadav,JL Pattinson,Shivam Mavi,0,0,na,na
2nd innings,18.5,Kuldeep Yadav,JL Pattinson,Shivam Mavi,0,0,na,na
2nd innings,18.6,Kuldeep Yadav,JL Pattinson,Shivam Mavi,0,0,na,na
2nd innings,18.7,Kuldeep Yadav,JL Pattinson,Shivam Mavi,1,1,na,na
2nd innings,19.1,Kuldeep Yadav,RD Chahar,Shivam Mavi,0,0,na,na
2nd innings,19.2,Kuldeep Yadav,RD Chahar,Shivam Mavi,1,1,na,na
2nd innings,19.3,Shivam Mavi,RD Chahar,Kuldeep Yadav,0,0,na,na
2nd innings,19.4,Shivam Mavi,RD Chahar,Kuldeep Yadav,1,1,na,na
2nd innings,19.5,Kuldeep Yadav,RD Chahar,Shivam Mavi,2,2,na,na
2nd innings,19.6,Kuldeep Yadav,RD Chahar,Shivam Mavi,0,0,na,"{'player_out': 'Shivam Mavi', 'fielders': ['Q de Kock'], 'kind': 'stumped'}"
