innings,deliveries,non_striker,bowler,batsman,total_runs,batsman_runs,extras,wickets
1st innings,0.1,RA Tripathi,Sandeep Sharma,Shubman Gill,0,0,na,na
1st innings,0.2,RA Tripathi,Sandeep Sharma,Shubman Gill,1,1,na,na
1st innings,0.3,Shubman Gill,Sandeep Sharma,RA Tripathi,4,4,na,na
1st innings,0.4,Shubman Gill,Sandeep Sharma,RA Tripathi,0,0,na,na
1st innings,0.5,Shubman Gill,Sandeep Sharma,RA Tripathi,1,1,na,na
1st innings,0.6,RA Tripathi,Sandeep Sharma,Shubman Gill,0,0,na,na
1st innings,1.1,Shubman Gill,Basil Thampi,RA Tripathi,1,1,na,na
1st innings,1.2,RA Tripathi,Basil Thampi,Shubman Gill,0,0,na,na
1st innings,1.3,RA Tripathi,Basil Thampi,Shubman Gill,1,1,na,na
1st innings,1.4,Shubman Gill,Basil Thampi,RA Tripathi,1,1,na,na
1st innings,1.5,RA Tripathi,Basil Thampi,Shubman Gill,1,1,na,na
1st innings,1.6,Shubman Gill,Basil Thampi,RA Tripathi,2,2,na,na
1st innings,2.1,RA Tripathi,Sandeep Sharma,Shubman Gill,0,0,na,na
1st innings,2.2,RA Tripathi,Sandeep Sharma,Shubman Gill,0,0,na,na
1st innings,2.3,RA Tripathi,Sandeep Sharma,Shubman Gill,1,1,na,na
1st innings,2.4,Shubman Gill,Sandeep Sharma,RA Tripathi,0,0,na,na
1st innings,2.5,Shubman Gill,Sandeep Sharma,RA Tripathi,1,1,na,na
1st innings,2.6,RA Tripathi,Sandeep Sharma,Shubman Gill,1,1,na,na
1st innings,3.1,RA Tripathi,T Natarajan,Shubman Gill,1,1,na,na
1st innings,3.2,Shubman Gill,T Natarajan,RA Tripathi,6,6,na,na
1st innings,3.3,Shubman Gill,T Natarajan,RA Tripathi,1,1,na,na
1st innings,3.4,RA Tripathi,T Natarajan,Shubman Gill,0,0,na,na
1st innings,3.5,RA Tripathi,T Natarajan,Shubman Gill,1,1,na,na
1st innings,3.6,Shubman Gill,T Natarajan,RA Tripathi,4,4,na,na
1st innings,4.1,RA Tripathi,Basil Thampi,Shubman Gill,4,4,na,na
1st innings,4.2,RA Tripathi,Basil Thampi,Shubman Gill,4,4,na,na
1st innings,4.3,RA Tripathi,Basil Thampi,Shubman Gill,4,4,na,na
1st innings,4.4,RA Tripathi,Basil Thampi,Shubman Gill,1,1,na,na
1st innings,4.5,Shubman Gill,Basil Thampi,RA Tripathi,1,1,na,na
1st innings,4.6,RA Tripathi,Basil Thampi,Shubman Gill,0,0,na,na
1st innings,5.1,Shubman Gill,T Natarajan,RA Tripathi,0,0,na,na
1st innings,5.2,Shubman Gill,T Natarajan,RA Tripathi,0,0,na,na
1st innings,5.3,Shubman Gill,T Natarajan,RA Tripathi,1,1,na,na
1st innings,5.4,RA Tripathi,T Natarajan,Shubman Gill,4,4,na,na
1st innings,5.5,RA Tripathi,T Natarajan,Shubman Gill,1,1,na,na
1st innings,5.6,Shubman Gill,T Natarajan,RA Tripathi,0,0,na,"{'player_out': 'RA Tripathi', 'kind': 'bowled'}"
1st innings,6.1,N Rana,V Shankar,Shubman Gill,0,0,na,na
1st innings,6.2,N Rana,V Shankar,Shubman Gill,0,0,na,na
1st innings,6.3,N Rana,V Shankar,Shubman Gill,0,0,na,na
1st innings,6.4,N Rana,V Shankar,Shubman Gill,0,0,na,na
1st innings,6.5,N Rana,V Shankar,Shubman Gill,4,4,na,na
1st innings,6.6,N Rana,V Shankar,Shubman Gill,1,1,na,na
1st innings,7.1,N Rana,Rashid Khan,Shubman Gill,0,0,na,na
1st innings,7.2,N Rana,Rashid Khan,Shubman Gill,0,0,na,na
1st innings,7.3,N Rana,Rashid Khan,Shubman Gill,1,1,na,na
1st innings,7.4,Shubman Gill,Rashid Khan,N Rana,0,0,na,na
1st innings,7.5,Shubman Gill,Rashid Khan,N Rana,2,2,na,na
1st innings,7.6,Shubman Gill,Rashid Khan,N Rana,1,1,na,na
1st innings,8.1,Shubman Gill,V Shankar,N Rana,0,0,na,na
1st innings,8.2,Shubman Gill,V Shankar,N Rana,0,0,na,na
1st innings,8.3,Shubman Gill,V Shankar,N Rana,4,4,na,na
1st innings,8.4,Shubman Gill,V Shankar,N Rana,1,1,na,na
1st innings,8.5,N Rana,V Shankar,Shubman Gill,1,1,na,na
1st innings,8.6,Shubman Gill,V Shankar,N Rana,1,1,na,na
1st innings,9.1,Shubman Gill,Rashid Khan,N Rana,1,1,na,na
1st innings,9.2,N Rana,Rashid Khan,Shubman Gill,2,2,na,na
1st innings,9.3,N Rana,Rashid Khan,Shubman Gill,1,1,na,na
1st innings,9.4,Shubman Gill,Rashid Khan,N Rana,4,4,na,na
1st innings,9.5,Shubman Gill,Rashid Khan,N Rana,4,4,na,na
1st innings,9.6,Shubman Gill,Rashid Khan,N Rana,1,1,na,na
1st innings,10.1,Shubman Gill,V Shankar,N Rana,1,1,na,na
1st innings,10.2,N Rana,V Shankar,Shubman Gill,0,0,na,na
1st innings,10.3,N Rana,V Shankar,Shubman Gill,0,0,na,na
1st innings,10.4,N Rana,V Shankar,Shubman Gill,0,0,na,na
1st innings,10.5,N Rana,V Shankar,Shubman Gill,1,1,na,na
1st innings,10.6,Shubman Gill,V Shankar,N Rana,1,1,na,na
1st innings,11.1,Shubman Gill,Rashid Khan,N Rana,0,0,na,na
1st innings,11.2,Shubman Gill,Rashid Khan,N Rana,6,6,na,na
1st innings,11.3,Shubman Gill,Rashid Khan,N Rana,1,1,na,na
1st innings,11.4,N Rana,Rashid Khan,Shubman Gill,0,0,na,"{'player_out': 'Shubman Gill', 'fielders': ['PK Garg'], 'kind': 'caught'}"
1st innings,11.5,AD Russell,Rashid Khan,N Rana,0,0,na,na
1st innings,11.6,AD Russell,Rashid Khan,N Rana,1,1,na,na
1st innings,12.1,AD Russell,V Shankar,N Rana,0,0,na,"{'player_out': 'N Rana', 'fielders': ['PK Garg'], 'kind': 'caught'}"
1st innings,12.2,EJG Morgan,V Shankar,AD Russell,0,0,na,na
1st innings,12.3,EJG Morgan,V Shankar,AD Russell,0,0,na,na
1st innings,12.4,EJG Morgan,V Shankar,AD Russell,0,0,na,na
1st innings,12.5,EJG Morgan,V Shankar,AD Russell,4,4,na,na
1st innings,12.6,EJG Morgan,V Shankar,AD Russell,1,1,na,na
1st innings,13.1,EJG Morgan,Rashid Khan,AD Russell,0,0,na,na
1st innings,13.2,EJG Morgan,Rashid Khan,AD Russell,1,1,na,na
1st innings,13.3,AD Russell,Rashid Khan,EJG Morgan,1,1,na,na
1st innings,13.4,EJG Morgan,Rashid Khan,AD Russell,1,1,na,na
1st innings,13.5,AD Russell,Rashid Khan,EJG Morgan,0,0,na,na
1st innings,13.6,AD Russell,Rashid Khan,EJG Morgan,0,0,na,na
1st innings,14.1,EJG Morgan,T Natarajan,AD Russell,2,1,{'noballs': 1},na
1st innings,14.2,AD Russell,T Natarajan,EJG Morgan,4,4,na,na
1st innings,14.3,AD Russell,T Natarajan,EJG Morgan,1,0,{'legbyes': 1},na
1st innings,14.4,EJG Morgan,T Natarajan,AD Russell,1,1,na,na
1st innings,14.5,AD Russell,T Natarajan,EJG Morgan,0,0,na,na
1st innings,14.6,AD Russell,T Natarajan,EJG Morgan,1,1,na,na
1st innings,14.7,EJG Morgan,T Natarajan,AD Russell,0,0,na,"{'player_out': 'AD Russell', 'fielders': ['V Shankar'], 'kind': 'caught'}"
1st innings,15.1,KD Karthik,Sandeep Sharma,EJG Morgan,1,1,na,na
1st innings,15.2,EJG Morgan,Sandeep Sharma,KD Karthik,1,1,na,na
1st innings,15.3,KD Karthik,Sandeep Sharma,EJG Morgan,1,1,na,na
1st innings,15.4,EJG Morgan,Sandeep Sharma,KD Karthik,1,1,na,na
1st innings,15.5,KD Karthik,Sandeep Sharma,EJG Morgan,1,1,na,na
1st innings,15.6,EJG Morgan,Sandeep Sharma,KD Karthik,1,1,na,na
1st innings,16.1,EJG Morgan,Basil Thampi,KD Karthik,0,0,na,na
1st innings,16.2,EJG Morgan,Basil Thampi,KD Karthik,1,1,na,na
1st innings,16.3,KD Karthik,Basil Thampi,EJG Morgan,0,0,na,na
1st innings,16.4,KD Karthik,Basil Thampi,EJG Morgan,4,4,na,na
1st innings,16.5,KD Karthik,Basil Thampi,EJG Morgan,1,1,na,na
1st innings,16.6,EJG Morgan,Basil Thampi,KD Karthik,4,4,na,na
1st innings,17.1,KD Karthik,Sandeep Sharma,EJG Morgan,1,1,na,na
1st innings,17.2,EJG Morgan,Sandeep Sharma,KD Karthik,2,2,na,na
1st innings,17.3,EJG Morgan,Sandeep Sharma,KD Karthik,1,1,na,na
1st innings,17.4,KD Karthik,Sandeep Sharma,EJG Morgan,1,1,na,na
1st innings,17.5,EJG Morgan,Sandeep Sharma,KD Karthik,6,6,na,na
1st innings,17.6,EJG Morgan,Sandeep Sharma,KD Karthik,1,1,na,na
1st innings,18.1,EJG Morgan,T Natarajan,KD Karthik,4,4,na,na
1st innings,18.2,EJG Morgan,T Natarajan,KD Karthik,0,0,na,na
1st innings,18.3,EJG Morgan,T Natarajan,KD Karthik,1,1,na,na
1st innings,18.4,KD Karthik,T Natarajan,EJG Morgan,2,2,na,na
1st innings,18.5,KD Karthik,T Natarajan,EJG Morgan,1,0,{'legbyes': 1},na
1st innings,18.6,EJG Morgan,T Natarajan,KD Karthik,6,6,na,na
1st innings,19.1,KD Karthik,Basil Thampi,EJG Morgan,2,2,na,na
1st innings,19.2,KD Karthik,Basil Thampi,EJG Morgan,4,4,na,na
1st innings,19.3,KD Karthik,Basil Thampi,EJG Morgan,2,2,na,na
1st innings,19.4,KD Karthik,Basil Thampi,EJG Morgan,6,6,na,na
1st innings,19.5,KD Karthik,Basil Thampi,EJG Morgan,2,2,na,na
1st innings,19.6,KD Karthik,Basil Thampi,EJG Morgan,0,0,na,"{'player_out': 'EJG Morgan', 'fielders': ['MK Pandey'], 'kind': 'caught'}"
2nd innings,0.1,KS Williamson,PJ Cummins,JM Bairstow,0,0,na,na
2nd innings,0.2,KS Williamson,PJ Cummins,JM Bairstow,0,0,na,na
2nd innings,0.3,KS Williamson,PJ Cummins,JM Bairstow,0,0,na,na
2nd innings,0.4,KS Williamson,PJ Cummins,JM Bairstow,0,0,na,na
2nd innings,0.5,KS Williamson,PJ Cummins,JM Bairstow,0,0,na,na
2nd innings,0.6,KS Williamson,PJ Cummins,JM Bairstow,2,2,na,na
2nd innings,1.1,JM Bairstow,Shivam Mavi,KS Williamson,0,0,na,na
2nd innings,1.2,JM Bairstow,Shivam Mavi,KS Williamson,0,0,na,na
2nd innings,1.3,JM Bairstow,Shivam Mavi,KS Williamson,1,1,na,na
2nd innings,1.4,KS Williamson,Shivam Mavi,JM Bairstow,1,1,na,na
2nd innings,1.5,JM Bairstow,Shivam Mavi,KS Williamson,4,4,na,na
2nd innings,1.6,JM Bairstow,Shivam Mavi,KS Williamson,4,4,na,na
2nd innings,2.1,KS Williamson,CV Varun,JM Bairstow,0,0,na,na
2nd innings,2.2,KS Williamson,CV Varun,JM Bairstow,4,4,na,na
2nd innings,2.3,KS Williamson,CV Varun,JM Bairstow,4,4,na,na
2nd innings,2.4,KS Williamson,CV Varun,JM Bairstow,1,1,na,na
2nd innings,2.5,JM Bairstow,CV Varun,KS Williamson,1,1,na,na
2nd innings,2.6,KS Williamson,CV Varun,JM Bairstow,0,0,na,na
2nd innings,3.1,JM Bairstow,AD Russell,KS Williamson,4,4,na,na
2nd innings,3.2,JM Bairstow,AD Russell,KS Williamson,0,0,na,na
2nd innings,3.3,JM Bairstow,AD Russell,KS Williamson,1,1,na,na
2nd innings,3.4,KS Williamson,AD Russell,JM Bairstow,0,0,na,na
2nd innings,3.5,KS Williamson,AD Russell,JM Bairstow,4,4,na,na
2nd innings,3.6,KS Williamson,AD Russell,JM Bairstow,4,4,na,na
2nd innings,4.1,JM Bairstow,PJ Cummins,KS Williamson,2,2,na,na
2nd innings,4.2,JM Bairstow,PJ Cummins,KS Williamson,4,4,na,na
2nd innings,4.3,JM Bairstow,PJ Cummins,KS Williamson,0,0,na,na
2nd innings,4.4,JM Bairstow,PJ Cummins,KS Williamson,1,1,na,na
2nd innings,4.5,KS Williamson,PJ Cummins,JM Bairstow,0,0,na,na
2nd innings,4.6,KS Williamson,PJ Cummins,JM Bairstow,4,4,na,na
2nd innings,5.1,JM Bairstow,Shivam Mavi,KS Williamson,0,0,na,na
2nd innings,5.2,JM Bairstow,Shivam Mavi,KS Williamson,6,6,na,na
2nd innings,5.3,JM Bairstow,Shivam Mavi,KS Williamson,1,0,{'wides': 1},na
2nd innings,5.4,JM Bairstow,Shivam Mavi,KS Williamson,0,0,na,na
2nd innings,5.5,JM Bairstow,Shivam Mavi,KS Williamson,0,0,na,na
2nd innings,5.6,JM Bairstow,Shivam Mavi,KS Williamson,1,1,na,na
2nd innings,5.7,KS Williamson,Shivam Mavi,JM Bairstow,4,4,na,na
2nd innings,6.1,JM Bairstow,LH Ferguson,KS Williamson,0,0,na,"{'player_out': 'KS Williamson', 'fielders': ['N Rana'], 'kind': 'caught'}"
2nd innings,6.2,JM Bairstow,LH Ferguson,PK Garg,0,0,na,na
2nd innings,6.3,JM Bairstow,LH Ferguson,PK Garg,1,1,na,na
2nd innings,6.4,PK Garg,LH Ferguson,JM Bairstow,0,0,na,na
2nd innings,6.5,PK Garg,LH Ferguson,JM Bairstow,0,0,na,na
2nd innings,6.6,PK Garg,LH Ferguson,JM Bairstow,1,1,na,na
2nd innings,7.1,PK Garg,CV Varun,JM Bairstow,1,1,na,na
2nd innings,7.2,JM Bairstow,CV Varun,PK Garg,1,1,na,na
2nd innings,7.3,PK Garg,CV Varun,JM Bairstow,1,1,na,na
2nd innings,7.4,JM Bairstow,CV Varun,PK Garg,1,1,na,na
2nd innings,7.5,PK Garg,CV Varun,JM Bairstow,4,4,na,na
2nd innings,7.6,PK Garg,CV Varun,JM Bairstow,0,0,na,na
2nd innings,8.1,JM Bairstow,LH Ferguson,PK Garg,1,1,na,na
2nd innings,8.2,PK Garg,LH Ferguson,JM Bairstow,1,1,na,na
2nd innings,8.3,JM Bairstow,LH Ferguson,PK Garg,0,0,na,na
2nd innings,8.4,JM Bairstow,LH Ferguson,PK Garg,0,0,na,"{'player_out': 'PK Garg', 'kind': 'bowled'}"
2nd innings,8.5,JM Bairstow,LH Ferguson,DA Warner,0,0,na,na
2nd innings,8.6,JM Bairstow,LH Ferguson,DA Warner,0,0,na,na
2nd innings,9.1,DA Warner,CV Varun,JM Bairstow,0,0,na,na
2nd innings,9.2,DA Warner,CV Varun,JM Bairstow,0,0,na,"{'player_out': 'JM Bairstow', 'fielders': ['AD Russell'], 'kind': 'caught'}"
2nd innings,9.3,DA Warner,CV Varun,MK Pandey,2,2,na,na
2nd innings,9.4,DA Warner,CV Varun,MK Pandey,1,1,na,na
2nd innings,9.5,MK Pandey,CV Varun,DA Warner,1,1,na,na
2nd innings,9.6,DA Warner,CV Varun,MK Pandey,0,0,na,na
2nd innings,10.1,MK Pandey,Kuldeep Yadav,DA Warner,1,0,{'legbyes': 1},na
2nd innings,10.2,DA Warner,Kuldeep Yadav,MK Pandey,1,1,na,na
2nd innings,10.3,MK Pandey,Kuldeep Yadav,DA Warner,2,2,na,na
2nd innings,10.4,MK Pandey,Kuldeep Yadav,DA Warner,0,0,na,na
2nd innings,10.5,MK Pandey,Kuldeep Yadav,DA Warner,1,1,na,na
2nd innings,10.6,DA Warner,Kuldeep Yadav,MK Pandey,1,1,na,na
2nd innings,11.1,DA Warner,LH Ferguson,MK Pandey,1,1,na,na
2nd innings,11.2,MK Pandey,LH Ferguson,DA Warner,1,0,{'legbyes': 1},na
2nd innings,11.3,DA Warner,LH Ferguson,MK Pandey,0,0,na,"{'player_out': 'MK Pandey', 'kind': 'bowled'}"
2nd innings,11.4,DA Warner,LH Ferguson,V Shankar,1,1,na,na
2nd innings,11.5,V Shankar,LH Ferguson,DA Warner,2,2,na,na
2nd innings,11.6,V Shankar,LH Ferguson,DA Warner,0,0,na,na
2nd innings,12.1,DA Warner,Kuldeep Yadav,V Shankar,1,1,na,na
2nd innings,12.2,V Shankar,Kuldeep Yadav,DA Warner,0,0,na,na
2nd innings,12.3,V Shankar,Kuldeep Yadav,DA Warner,0,0,na,na
2nd innings,12.4,V Shankar,Kuldeep Yadav,DA Warner,2,2,na,na
2nd innings,12.5,V Shankar,Kuldeep Yadav,DA Warner,1,1,na,na
2nd innings,12.6,DA Warner,Kuldeep Yadav,V Shankar,0,0,na,na
2nd innings,13.1,V Shankar,PJ Cummins,DA Warner,4,0,{'legbyes': 4},na
2nd innings,13.2,V Shankar,PJ Cummins,DA Warner,1,1,na,na
2nd innings,13.3,DA Warner,PJ Cummins,V Shankar,0,0,na,na
2nd innings,13.4,DA Warner,PJ Cummins,V Shankar,1,1,na,na
2nd innings,13.5,V Shankar,PJ Cummins,DA Warner,4,4,na,na
2nd innings,13.6,V Shankar,PJ Cummins,DA Warner,1,1,na,na
2nd innings,14.1,V Shankar,Kuldeep Yadav,DA Warner,1,0,{'wides': 1},na
2nd innings,14.2,V Shankar,Kuldeep Yadav,DA Warner,1,1,na,na
2nd innings,14.3,DA Warner,Kuldeep Yadav,V Shankar,2,2,na,na
2nd innings,14.4,DA Warner,Kuldeep Yadav,V Shankar,1,1,na,na
2nd innings,14.5,V Shankar,Kuldeep Yadav,DA Warner,2,2,na,na
2nd innings,14.6,V Shankar,Kuldeep Yadav,DA Warner,1,1,na,na
2nd innings,14.7,DA Warner,Kuldeep Yadav,V Shankar,1,1,na,na
2nd innings,15.1,DA Warner,PJ Cummins,V Shankar,0,0,na,na
2nd innings,15.2,DA Warner,PJ Cummins,V Shankar,0,0,na,"{'player_out': 'V Shankar', 'fielders': ['Shubman Gill'], 'kind': 'caught'}"
2nd innings,15.3,DA Warner,PJ Cummins,Abdul Samad,2,2,na,na
2nd innings,15.4,DA Warner,PJ Cummins,Abdul Samad,0,0,na,na
2nd innings,15.5,DA Warner,PJ Cummins,Abdul Samad,6,6,na,na
2nd innings,15.6,DA Warner,PJ Cummins,Abdul Samad,0,0,na,na
2nd innings,16.1,Abdul Samad,CV Varun,DA Warner,2,2,na,na
2nd innings,16.2,Abdul Samad,CV Varun,DA Warner,1,1,na,na
2nd innings,16.3,DA Warner,CV Varun,Abdul Samad,0,0,na,na
2nd innings,16.4,DA Warner,CV Varun,Abdul Samad,4,4,na,na
2nd innings,16.5,DA Warner,CV Varun,Abdul Samad,1,1,na,na
2nd innings,16.6,Abdul Samad,CV Varun,DA Warner,2,2,na,na
2nd innings,17.1,DA Warner,LH Ferguson,Abdul Samad,0,0,na,na
2nd innings,17.2,DA Warner,LH Ferguson,Abdul Samad,2,2,na,na
2nd innings,17.3,DA Warner,LH Ferguson,Abdul Samad,0,0,na,na
2nd innings,17.4,DA Warner,LH Ferguson,Abdul Samad,1,1,na,na
2nd innings,17.5,Abdul Samad,LH Ferguson,DA Warner,2,2,na,na
2nd innings,17.6,Abdul Samad,LH Ferguson,DA Warner,2,2,na,na
2nd innings,18.1,DA Warner,Shivam Mavi,Abdul Samad,4,4,na,na
2nd innings,18.2,DA Warner,Shivam Mavi,Abdul Samad,1,1,na,na
2nd innings,18.3,Abdul Samad,Shivam Mavi,DA Warner,4,4,na,na
2nd innings,18.4,Abdul Samad,Shivam Mavi,DA Warner,1,1,na,na
2nd innings,18.5,DA Warner,Shivam Mavi,Abdul Samad,2,2,na,na
2nd innings,18.6,DA Warner,Shivam Mavi,Abdul Samad,0,0,na,"{'player_out': 'Abdul Samad', 'fielders': ['Shubman Gill'], 'kind': 'caught'}"
2nd innings,19.1,DA Warner,AD Russell,Rashid Khan,1,0,{'noballs': 1},na
2nd innings,19.2,DA Warner,AD Russell,Rashid Khan,1,1,na,na
2nd innings,19.3,Rashid Khan,AD Russell,DA Warner,4,4,na,na
2nd innings,19.4,Rashid Khan,AD Russell,DA Warner,4,4,na,na
2nd innings,19.5,Rashid Khan,AD Russell,DA Warner,4,4,na,na
2nd innings,19.6,Rashid Khan,AD Russell,DA Warner,2,2,na,na
2nd innings,19.7,Rashid Khan,AD Russell,DA Warner,1,0,{'legbyes': 1},na
