innings,deliveries,non_striker,bowler,batsman,total_runs,batsman_runs,extras,wickets
1st innings,0.1,S Dhawan,DL Chahar,PP Shaw,0,0,na,na
1st innings,0.2,S Dhawan,DL Chahar,PP Shaw,0,0,na,na
1st innings,0.3,S Dhawan,DL Chahar,PP Shaw,4,4,na,na
1st innings,0.4,S Dhawan,DL Chahar,PP Shaw,4,4,na,na
1st innings,0.5,S Dhawan,DL Chahar,PP Shaw,0,0,na,na
1st innings,0.6,S Dhawan,DL Chahar,PP Shaw,1,1,na,na
1st innings,1.1,S Dhawan,SM Curran,PP Shaw,0,0,na,na
1st innings,1.2,S Dhawan,SM Curran,PP Shaw,1,0,{'legbyes': 1},na
1st innings,1.3,PP Shaw,SM Curran,S Dhawan,0,0,na,na
1st innings,1.4,PP Shaw,SM Curran,S Dhawan,1,1,na,na
1st innings,1.5,S Dhawan,SM Curran,PP Shaw,0,0,na,na
1st innings,1.6,S Dhawan,SM Curran,PP Shaw,0,0,na,na
1st innings,2.1,PP Shaw,JR Hazlewood,S Dhawan,0,0,na,na
1st innings,2.2,PP Shaw,JR Hazlewood,S Dhawan,0,0,na,na
1st innings,2.3,PP Shaw,JR Hazlewood,S Dhawan,1,1,na,na
1st innings,2.4,S Dhawan,JR Hazlewood,PP Shaw,1,1,na,na
1st innings,2.5,PP Shaw,JR Hazlewood,S Dhawan,1,1,na,na
1st innings,2.6,S Dhawan,JR Hazlewood,PP Shaw,1,1,na,na
1st innings,3.1,S Dhawan,SM Curran,PP Shaw,4,4,na,na
1st innings,3.2,S Dhawan,SM Curran,PP Shaw,0,0,na,na
1st innings,3.3,S Dhawan,SM Curran,PP Shaw,0,0,na,na
1st innings,3.4,S Dhawan,SM Curran,PP Shaw,4,4,na,na
1st innings,3.5,S Dhawan,SM Curran,PP Shaw,1,0,{'wides': 1},na
1st innings,3.6,S Dhawan,SM Curran,PP Shaw,2,2,na,na
1st innings,3.7,S Dhawan,SM Curran,PP Shaw,1,1,na,na
1st innings,4.1,S Dhawan,JR Hazlewood,PP Shaw,0,0,na,na
1st innings,4.2,S Dhawan,JR Hazlewood,PP Shaw,2,2,na,na
1st innings,4.3,S Dhawan,JR Hazlewood,PP Shaw,1,1,na,na
1st innings,4.4,PP Shaw,JR Hazlewood,S Dhawan,0,0,na,na
1st innings,4.5,PP Shaw,JR Hazlewood,S Dhawan,0,0,na,na
1st innings,4.6,PP Shaw,JR Hazlewood,S Dhawan,0,0,na,na
1st innings,5.1,S Dhawan,DL Chahar,PP Shaw,1,1,na,na
1st innings,5.2,PP Shaw,DL Chahar,S Dhawan,2,2,na,na
1st innings,5.3,PP Shaw,DL Chahar,S Dhawan,1,1,na,na
1st innings,5.4,S Dhawan,DL Chahar,PP Shaw,1,1,na,na
1st innings,5.5,PP Shaw,DL Chahar,S Dhawan,0,0,na,na
1st innings,5.6,PP Shaw,DL Chahar,S Dhawan,1,1,na,na
1st innings,6.1,PP Shaw,PP Chawla,S Dhawan,1,1,na,na
1st innings,6.2,S Dhawan,PP Chawla,PP Shaw,1,1,na,na
1st innings,6.3,PP Shaw,PP Chawla,S Dhawan,1,1,na,na
1st innings,6.4,S Dhawan,PP Chawla,PP Shaw,4,4,na,na
1st innings,6.5,S Dhawan,PP Chawla,PP Shaw,2,2,na,na
1st innings,6.6,S Dhawan,PP Chawla,PP Shaw,4,4,na,na
1st innings,7.1,PP Shaw,RA Jadeja,S Dhawan,6,6,na,na
1st innings,7.2,PP Shaw,RA Jadeja,S Dhawan,1,1,na,na
1st innings,7.3,S Dhawan,RA Jadeja,PP Shaw,1,1,na,na
1st innings,7.4,PP Shaw,RA Jadeja,S Dhawan,4,4,na,na
1st innings,7.5,PP Shaw,RA Jadeja,S Dhawan,1,1,na,na
1st innings,7.6,S Dhawan,RA Jadeja,PP Shaw,0,0,na,na
1st innings,8.1,PP Shaw,PP Chawla,S Dhawan,1,1,na,na
1st innings,8.2,S Dhawan,PP Chawla,PP Shaw,4,4,na,na
1st innings,8.3,S Dhawan,PP Chawla,PP Shaw,0,0,na,na
1st innings,8.4,S Dhawan,PP Chawla,PP Shaw,4,4,na,na
1st innings,8.5,S Dhawan,PP Chawla,PP Shaw,2,2,na,na
1st innings,8.6,S Dhawan,PP Chawla,PP Shaw,0,0,na,na
1st innings,9.1,PP Shaw,RA Jadeja,S Dhawan,2,2,na,na
1st innings,9.2,PP Shaw,RA Jadeja,S Dhawan,1,1,na,na
1st innings,9.3,S Dhawan,RA Jadeja,PP Shaw,1,1,na,na
1st innings,9.4,PP Shaw,RA Jadeja,S Dhawan,4,4,na,na
1st innings,9.5,PP Shaw,RA Jadeja,S Dhawan,1,1,na,na
1st innings,9.6,S Dhawan,RA Jadeja,PP Shaw,6,6,na,na
1st innings,10.1,PP Shaw,PP Chawla,S Dhawan,1,1,na,na
1st innings,10.2,S Dhawan,PP Chawla,PP Shaw,1,1,na,na
1st innings,10.3,PP Shaw,PP Chawla,S Dhawan,4,4,na,na
1st innings,10.4,PP Shaw,PP Chawla,S Dhawan,0,0,na,"{'player_out': 'S Dhawan', 'kind': 'lbw'}"
1st innings,10.5,PP Shaw,PP Chawla,RR Pant,0,0,na,na
1st innings,10.6,PP Shaw,PP Chawla,RR Pant,0,0,na,na
1st innings,11.1,RR Pant,RA Jadeja,PP Shaw,1,1,na,na
1st innings,11.2,PP Shaw,RA Jadeja,RR Pant,1,1,na,na
1st innings,11.3,RR Pant,RA Jadeja,PP Shaw,2,2,na,na
1st innings,11.4,RR Pant,RA Jadeja,PP Shaw,4,4,na,na
1st innings,11.5,RR Pant,RA Jadeja,PP Shaw,0,0,na,na
1st innings,11.6,RR Pant,RA Jadeja,PP Shaw,0,0,na,na
1st innings,12.1,PP Shaw,PP Chawla,RR Pant,1,1,na,na
1st innings,12.2,RR Pant,PP Chawla,PP Shaw,0,0,na,"{'player_out': 'PP Shaw', 'fielders': ['MS Dhoni'], 'kind': 'stumped'}"
1st innings,12.3,RR Pant,PP Chawla,SS Iyer,0,0,na,na
1st innings,12.4,RR Pant,PP Chawla,SS Iyer,0,0,na,na
1st innings,12.5,RR Pant,PP Chawla,SS Iyer,1,1,na,na
1st innings,12.6,SS Iyer,PP Chawla,RR Pant,1,1,na,na
1st innings,13.1,SS Iyer,RA Jadeja,RR Pant,4,4,na,na
1st innings,13.2,SS Iyer,RA Jadeja,RR Pant,1,1,na,na
1st innings,13.3,RR Pant,RA Jadeja,SS Iyer,1,1,na,na
1st innings,13.4,SS Iyer,RA Jadeja,RR Pant,0,0,na,na
1st innings,13.5,SS Iyer,RA Jadeja,RR Pant,1,1,na,na
1st innings,13.6,RR Pant,RA Jadeja,SS Iyer,1,1,na,na
1st innings,14.1,RR Pant,DL Chahar,SS Iyer,1,1,na,na
1st innings,14.2,SS Iyer,DL Chahar,RR Pant,1,1,na,na
1st innings,14.3,RR Pant,DL Chahar,SS Iyer,1,1,na,na
1st innings,14.4,SS Iyer,DL Chahar,RR Pant,4,4,na,na
1st innings,14.5,SS Iyer,DL Chahar,RR Pant,1,1,na,na
1st innings,14.6,RR Pant,DL Chahar,SS Iyer,1,0,{'wides': 1},na
1st innings,14.7,RR Pant,DL Chahar,SS Iyer,2,2,na,na
1st innings,15.1,SS Iyer,SM Curran,RR Pant,4,4,na,na
1st innings,15.2,SS Iyer,SM Curran,RR Pant,1,1,na,na
1st innings,15.3,RR Pant,SM Curran,SS Iyer,2,2,na,na
1st innings,15.4,RR Pant,SM Curran,SS Iyer,1,1,na,na
1st innings,15.5,SS Iyer,SM Curran,RR Pant,1,1,na,na
1st innings,15.6,RR Pant,SM Curran,SS Iyer,1,1,na,na
1st innings,16.1,RR Pant,DL Chahar,SS Iyer,1,1,na,na
1st innings,16.2,SS Iyer,DL Chahar,RR Pant,1,1,na,na
1st innings,16.3,RR Pant,DL Chahar,SS Iyer,2,2,na,na
1st innings,16.4,RR Pant,DL Chahar,SS Iyer,4,4,na,na
1st innings,16.5,RR Pant,DL Chahar,SS Iyer,2,2,na,na
1st innings,16.6,RR Pant,DL Chahar,SS Iyer,2,2,na,na
1st innings,17.1,SS Iyer,JR Hazlewood,RR Pant,0,0,na,na
1st innings,17.2,SS Iyer,JR Hazlewood,RR Pant,1,0,{'wides': 1},na
1st innings,17.3,SS Iyer,JR Hazlewood,RR Pant,4,4,na,na
1st innings,17.4,SS Iyer,JR Hazlewood,RR Pant,1,1,na,na
1st innings,17.5,RR Pant,JR Hazlewood,SS Iyer,1,1,na,na
1st innings,17.6,SS Iyer,JR Hazlewood,RR Pant,4,4,na,na
1st innings,17.7,SS Iyer,JR Hazlewood,RR Pant,0,0,na,na
1st innings,18.1,RR Pant,SM Curran,SS Iyer,0,0,na,na
1st innings,18.2,RR Pant,SM Curran,SS Iyer,0,0,na,na
1st innings,18.3,RR Pant,SM Curran,SS Iyer,1,1,na,na
1st innings,18.4,SS Iyer,SM Curran,RR Pant,1,1,na,na
1st innings,18.5,RR Pant,SM Curran,SS Iyer,2,2,na,na
1st innings,18.6,RR Pant,SM Curran,SS Iyer,0,0,na,"{'player_out': 'SS Iyer', 'fielders': ['MS Dhoni'], 'kind': 'caught'}"
1st innings,19.1,MP Stoinis,JR Hazlewood,RR Pant,0,0,na,na
1st innings,19.2,MP Stoinis,JR Hazlewood,RR Pant,4,4,na,na
1st innings,19.3,MP Stoinis,JR Hazlewood,RR Pant,1,1,na,na
1st innings,19.4,RR Pant,JR Hazlewood,MP Stoinis,4,4,na,na
1st innings,19.5,RR Pant,JR Hazlewood,MP Stoinis,4,0,{'legbyes': 4},na
1st innings,19.6,RR Pant,JR Hazlewood,MP Stoinis,1,1,na,na
2nd innings,0.1,SR Watson,K Rabada,M Vijay,0,0,na,na
2nd innings,0.2,SR Watson,K Rabada,M Vijay,0,0,na,na
2nd innings,0.3,SR Watson,K Rabada,M Vijay,0,0,na,na
2nd innings,0.4,SR Watson,K Rabada,M Vijay,0,0,na,na
2nd innings,0.5,SR Watson,K Rabada,M Vijay,0,0,na,na
2nd innings,0.6,SR Watson,K Rabada,M Vijay,2,2,na,na
2nd innings,1.1,M Vijay,AR Patel,SR Watson,0,0,na,na
2nd innings,1.2,M Vijay,AR Patel,SR Watson,1,1,na,na
2nd innings,1.3,SR Watson,AR Patel,M Vijay,1,1,na,na
2nd innings,1.4,M Vijay,AR Patel,SR Watson,0,0,na,na
2nd innings,1.5,M Vijay,AR Patel,SR Watson,1,1,na,na
2nd innings,1.6,SR Watson,AR Patel,M Vijay,4,4,na,na
2nd innings,2.1,M Vijay,A Nortje,SR Watson,0,0,na,na
2nd innings,2.2,M Vijay,A Nortje,SR Watson,0,0,na,na
2nd innings,2.3,M Vijay,A Nortje,SR Watson,0,0,na,na
2nd innings,2.4,M Vijay,A Nortje,SR Watson,0,0,na,na
2nd innings,2.5,M Vijay,A Nortje,SR Watson,0,0,na,na
2nd innings,2.6,M Vijay,A Nortje,SR Watson,1,1,na,na
2nd innings,3.1,M Vijay,Avesh Khan,SR Watson,4,4,na,na
2nd innings,3.2,M Vijay,Avesh Khan,SR Watson,0,0,na,na
2nd innings,3.3,M Vijay,Avesh Khan,SR Watson,1,1,na,na
2nd innings,3.4,SR Watson,Avesh Khan,M Vijay,1,1,na,na
2nd innings,3.5,M Vijay,Avesh Khan,SR Watson,6,6,na,na
2nd innings,3.6,M Vijay,Avesh Khan,SR Watson,0,0,na,na
2nd innings,4.1,SR Watson,AR Patel,M Vijay,1,1,na,na
2nd innings,4.2,M Vijay,AR Patel,SR Watson,0,0,na,"{'player_out': 'SR Watson', 'fielders': ['SO Hetmyer'], 'kind': 'caught'}"
2nd innings,4.3,M Vijay,AR Patel,F du Plessis,1,1,na,na
2nd innings,4.4,F du Plessis,AR Patel,M Vijay,1,1,na,na
2nd innings,4.5,M Vijay,AR Patel,F du Plessis,1,1,na,na
2nd innings,4.6,F du Plessis,AR Patel,M Vijay,0,0,na,na
2nd innings,5.1,M Vijay,A Nortje,F du Plessis,1,0,{'wides': 1},na
2nd innings,5.2,M Vijay,A Nortje,F du Plessis,4,4,na,na
2nd innings,5.3,M Vijay,A Nortje,F du Plessis,2,2,na,na
2nd innings,5.4,M Vijay,A Nortje,F du Plessis,1,1,na,na
2nd innings,5.5,F du Plessis,A Nortje,M Vijay,0,0,na,na
2nd innings,5.6,F du Plessis,A Nortje,M Vijay,0,0,na,na
2nd innings,5.7,F du Plessis,A Nortje,M Vijay,0,0,na,"{'player_out': 'M Vijay', 'fielders': ['K Rabada'], 'kind': 'caught'}"
2nd innings,6.1,F du Plessis,A Mishra,RD Gaikwad,1,1,na,na
2nd innings,6.2,RD Gaikwad,A Mishra,F du Plessis,0,0,na,na
2nd innings,6.3,RD Gaikwad,A Mishra,F du Plessis,1,1,na,na
2nd innings,6.4,F du Plessis,A Mishra,RD Gaikwad,0,0,na,na
2nd innings,6.5,F du Plessis,A Mishra,RD Gaikwad,1,1,na,na
2nd innings,6.6,RD Gaikwad,A Mishra,F du Plessis,0,0,na,na
2nd innings,7.1,F du Plessis,AR Patel,RD Gaikwad,1,1,na,na
2nd innings,7.2,RD Gaikwad,AR Patel,F du Plessis,1,1,na,na
2nd innings,7.3,F du Plessis,AR Patel,RD Gaikwad,0,0,na,na
2nd innings,7.4,F du Plessis,AR Patel,RD Gaikwad,0,0,na,na
2nd innings,7.5,F du Plessis,AR Patel,RD Gaikwad,1,1,na,na
2nd innings,7.6,RD Gaikwad,AR Patel,F du Plessis,1,1,na,na
2nd innings,8.1,RD Gaikwad,A Mishra,F du Plessis,1,1,na,na
2nd innings,8.2,F du Plessis,A Mishra,RD Gaikwad,0,0,na,na
2nd innings,8.3,F du Plessis,A Mishra,RD Gaikwad,1,1,na,na
2nd innings,8.4,RD Gaikwad,A Mishra,F du Plessis,0,0,na,na
2nd innings,8.5,RD Gaikwad,A Mishra,F du Plessis,1,1,na,na
2nd innings,8.6,F du Plessis,A Mishra,RD Gaikwad,0,0,na,na
2nd innings,9.1,RD Gaikwad,AR Patel,F du Plessis,0,0,na,"{'player_out': 'RD Gaikwad', 'kind': 'run out'}"
2nd innings,9.2,KM Jadhav,AR Patel,F du Plessis,1,1,na,na
2nd innings,9.3,F du Plessis,AR Patel,KM Jadhav,0,0,na,na
2nd innings,9.4,F du Plessis,AR Patel,KM Jadhav,0,0,na,na
2nd innings,9.5,F du Plessis,AR Patel,KM Jadhav,0,0,na,na
2nd innings,9.6,F du Plessis,AR Patel,KM Jadhav,2,2,na,na
2nd innings,10.1,KM Jadhav,A Mishra,F du Plessis,1,1,na,na
2nd innings,10.2,F du Plessis,A Mishra,KM Jadhav,1,1,na,na
2nd innings,10.3,KM Jadhav,A Mishra,F du Plessis,1,1,na,na
2nd innings,10.4,F du Plessis,A Mishra,KM Jadhav,1,1,na,na
2nd innings,10.5,KM Jadhav,A Mishra,F du Plessis,1,1,na,na
2nd innings,10.6,F du Plessis,A Mishra,KM Jadhav,1,1,na,na
2nd innings,11.1,F du Plessis,Avesh Khan,KM Jadhav,1,1,na,na
2nd innings,11.2,KM Jadhav,Avesh Khan,F du Plessis,0,0,na,na
2nd innings,11.3,KM Jadhav,Avesh Khan,F du Plessis,4,4,na,na
2nd innings,11.4,KM Jadhav,Avesh Khan,F du Plessis,1,1,na,na
2nd innings,11.5,F du Plessis,Avesh Khan,KM Jadhav,0,0,na,na
2nd innings,11.6,F du Plessis,Avesh Khan,KM Jadhav,1,1,na,na
2nd innings,12.1,F du Plessis,A Mishra,KM Jadhav,1,1,na,na
2nd innings,12.2,KM Jadhav,A Mishra,F du Plessis,4,4,na,na
2nd innings,12.3,KM Jadhav,A Mishra,F du Plessis,2,2,na,na
2nd innings,12.4,KM Jadhav,A Mishra,F du Plessis,1,1,na,na
2nd innings,12.5,F du Plessis,A Mishra,KM Jadhav,1,1,na,na
2nd innings,12.6,KM Jadhav,A Mishra,F du Plessis,2,2,na,na
2nd innings,13.1,F du Plessis,Avesh Khan,KM Jadhav,4,4,na,na
2nd innings,13.2,F du Plessis,Avesh Khan,KM Jadhav,0,0,na,na
2nd innings,13.3,F du Plessis,Avesh Khan,KM Jadhav,4,4,na,na
2nd innings,13.4,F du Plessis,Avesh Khan,KM Jadhav,2,2,na,na
2nd innings,13.5,F du Plessis,Avesh Khan,KM Jadhav,1,0,{'wides': 1},na
2nd innings,13.6,F du Plessis,Avesh Khan,KM Jadhav,1,1,na,na
2nd innings,13.7,KM Jadhav,Avesh Khan,F du Plessis,1,1,na,na
2nd innings,14.1,KM Jadhav,K Rabada,F du Plessis,4,4,na,na
2nd innings,14.2,KM Jadhav,K Rabada,F du Plessis,1,0,{'legbyes': 1},na
2nd innings,14.3,F du Plessis,K Rabada,KM Jadhav,4,4,na,na
2nd innings,14.4,F du Plessis,K Rabada,KM Jadhav,1,1,na,na
2nd innings,14.5,KM Jadhav,K Rabada,F du Plessis,0,0,na,na
2nd innings,14.6,KM Jadhav,K Rabada,F du Plessis,1,1,na,na
2nd innings,15.1,KM Jadhav,A Nortje,F du Plessis,1,1,na,na
2nd innings,15.2,F du Plessis,A Nortje,KM Jadhav,1,1,na,na
2nd innings,15.3,KM Jadhav,A Nortje,F du Plessis,1,1,na,na
2nd innings,15.4,F du Plessis,A Nortje,KM Jadhav,0,0,na,"{'player_out': 'KM Jadhav', 'kind': 'lbw'}"
2nd innings,15.5,F du Plessis,A Nortje,MS Dhoni,0,0,na,na
2nd innings,15.6,F du Plessis,A Nortje,MS Dhoni,3,3,na,na
2nd innings,16.1,F du Plessis,Avesh Khan,MS Dhoni,4,4,na,na
2nd innings,16.2,F du Plessis,Avesh Khan,MS Dhoni,0,0,na,na
2nd innings,16.3,F du Plessis,Avesh Khan,MS Dhoni,0,0,na,na
2nd innings,16.4,F du Plessis,Avesh Khan,MS Dhoni,4,4,na,na
2nd innings,16.5,F du Plessis,Avesh Khan,MS Dhoni,1,1,na,na
2nd innings,16.6,MS Dhoni,Avesh Khan,F du Plessis,1,1,na,na
2nd innings,17.1,MS Dhoni,K Rabada,F du Plessis,2,2,na,na
2nd innings,17.2,MS Dhoni,K Rabada,F du Plessis,0,0,na,"{'player_out': 'F du Plessis', 'fielders': ['RR Pant'], 'kind': 'caught'}"
2nd innings,17.3,MS Dhoni,K Rabada,RA Jadeja,2,2,na,na
2nd innings,17.4,MS Dhoni,K Rabada,RA Jadeja,4,4,na,na
2nd innings,17.5,MS Dhoni,K Rabada,RA Jadeja,1,1,na,na
2nd innings,17.6,RA Jadeja,K Rabada,MS Dhoni,1,1,na,na
2nd innings,18.1,RA Jadeja,A Nortje,MS Dhoni,1,1,na,na
2nd innings,18.2,MS Dhoni,A Nortje,RA Jadeja,1,1,na,na
2nd innings,18.3,RA Jadeja,A Nortje,MS Dhoni,0,0,na,na
2nd innings,18.4,RA Jadeja,A Nortje,MS Dhoni,1,1,na,na
2nd innings,18.5,MS Dhoni,A Nortje,RA Jadeja,1,0,{'wides': 1},na
2nd innings,18.6,MS Dhoni,A Nortje,RA Jadeja,1,0,{'wides': 1},na
2nd innings,18.7,MS Dhoni,A Nortje,RA Jadeja,0,0,na,na
2nd innings,18.8,MS Dhoni,A Nortje,RA Jadeja,1,1,na,na
2nd innings,19.1,MS Dhoni,K Rabada,RA Jadeja,2,2,na,na
2nd innings,19.2,MS Dhoni,K Rabada,RA Jadeja,1,1,na,na
2nd innings,19.3,RA Jadeja,K Rabada,MS Dhoni,0,0,na,"{'player_out': 'MS Dhoni', 'fielders': ['RR Pant'], 'kind': 'caught'}"
2nd innings,19.4,RA Jadeja,K Rabada,SM Curran,0,0,na,na
2nd innings,19.5,RA Jadeja,K Rabada,SM Curran,1,1,na,na
2nd innings,19.6,SM Curran,K Rabada,RA Jadeja,0,0,na,"{'player_out': 'RA Jadeja', 'fielders': ['A Mishra'], 'kind': 'caught'}"
