innings,deliveries,non_striker,bowler,batsman,total_runs,batsman_runs,extras,wickets
1st innings,0.1,S Dhawan,VR Aaron,PP Shaw,0,0,na,na
1st innings,0.2,S Dhawan,VR Aaron,PP Shaw,1,1,na,na
1st innings,0.3,PP Shaw,VR Aaron,S Dhawan,0,0,na,na
1st innings,0.4,PP Shaw,VR Aaron,S Dhawan,1,1,na,na
1st innings,0.5,S Dhawan,VR Aaron,PP Shaw,1,1,na,na
1st innings,0.6,PP Shaw,VR Aaron,S Dhawan,4,4,na,na
1st innings,1.1,S Dhawan,JC Archer,PP Shaw,4,4,na,na
1st innings,1.2,S Dhawan,JC Archer,PP Shaw,1,1,na,na
1st innings,1.3,PP Shaw,JC Archer,S Dhawan,0,0,na,"{'player_out': 'S Dhawan', 'fielders': ['YBK Jaiswal'], 'kind': 'caught'}"
1st innings,1.4,PP Shaw,JC Archer,SS Iyer,0,0,na,na
1st innings,1.5,PP Shaw,JC Archer,SS Iyer,1,1,na,na
1st innings,1.6,SS Iyer,JC Archer,PP Shaw,0,0,na,na
1st innings,2.1,PP Shaw,VR Aaron,SS Iyer,0,0,na,na
1st innings,2.2,PP Shaw,VR Aaron,SS Iyer,0,0,na,na
1st innings,2.3,PP Shaw,VR Aaron,SS Iyer,5,4,{'noballs': 1},na
1st innings,2.4,PP Shaw,VR Aaron,SS Iyer,4,4,na,na
1st innings,2.5,PP Shaw,VR Aaron,SS Iyer,1,1,na,na
1st innings,2.6,SS Iyer,VR Aaron,PP Shaw,2,2,na,na
1st innings,2.7,SS Iyer,VR Aaron,PP Shaw,6,6,na,na
1st innings,3.1,PP Shaw,Kartik Tyagi,SS Iyer,0,0,na,na
1st innings,3.2,PP Shaw,Kartik Tyagi,SS Iyer,0,0,na,na
1st innings,3.3,PP Shaw,Kartik Tyagi,SS Iyer,2,2,na,na
1st innings,3.4,PP Shaw,Kartik Tyagi,SS Iyer,4,4,na,na
1st innings,3.5,PP Shaw,Kartik Tyagi,SS Iyer,0,0,na,na
1st innings,3.6,PP Shaw,Kartik Tyagi,SS Iyer,1,0,{'wides': 1},na
1st innings,3.7,PP Shaw,Kartik Tyagi,SS Iyer,0,0,na,na
1st innings,4.1,SS Iyer,JC Archer,PP Shaw,4,4,na,na
1st innings,4.2,SS Iyer,JC Archer,PP Shaw,0,0,na,"{'player_out': 'PP Shaw', 'kind': 'caught and bowled'}"
1st innings,4.3,RR Pant,JC Archer,SS Iyer,1,1,na,na
1st innings,4.4,SS Iyer,JC Archer,RR Pant,0,0,na,na
1st innings,4.5,SS Iyer,JC Archer,RR Pant,0,0,na,na
1st innings,4.6,SS Iyer,JC Archer,RR Pant,0,0,na,na
1st innings,5.1,RR Pant,AJ Tye,SS Iyer,0,0,na,na
1st innings,5.2,RR Pant,AJ Tye,SS Iyer,4,4,na,na
1st innings,5.3,RR Pant,AJ Tye,SS Iyer,1,1,na,na
1st innings,5.4,SS Iyer,AJ Tye,RR Pant,1,0,{'wides': 1},na
1st innings,5.5,SS Iyer,AJ Tye,RR Pant,1,1,na,na
1st innings,5.6,RR Pant,AJ Tye,SS Iyer,0,0,na,"{'player_out': 'SS Iyer', 'kind': 'run out'}"
1st innings,5.7,RR Pant,AJ Tye,MP Stoinis,1,1,na,na
1st innings,6.1,RR Pant,S Gopal,MP Stoinis,0,0,na,na
1st innings,6.2,RR Pant,S Gopal,MP Stoinis,1,1,na,na
1st innings,6.3,MP Stoinis,S Gopal,RR Pant,1,1,na,na
1st innings,6.4,RR Pant,S Gopal,MP Stoinis,6,6,na,na
1st innings,6.5,RR Pant,S Gopal,MP Stoinis,6,6,na,na
1st innings,6.6,RR Pant,S Gopal,MP Stoinis,1,1,na,na
1st innings,7.1,RR Pant,R Tewatia,MP Stoinis,1,1,na,na
1st innings,7.2,MP Stoinis,R Tewatia,RR Pant,0,0,na,na
1st innings,7.3,MP Stoinis,R Tewatia,RR Pant,1,1,na,na
1st innings,7.4,RR Pant,R Tewatia,MP Stoinis,0,0,na,na
1st innings,7.5,RR Pant,R Tewatia,MP Stoinis,0,0,na,na
1st innings,7.6,RR Pant,R Tewatia,MP Stoinis,1,0,{'wides': 1},na
1st innings,7.7,RR Pant,R Tewatia,MP Stoinis,1,1,na,na
1st innings,8.1,RR Pant,S Gopal,MP Stoinis,0,0,na,na
1st innings,8.2,RR Pant,S Gopal,MP Stoinis,0,0,na,na
1st innings,8.3,RR Pant,S Gopal,MP Stoinis,6,6,na,na
1st innings,8.4,RR Pant,S Gopal,MP Stoinis,0,0,na,na
1st innings,8.5,RR Pant,S Gopal,MP Stoinis,1,1,na,na
1st innings,8.6,MP Stoinis,S Gopal,RR Pant,1,1,na,na
1st innings,9.1,MP Stoinis,R Tewatia,RR Pant,1,1,na,na
1st innings,9.2,RR Pant,R Tewatia,MP Stoinis,0,0,na,"{'player_out': 'RR Pant', 'kind': 'run out'}"
1st innings,9.3,SO Hetmyer,R Tewatia,MP Stoinis,6,6,na,na
1st innings,9.4,SO Hetmyer,R Tewatia,MP Stoinis,1,1,na,na
1st innings,9.5,MP Stoinis,R Tewatia,SO Hetmyer,1,1,na,na
1st innings,9.6,SO Hetmyer,R Tewatia,MP Stoinis,0,0,na,na
1st innings,10.1,MP Stoinis,Kartik Tyagi,SO Hetmyer,1,1,na,na
1st innings,10.2,SO Hetmyer,Kartik Tyagi,MP Stoinis,1,1,na,na
1st innings,10.3,MP Stoinis,Kartik Tyagi,SO Hetmyer,1,1,na,na
1st innings,10.4,SO Hetmyer,Kartik Tyagi,MP Stoinis,1,1,na,na
1st innings,10.5,MP Stoinis,Kartik Tyagi,SO Hetmyer,1,1,na,na
1st innings,10.6,SO Hetmyer,Kartik Tyagi,MP Stoinis,0,0,na,na
1st innings,11.1,MP Stoinis,R Tewatia,SO Hetmyer,0,0,na,na
1st innings,11.2,MP Stoinis,R Tewatia,SO Hetmyer,0,0,na,na
1st innings,11.3,MP Stoinis,R Tewatia,SO Hetmyer,1,1,na,na
1st innings,11.4,SO Hetmyer,R Tewatia,MP Stoinis,1,1,na,na
1st innings,11.5,MP Stoinis,R Tewatia,SO Hetmyer,1,1,na,na
1st innings,11.6,SO Hetmyer,R Tewatia,MP Stoinis,1,1,na,na
1st innings,12.1,SO Hetmyer,AJ Tye,MP Stoinis,0,0,na,na
1st innings,12.2,SO Hetmyer,AJ Tye,MP Stoinis,1,1,na,na
1st innings,12.3,MP Stoinis,AJ Tye,SO Hetmyer,6,6,na,na
1st innings,12.4,MP Stoinis,AJ Tye,SO Hetmyer,1,1,na,na
1st innings,12.5,SO Hetmyer,AJ Tye,MP Stoinis,2,2,na,na
1st innings,12.6,SO Hetmyer,AJ Tye,MP Stoinis,1,1,na,na
1st innings,13.1,SO Hetmyer,R Tewatia,MP Stoinis,1,0,{'legbyes': 1},na
1st innings,13.2,MP Stoinis,R Tewatia,SO Hetmyer,1,1,na,na
1st innings,13.3,SO Hetmyer,R Tewatia,MP Stoinis,0,0,na,"{'player_out': 'MP Stoinis', 'fielders': ['SPD Smith'], 'kind': 'caught'}"
1st innings,13.4,SO Hetmyer,R Tewatia,HV Patel,0,0,na,na
1st innings,13.5,SO Hetmyer,R Tewatia,HV Patel,2,2,na,na
1st innings,13.6,SO Hetmyer,R Tewatia,HV Patel,0,0,na,na
1st innings,14.1,HV Patel,Kartik Tyagi,SO Hetmyer,1,1,na,na
1st innings,14.2,SO Hetmyer,Kartik Tyagi,HV Patel,2,2,na,na
1st innings,14.3,SO Hetmyer,Kartik Tyagi,HV Patel,1,1,na,na
1st innings,14.4,HV Patel,Kartik Tyagi,SO Hetmyer,6,6,na,na
1st innings,14.5,HV Patel,Kartik Tyagi,SO Hetmyer,0,0,na,na
1st innings,14.6,HV Patel,Kartik Tyagi,SO Hetmyer,1,0,{'legbyes': 1},na
1st innings,15.1,HV Patel,AJ Tye,SO Hetmyer,0,0,na,na
1st innings,15.2,HV Patel,AJ Tye,SO Hetmyer,4,4,na,na
1st innings,15.3,HV Patel,AJ Tye,SO Hetmyer,6,6,na,na
1st innings,15.4,HV Patel,AJ Tye,SO Hetmyer,1,1,na,na
1st innings,15.5,SO Hetmyer,AJ Tye,HV Patel,1,1,na,na
1st innings,15.6,HV Patel,AJ Tye,SO Hetmyer,1,1,na,na
1st innings,16.1,HV Patel,Kartik Tyagi,SO Hetmyer,1,0,{'legbyes': 1},na
1st innings,16.2,SO Hetmyer,Kartik Tyagi,HV Patel,0,0,na,na
1st innings,16.3,SO Hetmyer,Kartik Tyagi,HV Patel,1,1,na,na
1st innings,16.4,HV Patel,Kartik Tyagi,SO Hetmyer,6,6,na,na
1st innings,16.5,HV Patel,Kartik Tyagi,SO Hetmyer,6,6,na,na
1st innings,16.6,HV Patel,Kartik Tyagi,SO Hetmyer,0,0,na,"{'player_out': 'SO Hetmyer', 'fielders': ['R Tewatia'], 'kind': 'caught'}"
1st innings,17.1,HV Patel,JC Archer,AR Patel,1,1,na,na
1st innings,17.2,AR Patel,JC Archer,HV Patel,2,2,na,na
1st innings,17.3,AR Patel,JC Archer,HV Patel,1,1,na,na
1st innings,17.4,HV Patel,JC Archer,AR Patel,1,0,{'wides': 1},na
1st innings,17.5,HV Patel,JC Archer,AR Patel,1,1,na,na
1st innings,17.6,AR Patel,JC Archer,HV Patel,0,0,na,na
1st innings,17.7,AR Patel,JC Archer,HV Patel,4,4,na,na
1st innings,18.1,HV Patel,AJ Tye,AR Patel,4,4,na,na
1st innings,18.2,HV Patel,AJ Tye,AR Patel,1,0,{'wides': 1},na
1st innings,18.3,HV Patel,AJ Tye,AR Patel,1,1,na,na
1st innings,18.4,AR Patel,AJ Tye,HV Patel,1,1,na,na
1st innings,18.5,HV Patel,AJ Tye,AR Patel,5,0,"{'byes': 4, 'noballs': 1}",na
1st innings,18.6,HV Patel,AJ Tye,AR Patel,6,6,na,na
1st innings,18.7,HV Patel,AJ Tye,AR Patel,4,4,na,na
1st innings,18.8,HV Patel,AJ Tye,AR Patel,0,0,na,"{'player_out': 'AR Patel', 'fielders': ['JC Buttler'], 'kind': 'caught'}"
1st innings,19.1,K Rabada,JC Archer,HV Patel,1,1,na,na
1st innings,19.2,HV Patel,JC Archer,K Rabada,0,0,na,na
1st innings,19.3,HV Patel,JC Archer,K Rabada,1,1,na,na
1st innings,19.4,K Rabada,JC Archer,HV Patel,0,0,na,"{'player_out': 'HV Patel', 'fielders': ['R Tewatia'], 'kind': 'caught'}"
1st innings,19.5,R Ashwin,JC Archer,K Rabada,1,1,na,na
1st innings,19.6,K Rabada,JC Archer,R Ashwin,0,0,na,na
2nd innings,0.1,JC Buttler,K Rabada,YBK Jaiswal,0,0,na,na
2nd innings,0.2,JC Buttler,K Rabada,YBK Jaiswal,1,1,na,na
2nd innings,0.3,YBK Jaiswal,K Rabada,JC Buttler,0,0,na,na
2nd innings,0.4,YBK Jaiswal,K Rabada,JC Buttler,4,4,na,na
2nd innings,0.5,YBK Jaiswal,K Rabada,JC Buttler,4,4,na,na
2nd innings,0.6,YBK Jaiswal,K Rabada,JC Buttler,1,1,na,na
2nd innings,1.1,YBK Jaiswal,A Nortje,JC Buttler,2,2,na,na
2nd innings,1.2,YBK Jaiswal,A Nortje,JC Buttler,1,1,na,na
2nd innings,1.3,JC Buttler,A Nortje,YBK Jaiswal,0,0,na,na
2nd innings,1.4,JC Buttler,A Nortje,YBK Jaiswal,0,0,na,na
2nd innings,1.5,JC Buttler,A Nortje,YBK Jaiswal,0,0,na,na
2nd innings,1.6,JC Buttler,A Nortje,YBK Jaiswal,0,0,na,na
2nd innings,2.1,YBK Jaiswal,R Ashwin,JC Buttler,1,1,na,na
2nd innings,2.2,JC Buttler,R Ashwin,YBK Jaiswal,1,1,na,na
2nd innings,2.3,YBK Jaiswal,R Ashwin,JC Buttler,0,0,na,"{'player_out': 'JC Buttler', 'fielders': ['S Dhawan'], 'kind': 'caught'}"
2nd innings,2.4,YBK Jaiswal,R Ashwin,SPD Smith,1,1,na,na
2nd innings,2.5,SPD Smith,R Ashwin,YBK Jaiswal,0,0,na,na
2nd innings,2.6,SPD Smith,R Ashwin,YBK Jaiswal,0,0,na,na
2nd innings,3.1,YBK Jaiswal,K Rabada,SPD Smith,1,0,{'wides': 1},na
2nd innings,3.2,YBK Jaiswal,K Rabada,SPD Smith,1,1,na,na
2nd innings,3.3,SPD Smith,K Rabada,YBK Jaiswal,0,0,na,na
2nd innings,3.4,SPD Smith,K Rabada,YBK Jaiswal,1,1,na,na
2nd innings,3.5,YBK Jaiswal,K Rabada,SPD Smith,1,0,{'wides': 1},na
2nd innings,3.6,YBK Jaiswal,K Rabada,SPD Smith,0,0,na,na
2nd innings,3.7,YBK Jaiswal,K Rabada,SPD Smith,6,6,na,na
2nd innings,3.8,YBK Jaiswal,K Rabada,SPD Smith,4,4,na,na
2nd innings,4.1,SPD Smith,R Ashwin,YBK Jaiswal,1,1,na,na
2nd innings,4.2,YBK Jaiswal,R Ashwin,SPD Smith,1,1,na,na
2nd innings,4.3,SPD Smith,R Ashwin,YBK Jaiswal,0,0,na,na
2nd innings,4.4,SPD Smith,R Ashwin,YBK Jaiswal,0,0,na,na
2nd innings,4.5,SPD Smith,R Ashwin,YBK Jaiswal,1,1,na,na
2nd innings,4.6,YBK Jaiswal,R Ashwin,SPD Smith,0,0,na,na
2nd innings,5.1,SPD Smith,HV Patel,YBK Jaiswal,0,0,na,na
2nd innings,5.2,SPD Smith,HV Patel,YBK Jaiswal,6,6,na,na
2nd innings,5.3,SPD Smith,HV Patel,YBK Jaiswal,1,1,na,na
2nd innings,5.4,YBK Jaiswal,HV Patel,SPD Smith,1,1,na,na
2nd innings,5.5,SPD Smith,HV Patel,YBK Jaiswal,0,0,na,na
2nd innings,5.6,SPD Smith,HV Patel,YBK Jaiswal,0,0,na,na
2nd innings,6.1,YBK Jaiswal,R Ashwin,SPD Smith,1,0,{'wides': 1},na
2nd innings,6.2,YBK Jaiswal,R Ashwin,SPD Smith,0,0,na,na
2nd innings,6.3,YBK Jaiswal,R Ashwin,SPD Smith,4,4,na,na
2nd innings,6.4,YBK Jaiswal,R Ashwin,SPD Smith,1,1,na,na
2nd innings,6.5,SPD Smith,R Ashwin,YBK Jaiswal,1,1,na,na
2nd innings,6.6,YBK Jaiswal,R Ashwin,SPD Smith,1,1,na,na
2nd innings,6.7,SPD Smith,R Ashwin,YBK Jaiswal,1,1,na,na
2nd innings,7.1,SPD Smith,HV Patel,YBK Jaiswal,1,1,na,na
2nd innings,7.2,YBK Jaiswal,HV Patel,SPD Smith,2,2,na,na
2nd innings,7.3,YBK Jaiswal,HV Patel,SPD Smith,1,1,na,na
2nd innings,7.4,SPD Smith,HV Patel,YBK Jaiswal,1,1,na,na
2nd innings,7.5,YBK Jaiswal,HV Patel,SPD Smith,0,0,na,na
2nd innings,7.6,YBK Jaiswal,HV Patel,SPD Smith,1,1,na,na
2nd innings,8.1,YBK Jaiswal,A Nortje,SPD Smith,0,0,na,"{'player_out': 'SPD Smith', 'fielders': ['SO Hetmyer'], 'kind': 'caught'}"
2nd innings,8.2,YBK Jaiswal,A Nortje,SV Samson,0,0,na,na
2nd innings,8.3,YBK Jaiswal,A Nortje,SV Samson,0,0,na,na
2nd innings,8.4,YBK Jaiswal,A Nortje,SV Samson,1,0,{'legbyes': 1},na
2nd innings,8.5,SV Samson,A Nortje,YBK Jaiswal,1,1,na,na
2nd innings,8.6,YBK Jaiswal,A Nortje,SV Samson,1,1,na,na
2nd innings,9.1,YBK Jaiswal,AR Patel,SV Samson,1,1,na,na
2nd innings,9.2,SV Samson,AR Patel,YBK Jaiswal,1,1,na,na
2nd innings,9.3,YBK Jaiswal,AR Patel,SV Samson,0,0,na,na
2nd innings,9.4,YBK Jaiswal,AR Patel,SV Samson,3,3,na,na
2nd innings,9.5,SV Samson,AR Patel,YBK Jaiswal,1,1,na,na
2nd innings,9.6,YBK Jaiswal,AR Patel,SV Samson,0,0,na,na
2nd innings,10.1,SV Samson,MP Stoinis,YBK Jaiswal,6,6,na,na
2nd innings,10.2,SV Samson,MP Stoinis,YBK Jaiswal,1,1,na,na
2nd innings,10.3,YBK Jaiswal,MP Stoinis,SV Samson,0,0,na,"{'player_out': 'SV Samson', 'fielders': ['SO Hetmyer'], 'kind': 'caught'}"
2nd innings,10.4,MK Lomror,MP Stoinis,YBK Jaiswal,1,1,na,na
2nd innings,10.5,YBK Jaiswal,MP Stoinis,MK Lomror,1,1,na,na
2nd innings,10.6,MK Lomror,MP Stoinis,YBK Jaiswal,1,1,na,na
2nd innings,11.1,MK Lomror,R Ashwin,YBK Jaiswal,1,1,na,na
2nd innings,11.2,YBK Jaiswal,R Ashwin,MK Lomror,0,0,na,"{'player_out': 'MK Lomror', 'fielders': ['AR Patel'], 'kind': 'caught'}"
2nd innings,11.3,YBK Jaiswal,R Ashwin,R Tewatia,1,1,na,na
2nd innings,11.4,R Tewatia,R Ashwin,YBK Jaiswal,4,4,na,na
2nd innings,11.5,R Tewatia,R Ashwin,YBK Jaiswal,0,0,na,na
2nd innings,11.6,R Tewatia,R Ashwin,YBK Jaiswal,1,1,na,na
2nd innings,12.1,R Tewatia,MP Stoinis,YBK Jaiswal,0,0,na,"{'player_out': 'YBK Jaiswal', 'kind': 'bowled'}"
2nd innings,12.2,R Tewatia,MP Stoinis,AJ Tye,0,0,na,na
2nd innings,12.3,R Tewatia,MP Stoinis,AJ Tye,0,0,na,na
2nd innings,12.4,R Tewatia,MP Stoinis,AJ Tye,0,0,na,na
2nd innings,12.5,R Tewatia,MP Stoinis,AJ Tye,6,6,na,na
2nd innings,12.6,R Tewatia,MP Stoinis,AJ Tye,1,0,{'wides': 1},na
2nd innings,12.7,R Tewatia,MP Stoinis,AJ Tye,0,0,na,na
2nd innings,13.1,AJ Tye,AR Patel,R Tewatia,0,0,na,na
2nd innings,13.2,AJ Tye,AR Patel,R Tewatia,0,0,na,na
2nd innings,13.3,AJ Tye,AR Patel,R Tewatia,0,0,na,na
2nd innings,13.4,AJ Tye,AR Patel,R Tewatia,1,1,na,na
2nd innings,13.5,R Tewatia,AR Patel,AJ Tye,0,0,na,"{'player_out': 'AJ Tye', 'fielders': ['K Rabada'], 'kind': 'caught'}"
2nd innings,13.6,R Tewatia,AR Patel,JC Archer,1,1,na,na
2nd innings,14.1,R Tewatia,K Rabada,JC Archer,1,1,na,na
2nd innings,14.2,JC Archer,K Rabada,R Tewatia,1,1,na,na
2nd innings,14.3,R Tewatia,K Rabada,JC Archer,2,0,"{'legbyes': 1, 'noballs': 1}",na
2nd innings,14.4,JC Archer,K Rabada,R Tewatia,4,4,na,na
2nd innings,14.5,JC Archer,K Rabada,R Tewatia,1,1,na,na
2nd innings,14.6,R Tewatia,K Rabada,JC Archer,0,0,na,"{'player_out': 'JC Archer', 'fielders': ['SS Iyer'], 'kind': 'caught'}"
2nd innings,14.7,S Gopal,K Rabada,R Tewatia,1,1,na,na
2nd innings,15.1,S Gopal,HV Patel,R Tewatia,0,0,na,na
2nd innings,15.2,S Gopal,HV Patel,R Tewatia,1,1,na,na
2nd innings,15.3,R Tewatia,HV Patel,S Gopal,1,0,{'wides': 1},na
2nd innings,15.4,R Tewatia,HV Patel,S Gopal,1,1,na,na
2nd innings,15.5,S Gopal,HV Patel,R Tewatia,0,0,na,na
2nd innings,15.6,S Gopal,HV Patel,R Tewatia,2,2,na,na
2nd innings,15.7,S Gopal,HV Patel,R Tewatia,1,1,na,na
2nd innings,16.1,S Gopal,A Nortje,R Tewatia,0,0,na,na
2nd innings,16.2,S Gopal,A Nortje,R Tewatia,6,6,na,na
2nd innings,16.3,S Gopal,A Nortje,R Tewatia,4,4,na,na
2nd innings,16.4,S Gopal,A Nortje,R Tewatia,1,1,na,na
2nd innings,16.5,R Tewatia,A Nortje,S Gopal,1,1,na,na
2nd innings,16.6,S Gopal,A Nortje,R Tewatia,1,1,na,na
2nd innings,17.1,S Gopal,HV Patel,R Tewatia,1,1,na,na
2nd innings,17.2,R Tewatia,HV Patel,S Gopal,0,0,na,"{'player_out': 'S Gopal', 'fielders': ['SO Hetmyer'], 'kind': 'caught'}"
2nd innings,17.3,R Tewatia,HV Patel,Kartik Tyagi,1,1,na,na
2nd innings,17.4,Kartik Tyagi,HV Patel,R Tewatia,6,6,na,na
2nd innings,17.5,Kartik Tyagi,HV Patel,R Tewatia,1,1,na,na
2nd innings,17.6,R Tewatia,HV Patel,Kartik Tyagi,0,0,na,na
2nd innings,18.1,Kartik Tyagi,A Nortje,R Tewatia,0,0,na,na
2nd innings,18.2,Kartik Tyagi,A Nortje,R Tewatia,0,0,na,na
2nd innings,18.3,Kartik Tyagi,A Nortje,R Tewatia,1,0,{'wides': 1},na
2nd innings,18.4,Kartik Tyagi,A Nortje,R Tewatia,0,0,na,na
2nd innings,18.5,Kartik Tyagi,A Nortje,R Tewatia,1,0,{'wides': 1},na
2nd innings,18.6,Kartik Tyagi,A Nortje,R Tewatia,0,0,na,na
2nd innings,18.7,Kartik Tyagi,A Nortje,R Tewatia,4,4,na,na
2nd innings,18.8,Kartik Tyagi,A Nortje,R Tewatia,1,1,na,na
2nd innings,19.1,Kartik Tyagi,K Rabada,R Tewatia,0,0,na,"{'player_out': 'R Tewatia', 'kind': 'bowled'}"
2nd innings,19.2,Kartik Tyagi,K Rabada,VR Aaron,1,1,na,na
2nd innings,19.3,VR Aaron,K Rabada,Kartik Tyagi,1,1,na,na
2nd innings,19.4,Kartik Tyagi,K Rabada,VR Aaron,0,0,na,"{'player_out': 'VR Aaron', 'fielders': ['RR Pant'], 'kind': 'caught'}"
