innings,deliveries,non_striker,bowler,batsman,total_runs,batsman_runs,extras,wickets
1st innings,0.1,MA Agarwal,C Sakariya,KL Rahul,0,0,na,na
1st innings,0.2,MA Agarwal,C Sakariya,KL Rahul,1,1,na,na
1st innings,0.3,KL Rahul,C Sakariya,MA Agarwal,4,4,na,na
1st innings,0.4,KL Rahul,C Sakariya,MA Agarwal,0,0,na,na
1st innings,0.5,KL Rahul,C Sakariya,MA Agarwal,1,1,na,na
1st innings,0.6,MA Agarwal,C Sakariya,KL Rahul,4,4,na,na
1st innings,1.1,KL Rahul,Mustafizur Rahman,MA Agarwal,2,2,na,na
1st innings,1.2,KL Rahul,Mustafizur Rahman,MA Agarwal,0,0,na,na
1st innings,1.3,KL Rahul,Mustafizur Rahman,MA Agarwal,1,1,na,na
1st innings,1.4,MA Agarwal,Mustafizur Rahman,KL Rahul,1,1,na,na
1st innings,1.5,KL Rahul,Mustafizur Rahman,MA Agarwal,1,0,{'wides': 1},na
1st innings,1.6,KL Rahul,Mustafizur Rahman,MA Agarwal,2,2,na,na
1st innings,1.7,KL Rahul,Mustafizur Rahman,MA Agarwal,4,4,na,na
1st innings,2.1,MA Agarwal,C Sakariya,KL Rahul,0,0,na,na
1st innings,2.2,MA Agarwal,C Sakariya,KL Rahul,0,0,na,na
1st innings,2.3,MA Agarwal,C Sakariya,KL Rahul,1,1,na,na
1st innings,2.4,KL Rahul,C Sakariya,MA Agarwal,0,0,na,"{'player_out': 'MA Agarwal', 'fielders': ['SV Samson'], 'kind': 'caught'}"
1st innings,2.5,KL Rahul,C Sakariya,CH Gayle,0,0,na,na
1st innings,2.6,KL Rahul,C Sakariya,CH Gayle,0,0,na,na
1st innings,3.1,CH Gayle,CH Morris,KL Rahul,4,4,na,na
1st innings,3.2,CH Gayle,CH Morris,KL Rahul,2,2,na,na
1st innings,3.3,CH Gayle,CH Morris,KL Rahul,0,0,na,na
1st innings,3.4,CH Gayle,CH Morris,KL Rahul,0,0,na,na
1st innings,3.5,CH Gayle,CH Morris,KL Rahul,1,0,{'wides': 1},na
1st innings,3.6,CH Gayle,CH Morris,KL Rahul,1,1,na,na
1st innings,3.7,KL Rahul,CH Morris,CH Gayle,1,1,na,na
1st innings,4.1,KL Rahul,Mustafizur Rahman,CH Gayle,0,0,na,na
1st innings,4.2,KL Rahul,Mustafizur Rahman,CH Gayle,1,1,na,na
1st innings,4.3,CH Gayle,Mustafizur Rahman,KL Rahul,1,1,na,na
1st innings,4.4,KL Rahul,Mustafizur Rahman,CH Gayle,1,0,{'wides': 1},na
1st innings,4.5,KL Rahul,Mustafizur Rahman,CH Gayle,4,4,na,na
1st innings,4.6,KL Rahul,Mustafizur Rahman,CH Gayle,0,0,na,na
1st innings,4.7,KL Rahul,Mustafizur Rahman,CH Gayle,1,1,na,na
1st innings,5.1,KL Rahul,CH Morris,CH Gayle,0,0,na,na
1st innings,5.2,KL Rahul,CH Morris,CH Gayle,0,0,na,na
1st innings,5.3,KL Rahul,CH Morris,CH Gayle,2,2,na,na
1st innings,5.4,KL Rahul,CH Morris,CH Gayle,0,0,na,na
1st innings,5.5,KL Rahul,CH Morris,CH Gayle,4,4,na,na
1st innings,5.6,KL Rahul,CH Morris,CH Gayle,1,1,na,na
1st innings,6.1,KL Rahul,S Gopal,CH Gayle,1,1,na,na
1st innings,6.2,CH Gayle,S Gopal,KL Rahul,0,0,na,na
1st innings,6.3,CH Gayle,S Gopal,KL Rahul,4,4,na,na
1st innings,6.4,CH Gayle,S Gopal,KL Rahul,1,1,na,na
1st innings,6.5,KL Rahul,S Gopal,CH Gayle,4,4,na,na
1st innings,6.6,KL Rahul,S Gopal,CH Gayle,2,2,na,na
1st innings,7.1,CH Gayle,BA Stokes,KL Rahul,4,4,na,na
1st innings,7.2,CH Gayle,BA Stokes,KL Rahul,1,1,na,na
1st innings,7.3,KL Rahul,BA Stokes,CH Gayle,6,6,na,na
1st innings,7.4,KL Rahul,BA Stokes,CH Gayle,0,0,na,na
1st innings,7.5,KL Rahul,BA Stokes,CH Gayle,0,0,na,na
1st innings,7.6,KL Rahul,BA Stokes,CH Gayle,1,1,na,na
1st innings,8.1,KL Rahul,R Tewatia,CH Gayle,1,1,na,na
1st innings,8.2,CH Gayle,R Tewatia,KL Rahul,1,1,na,na
1st innings,8.3,KL Rahul,R Tewatia,CH Gayle,0,0,na,na
1st innings,8.4,KL Rahul,R Tewatia,CH Gayle,4,4,na,na
1st innings,8.5,KL Rahul,R Tewatia,CH Gayle,0,0,na,na
1st innings,8.6,KL Rahul,R Tewatia,CH Gayle,6,6,na,na
1st innings,9.1,CH Gayle,R Parag,KL Rahul,4,4,na,na
1st innings,9.2,CH Gayle,R Parag,KL Rahul,1,1,na,na
1st innings,9.3,KL Rahul,R Parag,CH Gayle,1,1,na,na
1st innings,9.4,CH Gayle,R Parag,KL Rahul,1,1,na,na
1st innings,9.5,KL Rahul,R Parag,CH Gayle,0,0,na,"{'player_out': 'CH Gayle', 'fielders': ['BA Stokes'], 'kind': 'caught'}"
1st innings,9.6,KL Rahul,R Parag,DJ Hooda,0,0,na,na
1st innings,10.1,DJ Hooda,R Tewatia,KL Rahul,2,2,na,na
1st innings,10.2,DJ Hooda,R Tewatia,KL Rahul,1,1,na,na
1st innings,10.3,KL Rahul,R Tewatia,DJ Hooda,1,1,na,na
1st innings,10.4,DJ Hooda,R Tewatia,KL Rahul,2,2,na,na
1st innings,10.5,DJ Hooda,R Tewatia,KL Rahul,6,6,na,na
1st innings,10.6,DJ Hooda,R Tewatia,KL Rahul,1,1,na,na
1st innings,11.1,DJ Hooda,S Gopal,KL Rahul,1,1,na,na
1st innings,11.2,KL Rahul,S Gopal,DJ Hooda,1,1,na,na
1st innings,11.3,DJ Hooda,S Gopal,KL Rahul,1,1,na,na
1st innings,11.4,KL Rahul,S Gopal,DJ Hooda,0,0,na,na
1st innings,11.5,KL Rahul,S Gopal,DJ Hooda,4,4,na,na
1st innings,11.6,KL Rahul,S Gopal,DJ Hooda,1,1,na,na
1st innings,12.1,KL Rahul,S Dube,DJ Hooda,1,1,na,na
1st innings,12.2,DJ Hooda,S Dube,KL Rahul,6,6,na,na
1st innings,12.3,DJ Hooda,S Dube,KL Rahul,1,1,na,na
1st innings,12.4,KL Rahul,S Dube,DJ Hooda,6,6,na,na
1st innings,12.5,KL Rahul,S Dube,DJ Hooda,0,0,na,na
1st innings,12.6,KL Rahul,S Dube,DJ Hooda,6,6,na,na
1st innings,13.1,DJ Hooda,S Gopal,KL Rahul,1,1,na,na
1st innings,13.2,KL Rahul,S Gopal,DJ Hooda,6,6,na,na
1st innings,13.3,KL Rahul,S Gopal,DJ Hooda,6,6,na,na
1st innings,13.4,KL Rahul,S Gopal,DJ Hooda,0,0,na,na
1st innings,13.5,KL Rahul,S Gopal,DJ Hooda,6,6,na,na
1st innings,13.6,KL Rahul,S Gopal,DJ Hooda,1,1,na,na
1st innings,14.1,KL Rahul,Mustafizur Rahman,DJ Hooda,1,1,na,na
1st innings,14.2,DJ Hooda,Mustafizur Rahman,KL Rahul,2,2,na,na
1st innings,14.3,DJ Hooda,Mustafizur Rahman,KL Rahul,0,0,na,na
1st innings,14.4,DJ Hooda,Mustafizur Rahman,KL Rahul,6,6,na,na
1st innings,14.5,DJ Hooda,Mustafizur Rahman,KL Rahul,1,1,na,na
1st innings,14.6,KL Rahul,Mustafizur Rahman,DJ Hooda,1,1,na,na
1st innings,15.1,KL Rahul,CH Morris,DJ Hooda,6,6,na,na
1st innings,15.2,KL Rahul,CH Morris,DJ Hooda,2,2,na,na
1st innings,15.3,KL Rahul,CH Morris,DJ Hooda,1,1,na,na
1st innings,15.4,DJ Hooda,CH Morris,KL Rahul,0,0,na,na
1st innings,15.5,DJ Hooda,CH Morris,KL Rahul,1,1,na,na
1st innings,15.6,KL Rahul,CH Morris,DJ Hooda,1,1,na,na
1st innings,16.1,KL Rahul,C Sakariya,DJ Hooda,0,0,na,na
1st innings,16.2,KL Rahul,C Sakariya,DJ Hooda,1,1,na,na
1st innings,16.3,DJ Hooda,C Sakariya,KL Rahul,1,1,na,na
1st innings,16.4,KL Rahul,C Sakariya,DJ Hooda,0,0,na,na
1st innings,16.5,KL Rahul,C Sakariya,DJ Hooda,4,4,na,na
1st innings,16.6,KL Rahul,C Sakariya,DJ Hooda,5,4,{'noballs': 1},na
1st innings,16.7,KL Rahul,C Sakariya,DJ Hooda,4,4,na,na
1st innings,17.1,DJ Hooda,CH Morris,KL Rahul,6,6,na,na
1st innings,17.2,DJ Hooda,CH Morris,KL Rahul,1,1,na,na
1st innings,17.3,KL Rahul,CH Morris,DJ Hooda,0,0,na,"{'player_out': 'DJ Hooda', 'fielders': ['R Parag'], 'kind': 'caught'}"
1st innings,17.4,N Pooran,CH Morris,KL Rahul,6,6,na,na
1st innings,17.5,N Pooran,CH Morris,KL Rahul,1,1,na,na
1st innings,17.6,KL Rahul,CH Morris,N Pooran,0,0,na,"{'player_out': 'N Pooran', 'fielders': ['C Sakariya'], 'kind': 'caught'}"
1st innings,18.1,M Shahrukh Khan,Mustafizur Rahman,KL Rahul,1,1,na,na
1st innings,18.2,KL Rahul,Mustafizur Rahman,M Shahrukh Khan,1,1,na,na
1st innings,18.3,M Shahrukh Khan,Mustafizur Rahman,KL Rahul,1,0,{'noballs': 1},na
1st innings,18.4,M Shahrukh Khan,Mustafizur Rahman,KL Rahul,1,0,{'wides': 1},na
1st innings,18.5,M Shahrukh Khan,Mustafizur Rahman,KL Rahul,4,4,na,na
1st innings,18.6,M Shahrukh Khan,Mustafizur Rahman,KL Rahul,2,2,na,na
1st innings,18.7,M Shahrukh Khan,Mustafizur Rahman,KL Rahul,1,1,na,na
1st innings,18.8,KL Rahul,Mustafizur Rahman,M Shahrukh Khan,4,4,na,na
1st innings,19.1,M Shahrukh Khan,C Sakariya,KL Rahul,4,4,na,na
1st innings,19.2,M Shahrukh Khan,C Sakariya,KL Rahul,0,0,na,"{'player_out': 'KL Rahul', 'fielders': ['R Tewatia'], 'kind': 'caught'}"
1st innings,19.3,JA Richardson,C Sakariya,M Shahrukh Khan,0,0,na,na
1st innings,19.4,JA Richardson,C Sakariya,M Shahrukh Khan,1,1,na,na
1st innings,19.5,M Shahrukh Khan,C Sakariya,JA Richardson,0,0,na,na
1st innings,19.6,M Shahrukh Khan,C Sakariya,JA Richardson,0,0,na,"{'player_out': 'JA Richardson', 'fielders': ['CH Morris'], 'kind': 'caught'}"
2nd innings,0.1,M Vohra,Mohammed Shami,BA Stokes,0,0,na,na
2nd innings,0.2,M Vohra,Mohammed Shami,BA Stokes,0,0,na,na
2nd innings,0.3,M Vohra,Mohammed Shami,BA Stokes,0,0,na,"{'player_out': 'BA Stokes', 'kind': 'caught and bowled'}"
2nd innings,0.4,M Vohra,Mohammed Shami,SV Samson,0,0,na,na
2nd innings,0.5,M Vohra,Mohammed Shami,SV Samson,4,4,na,na
2nd innings,0.6,M Vohra,Mohammed Shami,SV Samson,0,0,na,na
2nd innings,1.1,SV Samson,JA Richardson,M Vohra,1,0,{'wides': 1},na
2nd innings,1.2,SV Samson,JA Richardson,M Vohra,6,6,na,na
2nd innings,1.3,SV Samson,JA Richardson,M Vohra,0,0,na,na
2nd innings,1.4,SV Samson,JA Richardson,M Vohra,0,0,na,na
2nd innings,1.5,SV Samson,JA Richardson,M Vohra,4,4,na,na
2nd innings,1.6,SV Samson,JA Richardson,M Vohra,0,0,na,na
2nd innings,1.7,SV Samson,JA Richardson,M Vohra,2,2,na,na
2nd innings,2.1,M Vohra,Mohammed Shami,SV Samson,0,0,na,na
2nd innings,2.2,M Vohra,Mohammed Shami,SV Samson,0,0,na,na
2nd innings,2.3,M Vohra,Mohammed Shami,SV Samson,0,0,na,na
2nd innings,2.4,M Vohra,Mohammed Shami,SV Samson,4,4,na,na
2nd innings,2.5,M Vohra,Mohammed Shami,SV Samson,0,0,na,na
2nd innings,2.6,M Vohra,Mohammed Shami,SV Samson,4,4,na,na
2nd innings,3.1,SV Samson,Arshdeep Singh,M Vohra,0,0,na,na
2nd innings,3.2,SV Samson,Arshdeep Singh,M Vohra,0,0,na,"{'player_out': 'M Vohra', 'kind': 'caught and bowled'}"
2nd innings,3.3,SV Samson,Arshdeep Singh,JC Buttler,1,1,na,na
2nd innings,3.4,JC Buttler,Arshdeep Singh,SV Samson,0,0,na,na
2nd innings,3.5,JC Buttler,Arshdeep Singh,SV Samson,0,0,na,na
2nd innings,3.6,JC Buttler,Arshdeep Singh,SV Samson,4,4,na,na
2nd innings,4.1,SV Samson,RP Meredith,JC Buttler,4,4,na,na
2nd innings,4.2,SV Samson,RP Meredith,JC Buttler,4,4,na,na
2nd innings,4.3,SV Samson,RP Meredith,JC Buttler,4,4,na,na
2nd innings,4.4,SV Samson,RP Meredith,JC Buttler,4,4,na,na
2nd innings,4.5,SV Samson,RP Meredith,JC Buttler,1,1,na,na
2nd innings,4.6,JC Buttler,RP Meredith,SV Samson,1,1,na,na
2nd innings,5.1,JC Buttler,Arshdeep Singh,SV Samson,4,4,na,na
2nd innings,5.2,JC Buttler,Arshdeep Singh,SV Samson,1,1,na,na
2nd innings,5.3,SV Samson,Arshdeep Singh,JC Buttler,0,0,na,na
2nd innings,5.4,SV Samson,Arshdeep Singh,JC Buttler,1,1,na,na
2nd innings,5.5,JC Buttler,Arshdeep Singh,SV Samson,4,4,na,na
2nd innings,5.6,JC Buttler,Arshdeep Singh,SV Samson,1,1,na,na
2nd innings,6.1,JC Buttler,M Ashwin,SV Samson,2,1,{'noballs': 1},na
2nd innings,6.2,SV Samson,M Ashwin,JC Buttler,4,4,na,na
2nd innings,6.3,SV Samson,M Ashwin,JC Buttler,1,1,na,na
2nd innings,6.4,JC Buttler,M Ashwin,SV Samson,0,0,na,na
2nd innings,6.5,JC Buttler,M Ashwin,SV Samson,0,0,na,na
2nd innings,6.6,JC Buttler,M Ashwin,SV Samson,1,0,{'legbyes': 1},na
2nd innings,6.7,SV Samson,M Ashwin,JC Buttler,1,0,{'legbyes': 1},na
2nd innings,7.1,SV Samson,JA Richardson,JC Buttler,1,1,na,na
2nd innings,7.2,JC Buttler,JA Richardson,SV Samson,1,1,na,na
2nd innings,7.3,SV Samson,JA Richardson,JC Buttler,0,0,na,"{'player_out': 'JC Buttler', 'kind': 'bowled'}"
2nd innings,7.4,SV Samson,JA Richardson,S Dube,4,4,na,na
2nd innings,7.5,SV Samson,JA Richardson,S Dube,2,2,na,na
2nd innings,7.6,SV Samson,JA Richardson,S Dube,2,2,na,na
2nd innings,8.1,S Dube,RP Meredith,SV Samson,6,6,na,na
2nd innings,8.2,S Dube,RP Meredith,SV Samson,0,0,na,na
2nd innings,8.3,S Dube,RP Meredith,SV Samson,1,1,na,na
2nd innings,8.4,SV Samson,RP Meredith,S Dube,0,0,na,na
2nd innings,8.5,SV Samson,RP Meredith,S Dube,1,1,na,na
2nd innings,8.6,S Dube,RP Meredith,SV Samson,1,1,na,na
2nd innings,9.1,S Dube,M Ashwin,SV Samson,1,1,na,na
2nd innings,9.2,SV Samson,M Ashwin,S Dube,1,1,na,na
2nd innings,9.3,S Dube,M Ashwin,SV Samson,1,0,{'wides': 1},na
2nd innings,9.4,S Dube,M Ashwin,SV Samson,1,0,{'wides': 1},na
2nd innings,9.5,S Dube,M Ashwin,SV Samson,1,1,na,na
2nd innings,9.6,SV Samson,M Ashwin,S Dube,1,1,na,na
2nd innings,9.7,S Dube,M Ashwin,SV Samson,0,0,na,na
2nd innings,9.8,S Dube,M Ashwin,SV Samson,2,2,na,na
2nd innings,10.1,SV Samson,RP Meredith,S Dube,1,1,na,na
2nd innings,10.2,S Dube,RP Meredith,SV Samson,6,6,na,na
2nd innings,10.3,S Dube,RP Meredith,SV Samson,2,2,na,na
2nd innings,10.4,S Dube,RP Meredith,SV Samson,4,4,na,na
2nd innings,10.5,S Dube,RP Meredith,SV Samson,0,0,na,na
2nd innings,10.6,S Dube,RP Meredith,SV Samson,1,1,na,na
2nd innings,11.1,S Dube,M Ashwin,SV Samson,1,1,na,na
2nd innings,11.2,SV Samson,M Ashwin,S Dube,0,0,na,na
2nd innings,11.3,SV Samson,M Ashwin,S Dube,4,4,na,na
2nd innings,11.4,SV Samson,M Ashwin,S Dube,1,1,na,na
2nd innings,11.5,S Dube,M Ashwin,SV Samson,1,1,na,na
2nd innings,11.6,SV Samson,M Ashwin,S Dube,1,1,na,na
2nd innings,12.1,SV Samson,Arshdeep Singh,S Dube,4,4,na,na
2nd innings,12.2,SV Samson,Arshdeep Singh,S Dube,1,1,na,na
2nd innings,12.3,S Dube,Arshdeep Singh,SV Samson,1,1,na,na
2nd innings,12.4,SV Samson,Arshdeep Singh,S Dube,0,0,na,"{'player_out': 'S Dube', 'fielders': ['DJ Hooda'], 'kind': 'caught'}"
2nd innings,12.5,R Parag,Arshdeep Singh,SV Samson,1,1,na,na
2nd innings,12.6,SV Samson,Arshdeep Singh,R Parag,4,4,na,na
2nd innings,13.1,R Parag,Mohammed Shami,SV Samson,0,0,na,na
2nd innings,13.2,R Parag,Mohammed Shami,SV Samson,4,4,na,na
2nd innings,13.3,R Parag,Mohammed Shami,SV Samson,1,1,na,na
2nd innings,13.4,SV Samson,Mohammed Shami,R Parag,6,6,na,na
2nd innings,13.5,SV Samson,Mohammed Shami,R Parag,1,1,na,na
2nd innings,13.6,R Parag,Mohammed Shami,SV Samson,1,1,na,na
2nd innings,14.1,R Parag,JA Richardson,SV Samson,1,1,na,na
2nd innings,14.2,SV Samson,JA Richardson,R Parag,1,1,na,na
2nd innings,14.3,R Parag,JA Richardson,SV Samson,4,4,na,na
2nd innings,14.4,R Parag,JA Richardson,SV Samson,6,6,na,na
2nd innings,14.5,R Parag,JA Richardson,SV Samson,1,1,na,na
2nd innings,14.6,SV Samson,JA Richardson,R Parag,0,0,na,na
2nd innings,15.1,R Parag,M Ashwin,SV Samson,6,6,na,na
2nd innings,15.2,R Parag,M Ashwin,SV Samson,1,1,na,na
2nd innings,15.3,SV Samson,M Ashwin,R Parag,0,0,na,na
2nd innings,15.4,SV Samson,M Ashwin,R Parag,6,6,na,na
2nd innings,15.5,SV Samson,M Ashwin,R Parag,6,6,na,na
2nd innings,15.6,SV Samson,M Ashwin,R Parag,1,1,na,na
2nd innings,16.1,SV Samson,Mohammed Shami,R Parag,1,0,{'wides': 1},na
2nd innings,16.2,SV Samson,Mohammed Shami,R Parag,0,0,na,na
2nd innings,16.3,SV Samson,Mohammed Shami,R Parag,0,0,na,"{'player_out': 'R Parag', 'fielders': ['KL Rahul'], 'kind': 'caught'}"
2nd innings,16.4,SV Samson,Mohammed Shami,R Tewatia,0,0,na,na
2nd innings,16.5,SV Samson,Mohammed Shami,R Tewatia,1,0,{'wides': 1},na
2nd innings,16.6,SV Samson,Mohammed Shami,R Tewatia,1,1,na,na
2nd innings,16.7,R Tewatia,Mohammed Shami,SV Samson,4,4,na,na
2nd innings,16.8,R Tewatia,Mohammed Shami,SV Samson,1,1,na,na
2nd innings,17.1,R Tewatia,JA Richardson,SV Samson,4,4,na,na
2nd innings,17.2,R Tewatia,JA Richardson,SV Samson,6,6,na,na
2nd innings,17.3,R Tewatia,JA Richardson,SV Samson,4,4,na,na
2nd innings,17.4,R Tewatia,JA Richardson,SV Samson,2,2,na,na
2nd innings,17.5,R Tewatia,JA Richardson,SV Samson,1,0,{'wides': 1},na
2nd innings,17.6,R Tewatia,JA Richardson,SV Samson,1,1,na,na
2nd innings,17.7,SV Samson,JA Richardson,R Tewatia,1,1,na,na
2nd innings,18.1,SV Samson,RP Meredith,R Tewatia,0,0,na,"{'player_out': 'R Tewatia', 'fielders': ['KL Rahul'], 'kind': 'caught'}"
2nd innings,18.2,SV Samson,RP Meredith,CH Morris,0,0,na,na
2nd innings,18.3,SV Samson,RP Meredith,CH Morris,1,1,na,na
2nd innings,18.4,CH Morris,RP Meredith,SV Samson,6,6,na,na
2nd innings,18.5,CH Morris,RP Meredith,SV Samson,1,1,na,na
2nd innings,18.6,SV Samson,RP Meredith,CH Morris,0,0,na,na
2nd innings,19.1,CH Morris,Arshdeep Singh,SV Samson,0,0,na,na
2nd innings,19.2,CH Morris,Arshdeep Singh,SV Samson,1,1,na,na
2nd innings,19.3,SV Samson,Arshdeep Singh,CH Morris,1,1,na,na
2nd innings,19.4,CH Morris,Arshdeep Singh,SV Samson,6,6,na,na
2nd innings,19.5,CH Morris,Arshdeep Singh,SV Samson,0,0,na,na
2nd innings,19.6,CH Morris,Arshdeep Singh,SV Samson,0,0,na,"{'player_out': 'SV Samson', 'fielders': ['DJ Hooda'], 'kind': 'caught'}"
