innings,deliveries,non_striker,bowler,batsman,total_runs,batsman_runs,extras,wickets
1st innings,0.1,Q de Kock,MP Stoinis,RG Sharma,0,0,na,na
1st innings,0.2,Q de Kock,MP Stoinis,RG Sharma,1,1,na,na
1st innings,0.3,RG Sharma,MP Stoinis,Q de Kock,1,1,na,na
1st innings,0.4,Q de Kock,MP Stoinis,RG Sharma,2,2,na,na
1st innings,0.5,Q de Kock,MP Stoinis,RG Sharma,0,0,na,na
1st innings,0.6,Q de Kock,MP Stoinis,RG Sharma,2,2,na,na
1st innings,1.1,RG Sharma,R Ashwin,Q de Kock,1,0,{'legbyes': 1},na
1st innings,1.2,Q de Kock,R Ashwin,RG Sharma,0,0,na,na
1st innings,1.3,Q de Kock,R Ashwin,RG Sharma,0,0,na,na
1st innings,1.4,Q de Kock,R Ashwin,RG Sharma,0,0,na,na
1st innings,1.5,Q de Kock,R Ashwin,RG Sharma,1,1,na,na
1st innings,1.6,RG Sharma,R Ashwin,Q de Kock,1,1,na,na
1st innings,2.1,RG Sharma,MP Stoinis,Q de Kock,0,0,na,"{'player_out': 'Q de Kock', 'fielders': ['RR Pant'], 'kind': 'caught'}"
1st innings,2.2,RG Sharma,MP Stoinis,SA Yadav,1,1,na,na
1st innings,2.3,SA Yadav,MP Stoinis,RG Sharma,1,1,na,na
1st innings,2.4,RG Sharma,MP Stoinis,SA Yadav,0,0,na,na
1st innings,2.5,RG Sharma,MP Stoinis,SA Yadav,1,1,na,na
1st innings,2.6,SA Yadav,MP Stoinis,RG Sharma,4,4,na,na
1st innings,3.1,RG Sharma,R Ashwin,SA Yadav,4,4,na,na
1st innings,3.2,RG Sharma,R Ashwin,SA Yadav,0,0,na,na
1st innings,3.3,RG Sharma,R Ashwin,SA Yadav,1,1,na,na
1st innings,3.4,SA Yadav,R Ashwin,RG Sharma,4,4,na,na
1st innings,3.5,SA Yadav,R Ashwin,RG Sharma,0,0,na,na
1st innings,3.6,SA Yadav,R Ashwin,RG Sharma,6,6,na,na
1st innings,4.1,RG Sharma,K Rabada,SA Yadav,0,0,na,na
1st innings,4.2,RG Sharma,K Rabada,SA Yadav,4,4,na,na
1st innings,4.3,RG Sharma,K Rabada,SA Yadav,3,3,na,na
1st innings,4.4,SA Yadav,K Rabada,RG Sharma,0,0,na,na
1st innings,4.5,SA Yadav,K Rabada,RG Sharma,6,6,na,na
1st innings,4.6,SA Yadav,K Rabada,RG Sharma,1,1,na,na
1st innings,5.1,SA Yadav,A Mishra,RG Sharma,1,1,na,na
1st innings,5.2,RG Sharma,A Mishra,SA Yadav,0,0,na,na
1st innings,5.3,RG Sharma,A Mishra,SA Yadav,4,4,na,na
1st innings,5.4,RG Sharma,A Mishra,SA Yadav,4,4,na,na
1st innings,5.5,RG Sharma,A Mishra,SA Yadav,1,1,na,na
1st innings,5.6,SA Yadav,A Mishra,RG Sharma,0,0,na,na
1st innings,6.1,RG Sharma,Avesh Khan,SA Yadav,1,1,na,na
1st innings,6.2,SA Yadav,Avesh Khan,RG Sharma,4,0,{'legbyes': 4},na
1st innings,6.3,SA Yadav,Avesh Khan,RG Sharma,0,0,na,na
1st innings,6.4,SA Yadav,Avesh Khan,RG Sharma,6,6,na,na
1st innings,6.5,SA Yadav,Avesh Khan,RG Sharma,1,1,na,na
1st innings,6.6,RG Sharma,Avesh Khan,SA Yadav,0,0,na,"{'player_out': 'SA Yadav', 'fielders': ['RR Pant'], 'kind': 'caught'}"
1st innings,7.1,Ishan Kishan,Lalit Yadav,RG Sharma,1,1,na,na
1st innings,7.2,RG Sharma,Lalit Yadav,Ishan Kishan,0,0,na,na
1st innings,7.3,RG Sharma,Lalit Yadav,Ishan Kishan,1,1,na,na
1st innings,7.4,Ishan Kishan,Lalit Yadav,RG Sharma,0,0,na,na
1st innings,7.5,Ishan Kishan,Lalit Yadav,RG Sharma,1,1,na,na
1st innings,7.6,RG Sharma,Lalit Yadav,Ishan Kishan,0,0,na,na
1st innings,8.1,Ishan Kishan,A Mishra,RG Sharma,2,2,na,na
1st innings,8.2,Ishan Kishan,A Mishra,RG Sharma,4,4,na,na
1st innings,8.3,Ishan Kishan,A Mishra,RG Sharma,0,0,na,na
1st innings,8.4,Ishan Kishan,A Mishra,RG Sharma,0,0,na,"{'player_out': 'RG Sharma', 'fielders': ['SPD Smith'], 'kind': 'caught'}"
1st innings,8.5,HH Pandya,A Mishra,Ishan Kishan,1,1,na,na
1st innings,8.6,Ishan Kishan,A Mishra,HH Pandya,0,0,na,"{'player_out': 'HH Pandya', 'fielders': ['SPD Smith'], 'kind': 'caught'}"
1st innings,9.1,KH Pandya,R Ashwin,Ishan Kishan,0,0,na,na
1st innings,9.2,KH Pandya,R Ashwin,Ishan Kishan,0,0,na,na
1st innings,9.3,KH Pandya,R Ashwin,Ishan Kishan,1,1,na,na
1st innings,9.4,Ishan Kishan,R Ashwin,KH Pandya,0,0,na,na
1st innings,9.5,Ishan Kishan,R Ashwin,KH Pandya,0,0,na,na
1st innings,9.6,Ishan Kishan,R Ashwin,KH Pandya,0,0,na,na
1st innings,10.1,KH Pandya,Lalit Yadav,Ishan Kishan,1,1,na,na
1st innings,10.2,Ishan Kishan,Lalit Yadav,KH Pandya,1,1,na,na
1st innings,10.3,KH Pandya,Lalit Yadav,Ishan Kishan,1,1,na,na
1st innings,10.4,Ishan Kishan,Lalit Yadav,KH Pandya,0,0,na,"{'player_out': 'KH Pandya', 'kind': 'bowled'}"
1st innings,10.5,Ishan Kishan,Lalit Yadav,KA Pollard,0,0,na,na
1st innings,10.6,Ishan Kishan,Lalit Yadav,KA Pollard,1,1,na,na
1st innings,11.1,Ishan Kishan,A Mishra,KA Pollard,0,0,na,na
1st innings,11.2,Ishan Kishan,A Mishra,KA Pollard,1,1,na,na
1st innings,11.3,KA Pollard,A Mishra,Ishan Kishan,0,0,na,na
1st innings,11.4,KA Pollard,A Mishra,Ishan Kishan,1,1,na,na
1st innings,11.5,Ishan Kishan,A Mishra,KA Pollard,0,0,na,"{'player_out': 'KA Pollard', 'kind': 'lbw'}"
1st innings,11.6,Ishan Kishan,A Mishra,J Yadav,0,0,na,na
1st innings,12.1,J Yadav,Lalit Yadav,Ishan Kishan,1,1,na,na
1st innings,12.2,Ishan Kishan,Lalit Yadav,J Yadav,1,1,na,na
1st innings,12.3,J Yadav,Lalit Yadav,Ishan Kishan,1,1,na,na
1st innings,12.4,Ishan Kishan,Lalit Yadav,J Yadav,1,1,na,na
1st innings,12.5,J Yadav,Lalit Yadav,Ishan Kishan,0,0,na,na
1st innings,12.6,J Yadav,Lalit Yadav,Ishan Kishan,1,1,na,na
1st innings,13.1,J Yadav,MP Stoinis,Ishan Kishan,1,1,na,na
1st innings,13.2,Ishan Kishan,MP Stoinis,J Yadav,4,4,na,na
1st innings,13.3,Ishan Kishan,MP Stoinis,J Yadav,0,0,na,na
1st innings,13.4,Ishan Kishan,MP Stoinis,J Yadav,1,1,na,na
1st innings,13.5,J Yadav,MP Stoinis,Ishan Kishan,1,1,na,na
1st innings,13.6,Ishan Kishan,MP Stoinis,J Yadav,0,0,na,na
1st innings,14.1,J Yadav,Lalit Yadav,Ishan Kishan,1,1,na,na
1st innings,14.2,Ishan Kishan,Lalit Yadav,J Yadav,1,1,na,na
1st innings,14.3,J Yadav,Lalit Yadav,Ishan Kishan,1,1,na,na
1st innings,14.4,Ishan Kishan,Lalit Yadav,J Yadav,1,1,na,na
1st innings,14.5,J Yadav,Lalit Yadav,Ishan Kishan,0,0,na,na
1st innings,14.6,J Yadav,Lalit Yadav,Ishan Kishan,1,1,na,na
1st innings,15.1,J Yadav,R Ashwin,Ishan Kishan,6,6,na,na
1st innings,15.2,J Yadav,R Ashwin,Ishan Kishan,0,0,na,na
1st innings,15.3,J Yadav,R Ashwin,Ishan Kishan,1,1,na,na
1st innings,15.4,Ishan Kishan,R Ashwin,J Yadav,2,2,na,na
1st innings,15.5,Ishan Kishan,R Ashwin,J Yadav,2,2,na,na
1st innings,15.6,Ishan Kishan,R Ashwin,J Yadav,2,2,na,na
1st innings,16.1,J Yadav,K Rabada,Ishan Kishan,0,0,na,na
1st innings,16.2,J Yadav,K Rabada,Ishan Kishan,4,4,na,na
1st innings,16.3,J Yadav,K Rabada,Ishan Kishan,1,1,na,na
1st innings,16.4,Ishan Kishan,K Rabada,J Yadav,0,0,na,na
1st innings,16.5,Ishan Kishan,K Rabada,J Yadav,0,0,na,na
1st innings,16.6,Ishan Kishan,K Rabada,J Yadav,1,1,na,na
1st innings,17.1,Ishan Kishan,A Mishra,J Yadav,2,2,na,na
1st innings,17.2,Ishan Kishan,A Mishra,J Yadav,1,1,na,na
1st innings,17.3,J Yadav,A Mishra,Ishan Kishan,0,0,na,"{'player_out': 'Ishan Kishan', 'kind': 'bowled'}"
1st innings,17.4,J Yadav,A Mishra,RD Chahar,0,0,na,na
1st innings,17.5,J Yadav,A Mishra,RD Chahar,1,1,na,na
1st innings,17.6,RD Chahar,A Mishra,J Yadav,1,1,na,na
1st innings,18.1,RD Chahar,K Rabada,J Yadav,2,2,na,na
1st innings,18.2,RD Chahar,K Rabada,J Yadav,1,1,na,na
1st innings,18.3,J Yadav,K Rabada,RD Chahar,1,1,na,na
1st innings,18.4,RD Chahar,K Rabada,J Yadav,0,0,na,na
1st innings,18.5,RD Chahar,K Rabada,J Yadav,0,0,na,"{'player_out': 'J Yadav', 'kind': 'caught and bowled'}"
1st innings,18.6,RD Chahar,K Rabada,JJ Bumrah,1,1,na,na
1st innings,19.1,RD Chahar,Avesh Khan,JJ Bumrah,1,1,na,na
1st innings,19.2,JJ Bumrah,Avesh Khan,RD Chahar,4,4,na,na
1st innings,19.3,JJ Bumrah,Avesh Khan,RD Chahar,0,0,na,na
1st innings,19.4,JJ Bumrah,Avesh Khan,RD Chahar,0,0,na,"{'player_out': 'RD Chahar', 'fielders': ['RR Pant'], 'kind': 'caught'}"
1st innings,19.5,JJ Bumrah,Avesh Khan,TA Boult,1,1,na,na
1st innings,19.6,TA Boult,Avesh Khan,JJ Bumrah,1,1,na,na
2nd innings,0.1,S Dhawan,TA Boult,PP Shaw,0,0,na,na
2nd innings,0.2,S Dhawan,TA Boult,PP Shaw,1,1,na,na
2nd innings,0.3,PP Shaw,TA Boult,S Dhawan,4,4,na,na
2nd innings,0.4,PP Shaw,TA Boult,S Dhawan,0,0,na,na
2nd innings,0.5,PP Shaw,TA Boult,S Dhawan,0,0,na,na
2nd innings,0.6,PP Shaw,TA Boult,S Dhawan,0,0,na,na
2nd innings,1.1,S Dhawan,J Yadav,PP Shaw,2,2,na,na
2nd innings,1.2,S Dhawan,J Yadav,PP Shaw,4,4,na,na
2nd innings,1.3,S Dhawan,J Yadav,PP Shaw,0,0,na,"{'player_out': 'PP Shaw', 'kind': 'caught and bowled'}"
2nd innings,1.4,S Dhawan,J Yadav,SPD Smith,0,0,na,na
2nd innings,1.5,S Dhawan,J Yadav,SPD Smith,1,1,na,na
2nd innings,1.6,SPD Smith,J Yadav,S Dhawan,4,4,na,na
2nd innings,2.1,S Dhawan,TA Boult,SPD Smith,0,0,na,na
2nd innings,2.2,S Dhawan,TA Boult,SPD Smith,4,4,na,na
2nd innings,2.3,S Dhawan,TA Boult,SPD Smith,0,0,na,na
2nd innings,2.4,S Dhawan,TA Boult,SPD Smith,1,1,na,na
2nd innings,2.5,SPD Smith,TA Boult,S Dhawan,1,0,{'legbyes': 1},na
2nd innings,2.6,S Dhawan,TA Boult,SPD Smith,0,0,na,na
2nd innings,3.1,SPD Smith,J Yadav,S Dhawan,1,1,na,na
2nd innings,3.2,S Dhawan,J Yadav,SPD Smith,0,0,na,na
2nd innings,3.3,S Dhawan,J Yadav,SPD Smith,0,0,na,na
2nd innings,3.4,S Dhawan,J Yadav,SPD Smith,0,0,na,na
2nd innings,3.5,S Dhawan,J Yadav,SPD Smith,4,4,na,na
2nd innings,3.6,S Dhawan,J Yadav,SPD Smith,1,1,na,na
2nd innings,4.1,S Dhawan,JJ Bumrah,SPD Smith,0,0,na,na
2nd innings,4.2,S Dhawan,JJ Bumrah,SPD Smith,1,1,na,na
2nd innings,4.3,SPD Smith,JJ Bumrah,S Dhawan,0,0,na,na
2nd innings,4.4,SPD Smith,JJ Bumrah,S Dhawan,1,1,na,na
2nd innings,4.5,S Dhawan,JJ Bumrah,SPD Smith,2,2,na,na
2nd innings,4.6,S Dhawan,JJ Bumrah,SPD Smith,2,0,{'wides': 2},na
2nd innings,4.7,SPD Smith,JJ Bumrah,S Dhawan,0,0,na,na
2nd innings,5.1,S Dhawan,KH Pandya,SPD Smith,1,1,na,na
2nd innings,5.2,SPD Smith,KH Pandya,S Dhawan,1,1,na,na
2nd innings,5.3,S Dhawan,KH Pandya,SPD Smith,1,1,na,na
2nd innings,5.4,SPD Smith,KH Pandya,S Dhawan,0,0,na,na
2nd innings,5.5,SPD Smith,KH Pandya,S Dhawan,1,1,na,na
2nd innings,5.6,S Dhawan,KH Pandya,SPD Smith,1,1,na,na
2nd innings,6.1,S Dhawan,RD Chahar,SPD Smith,1,1,na,na
2nd innings,6.2,SPD Smith,RD Chahar,S Dhawan,1,1,na,na
2nd innings,6.3,S Dhawan,RD Chahar,SPD Smith,2,2,na,na
2nd innings,6.4,S Dhawan,RD Chahar,SPD Smith,1,1,na,na
2nd innings,6.5,SPD Smith,RD Chahar,S Dhawan,2,2,na,na
2nd innings,6.6,SPD Smith,RD Chahar,S Dhawan,1,0,{'legbyes': 1},na
2nd innings,7.1,SPD Smith,J Yadav,S Dhawan,0,0,na,na
2nd innings,7.2,SPD Smith,J Yadav,S Dhawan,0,0,na,na
2nd innings,7.3,SPD Smith,J Yadav,S Dhawan,2,2,na,na
2nd innings,7.4,SPD Smith,J Yadav,S Dhawan,1,1,na,na
2nd innings,7.5,S Dhawan,J Yadav,SPD Smith,1,1,na,na
2nd innings,7.6,SPD Smith,J Yadav,S Dhawan,1,1,na,na
2nd innings,8.1,SPD Smith,KH Pandya,S Dhawan,1,1,na,na
2nd innings,8.2,S Dhawan,KH Pandya,SPD Smith,4,4,na,na
2nd innings,8.3,S Dhawan,KH Pandya,SPD Smith,0,0,na,na
2nd innings,8.4,S Dhawan,KH Pandya,SPD Smith,4,4,na,na
2nd innings,8.5,S Dhawan,KH Pandya,SPD Smith,2,2,na,na
2nd innings,8.6,S Dhawan,KH Pandya,SPD Smith,1,1,na,na
2nd innings,9.1,S Dhawan,KA Pollard,SPD Smith,0,0,na,na
2nd innings,9.2,S Dhawan,KA Pollard,SPD Smith,0,0,na,"{'player_out': 'SPD Smith', 'kind': 'lbw'}"
2nd innings,9.3,S Dhawan,KA Pollard,Lalit Yadav,2,2,na,na
2nd innings,9.4,S Dhawan,KA Pollard,Lalit Yadav,1,1,na,na
2nd innings,9.5,Lalit Yadav,KA Pollard,S Dhawan,0,0,na,na
2nd innings,9.6,Lalit Yadav,KA Pollard,S Dhawan,1,1,na,na
2nd innings,10.1,Lalit Yadav,RD Chahar,S Dhawan,4,4,na,na
2nd innings,10.2,Lalit Yadav,RD Chahar,S Dhawan,1,1,na,na
2nd innings,10.3,S Dhawan,RD Chahar,Lalit Yadav,0,0,na,na
2nd innings,10.4,S Dhawan,RD Chahar,Lalit Yadav,1,1,na,na
2nd innings,10.5,Lalit Yadav,RD Chahar,S Dhawan,1,1,na,na
2nd innings,10.6,S Dhawan,RD Chahar,Lalit Yadav,1,1,na,na
2nd innings,11.1,S Dhawan,JJ Bumrah,Lalit Yadav,1,1,na,na
2nd innings,11.2,Lalit Yadav,JJ Bumrah,S Dhawan,4,4,na,na
2nd innings,11.3,Lalit Yadav,JJ Bumrah,S Dhawan,1,1,na,na
2nd innings,11.4,S Dhawan,JJ Bumrah,Lalit Yadav,1,1,na,na
2nd innings,11.5,Lalit Yadav,JJ Bumrah,S Dhawan,0,0,na,na
2nd innings,11.6,Lalit Yadav,JJ Bumrah,S Dhawan,0,0,na,na
2nd innings,12.1,S Dhawan,RD Chahar,Lalit Yadav,1,1,na,na
2nd innings,12.2,Lalit Yadav,RD Chahar,S Dhawan,0,0,na,na
2nd innings,12.3,Lalit Yadav,RD Chahar,S Dhawan,1,1,na,na
2nd innings,12.4,S Dhawan,RD Chahar,Lalit Yadav,0,0,na,na
2nd innings,12.5,S Dhawan,RD Chahar,Lalit Yadav,0,0,na,na
2nd innings,12.6,S Dhawan,RD Chahar,Lalit Yadav,1,1,na,na
2nd innings,13.1,S Dhawan,J Yadav,Lalit Yadav,1,0,{'legbyes': 1},na
2nd innings,13.2,Lalit Yadav,J Yadav,S Dhawan,1,1,na,na
2nd innings,13.3,S Dhawan,J Yadav,Lalit Yadav,1,1,na,na
2nd innings,13.4,Lalit Yadav,J Yadav,S Dhawan,0,0,na,na
2nd innings,13.5,Lalit Yadav,J Yadav,S Dhawan,0,0,na,na
2nd innings,13.6,Lalit Yadav,J Yadav,S Dhawan,1,1,na,na
2nd innings,14.1,Lalit Yadav,RD Chahar,S Dhawan,6,6,na,na
2nd innings,14.2,Lalit Yadav,RD Chahar,S Dhawan,4,4,na,na
2nd innings,14.3,Lalit Yadav,RD Chahar,S Dhawan,0,0,na,na
2nd innings,14.4,Lalit Yadav,RD Chahar,S Dhawan,0,0,na,na
2nd innings,14.5,Lalit Yadav,RD Chahar,S Dhawan,0,0,na,"{'player_out': 'S Dhawan', 'fielders': ['KH Pandya'], 'kind': 'caught'}"
2nd innings,14.6,RR Pant,RD Chahar,Lalit Yadav,1,0,{'wides': 1},na
2nd innings,14.7,RR Pant,RD Chahar,Lalit Yadav,0,0,na,na
2nd innings,15.1,Lalit Yadav,TA Boult,RR Pant,0,0,na,na
2nd innings,15.2,Lalit Yadav,TA Boult,RR Pant,0,0,na,na
2nd innings,15.3,Lalit Yadav,TA Boult,RR Pant,0,0,na,na
2nd innings,15.4,Lalit Yadav,TA Boult,RR Pant,4,4,na,na
2nd innings,15.5,Lalit Yadav,TA Boult,RR Pant,1,1,na,na
2nd innings,15.6,RR Pant,TA Boult,Lalit Yadav,1,1,na,na
2nd innings,16.1,RR Pant,JJ Bumrah,Lalit Yadav,4,4,na,na
2nd innings,16.2,RR Pant,JJ Bumrah,Lalit Yadav,1,1,na,na
2nd innings,16.3,Lalit Yadav,JJ Bumrah,RR Pant,1,0,{'wides': 1},na
2nd innings,16.4,Lalit Yadav,JJ Bumrah,RR Pant,2,2,na,na
2nd innings,16.5,Lalit Yadav,JJ Bumrah,RR Pant,0,0,na,na
2nd innings,16.6,Lalit Yadav,JJ Bumrah,RR Pant,0,0,na,"{'player_out': 'RR Pant', 'fielders': ['KH Pandya'], 'kind': 'caught'}"
2nd innings,16.7,SO Hetmyer,JJ Bumrah,Lalit Yadav,1,1,na,na
2nd innings,17.1,SO Hetmyer,TA Boult,Lalit Yadav,0,0,na,na
2nd innings,17.2,SO Hetmyer,TA Boult,Lalit Yadav,1,1,na,na
2nd innings,17.3,Lalit Yadav,TA Boult,SO Hetmyer,4,4,na,na
2nd innings,17.4,Lalit Yadav,TA Boult,SO Hetmyer,0,0,na,na
2nd innings,17.5,Lalit Yadav,TA Boult,SO Hetmyer,1,1,na,na
2nd innings,17.6,SO Hetmyer,TA Boult,Lalit Yadav,1,1,na,na
2nd innings,18.1,SO Hetmyer,JJ Bumrah,Lalit Yadav,1,0,{'noballs': 1},na
2nd innings,18.2,SO Hetmyer,JJ Bumrah,Lalit Yadav,1,1,na,na
2nd innings,18.3,Lalit Yadav,JJ Bumrah,SO Hetmyer,1,1,na,na
2nd innings,18.4,SO Hetmyer,JJ Bumrah,Lalit Yadav,2,1,{'noballs': 1},na
2nd innings,18.5,Lalit Yadav,JJ Bumrah,SO Hetmyer,1,1,na,na
2nd innings,18.6,SO Hetmyer,JJ Bumrah,Lalit Yadav,1,1,na,na
2nd innings,18.7,Lalit Yadav,JJ Bumrah,SO Hetmyer,2,2,na,na
2nd innings,18.8,Lalit Yadav,JJ Bumrah,SO Hetmyer,1,1,na,na
2nd innings,19.1,Lalit Yadav,KA Pollard,SO Hetmyer,4,4,na,na
2nd innings,19.2,Lalit Yadav,KA Pollard,SO Hetmyer,1,0,{'noballs': 1},na
