innings,deliveries,non_striker,bowler,batsman,total_runs,batsman_runs,extras,wickets
1st innings,0.1,Shubman Gill,JD Unadkat,N Rana,0,0,na,na
1st innings,0.2,Shubman Gill,JD Unadkat,N Rana,0,0,na,na
1st innings,0.3,Shubman Gill,JD Unadkat,N Rana,2,2,na,na
1st innings,0.4,Shubman Gill,JD Unadkat,N Rana,1,1,na,na
1st innings,0.5,N Rana,JD Unadkat,Shubman Gill,0,0,na,na
1st innings,0.6,N Rana,JD Unadkat,Shubman Gill,0,0,na,na
1st innings,1.1,Shubman Gill,C Sakariya,N Rana,1,0,{'wides': 1},na
1st innings,1.2,Shubman Gill,C Sakariya,N Rana,0,0,na,na
1st innings,1.3,Shubman Gill,C Sakariya,N Rana,1,1,na,na
1st innings,1.4,N Rana,C Sakariya,Shubman Gill,0,0,na,na
1st innings,1.5,N Rana,C Sakariya,Shubman Gill,1,1,na,na
1st innings,1.6,Shubman Gill,C Sakariya,N Rana,0,0,na,na
1st innings,1.7,Shubman Gill,C Sakariya,N Rana,1,0,{'wides': 1},na
1st innings,1.8,Shubman Gill,C Sakariya,N Rana,1,1,na,na
1st innings,2.1,Shubman Gill,JD Unadkat,N Rana,0,0,na,na
1st innings,2.2,Shubman Gill,JD Unadkat,N Rana,4,4,na,na
1st innings,2.3,Shubman Gill,JD Unadkat,N Rana,0,0,na,na
1st innings,2.4,Shubman Gill,JD Unadkat,N Rana,0,0,na,na
1st innings,2.5,Shubman Gill,JD Unadkat,N Rana,1,1,na,na
1st innings,2.6,N Rana,JD Unadkat,Shubman Gill,1,1,na,na
1st innings,3.1,N Rana,Mustafizur Rahman,Shubman Gill,0,0,na,na
1st innings,3.2,N Rana,Mustafizur Rahman,Shubman Gill,0,0,na,na
1st innings,3.3,N Rana,Mustafizur Rahman,Shubman Gill,4,4,na,na
1st innings,3.4,N Rana,Mustafizur Rahman,Shubman Gill,0,0,na,na
1st innings,3.5,N Rana,Mustafizur Rahman,Shubman Gill,2,2,na,na
1st innings,3.6,N Rana,Mustafizur Rahman,Shubman Gill,1,1,na,na
1st innings,4.1,N Rana,CH Morris,Shubman Gill,0,0,na,na
1st innings,4.2,N Rana,CH Morris,Shubman Gill,0,0,na,na
1st innings,4.3,N Rana,CH Morris,Shubman Gill,0,0,na,na
1st innings,4.4,N Rana,CH Morris,Shubman Gill,0,0,na,na
1st innings,4.5,N Rana,CH Morris,Shubman Gill,2,2,na,na
1st innings,4.6,N Rana,CH Morris,Shubman Gill,0,0,na,na
1st innings,5.1,Shubman Gill,Mustafizur Rahman,N Rana,0,0,na,na
1st innings,5.2,Shubman Gill,Mustafizur Rahman,N Rana,1,1,na,na
1st innings,5.3,N Rana,Mustafizur Rahman,Shubman Gill,0,0,na,na
1st innings,5.4,N Rana,Mustafizur Rahman,Shubman Gill,0,0,na,"{'player_out': 'Shubman Gill', 'kind': 'run out'}"
1st innings,5.5,RA Tripathi,Mustafizur Rahman,N Rana,0,0,na,na
1st innings,5.6,RA Tripathi,Mustafizur Rahman,N Rana,1,1,na,na
1st innings,6.1,RA Tripathi,JD Unadkat,N Rana,0,0,na,na
1st innings,6.2,RA Tripathi,JD Unadkat,N Rana,1,1,na,na
1st innings,6.3,N Rana,JD Unadkat,RA Tripathi,4,4,na,na
1st innings,6.4,N Rana,JD Unadkat,RA Tripathi,1,1,na,na
1st innings,6.5,RA Tripathi,JD Unadkat,N Rana,0,0,na,na
1st innings,6.6,RA Tripathi,JD Unadkat,N Rana,6,6,na,na
1st innings,7.1,N Rana,R Tewatia,RA Tripathi,1,1,na,na
1st innings,7.2,RA Tripathi,R Tewatia,N Rana,1,1,na,na
1st innings,7.3,N Rana,R Tewatia,RA Tripathi,1,1,na,na
1st innings,7.4,RA Tripathi,R Tewatia,N Rana,1,1,na,na
1st innings,7.5,N Rana,R Tewatia,RA Tripathi,3,3,na,na
1st innings,7.6,RA Tripathi,R Tewatia,N Rana,1,1,na,na
1st innings,8.1,RA Tripathi,C Sakariya,N Rana,0,0,na,"{'player_out': 'N Rana', 'fielders': ['SV Samson'], 'kind': 'caught'}"
1st innings,8.2,RA Tripathi,C Sakariya,SP Narine,4,4,na,na
1st innings,8.3,RA Tripathi,C Sakariya,SP Narine,1,1,na,na
1st innings,8.4,SP Narine,C Sakariya,RA Tripathi,1,1,na,na
1st innings,8.5,RA Tripathi,C Sakariya,SP Narine,0,0,na,na
1st innings,8.6,RA Tripathi,C Sakariya,SP Narine,0,0,na,na
1st innings,9.1,SP Narine,JD Unadkat,RA Tripathi,1,1,na,na
1st innings,9.2,RA Tripathi,JD Unadkat,SP Narine,0,0,na,na
1st innings,9.3,RA Tripathi,JD Unadkat,SP Narine,1,1,na,na
1st innings,9.4,SP Narine,JD Unadkat,RA Tripathi,1,1,na,na
1st innings,9.5,RA Tripathi,JD Unadkat,SP Narine,0,0,na,"{'player_out': 'SP Narine', 'fielders': ['YBK Jaiswal'], 'kind': 'caught'}"
1st innings,9.6,EJG Morgan,JD Unadkat,RA Tripathi,1,1,na,na
1st innings,10.1,EJG Morgan,CH Morris,RA Tripathi,6,6,na,na
1st innings,10.2,EJG Morgan,CH Morris,RA Tripathi,0,0,na,"{'player_out': 'EJG Morgan', 'kind': 'run out'}"
1st innings,10.3,KD Karthik,CH Morris,RA Tripathi,0,0,na,na
1st innings,10.4,KD Karthik,CH Morris,RA Tripathi,0,0,na,na
1st innings,10.5,KD Karthik,CH Morris,RA Tripathi,0,0,na,na
1st innings,10.6,KD Karthik,CH Morris,RA Tripathi,1,1,na,na
1st innings,11.1,KD Karthik,R Tewatia,RA Tripathi,6,6,na,na
1st innings,11.2,KD Karthik,R Tewatia,RA Tripathi,1,1,na,na
1st innings,11.3,RA Tripathi,R Tewatia,KD Karthik,0,0,na,na
1st innings,11.4,RA Tripathi,R Tewatia,KD Karthik,1,1,na,na
1st innings,11.5,KD Karthik,R Tewatia,RA Tripathi,1,1,na,na
1st innings,11.6,RA Tripathi,R Tewatia,KD Karthik,0,0,na,na
1st innings,12.1,KD Karthik,S Dube,RA Tripathi,1,1,na,na
1st innings,12.2,RA Tripathi,S Dube,KD Karthik,0,0,na,na
1st innings,12.3,RA Tripathi,S Dube,KD Karthik,1,1,na,na
1st innings,12.4,KD Karthik,S Dube,RA Tripathi,2,2,na,na
1st innings,12.5,KD Karthik,S Dube,RA Tripathi,1,1,na,na
1st innings,12.6,RA Tripathi,S Dube,KD Karthik,0,0,na,na
1st innings,13.1,KD Karthik,R Tewatia,RA Tripathi,1,1,na,na
1st innings,13.2,RA Tripathi,R Tewatia,KD Karthik,4,4,na,na
1st innings,13.3,RA Tripathi,R Tewatia,KD Karthik,0,0,na,na
1st innings,13.4,RA Tripathi,R Tewatia,KD Karthik,1,1,na,na
1st innings,13.5,KD Karthik,R Tewatia,RA Tripathi,1,0,{'byes': 1},na
1st innings,13.6,RA Tripathi,R Tewatia,KD Karthik,1,1,na,na
1st innings,14.1,RA Tripathi,C Sakariya,KD Karthik,1,1,na,na
1st innings,14.2,KD Karthik,C Sakariya,RA Tripathi,1,1,na,na
1st innings,14.3,RA Tripathi,C Sakariya,KD Karthik,1,1,na,na
1st innings,14.4,KD Karthik,C Sakariya,RA Tripathi,1,1,na,na
1st innings,14.5,RA Tripathi,C Sakariya,KD Karthik,4,4,na,na
1st innings,14.6,RA Tripathi,C Sakariya,KD Karthik,1,0,{'legbyes': 1},na
1st innings,15.1,RA Tripathi,Mustafizur Rahman,KD Karthik,1,1,na,na
1st innings,15.2,KD Karthik,Mustafizur Rahman,RA Tripathi,0,0,na,"{'player_out': 'RA Tripathi', 'fielders': ['R Parag'], 'kind': 'caught'}"
1st innings,15.3,AD Russell,Mustafizur Rahman,KD Karthik,0,0,na,na
1st innings,15.4,AD Russell,Mustafizur Rahman,KD Karthik,0,0,na,na
1st innings,15.5,AD Russell,Mustafizur Rahman,KD Karthik,0,0,na,na
1st innings,15.6,AD Russell,Mustafizur Rahman,KD Karthik,4,4,na,na
1st innings,16.1,KD Karthik,C Sakariya,AD Russell,2,1,{'noballs': 1},na
1st innings,16.2,AD Russell,C Sakariya,KD Karthik,4,4,na,na
1st innings,16.3,AD Russell,C Sakariya,KD Karthik,1,1,na,na
1st innings,16.4,KD Karthik,C Sakariya,AD Russell,1,0,{'wides': 1},na
1st innings,16.5,KD Karthik,C Sakariya,AD Russell,1,0,{'wides': 1},na
1st innings,16.6,KD Karthik,C Sakariya,AD Russell,1,1,na,na
1st innings,16.7,AD Russell,C Sakariya,KD Karthik,1,1,na,na
1st innings,16.8,KD Karthik,C Sakariya,AD Russell,1,1,na,na
1st innings,16.9,AD Russell,C Sakariya,KD Karthik,0,0,na,na
1st innings,17.1,KD Karthik,CH Morris,AD Russell,0,0,na,na
1st innings,17.2,KD Karthik,CH Morris,AD Russell,6,6,na,na
1st innings,17.3,KD Karthik,CH Morris,AD Russell,0,0,na,na
1st innings,17.4,KD Karthik,CH Morris,AD Russell,1,0,{'wides': 1},na
1st innings,17.5,KD Karthik,CH Morris,AD Russell,0,0,na,"{'player_out': 'AD Russell', 'fielders': ['DA Miller'], 'kind': 'caught'}"
1st innings,17.6,KD Karthik,CH Morris,PJ Cummins,1,1,na,na
1st innings,17.7,PJ Cummins,CH Morris,KD Karthik,0,0,na,"{'player_out': 'KD Karthik', 'fielders': ['C Sakariya'], 'kind': 'caught'}"
1st innings,18.1,Shivam Mavi,Mustafizur Rahman,PJ Cummins,1,1,na,na
1st innings,18.2,PJ Cummins,Mustafizur Rahman,Shivam Mavi,0,0,na,na
1st innings,18.3,PJ Cummins,Mustafizur Rahman,Shivam Mavi,4,4,na,na
1st innings,18.4,PJ Cummins,Mustafizur Rahman,Shivam Mavi,1,1,na,na
1st innings,18.5,Shivam Mavi,Mustafizur Rahman,PJ Cummins,2,2,na,na
1st innings,18.6,Shivam Mavi,Mustafizur Rahman,PJ Cummins,1,0,{'byes': 1},na
1st innings,19.1,Shivam Mavi,CH Morris,PJ Cummins,6,6,na,na
1st innings,19.2,Shivam Mavi,CH Morris,PJ Cummins,0,0,na,"{'player_out': 'PJ Cummins', 'fielders': ['R Parag'], 'kind': 'caught'}"
1st innings,19.3,M Prasidh Krishna,CH Morris,Shivam Mavi,0,0,na,na
1st innings,19.4,M Prasidh Krishna,CH Morris,Shivam Mavi,0,0,na,na
1st innings,19.5,M Prasidh Krishna,CH Morris,Shivam Mavi,0,0,na,na
1st innings,19.6,M Prasidh Krishna,CH Morris,Shivam Mavi,0,0,na,"{'player_out': 'Shivam Mavi', 'kind': 'bowled'}"
2nd innings,0.1,YBK Jaiswal,Shivam Mavi,JC Buttler,1,0,{'legbyes': 1},na
2nd innings,0.2,JC Buttler,Shivam Mavi,YBK Jaiswal,0,0,na,na
2nd innings,0.3,JC Buttler,Shivam Mavi,YBK Jaiswal,0,0,na,na
2nd innings,0.4,JC Buttler,Shivam Mavi,YBK Jaiswal,0,0,na,na
2nd innings,0.5,JC Buttler,Shivam Mavi,YBK Jaiswal,1,1,na,na
2nd innings,0.6,YBK Jaiswal,Shivam Mavi,JC Buttler,0,0,na,na
2nd innings,1.1,JC Buttler,PJ Cummins,YBK Jaiswal,0,0,na,na
2nd innings,1.2,JC Buttler,PJ Cummins,YBK Jaiswal,4,4,na,na
2nd innings,1.3,JC Buttler,PJ Cummins,YBK Jaiswal,4,4,na,na
2nd innings,1.4,JC Buttler,PJ Cummins,YBK Jaiswal,1,1,na,na
2nd innings,1.5,YBK Jaiswal,PJ Cummins,JC Buttler,0,0,na,na
2nd innings,1.6,YBK Jaiswal,PJ Cummins,JC Buttler,1,1,na,na
2nd innings,2.1,YBK Jaiswal,Shivam Mavi,JC Buttler,1,0,{'legbyes': 1},na
2nd innings,2.2,JC Buttler,Shivam Mavi,YBK Jaiswal,0,0,na,na
2nd innings,2.3,JC Buttler,Shivam Mavi,YBK Jaiswal,4,4,na,na
2nd innings,2.4,JC Buttler,Shivam Mavi,YBK Jaiswal,0,0,na,na
2nd innings,2.5,JC Buttler,Shivam Mavi,YBK Jaiswal,0,0,na,na
2nd innings,2.6,JC Buttler,Shivam Mavi,YBK Jaiswal,0,0,na,na
2nd innings,3.1,YBK Jaiswal,CV Varun,JC Buttler,4,4,na,na
2nd innings,3.2,YBK Jaiswal,CV Varun,JC Buttler,0,0,na,"{'player_out': 'JC Buttler', 'kind': 'lbw'}"
2nd innings,3.3,YBK Jaiswal,CV Varun,SV Samson,4,4,na,na
2nd innings,3.4,YBK Jaiswal,CV Varun,SV Samson,1,1,na,na
2nd innings,3.5,SV Samson,CV Varun,YBK Jaiswal,0,0,na,na
2nd innings,3.6,SV Samson,CV Varun,YBK Jaiswal,4,4,na,na
2nd innings,4.1,YBK Jaiswal,Shivam Mavi,SV Samson,4,4,na,na
2nd innings,4.2,YBK Jaiswal,Shivam Mavi,SV Samson,1,0,{'wides': 1},na
2nd innings,4.3,YBK Jaiswal,Shivam Mavi,SV Samson,0,0,na,na
2nd innings,4.4,YBK Jaiswal,Shivam Mavi,SV Samson,1,1,na,na
2nd innings,4.5,SV Samson,Shivam Mavi,YBK Jaiswal,4,4,na,na
2nd innings,4.6,SV Samson,Shivam Mavi,YBK Jaiswal,0,0,na,"{'player_out': 'YBK Jaiswal', 'fielders': ['KL Nagarkoti (sub)'], 'kind': 'caught'}"
2nd innings,4.7,SV Samson,Shivam Mavi,S Dube,1,0,{'wides': 1},na
2nd innings,4.8,SV Samson,Shivam Mavi,S Dube,0,0,na,na
2nd innings,5.1,S Dube,SP Narine,SV Samson,1,1,na,na
2nd innings,5.2,SV Samson,SP Narine,S Dube,1,1,na,na
2nd innings,5.3,S Dube,SP Narine,SV Samson,1,1,na,na
2nd innings,5.4,SV Samson,SP Narine,S Dube,6,6,na,na
2nd innings,5.5,SV Samson,SP Narine,S Dube,0,0,na,na
2nd innings,5.6,SV Samson,SP Narine,S Dube,0,0,na,na
2nd innings,6.1,S Dube,CV Varun,SV Samson,1,1,na,na
2nd innings,6.2,SV Samson,CV Varun,S Dube,1,1,na,na
2nd innings,6.3,S Dube,CV Varun,SV Samson,1,1,na,na
2nd innings,6.4,SV Samson,CV Varun,S Dube,1,1,na,na
2nd innings,6.5,S Dube,CV Varun,SV Samson,1,1,na,na
2nd innings,6.6,SV Samson,CV Varun,S Dube,4,4,na,na
2nd innings,7.1,S Dube,SP Narine,SV Samson,2,1,{'noballs': 1},na
2nd innings,7.2,SV Samson,SP Narine,S Dube,1,1,na,na
2nd innings,7.3,S Dube,SP Narine,SV Samson,0,0,na,na
2nd innings,7.4,S Dube,SP Narine,SV Samson,1,1,na,na
2nd innings,7.5,SV Samson,SP Narine,S Dube,1,1,na,na
2nd innings,7.6,S Dube,SP Narine,SV Samson,0,0,na,na
2nd innings,7.7,S Dube,SP Narine,SV Samson,0,0,na,na
2nd innings,8.1,SV Samson,PJ Cummins,S Dube,1,1,na,na
2nd innings,8.2,S Dube,PJ Cummins,SV Samson,6,6,na,na
2nd innings,8.3,S Dube,PJ Cummins,SV Samson,1,1,na,na
2nd innings,8.4,SV Samson,PJ Cummins,S Dube,1,1,na,na
2nd innings,8.5,S Dube,PJ Cummins,SV Samson,2,2,na,na
2nd innings,8.6,S Dube,PJ Cummins,SV Samson,1,0,{'wides': 1},na
2nd innings,8.7,S Dube,PJ Cummins,SV Samson,1,1,na,na
2nd innings,9.1,S Dube,SP Narine,SV Samson,0,0,na,na
2nd innings,9.2,S Dube,SP Narine,SV Samson,1,1,na,na
2nd innings,9.3,SV Samson,SP Narine,S Dube,0,0,na,na
2nd innings,9.4,SV Samson,SP Narine,S Dube,1,1,na,na
2nd innings,9.5,S Dube,SP Narine,SV Samson,1,1,na,na
2nd innings,9.6,SV Samson,SP Narine,S Dube,0,0,na,na
2nd innings,10.1,S Dube,CV Varun,SV Samson,0,0,na,na
2nd innings,10.2,S Dube,CV Varun,SV Samson,1,1,na,na
2nd innings,10.3,SV Samson,CV Varun,S Dube,4,4,na,na
2nd innings,10.4,SV Samson,CV Varun,S Dube,0,0,na,na
2nd innings,10.5,SV Samson,CV Varun,S Dube,0,0,na,"{'player_out': 'S Dube', 'fielders': ['M Prasidh Krishna'], 'kind': 'caught'}"
2nd innings,10.6,SV Samson,CV Varun,R Tewatia,0,0,na,na
2nd innings,11.1,R Tewatia,SP Narine,SV Samson,0,0,na,na
2nd innings,11.2,R Tewatia,SP Narine,SV Samson,3,0,{'legbyes': 3},na
2nd innings,11.3,SV Samson,SP Narine,R Tewatia,1,0,{'legbyes': 1},na
2nd innings,11.4,R Tewatia,SP Narine,SV Samson,1,1,na,na
2nd innings,11.5,SV Samson,SP Narine,R Tewatia,1,1,na,na
2nd innings,11.6,R Tewatia,SP Narine,SV Samson,1,1,na,na
2nd innings,12.1,R Tewatia,CV Varun,SV Samson,0,0,na,na
2nd innings,12.2,R Tewatia,CV Varun,SV Samson,1,1,na,na
2nd innings,12.3,SV Samson,CV Varun,R Tewatia,0,0,na,na
2nd innings,12.4,SV Samson,CV Varun,R Tewatia,2,2,na,na
2nd innings,12.5,SV Samson,CV Varun,R Tewatia,1,1,na,na
2nd innings,12.6,R Tewatia,CV Varun,SV Samson,1,1,na,na
2nd innings,13.1,R Tewatia,M Prasidh Krishna,SV Samson,1,0,{'legbyes': 1},na
2nd innings,13.2,SV Samson,M Prasidh Krishna,R Tewatia,1,1,na,na
2nd innings,13.3,R Tewatia,M Prasidh Krishna,SV Samson,1,1,na,na
2nd innings,13.4,SV Samson,M Prasidh Krishna,R Tewatia,0,0,na,"{'player_out': 'R Tewatia', 'fielders': ['KL Nagarkoti (sub)'], 'kind': 'caught'}"
2nd innings,13.5,SV Samson,M Prasidh Krishna,DA Miller,1,1,na,na
2nd innings,13.6,DA Miller,M Prasidh Krishna,SV Samson,0,0,na,na
2nd innings,14.1,SV Samson,Shivam Mavi,DA Miller,0,0,na,na
2nd innings,14.2,SV Samson,Shivam Mavi,DA Miller,1,1,na,na
2nd innings,14.3,DA Miller,Shivam Mavi,SV Samson,1,0,{'wides': 1},na
2nd innings,14.4,DA Miller,Shivam Mavi,SV Samson,1,1,na,na
2nd innings,14.5,SV Samson,Shivam Mavi,DA Miller,0,0,na,na
2nd innings,14.6,SV Samson,Shivam Mavi,DA Miller,0,0,na,na
2nd innings,14.7,SV Samson,Shivam Mavi,DA Miller,0,0,na,na
2nd innings,15.1,DA Miller,M Prasidh Krishna,SV Samson,1,1,na,na
2nd innings,15.2,SV Samson,M Prasidh Krishna,DA Miller,1,0,{'wides': 1},na
2nd innings,15.3,SV Samson,M Prasidh Krishna,DA Miller,1,0,{'wides': 1},na
2nd innings,15.4,SV Samson,M Prasidh Krishna,DA Miller,4,4,na,na
2nd innings,15.5,SV Samson,M Prasidh Krishna,DA Miller,0,0,na,na
2nd innings,15.6,SV Samson,M Prasidh Krishna,DA Miller,0,0,na,na
2nd innings,15.7,SV Samson,M Prasidh Krishna,DA Miller,0,0,na,na
2nd innings,15.8,SV Samson,M Prasidh Krishna,DA Miller,2,2,na,na
2nd innings,16.1,DA Miller,PJ Cummins,SV Samson,1,1,na,na
2nd innings,16.2,SV Samson,PJ Cummins,DA Miller,4,4,na,na
2nd innings,16.3,SV Samson,PJ Cummins,DA Miller,1,1,na,na
2nd innings,16.4,DA Miller,PJ Cummins,SV Samson,1,1,na,na
2nd innings,16.5,SV Samson,PJ Cummins,DA Miller,0,0,na,na
2nd innings,16.6,SV Samson,PJ Cummins,DA Miller,1,1,na,na
2nd innings,17.1,SV Samson,M Prasidh Krishna,DA Miller,0,0,na,na
2nd innings,17.2,SV Samson,M Prasidh Krishna,DA Miller,2,2,na,na
2nd innings,17.3,SV Samson,M Prasidh Krishna,DA Miller,4,4,na,na
2nd innings,17.4,SV Samson,M Prasidh Krishna,DA Miller,0,0,na,na
2nd innings,17.5,SV Samson,M Prasidh Krishna,DA Miller,1,1,na,na
2nd innings,17.6,DA Miller,M Prasidh Krishna,SV Samson,1,1,na,na
2nd innings,18.1,DA Miller,PJ Cummins,SV Samson,1,1,na,na
2nd innings,18.2,SV Samson,PJ Cummins,DA Miller,2,2,na,na
2nd innings,18.3,SV Samson,PJ Cummins,DA Miller,0,0,na,na
2nd innings,18.4,SV Samson,PJ Cummins,DA Miller,1,1,na,na
2nd innings,18.5,DA Miller,PJ Cummins,SV Samson,1,1,na,na
