innings,deliveries,non_striker,bowler,batsman,total_runs,batsman_runs,extras,wickets
1st innings,0.1,V Sehwag,B Lee,G Gambhir,0,0,na,na
1st innings,0.2,V Sehwag,B Lee,G Gambhir,1,1,na,na
1st innings,0.3,G Gambhir,B Lee,V Sehwag,1,1,na,na
1st innings,0.4,V Sehwag,B Lee,G Gambhir,1,1,na,na
1st innings,0.5,G Gambhir,B Lee,V Sehwag,4,4,na,na
1st innings,0.6,G Gambhir,B Lee,V Sehwag,1,1,na,na
1st innings,1.1,G Gambhir,IK Pathan,V Sehwag,1,0,{'wides': 1},na
1st innings,1.2,G Gambhir,IK Pathan,V Sehwag,1,0,{'legbyes': 1},na
1st innings,1.3,V Sehwag,IK Pathan,G Gambhir,1,1,na,na
1st innings,1.4,G Gambhir,IK Pathan,V Sehwag,0,0,na,na
1st innings,1.5,G Gambhir,IK Pathan,V Sehwag,0,0,na,"{'kind': 'lbw', 'player_out': 'V Sehwag'}"
1st innings,1.6,G Gambhir,IK Pathan,S Dhawan,0,0,na,na
1st innings,1.7,G Gambhir,IK Pathan,S Dhawan,0,0,na,na
1st innings,2.1,S Dhawan,B Lee,G Gambhir,0,0,na,na
1st innings,2.2,S Dhawan,B Lee,G Gambhir,1,1,na,na
1st innings,2.3,G Gambhir,B Lee,S Dhawan,0,0,na,"{'fielders': ['KC Sangakkara'], 'kind': 'caught', 'player_out': 'S Dhawan'}"
1st innings,2.4,G Gambhir,B Lee,Shoaib Malik,4,4,na,na
1st innings,2.5,G Gambhir,B Lee,Shoaib Malik,0,0,na,na
1st innings,2.6,G Gambhir,B Lee,Shoaib Malik,1,0,{'legbyes': 1},na
1st innings,3.1,G Gambhir,IK Pathan,Shoaib Malik,1,1,na,na
1st innings,3.2,Shoaib Malik,IK Pathan,G Gambhir,0,0,na,na
1st innings,3.3,Shoaib Malik,IK Pathan,G Gambhir,4,4,na,na
1st innings,3.4,Shoaib Malik,IK Pathan,G Gambhir,4,4,na,na
1st innings,3.5,Shoaib Malik,IK Pathan,G Gambhir,1,1,na,na
1st innings,3.6,G Gambhir,IK Pathan,Shoaib Malik,1,0,{'wides': 1},na
1st innings,3.7,G Gambhir,IK Pathan,Shoaib Malik,1,1,na,na
1st innings,4.1,G Gambhir,S Sreesanth,Shoaib Malik,4,4,na,na
1st innings,4.2,G Gambhir,S Sreesanth,Shoaib Malik,1,1,na,na
1st innings,4.3,Shoaib Malik,S Sreesanth,G Gambhir,1,1,na,na
1st innings,4.4,G Gambhir,S Sreesanth,Shoaib Malik,1,1,na,na
1st innings,4.5,Shoaib Malik,S Sreesanth,G Gambhir,4,4,na,na
1st innings,4.6,Shoaib Malik,S Sreesanth,G Gambhir,0,0,na,na
1st innings,5.1,G Gambhir,VRV Singh,Shoaib Malik,0,0,na,na
1st innings,5.2,G Gambhir,VRV Singh,Shoaib Malik,0,0,na,na
1st innings,5.3,G Gambhir,VRV Singh,Shoaib Malik,4,4,na,na
1st innings,5.4,G Gambhir,VRV Singh,Shoaib Malik,0,0,na,na
1st innings,5.5,G Gambhir,VRV Singh,Shoaib Malik,1,1,na,na
1st innings,5.6,Shoaib Malik,VRV Singh,G Gambhir,0,0,na,"{'fielders': ['Yuvraj Singh'], 'kind': 'caught', 'player_out': 'G Gambhir'}"
1st innings,6.1,Shoaib Malik,PP Chawla,MK Tiwary,0,0,na,na
1st innings,6.2,Shoaib Malik,PP Chawla,MK Tiwary,1,1,na,na
1st innings,6.3,MK Tiwary,PP Chawla,Shoaib Malik,0,0,na,na
1st innings,6.4,MK Tiwary,PP Chawla,Shoaib Malik,2,2,na,na
1st innings,6.5,MK Tiwary,PP Chawla,Shoaib Malik,0,0,na,na
1st innings,6.6,MK Tiwary,PP Chawla,Shoaib Malik,2,0,{'wides': 2},na
1st innings,6.7,Shoaib Malik,PP Chawla,MK Tiwary,4,4,na,na
1st innings,7.1,MK Tiwary,VRV Singh,Shoaib Malik,0,0,na,"{'fielders': ['B Lee'], 'kind': 'caught', 'player_out': 'Shoaib Malik'}"
1st innings,7.2,MK Tiwary,VRV Singh,KD Karthik,1,1,na,na
1st innings,7.3,KD Karthik,VRV Singh,MK Tiwary,1,1,na,na
1st innings,7.4,MK Tiwary,VRV Singh,KD Karthik,1,1,na,na
1st innings,7.5,KD Karthik,VRV Singh,MK Tiwary,1,1,na,na
1st innings,7.6,MK Tiwary,VRV Singh,KD Karthik,0,0,na,na
1st innings,8.1,KD Karthik,PP Chawla,MK Tiwary,0,0,na,na
1st innings,8.2,KD Karthik,PP Chawla,MK Tiwary,0,0,na,na
1st innings,8.3,KD Karthik,PP Chawla,MK Tiwary,1,1,na,na
1st innings,8.4,MK Tiwary,PP Chawla,KD Karthik,1,1,na,na
1st innings,8.5,KD Karthik,PP Chawla,MK Tiwary,0,0,na,na
1st innings,8.6,KD Karthik,PP Chawla,MK Tiwary,0,0,na,na
1st innings,9.1,MK Tiwary,VRV Singh,KD Karthik,2,2,na,na
1st innings,9.2,MK Tiwary,VRV Singh,KD Karthik,2,2,na,na
1st innings,9.3,MK Tiwary,VRV Singh,KD Karthik,4,4,na,na
1st innings,9.4,MK Tiwary,VRV Singh,KD Karthik,1,1,na,na
1st innings,9.5,KD Karthik,VRV Singh,MK Tiwary,0,0,na,na
1st innings,9.6,KD Karthik,VRV Singh,MK Tiwary,0,0,na,na
1st innings,10.1,MK Tiwary,PP Chawla,KD Karthik,6,6,na,na
1st innings,10.2,MK Tiwary,PP Chawla,KD Karthik,1,1,na,na
1st innings,10.3,KD Karthik,PP Chawla,MK Tiwary,0,0,na,na
1st innings,10.4,KD Karthik,PP Chawla,MK Tiwary,0,0,na,na
1st innings,10.5,KD Karthik,PP Chawla,MK Tiwary,4,4,na,na
1st innings,10.6,KD Karthik,PP Chawla,MK Tiwary,1,1,na,na
1st innings,11.1,KD Karthik,Yuvraj Singh,MK Tiwary,1,1,na,na
1st innings,11.2,MK Tiwary,Yuvraj Singh,KD Karthik,4,4,na,na
1st innings,11.3,MK Tiwary,Yuvraj Singh,KD Karthik,0,0,na,na
1st innings,11.4,MK Tiwary,Yuvraj Singh,KD Karthik,1,1,na,na
1st innings,11.5,KD Karthik,Yuvraj Singh,MK Tiwary,1,1,na,na
1st innings,11.6,MK Tiwary,Yuvraj Singh,KD Karthik,0,0,na,"{'kind': 'bowled', 'player_out': 'KD Karthik'}"
1st innings,12.1,R Bhatia,PP Chawla,MK Tiwary,0,0,na,na
1st innings,12.2,R Bhatia,PP Chawla,MK Tiwary,4,4,na,na
1st innings,12.3,R Bhatia,PP Chawla,MK Tiwary,0,0,na,na
1st innings,12.4,R Bhatia,PP Chawla,MK Tiwary,1,1,na,na
1st innings,12.5,MK Tiwary,PP Chawla,R Bhatia,0,0,na,na
1st innings,12.6,MK Tiwary,PP Chawla,R Bhatia,1,1,na,na
1st innings,13.1,MK Tiwary,Yuvraj Singh,R Bhatia,0,0,na,na
1st innings,13.2,MK Tiwary,Yuvraj Singh,R Bhatia,1,1,na,na
1st innings,13.3,R Bhatia,Yuvraj Singh,MK Tiwary,1,0,{'wides': 1},na
1st innings,13.4,R Bhatia,Yuvraj Singh,MK Tiwary,0,0,na,na
1st innings,13.5,R Bhatia,Yuvraj Singh,MK Tiwary,1,1,na,na
1st innings,13.6,MK Tiwary,Yuvraj Singh,R Bhatia,0,0,na,na
1st innings,13.7,MK Tiwary,Yuvraj Singh,R Bhatia,1,1,na,na
1st innings,14.1,MK Tiwary,B Lee,R Bhatia,1,1,na,na
1st innings,14.2,R Bhatia,B Lee,MK Tiwary,1,1,na,na
1st innings,14.3,MK Tiwary,B Lee,R Bhatia,1,0,{'legbyes': 1},na
1st innings,14.4,R Bhatia,B Lee,MK Tiwary,4,4,na,na
1st innings,14.5,R Bhatia,B Lee,MK Tiwary,1,1,na,na
1st innings,14.6,MK Tiwary,B Lee,R Bhatia,1,0,{'legbyes': 1},na
1st innings,15.1,MK Tiwary,S Sreesanth,R Bhatia,1,1,na,na
1st innings,15.2,R Bhatia,S Sreesanth,MK Tiwary,2,2,na,na
1st innings,15.3,R Bhatia,S Sreesanth,MK Tiwary,1,0,{'legbyes': 1},na
1st innings,15.4,MK Tiwary,S Sreesanth,R Bhatia,6,6,na,na
1st innings,15.5,MK Tiwary,S Sreesanth,R Bhatia,4,4,na,na
1st innings,15.6,MK Tiwary,S Sreesanth,R Bhatia,1,1,na,na
1st innings,16.1,MK Tiwary,IK Pathan,R Bhatia,1,1,na,na
1st innings,16.2,R Bhatia,IK Pathan,MK Tiwary,1,0,{'wides': 1},na
1st innings,16.3,R Bhatia,IK Pathan,MK Tiwary,1,1,na,na
1st innings,16.4,MK Tiwary,IK Pathan,R Bhatia,0,0,na,"{'kind': 'bowled', 'player_out': 'R Bhatia'}"
1st innings,16.5,MK Tiwary,IK Pathan,MF Maharoof,1,1,na,na
1st innings,16.6,MF Maharoof,IK Pathan,MK Tiwary,1,1,na,na
1st innings,16.7,MK Tiwary,IK Pathan,MF Maharoof,1,1,na,na
1st innings,17.1,MK Tiwary,VRV Singh,MF Maharoof,2,2,na,na
1st innings,17.2,MK Tiwary,VRV Singh,MF Maharoof,1,1,na,na
1st innings,17.3,MF Maharoof,VRV Singh,MK Tiwary,4,4,na,na
1st innings,17.4,MF Maharoof,VRV Singh,MK Tiwary,4,4,na,na
1st innings,17.5,MF Maharoof,VRV Singh,MK Tiwary,0,0,na,"{'fielders': ['Yuvraj Singh'], 'kind': 'caught', 'player_out': 'MK Tiwary'}"
1st innings,17.6,VY Mahesh,VRV Singh,MF Maharoof,0,0,na,na
1st innings,18.1,MF Maharoof,B Lee,VY Mahesh,2,2,na,na
1st innings,18.2,MF Maharoof,B Lee,VY Mahesh,1,1,na,na
1st innings,18.3,VY Mahesh,B Lee,MF Maharoof,4,4,na,na
1st innings,18.4,VY Mahesh,B Lee,MF Maharoof,1,1,na,na
1st innings,18.5,MF Maharoof,B Lee,VY Mahesh,1,1,na,na
1st innings,18.6,VY Mahesh,B Lee,MF Maharoof,4,4,na,na
1st innings,19.1,MF Maharoof,IK Pathan,VY Mahesh,1,1,na,na
1st innings,19.2,VY Mahesh,IK Pathan,MF Maharoof,2,2,na,na
1st innings,19.3,VY Mahesh,IK Pathan,MF Maharoof,0,0,na,na
1st innings,19.4,VY Mahesh,IK Pathan,MF Maharoof,1,1,na,na
1st innings,19.5,MF Maharoof,IK Pathan,VY Mahesh,1,1,na,na
1st innings,19.6,VY Mahesh,IK Pathan,MF Maharoof,1,1,na,"{'fielders': ['DPMD Jayawardene', 'KC Sangakkara'], 'kind': 'run out', 'player_out': 'MF Maharoof'}"
2nd innings,0.1,SM Katich,GD McGrath,K Goel,1,1,na,na
2nd innings,0.2,K Goel,GD McGrath,SM Katich,0,0,na,na
2nd innings,0.3,K Goel,GD McGrath,SM Katich,0,0,na,na
2nd innings,0.4,K Goel,GD McGrath,SM Katich,1,0,{'legbyes': 1},na
2nd innings,0.5,SM Katich,GD McGrath,K Goel,0,0,na,na
2nd innings,0.6,SM Katich,GD McGrath,K Goel,0,0,na,"{'kind': 'lbw', 'player_out': 'K Goel'}"
2nd innings,1.1,KC Sangakkara,Mohammad Asif,SM Katich,0,0,na,na
2nd innings,1.2,KC Sangakkara,Mohammad Asif,SM Katich,0,0,na,na
2nd innings,1.3,KC Sangakkara,Mohammad Asif,SM Katich,2,2,na,na
2nd innings,1.4,KC Sangakkara,Mohammad Asif,SM Katich,3,3,na,na
2nd innings,1.5,SM Katich,Mohammad Asif,KC Sangakkara,4,4,na,na
2nd innings,1.6,SM Katich,Mohammad Asif,KC Sangakkara,0,0,na,"{'fielders': ['KD Karthik'], 'kind': 'caught', 'player_out': 'KC Sangakkara'}"
2nd innings,2.1,DPMD Jayawardene,GD McGrath,SM Katich,0,0,na,na
2nd innings,2.2,DPMD Jayawardene,GD McGrath,SM Katich,0,0,na,na
2nd innings,2.3,DPMD Jayawardene,GD McGrath,SM Katich,4,4,na,na
2nd innings,2.4,DPMD Jayawardene,GD McGrath,SM Katich,4,4,na,na
2nd innings,2.5,DPMD Jayawardene,GD McGrath,SM Katich,1,1,na,na
2nd innings,2.6,SM Katich,GD McGrath,DPMD Jayawardene,1,0,{'legbyes': 1},na
2nd innings,3.1,SM Katich,Mohammad Asif,DPMD Jayawardene,0,0,na,na
2nd innings,3.2,SM Katich,Mohammad Asif,DPMD Jayawardene,0,0,na,na
2nd innings,3.3,SM Katich,Mohammad Asif,DPMD Jayawardene,1,1,na,na
2nd innings,3.4,DPMD Jayawardene,Mohammad Asif,SM Katich,4,4,na,na
2nd innings,3.5,DPMD Jayawardene,Mohammad Asif,SM Katich,4,4,na,na
2nd innings,3.6,DPMD Jayawardene,Mohammad Asif,SM Katich,4,4,na,na
2nd innings,4.1,SM Katich,GD McGrath,DPMD Jayawardene,1,1,na,na
2nd innings,4.2,DPMD Jayawardene,GD McGrath,SM Katich,0,0,na,na
2nd innings,4.3,DPMD Jayawardene,GD McGrath,SM Katich,0,0,na,na
2nd innings,4.4,DPMD Jayawardene,GD McGrath,SM Katich,0,0,na,na
2nd innings,4.5,DPMD Jayawardene,GD McGrath,SM Katich,4,4,na,na
2nd innings,4.6,DPMD Jayawardene,GD McGrath,SM Katich,4,4,na,na
2nd innings,5.1,SM Katich,MF Maharoof,DPMD Jayawardene,2,2,na,na
2nd innings,5.2,SM Katich,MF Maharoof,DPMD Jayawardene,4,4,na,na
2nd innings,5.3,SM Katich,MF Maharoof,DPMD Jayawardene,1,1,na,na
2nd innings,5.4,DPMD Jayawardene,MF Maharoof,SM Katich,1,1,na,na
2nd innings,5.5,SM Katich,MF Maharoof,DPMD Jayawardene,0,0,na,na
2nd innings,5.6,SM Katich,MF Maharoof,DPMD Jayawardene,4,4,na,na
2nd innings,6.1,DPMD Jayawardene,VY Mahesh,SM Katich,0,0,na,na
2nd innings,6.2,DPMD Jayawardene,VY Mahesh,SM Katich,1,1,na,na
2nd innings,6.3,SM Katich,VY Mahesh,DPMD Jayawardene,1,1,na,na
2nd innings,6.4,DPMD Jayawardene,VY Mahesh,SM Katich,4,4,na,na
2nd innings,6.5,DPMD Jayawardene,VY Mahesh,SM Katich,1,1,na,na
2nd innings,6.6,SM Katich,VY Mahesh,DPMD Jayawardene,0,0,na,na
2nd innings,7.1,DPMD Jayawardene,Shoaib Malik,SM Katich,1,0,{'wides': 1},na
2nd innings,7.2,DPMD Jayawardene,Shoaib Malik,SM Katich,1,1,na,na
2nd innings,7.3,SM Katich,Shoaib Malik,DPMD Jayawardene,1,1,na,na
2nd innings,7.4,DPMD Jayawardene,Shoaib Malik,SM Katich,2,2,na,na
2nd innings,7.5,DPMD Jayawardene,Shoaib Malik,SM Katich,1,1,na,na
2nd innings,7.6,SM Katich,Shoaib Malik,DPMD Jayawardene,1,0,{'wides': 1},na
2nd innings,7.7,SM Katich,Shoaib Malik,DPMD Jayawardene,0,0,na,"{'kind': 'caught and bowled', 'player_out': 'DPMD Jayawardene'}"
2nd innings,7.8,SM Katich,Shoaib Malik,Yuvraj Singh,1,1,na,na
2nd innings,8.1,SM Katich,Mohammad Asif,Yuvraj Singh,0,0,na,na
2nd innings,8.2,SM Katich,Mohammad Asif,Yuvraj Singh,0,0,na,na
2nd innings,8.3,SM Katich,Mohammad Asif,Yuvraj Singh,1,1,na,na
2nd innings,8.4,Yuvraj Singh,Mohammad Asif,SM Katich,4,4,na,na
2nd innings,8.5,Yuvraj Singh,Mohammad Asif,SM Katich,0,0,na,na
2nd innings,8.6,Yuvraj Singh,Mohammad Asif,SM Katich,0,0,na,na
2nd innings,9.1,SM Katich,Shoaib Malik,Yuvraj Singh,1,1,na,na
2nd innings,9.2,Yuvraj Singh,Shoaib Malik,SM Katich,1,1,na,na
2nd innings,9.3,SM Katich,Shoaib Malik,Yuvraj Singh,0,0,na,na
2nd innings,9.4,SM Katich,Shoaib Malik,Yuvraj Singh,4,4,na,na
2nd innings,9.5,SM Katich,Shoaib Malik,Yuvraj Singh,0,0,na,na
2nd innings,9.6,SM Katich,Shoaib Malik,Yuvraj Singh,0,0,na,na
2nd innings,10.1,Yuvraj Singh,MF Maharoof,SM Katich,4,4,na,na
2nd innings,10.2,Yuvraj Singh,MF Maharoof,SM Katich,0,0,na,na
2nd innings,10.3,Yuvraj Singh,MF Maharoof,SM Katich,1,0,{'wides': 1},na
2nd innings,10.4,Yuvraj Singh,MF Maharoof,SM Katich,2,2,na,na
2nd innings,10.5,Yuvraj Singh,MF Maharoof,SM Katich,0,0,na,na
2nd innings,10.6,Yuvraj Singh,MF Maharoof,SM Katich,1,1,na,na
2nd innings,10.7,SM Katich,MF Maharoof,Yuvraj Singh,0,0,na,na
2nd innings,11.1,Yuvraj Singh,Shoaib Malik,SM Katich,2,2,na,na
2nd innings,11.2,Yuvraj Singh,Shoaib Malik,SM Katich,6,6,na,na
2nd innings,11.3,Yuvraj Singh,Shoaib Malik,SM Katich,0,0,na,na
2nd innings,11.4,Yuvraj Singh,Shoaib Malik,SM Katich,2,2,na,na
2nd innings,11.5,Yuvraj Singh,Shoaib Malik,SM Katich,0,0,na,na
2nd innings,11.6,Yuvraj Singh,Shoaib Malik,SM Katich,2,1,{'noballs': 1},na
2nd innings,11.7,SM Katich,Shoaib Malik,Yuvraj Singh,2,2,na,na
2nd innings,12.1,Yuvraj Singh,MF Maharoof,SM Katich,0,0,na,na
2nd innings,12.2,Yuvraj Singh,MF Maharoof,SM Katich,0,0,na,na
2nd innings,12.3,Yuvraj Singh,MF Maharoof,SM Katich,0,0,na,na
2nd innings,12.4,Yuvraj Singh,MF Maharoof,SM Katich,4,4,na,na
2nd innings,12.5,Yuvraj Singh,MF Maharoof,SM Katich,1,1,na,na
2nd innings,12.6,SM Katich,MF Maharoof,Yuvraj Singh,6,6,na,na
2nd innings,13.1,Yuvraj Singh,R Bhatia,SM Katich,0,0,na,na
2nd innings,13.2,Yuvraj Singh,R Bhatia,SM Katich,1,0,{'wides': 1},na
2nd innings,13.3,Yuvraj Singh,R Bhatia,SM Katich,1,1,na,na
2nd innings,13.4,SM Katich,R Bhatia,Yuvraj Singh,1,1,na,na
2nd innings,13.5,Yuvraj Singh,R Bhatia,SM Katich,1,1,na,na
2nd innings,13.6,SM Katich,R Bhatia,Yuvraj Singh,1,1,na,na
2nd innings,13.7,Yuvraj Singh,R Bhatia,SM Katich,0,0,na,"{'fielders': ['V Sehwag', 'R Bhatia'], 'kind': 'run out', 'player_out': 'SM Katich'}"
2nd innings,14.1,Yuvraj Singh,VY Mahesh,TM Srivastava,0,0,na,na
2nd innings,14.2,Yuvraj Singh,VY Mahesh,TM Srivastava,1,1,na,na
2nd innings,14.3,TM Srivastava,VY Mahesh,Yuvraj Singh,1,1,na,na
2nd innings,14.4,Yuvraj Singh,VY Mahesh,TM Srivastava,0,0,na,na
2nd innings,14.5,Yuvraj Singh,VY Mahesh,TM Srivastava,1,1,na,na
2nd innings,14.6,TM Srivastava,VY Mahesh,Yuvraj Singh,1,1,na,na
2nd innings,15.1,TM Srivastava,GD McGrath,Yuvraj Singh,1,1,na,na
2nd innings,15.2,Yuvraj Singh,GD McGrath,TM Srivastava,1,1,na,na
2nd innings,15.3,TM Srivastava,GD McGrath,Yuvraj Singh,6,6,na,na
2nd innings,15.4,TM Srivastava,GD McGrath,Yuvraj Singh,1,1,na,na
2nd innings,15.5,Yuvraj Singh,GD McGrath,TM Srivastava,0,0,na,na
2nd innings,15.6,Yuvraj Singh,GD McGrath,TM Srivastava,1,1,na,na
2nd innings,16.1,Yuvraj Singh,VY Mahesh,TM Srivastava,3,3,na,na
2nd innings,16.2,TM Srivastava,VY Mahesh,Yuvraj Singh,4,4,na,na
2nd innings,16.3,TM Srivastava,VY Mahesh,Yuvraj Singh,1,1,na,na
2nd innings,16.4,Yuvraj Singh,VY Mahesh,TM Srivastava,0,0,na,"{'fielders': ['KD Karthik'], 'kind': 'caught', 'player_out': 'TM Srivastava'}"
2nd innings,16.5,Yuvraj Singh,VY Mahesh,IK Pathan,0,0,na,na
2nd innings,16.6,Yuvraj Singh,VY Mahesh,IK Pathan,1,1,na,na
2nd innings,17.1,Yuvraj Singh,Mohammad Asif,IK Pathan,4,4,na,na
2nd innings,17.2,Yuvraj Singh,Mohammad Asif,IK Pathan,1,0,{'legbyes': 1},na
2nd innings,17.3,IK Pathan,Mohammad Asif,Yuvraj Singh,1,1,na,na
2nd innings,17.4,Yuvraj Singh,Mohammad Asif,IK Pathan,2,1,{'noballs': 1},na
2nd innings,17.5,IK Pathan,Mohammad Asif,Yuvraj Singh,1,1,na,na
2nd innings,17.6,Yuvraj Singh,Mohammad Asif,IK Pathan,4,4,na,na
2nd innings,17.7,Yuvraj Singh,Mohammad Asif,IK Pathan,0,0,na,"{'fielders': ['KD Karthik'], 'kind': 'caught', 'player_out': 'IK Pathan'}"
2nd innings,18.1,B Lee,VY Mahesh,Yuvraj Singh,0,0,na,na
2nd innings,18.2,B Lee,VY Mahesh,Yuvraj Singh,1,1,na,na
2nd innings,18.3,Yuvraj Singh,VY Mahesh,B Lee,0,0,na,na
2nd innings,18.4,Yuvraj Singh,VY Mahesh,B Lee,0,0,na,na
2nd innings,18.5,Yuvraj Singh,VY Mahesh,B Lee,1,1,na,na
2nd innings,18.6,B Lee,VY Mahesh,Yuvraj Singh,1,1,na,na
2nd innings,19.1,B Lee,Shoaib Malik,Yuvraj Singh,0,0,na,na
2nd innings,19.2,B Lee,Shoaib Malik,Yuvraj Singh,0,0,na,na
2nd innings,19.3,B Lee,Shoaib Malik,Yuvraj Singh,4,4,na,na
