innings,deliveries,non_striker,bowler,batsman,total_runs,batsman_runs,extras,wickets
1st innings,0.1,HH Gibbs,A Kumble,AC Gilchrist,1,1,na,na
1st innings,0.2,AC Gilchrist,A Kumble,HH Gibbs,0,0,na,na
1st innings,0.3,AC Gilchrist,A Kumble,HH Gibbs,5,0,{'wides': 5},na
1st innings,0.4,AC Gilchrist,A Kumble,HH Gibbs,1,0,{'legbyes': 1},na
1st innings,0.5,HH Gibbs,A Kumble,AC Gilchrist,0,0,na,na
1st innings,0.6,HH Gibbs,A Kumble,AC Gilchrist,1,1,na,na
1st innings,0.7,AC Gilchrist,A Kumble,HH Gibbs,0,0,na,na
1st innings,1.1,HH Gibbs,DW Steyn,AC Gilchrist,1,1,na,na
1st innings,1.2,AC Gilchrist,DW Steyn,HH Gibbs,0,0,na,na
1st innings,1.3,AC Gilchrist,DW Steyn,HH Gibbs,1,0,{'wides': 1},na
1st innings,1.4,AC Gilchrist,DW Steyn,HH Gibbs,2,2,na,na
1st innings,1.5,AC Gilchrist,DW Steyn,HH Gibbs,4,4,na,na
1st innings,1.6,AC Gilchrist,DW Steyn,HH Gibbs,0,0,na,na
1st innings,1.7,AC Gilchrist,DW Steyn,HH Gibbs,1,1,na,na
1st innings,2.1,AC Gilchrist,A Kumble,HH Gibbs,1,1,na,na
1st innings,2.2,HH Gibbs,A Kumble,AC Gilchrist,0,0,na,na
1st innings,2.3,HH Gibbs,A Kumble,AC Gilchrist,0,0,na,na
1st innings,2.4,HH Gibbs,A Kumble,AC Gilchrist,0,0,na,na
1st innings,2.5,HH Gibbs,A Kumble,AC Gilchrist,1,1,na,na
1st innings,2.6,AC Gilchrist,A Kumble,HH Gibbs,0,0,na,na
1st innings,3.1,HH Gibbs,DW Steyn,AC Gilchrist,0,0,na,na
1st innings,3.2,HH Gibbs,DW Steyn,AC Gilchrist,0,0,na,na
1st innings,3.3,HH Gibbs,DW Steyn,AC Gilchrist,1,0,{'legbyes': 1},na
1st innings,3.4,AC Gilchrist,DW Steyn,HH Gibbs,0,0,na,na
1st innings,3.5,AC Gilchrist,DW Steyn,HH Gibbs,1,1,na,na
1st innings,3.6,HH Gibbs,DW Steyn,AC Gilchrist,1,1,na,na
1st innings,4.1,HH Gibbs,JH Kallis,AC Gilchrist,0,0,na,na
1st innings,4.2,HH Gibbs,JH Kallis,AC Gilchrist,1,1,na,na
1st innings,4.3,AC Gilchrist,JH Kallis,HH Gibbs,1,1,na,na
1st innings,4.4,HH Gibbs,JH Kallis,AC Gilchrist,4,4,na,na
1st innings,4.5,HH Gibbs,JH Kallis,AC Gilchrist,4,4,na,na
1st innings,4.6,HH Gibbs,JH Kallis,AC Gilchrist,1,0,{'wides': 1},na
1st innings,4.7,HH Gibbs,JH Kallis,AC Gilchrist,1,1,na,na
1st innings,5.1,HH Gibbs,DW Steyn,AC Gilchrist,1,1,na,na
1st innings,5.2,AC Gilchrist,DW Steyn,HH Gibbs,1,1,na,na
1st innings,5.3,HH Gibbs,DW Steyn,AC Gilchrist,1,1,na,na
1st innings,5.4,AC Gilchrist,DW Steyn,HH Gibbs,0,0,na,na
1st innings,5.5,AC Gilchrist,DW Steyn,HH Gibbs,0,0,na,na
1st innings,5.6,AC Gilchrist,DW Steyn,HH Gibbs,4,4,na,na
1st innings,6.1,HH Gibbs,JH Kallis,AC Gilchrist,1,1,na,na
1st innings,6.2,AC Gilchrist,JH Kallis,HH Gibbs,6,6,na,na
1st innings,6.3,AC Gilchrist,V Kohli,HH Gibbs,1,1,na,na
1st innings,6.4,HH Gibbs,V Kohli,AC Gilchrist,1,1,na,na
1st innings,6.5,AC Gilchrist,V Kohli,HH Gibbs,1,1,na,na
1st innings,6.6,HH Gibbs,V Kohli,AC Gilchrist,0,0,na,na
1st innings,7.1,AC Gilchrist,R Vinay Kumar,HH Gibbs,0,0,na,na
1st innings,7.2,AC Gilchrist,R Vinay Kumar,HH Gibbs,4,4,na,na
1st innings,7.3,AC Gilchrist,R Vinay Kumar,HH Gibbs,6,6,na,na
1st innings,7.4,AC Gilchrist,R Vinay Kumar,HH Gibbs,0,0,na,na
1st innings,7.5,AC Gilchrist,R Vinay Kumar,HH Gibbs,0,0,na,na
1st innings,7.6,AC Gilchrist,R Vinay Kumar,HH Gibbs,4,4,na,na
1st innings,8.1,HH Gibbs,B Akhil,AC Gilchrist,2,2,na,na
1st innings,8.2,HH Gibbs,B Akhil,AC Gilchrist,1,1,na,na
1st innings,8.3,AC Gilchrist,B Akhil,HH Gibbs,4,4,na,na
1st innings,8.4,AC Gilchrist,B Akhil,HH Gibbs,0,0,na,na
1st innings,8.5,AC Gilchrist,B Akhil,HH Gibbs,4,4,na,na
1st innings,8.6,AC Gilchrist,B Akhil,HH Gibbs,0,0,na,na
1st innings,9.1,HH Gibbs,V Kohli,AC Gilchrist,0,0,na,na
1st innings,9.2,HH Gibbs,V Kohli,AC Gilchrist,1,1,na,na
1st innings,9.3,AC Gilchrist,V Kohli,HH Gibbs,1,1,na,na
1st innings,9.4,HH Gibbs,V Kohli,AC Gilchrist,1,1,na,na
1st innings,9.5,AC Gilchrist,V Kohli,HH Gibbs,1,1,na,na
1st innings,9.6,HH Gibbs,V Kohli,AC Gilchrist,1,1,na,na
1st innings,10.1,HH Gibbs,B Akhil,AC Gilchrist,6,6,na,na
1st innings,10.2,HH Gibbs,B Akhil,AC Gilchrist,6,6,na,na
1st innings,10.3,HH Gibbs,B Akhil,AC Gilchrist,0,0,na,na
1st innings,10.4,HH Gibbs,B Akhil,AC Gilchrist,4,4,na,na
1st innings,10.5,HH Gibbs,B Akhil,AC Gilchrist,0,0,na,na
1st innings,10.6,HH Gibbs,B Akhil,AC Gilchrist,4,4,na,na
1st innings,11.1,AC Gilchrist,A Kumble,HH Gibbs,0,0,na,na
1st innings,11.2,AC Gilchrist,A Kumble,HH Gibbs,0,0,na,"{'fielders': ['SP Goswami'], 'kind': 'stumped', 'player_out': 'HH Gibbs'}"
1st innings,11.3,AC Gilchrist,A Kumble,RG Sharma,1,1,na,na
1st innings,11.4,RG Sharma,A Kumble,AC Gilchrist,1,1,na,na
1st innings,11.5,AC Gilchrist,A Kumble,RG Sharma,4,4,na,na
1st innings,11.6,AC Gilchrist,A Kumble,RG Sharma,1,1,na,na
1st innings,12.1,AC Gilchrist,R Vinay Kumar,RG Sharma,1,1,na,na
1st innings,12.2,RG Sharma,R Vinay Kumar,AC Gilchrist,0,0,na,na
1st innings,12.3,RG Sharma,R Vinay Kumar,AC Gilchrist,0,0,na,"{'fielders': ['B Akhil'], 'kind': 'caught', 'player_out': 'AC Gilchrist'}"
1st innings,12.4,LPC Silva,R Vinay Kumar,RG Sharma,0,0,na,na
1st innings,12.5,LPC Silva,R Vinay Kumar,RG Sharma,0,0,na,na
1st innings,12.6,LPC Silva,R Vinay Kumar,RG Sharma,0,0,na,na
1st innings,13.1,RG Sharma,V Kohli,LPC Silva,0,0,na,na
1st innings,13.2,RG Sharma,V Kohli,LPC Silva,0,0,na,"{'fielders': ['SP Goswami'], 'kind': 'caught', 'player_out': 'LPC Silva'}"
1st innings,13.3,RG Sharma,V Kohli,Y Venugopal Rao,1,1,na,na
1st innings,13.4,Y Venugopal Rao,V Kohli,RG Sharma,2,2,na,na
1st innings,13.5,Y Venugopal Rao,V Kohli,RG Sharma,2,1,{'noballs': 1},na
1st innings,13.6,RG Sharma,V Kohli,Y Venugopal Rao,1,1,na,na
1st innings,13.7,Y Venugopal Rao,V Kohli,RG Sharma,1,0,{'wides': 1},na
1st innings,13.8,Y Venugopal Rao,V Kohli,RG Sharma,1,1,na,na
1st innings,14.1,Y Venugopal Rao,R Vinay Kumar,RG Sharma,2,2,na,na
1st innings,14.2,Y Venugopal Rao,R Vinay Kumar,RG Sharma,0,0,na,na
1st innings,14.3,Y Venugopal Rao,R Vinay Kumar,RG Sharma,0,0,na,na
1st innings,14.4,Y Venugopal Rao,R Vinay Kumar,RG Sharma,4,4,na,na
1st innings,14.5,Y Venugopal Rao,R Vinay Kumar,RG Sharma,0,0,na,na
1st innings,14.6,Y Venugopal Rao,R Vinay Kumar,RG Sharma,0,0,na,"{'fielders': ['DW Steyn'], 'kind': 'caught', 'player_out': 'RG Sharma'}"
1st innings,15.1,Y Venugopal Rao,B Akhil,DB Ravi Teja,1,1,na,na
1st innings,15.2,DB Ravi Teja,B Akhil,Y Venugopal Rao,1,1,na,na
1st innings,15.3,Y Venugopal Rao,B Akhil,DB Ravi Teja,4,4,na,na
1st innings,15.4,Y Venugopal Rao,B Akhil,DB Ravi Teja,1,1,na,na
1st innings,15.5,DB Ravi Teja,B Akhil,Y Venugopal Rao,1,1,na,na
1st innings,15.6,Y Venugopal Rao,B Akhil,DB Ravi Teja,0,0,na,na
1st innings,16.1,DB Ravi Teja,A Kumble,Y Venugopal Rao,0,0,na,na
1st innings,16.2,DB Ravi Teja,A Kumble,Y Venugopal Rao,1,1,na,na
1st innings,16.3,Y Venugopal Rao,A Kumble,DB Ravi Teja,1,0,{'legbyes': 1},na
1st innings,16.4,DB Ravi Teja,A Kumble,Y Venugopal Rao,6,6,na,na
1st innings,16.5,DB Ravi Teja,A Kumble,Y Venugopal Rao,4,4,na,na
1st innings,16.6,DB Ravi Teja,A Kumble,Y Venugopal Rao,6,6,na,na
1st innings,17.1,Y Venugopal Rao,V Kohli,DB Ravi Teja,1,1,na,na
1st innings,17.2,DB Ravi Teja,V Kohli,Y Venugopal Rao,1,1,na,na
1st innings,17.3,Y Venugopal Rao,V Kohli,DB Ravi Teja,0,0,na,"{'kind': 'bowled', 'player_out': 'DB Ravi Teja'}"
1st innings,17.4,Y Venugopal Rao,V Kohli,AS Yadav,0,0,na,na
1st innings,17.5,Y Venugopal Rao,V Kohli,AS Yadav,6,6,na,na
1st innings,17.6,Y Venugopal Rao,V Kohli,AS Yadav,1,1,na,na
1st innings,18.1,Y Venugopal Rao,R Vinay Kumar,AS Yadav,1,1,na,na
1st innings,18.2,AS Yadav,R Vinay Kumar,Y Venugopal Rao,5,4,{'noballs': 1},na
1st innings,18.3,AS Yadav,R Vinay Kumar,Y Venugopal Rao,0,0,na,"{'fielders': ['W Jaffer'], 'kind': 'caught', 'player_out': 'Y Venugopal Rao'}"
1st innings,18.4,SB Bangar,R Vinay Kumar,AS Yadav,0,0,na,"{'fielders': ['R Vinay Kumar'], 'kind': 'run out', 'player_out': 'SB Bangar'}"
1st innings,18.5,AS Yadav,R Vinay Kumar,WPUJC Vaas,0,0,na,na
1st innings,18.6,AS Yadav,R Vinay Kumar,WPUJC Vaas,0,0,na,na
1st innings,18.7,AS Yadav,R Vinay Kumar,WPUJC Vaas,0,0,na,na
1st innings,19.1,WPUJC Vaas,DW Steyn,AS Yadav,0,0,na,na
1st innings,19.2,WPUJC Vaas,DW Steyn,AS Yadav,0,0,na,"{'fielders': ['SP Goswami'], 'kind': 'run out', 'player_out': 'WPUJC Vaas'}"
1st innings,19.3,AS Yadav,DW Steyn,RP Singh,1,1,na,na
1st innings,19.4,RP Singh,DW Steyn,AS Yadav,0,0,na,"{'fielders': ['B Chipli (sub)'], 'kind': 'caught', 'player_out': 'AS Yadav'}"
1st innings,19.5,DP Vijaykumar,DW Steyn,RP Singh,0,0,na,na
1st innings,19.6,DP Vijaykumar,DW Steyn,RP Singh,0,0,na,"{'kind': 'bowled', 'player_out': 'RP Singh'}"
2nd innings,0.1,W Jaffer,WPUJC Vaas,JH Kallis,0,0,na,na
2nd innings,0.2,W Jaffer,WPUJC Vaas,JH Kallis,0,0,na,na
2nd innings,0.3,W Jaffer,WPUJC Vaas,JH Kallis,0,0,na,na
2nd innings,0.4,W Jaffer,WPUJC Vaas,JH Kallis,4,4,na,na
2nd innings,0.5,W Jaffer,WPUJC Vaas,JH Kallis,4,4,na,na
2nd innings,0.6,W Jaffer,WPUJC Vaas,JH Kallis,2,2,na,na
2nd innings,1.1,JH Kallis,RP Singh,W Jaffer,1,1,na,na
2nd innings,1.2,W Jaffer,RP Singh,JH Kallis,1,1,na,na
2nd innings,1.3,JH Kallis,RP Singh,W Jaffer,0,0,na,na
2nd innings,1.4,JH Kallis,RP Singh,W Jaffer,0,0,na,na
2nd innings,1.5,JH Kallis,RP Singh,W Jaffer,0,0,na,na
2nd innings,1.6,JH Kallis,RP Singh,W Jaffer,4,4,na,na
2nd innings,2.1,W Jaffer,WPUJC Vaas,JH Kallis,0,0,na,na
2nd innings,2.2,W Jaffer,WPUJC Vaas,JH Kallis,4,4,na,na
2nd innings,2.3,W Jaffer,WPUJC Vaas,JH Kallis,0,0,na,na
2nd innings,2.4,W Jaffer,WPUJC Vaas,JH Kallis,0,0,na,"{'fielders': ['AS Yadav'], 'kind': 'run out', 'player_out': 'W Jaffer'}"
2nd innings,2.5,Misbah-ul-Haq,WPUJC Vaas,JH Kallis,4,4,na,na
2nd innings,2.6,Misbah-ul-Haq,WPUJC Vaas,JH Kallis,0,0,na,na
2nd innings,3.1,JH Kallis,RP Singh,Misbah-ul-Haq,0,0,na,na
2nd innings,3.2,JH Kallis,RP Singh,Misbah-ul-Haq,4,4,na,na
2nd innings,3.3,JH Kallis,RP Singh,Misbah-ul-Haq,1,1,na,na
2nd innings,3.4,Misbah-ul-Haq,RP Singh,JH Kallis,0,0,na,na
2nd innings,3.5,Misbah-ul-Haq,RP Singh,JH Kallis,0,0,na,na
2nd innings,3.6,Misbah-ul-Haq,RP Singh,JH Kallis,1,1,na,na
2nd innings,4.1,Misbah-ul-Haq,SB Bangar,JH Kallis,0,0,na,na
2nd innings,4.2,Misbah-ul-Haq,SB Bangar,JH Kallis,1,1,na,na
2nd innings,4.3,JH Kallis,SB Bangar,Misbah-ul-Haq,0,0,na,na
2nd innings,4.4,JH Kallis,SB Bangar,Misbah-ul-Haq,0,0,na,na
2nd innings,4.5,JH Kallis,SB Bangar,Misbah-ul-Haq,1,0,{'legbyes': 1},na
2nd innings,4.6,Misbah-ul-Haq,SB Bangar,JH Kallis,4,4,na,na
2nd innings,5.1,JH Kallis,DP Vijaykumar,Misbah-ul-Haq,1,0,{'legbyes': 1},na
2nd innings,5.2,Misbah-ul-Haq,DP Vijaykumar,JH Kallis,1,1,na,na
2nd innings,5.3,JH Kallis,DP Vijaykumar,Misbah-ul-Haq,0,0,na,na
2nd innings,5.4,JH Kallis,DP Vijaykumar,Misbah-ul-Haq,1,1,na,na
2nd innings,5.5,Misbah-ul-Haq,DP Vijaykumar,JH Kallis,4,4,na,na
2nd innings,5.6,Misbah-ul-Haq,DP Vijaykumar,JH Kallis,0,0,na,na
2nd innings,6.1,JH Kallis,SB Bangar,Misbah-ul-Haq,0,0,na,na
2nd innings,6.2,JH Kallis,SB Bangar,Misbah-ul-Haq,1,1,na,na
2nd innings,6.3,Misbah-ul-Haq,SB Bangar,JH Kallis,0,0,na,na
2nd innings,6.4,Misbah-ul-Haq,SB Bangar,JH Kallis,1,1,na,na
2nd innings,6.5,JH Kallis,SB Bangar,Misbah-ul-Haq,1,1,na,na
2nd innings,6.6,Misbah-ul-Haq,SB Bangar,JH Kallis,0,0,na,"{'fielders': ['LPC Silva'], 'kind': 'run out', 'player_out': 'JH Kallis'}"
2nd innings,7.1,Misbah-ul-Haq,DP Vijaykumar,R Dravid,1,1,na,na
2nd innings,7.2,R Dravid,DP Vijaykumar,Misbah-ul-Haq,1,1,na,na
2nd innings,7.3,Misbah-ul-Haq,DP Vijaykumar,R Dravid,1,1,na,na
2nd innings,7.4,R Dravid,DP Vijaykumar,Misbah-ul-Haq,4,4,na,na
2nd innings,7.5,R Dravid,DP Vijaykumar,Misbah-ul-Haq,0,0,na,na
2nd innings,7.6,R Dravid,DP Vijaykumar,Misbah-ul-Haq,0,0,na,na
2nd innings,8.1,Misbah-ul-Haq,SB Bangar,R Dravid,0,0,na,na
2nd innings,8.2,Misbah-ul-Haq,SB Bangar,R Dravid,1,1,na,na
2nd innings,8.3,R Dravid,SB Bangar,Misbah-ul-Haq,1,1,na,na
2nd innings,8.4,Misbah-ul-Haq,SB Bangar,R Dravid,1,1,na,na
2nd innings,8.5,R Dravid,SB Bangar,Misbah-ul-Haq,0,0,na,na
2nd innings,8.6,R Dravid,SB Bangar,Misbah-ul-Haq,2,2,na,na
2nd innings,9.1,Misbah-ul-Haq,DP Vijaykumar,R Dravid,0,0,na,na
2nd innings,9.2,Misbah-ul-Haq,DP Vijaykumar,R Dravid,1,1,na,na
2nd innings,9.3,R Dravid,DP Vijaykumar,Misbah-ul-Haq,0,0,na,na
2nd innings,9.4,R Dravid,DP Vijaykumar,Misbah-ul-Haq,0,0,na,na
2nd innings,9.5,R Dravid,DP Vijaykumar,Misbah-ul-Haq,1,1,na,na
2nd innings,9.6,Misbah-ul-Haq,DP Vijaykumar,R Dravid,1,1,na,na
2nd innings,10.1,Misbah-ul-Haq,Y Venugopal Rao,R Dravid,1,1,na,na
2nd innings,10.2,R Dravid,Y Venugopal Rao,Misbah-ul-Haq,6,6,na,na
2nd innings,10.3,R Dravid,Y Venugopal Rao,Misbah-ul-Haq,4,4,na,na
2nd innings,10.4,R Dravid,Y Venugopal Rao,Misbah-ul-Haq,4,4,na,na
2nd innings,10.5,R Dravid,Y Venugopal Rao,Misbah-ul-Haq,2,2,na,na
2nd innings,10.6,R Dravid,Y Venugopal Rao,Misbah-ul-Haq,1,1,na,na
2nd innings,11.1,R Dravid,DB Ravi Teja,Misbah-ul-Haq,0,0,na,"{'fielders': ['LPC Silva'], 'kind': 'caught', 'player_out': 'Misbah-ul-Haq'}"
2nd innings,11.2,CL White,DB Ravi Teja,R Dravid,1,1,na,na
2nd innings,11.3,R Dravid,DB Ravi Teja,CL White,0,0,na,na
2nd innings,11.4,R Dravid,DB Ravi Teja,CL White,1,1,na,na
2nd innings,11.5,CL White,DB Ravi Teja,R Dravid,1,1,na,na
2nd innings,11.6,R Dravid,DB Ravi Teja,CL White,1,1,na,na
2nd innings,12.1,R Dravid,WPUJC Vaas,CL White,1,1,na,na
2nd innings,12.2,CL White,WPUJC Vaas,R Dravid,1,1,na,na
2nd innings,12.3,R Dravid,WPUJC Vaas,CL White,0,0,na,na
2nd innings,12.4,R Dravid,WPUJC Vaas,CL White,1,1,na,na
2nd innings,12.5,CL White,WPUJC Vaas,R Dravid,1,1,na,na
2nd innings,12.6,R Dravid,WPUJC Vaas,CL White,1,1,na,na
2nd innings,13.1,R Dravid,DB Ravi Teja,CL White,0,0,na,na
2nd innings,13.2,R Dravid,DB Ravi Teja,CL White,1,1,na,na
2nd innings,13.3,CL White,DB Ravi Teja,R Dravid,1,1,na,na
2nd innings,13.4,R Dravid,DB Ravi Teja,CL White,6,6,na,na
2nd innings,13.5,R Dravid,DB Ravi Teja,CL White,1,1,na,na
2nd innings,13.6,CL White,DB Ravi Teja,R Dravid,6,6,na,na
2nd innings,14.1,R Dravid,RP Singh,CL White,0,0,na,na
2nd innings,14.2,R Dravid,RP Singh,CL White,1,1,na,na
2nd innings,14.3,CL White,RP Singh,R Dravid,0,0,na,na
2nd innings,14.4,CL White,RP Singh,R Dravid,1,1,na,na
2nd innings,14.5,R Dravid,RP Singh,CL White,0,0,na,na
2nd innings,14.6,R Dravid,RP Singh,CL White,1,1,na,na
2nd innings,15.1,R Dravid,SB Bangar,CL White,1,1,na,na
2nd innings,15.2,CL White,SB Bangar,R Dravid,4,4,na,na
2nd innings,15.3,CL White,SB Bangar,R Dravid,4,4,na,na
2nd innings,15.4,CL White,SB Bangar,R Dravid,4,4,na,na
2nd innings,15.5,CL White,SB Bangar,R Dravid,0,0,na,"{'fielders': ['AC Gilchrist'], 'kind': 'caught', 'player_out': 'R Dravid'}"
2nd innings,15.6,CL White,SB Bangar,V Kohli,4,4,na,na
2nd innings,16.1,V Kohli,DP Vijaykumar,CL White,4,4,na,na
2nd innings,16.2,V Kohli,DP Vijaykumar,CL White,6,6,na,na
2nd innings,16.3,V Kohli,DP Vijaykumar,CL White,1,1,na,na
2nd innings,16.4,CL White,DP Vijaykumar,V Kohli,1,1,na,na
2nd innings,16.5,V Kohli,DP Vijaykumar,CL White,1,1,na,na
2nd innings,16.6,CL White,DP Vijaykumar,V Kohli,1,0,{'legbyes': 1},na
2nd innings,17.1,CL White,WPUJC Vaas,V Kohli,4,4,na,na
2nd innings,17.2,CL White,WPUJC Vaas,V Kohli,0,0,na,"{'fielders': ['DB Ravi Teja'], 'kind': 'caught', 'player_out': 'V Kohli'}"
2nd innings,17.3,B Akhil,WPUJC Vaas,CL White,1,1,na,na
2nd innings,17.4,CL White,WPUJC Vaas,B Akhil,4,4,na,na
2nd innings,17.5,CL White,WPUJC Vaas,B Akhil,4,4,na,na
2nd innings,17.6,CL White,WPUJC Vaas,B Akhil,0,0,na,na
2nd innings,18.1,B Akhil,LPC Silva,CL White,1,1,na,na
2nd innings,18.2,CL White,LPC Silva,B Akhil,6,6,na,na
2nd innings,18.3,CL White,LPC Silva,B Akhil,6,6,na,na
2nd innings,18.4,CL White,LPC Silva,B Akhil,1,1,na,na
2nd innings,18.5,B Akhil,LPC Silva,CL White,1,1,na,na
2nd innings,18.6,CL White,LPC Silva,B Akhil,6,6,na,na
