innings,deliveries,non_striker,bowler,batsman,total_runs,batsman_runs,extras,wickets
1st innings,0.1,SP Goswami,SM Pollock,MV Boucher,1,1,na,na
1st innings,0.2,MV Boucher,SM Pollock,SP Goswami,1,1,na,na
1st innings,0.3,SP Goswami,SM Pollock,MV Boucher,3,3,na,na
1st innings,0.4,MV Boucher,SM Pollock,SP Goswami,0,0,na,na
1st innings,0.5,MV Boucher,SM Pollock,SP Goswami,0,0,na,na
1st innings,0.6,MV Boucher,SM Pollock,SP Goswami,1,1,na,na
1st innings,1.1,MV Boucher,A Nehra,SP Goswami,2,2,na,na
1st innings,1.2,MV Boucher,A Nehra,SP Goswami,0,0,na,na
1st innings,1.3,MV Boucher,A Nehra,SP Goswami,2,2,na,na
1st innings,1.4,MV Boucher,A Nehra,SP Goswami,0,0,na,na
1st innings,1.5,MV Boucher,A Nehra,SP Goswami,1,1,na,na
1st innings,1.6,SP Goswami,A Nehra,MV Boucher,0,0,na,na
1st innings,2.1,MV Boucher,SM Pollock,SP Goswami,4,4,na,na
1st innings,2.2,MV Boucher,SM Pollock,SP Goswami,0,0,na,na
1st innings,2.3,MV Boucher,SM Pollock,SP Goswami,1,1,na,na
1st innings,2.4,SP Goswami,SM Pollock,MV Boucher,0,0,na,na
1st innings,2.5,SP Goswami,SM Pollock,MV Boucher,1,1,na,na
1st innings,2.6,MV Boucher,SM Pollock,SP Goswami,1,1,na,na
1st innings,3.1,MV Boucher,A Nehra,SP Goswami,1,1,na,na
1st innings,3.2,SP Goswami,A Nehra,MV Boucher,0,0,na,na
1st innings,3.3,SP Goswami,A Nehra,MV Boucher,0,0,na,na
1st innings,3.4,SP Goswami,A Nehra,MV Boucher,4,4,na,na
1st innings,3.5,SP Goswami,A Nehra,MV Boucher,0,0,na,na
1st innings,3.6,SP Goswami,A Nehra,MV Boucher,4,4,na,na
1st innings,4.1,MV Boucher,SM Pollock,SP Goswami,0,0,na,na
1st innings,4.2,MV Boucher,SM Pollock,SP Goswami,1,1,na,na
1st innings,4.3,SP Goswami,SM Pollock,MV Boucher,4,4,na,na
1st innings,4.4,SP Goswami,SM Pollock,MV Boucher,0,0,na,na
1st innings,4.5,SP Goswami,SM Pollock,MV Boucher,1,1,na,na
1st innings,4.6,MV Boucher,SM Pollock,SP Goswami,1,1,na,na
1st innings,5.1,MV Boucher,CRD Fernando,SP Goswami,1,1,na,na
1st innings,5.2,SP Goswami,CRD Fernando,MV Boucher,0,0,na,na
1st innings,5.3,SP Goswami,CRD Fernando,MV Boucher,0,0,na,"{'fielders': ['RV Uthappa'], 'kind': 'caught', 'player_out': 'MV Boucher'}"
1st innings,5.4,Misbah-ul-Haq,CRD Fernando,SP Goswami,0,0,na,na
1st innings,5.5,Misbah-ul-Haq,CRD Fernando,SP Goswami,1,1,na,na
1st innings,5.6,SP Goswami,CRD Fernando,Misbah-ul-Haq,0,0,na,"{'fielders': ['SR Tendulkar'], 'kind': 'caught', 'player_out': 'Misbah-ul-Haq'}"
1st innings,6.1,R Dravid,SM Pollock,SP Goswami,1,1,na,na
1st innings,6.2,SP Goswami,SM Pollock,R Dravid,0,0,na,na
1st innings,6.3,SP Goswami,SM Pollock,R Dravid,1,1,na,na
1st innings,6.4,R Dravid,SM Pollock,SP Goswami,0,0,na,na
1st innings,6.5,R Dravid,SM Pollock,SP Goswami,1,1,na,na
1st innings,6.6,SP Goswami,SM Pollock,R Dravid,0,0,na,na
1st innings,7.1,R Dravid,CRD Fernando,SP Goswami,0,0,na,"{'fielders': ['A Nehra'], 'kind': 'caught', 'player_out': 'SP Goswami'}"
1st innings,7.2,CL White,CRD Fernando,R Dravid,1,1,na,na
1st innings,7.3,R Dravid,CRD Fernando,CL White,0,0,na,na
1st innings,7.4,R Dravid,CRD Fernando,CL White,0,0,na,na
1st innings,7.5,R Dravid,CRD Fernando,CL White,0,0,na,na
1st innings,7.6,R Dravid,CRD Fernando,CL White,0,0,na,na
1st innings,8.1,CL White,DS Kulkarni,R Dravid,1,1,na,na
1st innings,8.2,R Dravid,DS Kulkarni,CL White,1,1,na,na
1st innings,8.3,CL White,DS Kulkarni,R Dravid,1,1,na,na
1st innings,8.4,R Dravid,DS Kulkarni,CL White,1,0,{'wides': 1},na
1st innings,8.5,R Dravid,DS Kulkarni,CL White,1,1,na,na
1st innings,8.6,CL White,DS Kulkarni,R Dravid,0,0,na,na
1st innings,8.7,CL White,DS Kulkarni,R Dravid,0,0,na,na
1st innings,9.1,R Dravid,DR Smith,CL White,2,2,na,na
1st innings,9.2,R Dravid,DR Smith,CL White,1,1,na,na
1st innings,9.3,CL White,DR Smith,R Dravid,2,2,na,na
1st innings,9.4,CL White,DR Smith,R Dravid,1,1,na,na
1st innings,9.5,R Dravid,DR Smith,CL White,4,4,na,na
1st innings,9.6,R Dravid,DR Smith,CL White,1,1,na,na
1st innings,10.1,R Dravid,DS Kulkarni,CL White,1,1,na,na
1st innings,10.2,CL White,DS Kulkarni,R Dravid,1,1,na,na
1st innings,10.3,R Dravid,DS Kulkarni,CL White,5,4,{'noballs': 1},na
1st innings,10.4,R Dravid,DS Kulkarni,CL White,6,6,na,na
1st innings,10.5,R Dravid,DS Kulkarni,CL White,4,4,na,na
1st innings,10.6,R Dravid,DS Kulkarni,CL White,0,0,na,na
1st innings,10.7,R Dravid,DS Kulkarni,CL White,1,1,na,na
1st innings,11.1,R Dravid,DR Smith,CL White,0,0,na,na
1st innings,11.2,R Dravid,DR Smith,CL White,0,0,na,na
1st innings,11.3,R Dravid,DR Smith,CL White,0,0,na,na
1st innings,11.4,R Dravid,DR Smith,CL White,0,0,na,"{'fielders': ['CRD Fernando'], 'kind': 'caught', 'player_out': 'CL White'}"
1st innings,11.5,V Kohli,DR Smith,R Dravid,0,0,na,na
1st innings,11.6,V Kohli,DR Smith,R Dravid,1,1,na,na
1st innings,12.1,V Kohli,A Nehra,R Dravid,1,1,na,na
1st innings,12.2,R Dravid,A Nehra,V Kohli,0,0,na,"{'fielders': ['YV Takawale'], 'kind': 'caught', 'player_out': 'V Kohli'}"
1st innings,12.3,R Dravid,A Nehra,B Akhil,4,4,na,na
1st innings,12.4,R Dravid,A Nehra,B Akhil,0,0,na,na
1st innings,12.5,R Dravid,A Nehra,B Akhil,1,1,na,na
1st innings,12.6,B Akhil,A Nehra,R Dravid,1,1,na,na
1st innings,13.1,B Akhil,DR Smith,R Dravid,0,0,na,"{'kind': 'bowled', 'player_out': 'R Dravid'}"
1st innings,13.2,B Akhil,DR Smith,P Kumar,0,0,na,na
1st innings,13.3,B Akhil,DR Smith,P Kumar,1,1,na,na
1st innings,13.4,P Kumar,DR Smith,B Akhil,0,0,na,"{'kind': 'lbw', 'player_out': 'B Akhil'}"
1st innings,13.5,P Kumar,DR Smith,R Vinay Kumar,0,0,na,na
1st innings,13.6,P Kumar,DR Smith,R Vinay Kumar,1,1,na,na
1st innings,14.1,P Kumar,CRD Fernando,R Vinay Kumar,1,0,{'wides': 1},na
1st innings,14.2,P Kumar,CRD Fernando,R Vinay Kumar,0,0,na,na
1st innings,14.3,P Kumar,CRD Fernando,R Vinay Kumar,4,4,na,na
1st innings,14.4,P Kumar,CRD Fernando,R Vinay Kumar,2,2,na,na
1st innings,14.5,P Kumar,CRD Fernando,R Vinay Kumar,0,0,na,na
1st innings,14.6,P Kumar,CRD Fernando,R Vinay Kumar,1,1,na,na
1st innings,14.7,R Vinay Kumar,CRD Fernando,P Kumar,0,0,na,na
1st innings,15.1,P Kumar,DR Smith,R Vinay Kumar,5,0,{'wides': 5},na
1st innings,15.2,P Kumar,DR Smith,R Vinay Kumar,0,0,na,na
1st innings,15.3,P Kumar,DR Smith,R Vinay Kumar,1,1,na,na
1st innings,15.4,R Vinay Kumar,DR Smith,P Kumar,0,0,na,na
1st innings,15.5,R Vinay Kumar,DR Smith,P Kumar,1,1,na,na
1st innings,15.6,P Kumar,DR Smith,R Vinay Kumar,4,4,na,na
1st innings,15.7,P Kumar,DR Smith,R Vinay Kumar,1,1,na,na
1st innings,16.1,P Kumar,DS Kulkarni,R Vinay Kumar,1,1,na,na
1st innings,16.2,R Vinay Kumar,DS Kulkarni,P Kumar,4,4,na,na
1st innings,16.3,R Vinay Kumar,DS Kulkarni,P Kumar,0,0,na,na
1st innings,16.4,R Vinay Kumar,DS Kulkarni,P Kumar,1,1,na,na
1st innings,16.5,P Kumar,DS Kulkarni,R Vinay Kumar,1,0,{'wides': 1},na
1st innings,16.6,P Kumar,DS Kulkarni,R Vinay Kumar,1,0,{'wides': 1},na
1st innings,16.7,P Kumar,DS Kulkarni,R Vinay Kumar,0,0,na,na
1st innings,16.8,P Kumar,DS Kulkarni,R Vinay Kumar,1,0,{'wides': 1},na
1st innings,16.9,P Kumar,DS Kulkarni,R Vinay Kumar,2,2,na,na
1st innings,17.1,R Vinay Kumar,CRD Fernando,P Kumar,0,0,na,na
1st innings,17.2,R Vinay Kumar,CRD Fernando,P Kumar,1,1,na,na
1st innings,17.3,P Kumar,CRD Fernando,R Vinay Kumar,0,0,na,na
1st innings,17.4,P Kumar,CRD Fernando,R Vinay Kumar,6,6,na,na
1st innings,17.5,P Kumar,CRD Fernando,R Vinay Kumar,0,0,na,"{'fielders': ['RV Uthappa'], 'kind': 'caught', 'player_out': 'R Vinay Kumar'}"
1st innings,17.6,A Kumble,CRD Fernando,P Kumar,0,0,na,"{'fielders': ['YV Takawale', 'CRD Fernando'], 'kind': 'run out', 'player_out': 'P Kumar'}"
2nd innings,0.1,SR Tendulkar,A Kumble,ST Jayasuriya,2,2,na,na
2nd innings,0.2,SR Tendulkar,A Kumble,ST Jayasuriya,4,4,na,na
2nd innings,0.3,SR Tendulkar,A Kumble,ST Jayasuriya,1,1,na,na
2nd innings,0.4,ST Jayasuriya,A Kumble,SR Tendulkar,1,1,na,na
2nd innings,0.5,SR Tendulkar,A Kumble,ST Jayasuriya,1,1,na,na
2nd innings,0.6,ST Jayasuriya,A Kumble,SR Tendulkar,0,0,na,na
2nd innings,1.1,SR Tendulkar,DW Steyn,ST Jayasuriya,0,0,na,na
2nd innings,1.2,SR Tendulkar,DW Steyn,ST Jayasuriya,1,0,{'wides': 1},na
2nd innings,1.3,SR Tendulkar,DW Steyn,ST Jayasuriya,0,0,na,na
2nd innings,1.4,SR Tendulkar,DW Steyn,ST Jayasuriya,0,0,na,na
2nd innings,1.5,SR Tendulkar,DW Steyn,ST Jayasuriya,0,0,na,na
2nd innings,1.6,SR Tendulkar,DW Steyn,ST Jayasuriya,0,0,na,na
2nd innings,1.7,SR Tendulkar,DW Steyn,ST Jayasuriya,0,0,na,na
2nd innings,2.1,ST Jayasuriya,P Kumar,SR Tendulkar,0,0,na,na
2nd innings,2.2,ST Jayasuriya,P Kumar,SR Tendulkar,0,0,na,na
2nd innings,2.3,ST Jayasuriya,P Kumar,SR Tendulkar,0,0,na,na
2nd innings,2.4,ST Jayasuriya,P Kumar,SR Tendulkar,0,0,na,na
2nd innings,2.5,ST Jayasuriya,P Kumar,SR Tendulkar,1,1,na,na
2nd innings,2.6,SR Tendulkar,P Kumar,ST Jayasuriya,6,6,na,na
2nd innings,3.1,ST Jayasuriya,DW Steyn,SR Tendulkar,0,0,na,na
2nd innings,3.2,ST Jayasuriya,DW Steyn,SR Tendulkar,1,1,na,na
2nd innings,3.3,SR Tendulkar,DW Steyn,ST Jayasuriya,0,0,na,na
2nd innings,3.4,SR Tendulkar,DW Steyn,ST Jayasuriya,1,0,{'legbyes': 1},na
2nd innings,3.5,ST Jayasuriya,DW Steyn,SR Tendulkar,1,1,na,na
2nd innings,3.6,SR Tendulkar,DW Steyn,ST Jayasuriya,1,0,{'wides': 1},na
2nd innings,3.7,SR Tendulkar,DW Steyn,ST Jayasuriya,1,1,na,na
2nd innings,4.1,SR Tendulkar,P Kumar,ST Jayasuriya,1,1,na,na
2nd innings,4.2,ST Jayasuriya,P Kumar,SR Tendulkar,0,0,na,na
2nd innings,4.3,ST Jayasuriya,P Kumar,SR Tendulkar,0,0,na,na
2nd innings,4.4,ST Jayasuriya,P Kumar,SR Tendulkar,4,4,na,na
2nd innings,4.5,ST Jayasuriya,P Kumar,SR Tendulkar,2,2,na,na
2nd innings,4.6,ST Jayasuriya,P Kumar,SR Tendulkar,1,0,{'wides': 1},na
2nd innings,4.7,ST Jayasuriya,P Kumar,SR Tendulkar,5,0,{'wides': 5},na
2nd innings,4.8,ST Jayasuriya,P Kumar,SR Tendulkar,1,1,na,na
2nd innings,5.1,ST Jayasuriya,R Vinay Kumar,SR Tendulkar,0,0,na,na
2nd innings,5.2,ST Jayasuriya,R Vinay Kumar,SR Tendulkar,1,1,na,na
2nd innings,5.3,SR Tendulkar,R Vinay Kumar,ST Jayasuriya,0,0,na,na
2nd innings,5.4,SR Tendulkar,R Vinay Kumar,ST Jayasuriya,0,0,na,na
2nd innings,5.5,SR Tendulkar,R Vinay Kumar,ST Jayasuriya,1,1,na,na
2nd innings,5.6,ST Jayasuriya,R Vinay Kumar,SR Tendulkar,1,1,na,na
2nd innings,6.1,ST Jayasuriya,B Akhil,SR Tendulkar,0,0,na,na
2nd innings,6.2,ST Jayasuriya,B Akhil,SR Tendulkar,2,0,{'wides': 2},na
2nd innings,6.3,SR Tendulkar,B Akhil,ST Jayasuriya,0,0,na,na
2nd innings,6.4,SR Tendulkar,B Akhil,ST Jayasuriya,1,1,na,na
2nd innings,6.5,ST Jayasuriya,B Akhil,SR Tendulkar,1,0,{'legbyes': 1},na
2nd innings,6.6,SR Tendulkar,B Akhil,ST Jayasuriya,0,0,na,na
2nd innings,6.7,SR Tendulkar,B Akhil,ST Jayasuriya,1,1,na,na
2nd innings,7.1,SR Tendulkar,R Vinay Kumar,ST Jayasuriya,0,0,na,na
2nd innings,7.2,SR Tendulkar,R Vinay Kumar,ST Jayasuriya,6,6,na,na
2nd innings,7.3,SR Tendulkar,R Vinay Kumar,ST Jayasuriya,6,6,na,na
2nd innings,7.4,SR Tendulkar,R Vinay Kumar,ST Jayasuriya,4,4,na,na
2nd innings,7.5,SR Tendulkar,R Vinay Kumar,ST Jayasuriya,0,0,na,na
2nd innings,7.6,SR Tendulkar,R Vinay Kumar,ST Jayasuriya,0,0,na,na
2nd innings,8.1,ST Jayasuriya,A Kumble,SR Tendulkar,0,0,na,na
2nd innings,8.2,ST Jayasuriya,A Kumble,SR Tendulkar,1,1,na,na
2nd innings,8.3,SR Tendulkar,A Kumble,ST Jayasuriya,1,1,na,na
2nd innings,8.4,ST Jayasuriya,A Kumble,SR Tendulkar,1,1,na,na
2nd innings,8.5,SR Tendulkar,A Kumble,ST Jayasuriya,4,4,na,na
2nd innings,8.6,SR Tendulkar,A Kumble,ST Jayasuriya,4,4,na,na
2nd innings,9.1,ST Jayasuriya,B Akhil,SR Tendulkar,1,1,na,na
2nd innings,9.2,SR Tendulkar,B Akhil,ST Jayasuriya,1,1,na,na
2nd innings,9.3,ST Jayasuriya,B Akhil,SR Tendulkar,1,1,na,na
2nd innings,9.4,SR Tendulkar,B Akhil,ST Jayasuriya,1,1,na,na
2nd innings,9.5,ST Jayasuriya,B Akhil,SR Tendulkar,4,4,na,na
2nd innings,9.6,ST Jayasuriya,B Akhil,SR Tendulkar,0,0,na,na
2nd innings,10.1,SR Tendulkar,A Kumble,ST Jayasuriya,6,6,na,na
2nd innings,10.2,SR Tendulkar,A Kumble,ST Jayasuriya,1,1,na,na
2nd innings,10.3,ST Jayasuriya,A Kumble,SR Tendulkar,1,1,na,na
2nd innings,10.4,SR Tendulkar,A Kumble,ST Jayasuriya,1,1,na,na
2nd innings,10.5,ST Jayasuriya,A Kumble,SR Tendulkar,6,6,na,na
2nd innings,10.6,ST Jayasuriya,A Kumble,SR Tendulkar,1,1,na,na
2nd innings,11.1,ST Jayasuriya,DW Steyn,SR Tendulkar,0,0,na,na
2nd innings,11.2,ST Jayasuriya,DW Steyn,SR Tendulkar,1,1,na,na
2nd innings,11.3,SR Tendulkar,DW Steyn,ST Jayasuriya,0,0,na,"{'fielders': ['B Akhil'], 'kind': 'caught', 'player_out': 'ST Jayasuriya'}"
2nd innings,11.4,SR Tendulkar,DW Steyn,RV Uthappa,0,0,na,na
2nd innings,11.5,SR Tendulkar,DW Steyn,RV Uthappa,0,0,na,na
2nd innings,11.6,SR Tendulkar,DW Steyn,RV Uthappa,0,0,na,na
2nd innings,12.1,RV Uthappa,R Vinay Kumar,SR Tendulkar,0,0,na,na
2nd innings,12.2,RV Uthappa,R Vinay Kumar,SR Tendulkar,1,1,na,na
2nd innings,12.3,SR Tendulkar,R Vinay Kumar,RV Uthappa,4,4,na,na
2nd innings,12.4,SR Tendulkar,R Vinay Kumar,RV Uthappa,0,0,na,na
2nd innings,12.5,SR Tendulkar,R Vinay Kumar,RV Uthappa,0,0,na,na
2nd innings,12.6,SR Tendulkar,R Vinay Kumar,RV Uthappa,1,1,na,na
2nd innings,13.1,SR Tendulkar,DW Steyn,RV Uthappa,0,0,na,na
2nd innings,13.2,SR Tendulkar,DW Steyn,RV Uthappa,6,6,na,na
2nd innings,13.3,SR Tendulkar,DW Steyn,RV Uthappa,1,1,na,na
2nd innings,13.4,RV Uthappa,DW Steyn,SR Tendulkar,0,0,na,na
2nd innings,13.5,RV Uthappa,DW Steyn,SR Tendulkar,0,0,na,na
2nd innings,13.6,RV Uthappa,DW Steyn,SR Tendulkar,1,0,{'wides': 1},na
2nd innings,13.7,RV Uthappa,DW Steyn,SR Tendulkar,0,0,na,na
2nd innings,14.1,SR Tendulkar,B Akhil,RV Uthappa,4,4,na,na
2nd innings,14.2,SR Tendulkar,B Akhil,RV Uthappa,0,0,na,na
2nd innings,14.3,SR Tendulkar,B Akhil,RV Uthappa,1,1,na,na
2nd innings,14.4,RV Uthappa,B Akhil,SR Tendulkar,0,0,na,na
2nd innings,14.5,RV Uthappa,B Akhil,SR Tendulkar,1,1,na,na
2nd innings,14.6,SR Tendulkar,B Akhil,RV Uthappa,1,1,na,na
2nd innings,15.1,SR Tendulkar,A Kumble,RV Uthappa,0,0,na,na
2nd innings,15.2,SR Tendulkar,A Kumble,RV Uthappa,1,1,na,na
2nd innings,15.3,RV Uthappa,A Kumble,SR Tendulkar,0,0,na,na
2nd innings,15.4,RV Uthappa,A Kumble,SR Tendulkar,0,0,na,na
2nd innings,15.5,RV Uthappa,A Kumble,SR Tendulkar,4,4,na,na
2nd innings,15.6,RV Uthappa,A Kumble,SR Tendulkar,4,4,na,na
