innings,deliveries,non_striker,bowler,batsman,total_runs,batsman_runs,extras,wickets
1st innings,0.1,V Kohli,S Sreesanth,J Arunkumar,1,1,na,na
1st innings,0.2,J Arunkumar,S Sreesanth,V Kohli,0,0,na,na
1st innings,0.3,J Arunkumar,S Sreesanth,V Kohli,0,0,na,na
1st innings,0.4,J Arunkumar,S Sreesanth,V Kohli,2,2,na,na
1st innings,0.5,J Arunkumar,S Sreesanth,V Kohli,0,0,na,na
1st innings,0.6,J Arunkumar,S Sreesanth,V Kohli,0,0,na,na
1st innings,1.1,V Kohli,IK Pathan,J Arunkumar,1,0,{'legbyes': 1},na
1st innings,1.2,J Arunkumar,IK Pathan,V Kohli,0,0,na,na
1st innings,1.3,J Arunkumar,IK Pathan,V Kohli,0,0,na,na
1st innings,1.4,J Arunkumar,IK Pathan,V Kohli,0,0,na,na
1st innings,1.5,J Arunkumar,IK Pathan,V Kohli,0,0,na,na
1st innings,1.6,J Arunkumar,IK Pathan,V Kohli,0,0,na,na
1st innings,2.1,V Kohli,S Sreesanth,J Arunkumar,0,0,na,"{'fielders': ['DPMD Jayawardene'], 'kind': 'caught', 'player_out': 'J Arunkumar'}"
1st innings,2.2,V Kohli,S Sreesanth,Misbah-ul-Haq,1,1,na,na
1st innings,2.3,Misbah-ul-Haq,S Sreesanth,V Kohli,0,0,na,na
1st innings,2.4,Misbah-ul-Haq,S Sreesanth,V Kohli,1,1,na,na
1st innings,2.5,V Kohli,S Sreesanth,Misbah-ul-Haq,4,4,na,na
1st innings,2.6,V Kohli,S Sreesanth,Misbah-ul-Haq,4,4,na,na
1st innings,3.1,Misbah-ul-Haq,IK Pathan,V Kohli,4,4,na,na
1st innings,3.2,Misbah-ul-Haq,IK Pathan,V Kohli,4,4,na,na
1st innings,3.3,Misbah-ul-Haq,IK Pathan,V Kohli,0,0,na,na
1st innings,3.4,Misbah-ul-Haq,IK Pathan,V Kohli,0,0,na,na
1st innings,3.5,Misbah-ul-Haq,IK Pathan,V Kohli,1,1,na,na
1st innings,3.6,V Kohli,IK Pathan,Misbah-ul-Haq,1,1,na,na
1st innings,4.1,V Kohli,S Sreesanth,Misbah-ul-Haq,6,6,na,na
1st innings,4.2,V Kohli,S Sreesanth,Misbah-ul-Haq,1,1,na,na
1st innings,4.3,Misbah-ul-Haq,S Sreesanth,V Kohli,0,0,na,na
1st innings,4.4,Misbah-ul-Haq,S Sreesanth,V Kohli,1,1,na,na
1st innings,4.5,V Kohli,S Sreesanth,Misbah-ul-Haq,4,4,na,na
1st innings,4.6,V Kohli,S Sreesanth,Misbah-ul-Haq,0,0,na,"{'kind': 'hit wicket', 'player_out': 'Misbah-ul-Haq'}"
1st innings,5.1,CL White,PP Chawla,V Kohli,5,0,{'wides': 5},na
1st innings,5.2,CL White,PP Chawla,V Kohli,4,4,na,na
1st innings,5.3,CL White,PP Chawla,V Kohli,4,4,na,na
1st innings,5.4,CL White,PP Chawla,V Kohli,0,0,na,"{'kind': 'bowled', 'player_out': 'V Kohli'}"
1st innings,5.5,CL White,PP Chawla,R Dravid,1,1,na,na
1st innings,5.6,R Dravid,PP Chawla,CL White,0,0,na,na
1st innings,5.7,R Dravid,PP Chawla,CL White,0,0,na,na
1st innings,6.1,CL White,VRV Singh,R Dravid,0,0,na,na
1st innings,6.2,CL White,VRV Singh,R Dravid,0,0,na,na
1st innings,6.3,CL White,VRV Singh,R Dravid,1,1,na,na
1st innings,6.4,R Dravid,VRV Singh,CL White,1,1,na,na
1st innings,6.5,CL White,VRV Singh,R Dravid,0,0,na,na
1st innings,6.6,CL White,VRV Singh,R Dravid,1,1,na,na
1st innings,7.1,CL White,PP Chawla,R Dravid,1,1,na,na
1st innings,7.2,R Dravid,PP Chawla,CL White,1,1,na,na
1st innings,7.3,CL White,PP Chawla,R Dravid,1,1,na,na
1st innings,7.4,R Dravid,PP Chawla,CL White,1,1,na,na
1st innings,7.5,CL White,PP Chawla,R Dravid,1,1,na,na
1st innings,7.6,R Dravid,PP Chawla,CL White,1,1,na,na
1st innings,8.1,R Dravid,VRV Singh,CL White,2,2,na,na
1st innings,8.2,R Dravid,VRV Singh,CL White,1,1,na,na
1st innings,8.3,CL White,VRV Singh,R Dravid,1,1,na,na
1st innings,8.4,R Dravid,VRV Singh,CL White,0,0,na,na
1st innings,8.5,R Dravid,VRV Singh,CL White,0,0,na,na
1st innings,8.6,R Dravid,VRV Singh,CL White,1,1,na,na
1st innings,9.1,R Dravid,Yuvraj Singh,CL White,1,0,{'wides': 1},na
1st innings,9.2,R Dravid,Yuvraj Singh,CL White,1,1,na,na
1st innings,9.3,CL White,Yuvraj Singh,R Dravid,2,2,na,na
1st innings,9.4,CL White,Yuvraj Singh,R Dravid,0,0,na,na
1st innings,9.5,CL White,Yuvraj Singh,R Dravid,4,4,na,na
1st innings,9.6,CL White,Yuvraj Singh,R Dravid,1,1,na,na
1st innings,9.7,R Dravid,Yuvraj Singh,CL White,1,1,na,na
1st innings,10.1,R Dravid,PP Chawla,CL White,0,0,na,"{'kind': 'caught and bowled', 'player_out': 'CL White'}"
1st innings,10.2,MV Boucher,PP Chawla,R Dravid,1,1,na,na
1st innings,10.3,R Dravid,PP Chawla,MV Boucher,0,0,na,na
1st innings,10.4,R Dravid,PP Chawla,MV Boucher,1,1,na,na
1st innings,10.5,MV Boucher,PP Chawla,R Dravid,1,1,na,na
1st innings,10.6,R Dravid,PP Chawla,MV Boucher,0,0,na,na
1st innings,11.1,MV Boucher,Yuvraj Singh,R Dravid,1,1,na,na
1st innings,11.2,R Dravid,Yuvraj Singh,MV Boucher,1,1,na,na
1st innings,11.3,MV Boucher,Yuvraj Singh,R Dravid,1,1,na,na
1st innings,11.4,R Dravid,Yuvraj Singh,MV Boucher,0,0,na,na
1st innings,11.5,R Dravid,Yuvraj Singh,MV Boucher,0,0,na,na
1st innings,11.6,R Dravid,Yuvraj Singh,MV Boucher,1,1,na,na
1st innings,12.1,R Dravid,PP Chawla,MV Boucher,4,4,na,na
1st innings,12.2,R Dravid,PP Chawla,MV Boucher,1,1,na,na
1st innings,12.3,MV Boucher,PP Chawla,R Dravid,2,2,na,na
1st innings,12.4,MV Boucher,PP Chawla,R Dravid,1,1,na,na
1st innings,12.5,R Dravid,PP Chawla,MV Boucher,1,1,na,na
1st innings,12.6,MV Boucher,PP Chawla,R Dravid,1,1,na,na
1st innings,13.1,MV Boucher,JR Hopes,R Dravid,1,1,na,na
1st innings,13.2,R Dravid,JR Hopes,MV Boucher,0,0,na,na
1st innings,13.3,R Dravid,JR Hopes,MV Boucher,0,0,na,na
1st innings,13.4,R Dravid,JR Hopes,MV Boucher,0,0,na,na
1st innings,13.5,R Dravid,JR Hopes,MV Boucher,1,1,na,na
1st innings,13.6,MV Boucher,JR Hopes,R Dravid,4,4,na,na
1st innings,14.1,R Dravid,IK Pathan,MV Boucher,1,1,na,na
1st innings,14.2,MV Boucher,IK Pathan,R Dravid,1,1,na,na
1st innings,14.3,R Dravid,IK Pathan,MV Boucher,1,1,na,na
1st innings,14.4,MV Boucher,IK Pathan,R Dravid,1,1,na,na
1st innings,14.5,R Dravid,IK Pathan,MV Boucher,1,1,na,na
1st innings,14.6,MV Boucher,IK Pathan,R Dravid,0,0,na,"{'kind': 'bowled', 'player_out': 'R Dravid'}"
1st innings,15.1,P Kumar,JR Hopes,MV Boucher,1,1,na,na
1st innings,15.2,MV Boucher,JR Hopes,P Kumar,1,1,na,na
1st innings,15.3,P Kumar,JR Hopes,MV Boucher,0,0,na,na
1st innings,15.4,P Kumar,JR Hopes,MV Boucher,6,6,na,na
1st innings,15.5,P Kumar,JR Hopes,MV Boucher,4,4,na,na
1st innings,15.6,P Kumar,JR Hopes,MV Boucher,4,4,na,na
1st innings,16.1,MV Boucher,VRV Singh,P Kumar,0,0,na,na
1st innings,16.2,MV Boucher,VRV Singh,P Kumar,1,1,na,na
1st innings,16.3,P Kumar,VRV Singh,MV Boucher,0,0,na,na
1st innings,16.4,P Kumar,VRV Singh,MV Boucher,1,1,na,na
1st innings,16.5,MV Boucher,VRV Singh,P Kumar,2,2,na,na
1st innings,16.6,MV Boucher,VRV Singh,P Kumar,1,1,na,na
1st innings,17.1,MV Boucher,S Sreesanth,P Kumar,0,0,na,na
1st innings,17.2,MV Boucher,S Sreesanth,P Kumar,0,0,na,"{'kind': 'bowled', 'player_out': 'P Kumar'}"
1st innings,17.3,MV Boucher,S Sreesanth,R Vinay Kumar,1,0,{'wides': 1},na
1st innings,17.4,MV Boucher,S Sreesanth,R Vinay Kumar,1,0,{'legbyes': 1},na
1st innings,17.5,R Vinay Kumar,S Sreesanth,MV Boucher,1,1,na,na
1st innings,17.6,MV Boucher,S Sreesanth,R Vinay Kumar,1,1,na,na
1st innings,17.7,R Vinay Kumar,S Sreesanth,MV Boucher,1,1,na,na
1st innings,18.1,R Vinay Kumar,VRV Singh,MV Boucher,1,1,na,na
1st innings,18.2,MV Boucher,VRV Singh,R Vinay Kumar,0,0,na,"{'kind': 'bowled', 'player_out': 'R Vinay Kumar'}"
1st innings,18.3,MV Boucher,VRV Singh,Z Khan,0,0,na,na
1st innings,18.4,MV Boucher,VRV Singh,Z Khan,1,0,{'byes': 1},na
1st innings,18.5,Z Khan,VRV Singh,MV Boucher,1,1,na,na
1st innings,18.6,MV Boucher,VRV Singh,Z Khan,0,0,na,na
1st innings,19.1,Z Khan,IK Pathan,MV Boucher,1,0,{'wides': 1},na
1st innings,19.2,Z Khan,IK Pathan,MV Boucher,1,1,na,na
1st innings,19.3,MV Boucher,IK Pathan,Z Khan,1,1,na,na
1st innings,19.4,Z Khan,IK Pathan,MV Boucher,0,0,na,na
1st innings,19.5,Z Khan,IK Pathan,MV Boucher,4,4,na,na
1st innings,19.6,Z Khan,IK Pathan,MV Boucher,1,1,na,"{'fielders': ['PP Chawla', 'U Kaul'], 'kind': 'run out', 'player_out': 'MV Boucher'}"
1st innings,19.7,Z Khan,IK Pathan,A Kumble,4,0,{'byes': 4},na
2nd innings,0.1,JR Hopes,DW Steyn,SE Marsh,2,0,{'wides': 2},na
2nd innings,0.2,SE Marsh,DW Steyn,JR Hopes,1,1,na,na
2nd innings,0.3,JR Hopes,DW Steyn,SE Marsh,0,0,na,na
2nd innings,0.4,JR Hopes,DW Steyn,SE Marsh,4,4,na,na
2nd innings,0.5,JR Hopes,DW Steyn,SE Marsh,2,2,na,na
2nd innings,0.6,JR Hopes,DW Steyn,SE Marsh,1,1,na,na
2nd innings,0.7,SE Marsh,DW Steyn,JR Hopes,2,2,na,na
2nd innings,1.1,JR Hopes,Z Khan,SE Marsh,0,0,na,na
2nd innings,1.2,JR Hopes,Z Khan,SE Marsh,0,0,na,na
2nd innings,1.3,JR Hopes,Z Khan,SE Marsh,0,0,na,na
2nd innings,1.4,JR Hopes,Z Khan,SE Marsh,0,0,na,na
2nd innings,1.5,JR Hopes,Z Khan,SE Marsh,0,0,na,na
2nd innings,1.6,JR Hopes,Z Khan,SE Marsh,1,1,na,na
2nd innings,2.1,JR Hopes,P Kumar,SE Marsh,0,0,na,na
2nd innings,2.2,JR Hopes,P Kumar,SE Marsh,1,1,na,na
2nd innings,2.3,SE Marsh,P Kumar,JR Hopes,1,1,na,na
2nd innings,2.4,JR Hopes,P Kumar,SE Marsh,1,1,na,na
2nd innings,2.5,SE Marsh,P Kumar,JR Hopes,1,1,na,na
2nd innings,2.6,JR Hopes,P Kumar,SE Marsh,0,0,na,na
2nd innings,3.1,SE Marsh,Z Khan,JR Hopes,0,0,na,na
2nd innings,3.2,SE Marsh,Z Khan,JR Hopes,0,0,na,na
2nd innings,3.3,SE Marsh,Z Khan,JR Hopes,0,0,na,na
2nd innings,3.4,SE Marsh,Z Khan,JR Hopes,6,6,na,na
2nd innings,3.5,SE Marsh,Z Khan,JR Hopes,1,1,na,na
2nd innings,3.6,JR Hopes,Z Khan,SE Marsh,1,1,na,na
2nd innings,4.1,JR Hopes,P Kumar,SE Marsh,1,1,na,na
2nd innings,4.2,SE Marsh,P Kumar,JR Hopes,0,0,na,na
2nd innings,4.3,SE Marsh,P Kumar,JR Hopes,6,6,na,na
2nd innings,4.4,SE Marsh,P Kumar,JR Hopes,1,1,na,na
2nd innings,4.5,JR Hopes,P Kumar,SE Marsh,0,0,na,na
2nd innings,4.6,JR Hopes,P Kumar,SE Marsh,0,0,na,na
2nd innings,5.1,SE Marsh,Z Khan,JR Hopes,0,0,na,na
2nd innings,5.2,SE Marsh,Z Khan,JR Hopes,0,0,na,na
2nd innings,5.3,SE Marsh,Z Khan,JR Hopes,1,1,na,na
2nd innings,5.4,JR Hopes,Z Khan,SE Marsh,1,1,na,na
2nd innings,5.5,SE Marsh,Z Khan,JR Hopes,6,6,na,na
2nd innings,5.6,SE Marsh,Z Khan,JR Hopes,1,1,na,na
2nd innings,6.1,SE Marsh,R Vinay Kumar,JR Hopes,0,0,na,na
2nd innings,6.2,SE Marsh,R Vinay Kumar,JR Hopes,0,0,na,"{'fielders': ['DW Steyn'], 'kind': 'caught', 'player_out': 'JR Hopes'}"
2nd innings,6.3,LA Pomersbach,R Vinay Kumar,SE Marsh,1,1,na,na
2nd innings,6.4,SE Marsh,R Vinay Kumar,LA Pomersbach,0,0,na,na
2nd innings,6.5,SE Marsh,R Vinay Kumar,LA Pomersbach,1,1,na,na
2nd innings,6.6,LA Pomersbach,R Vinay Kumar,SE Marsh,1,1,na,na
2nd innings,7.1,LA Pomersbach,A Kumble,SE Marsh,1,1,na,na
2nd innings,7.2,SE Marsh,A Kumble,LA Pomersbach,1,1,na,na
2nd innings,7.3,LA Pomersbach,A Kumble,SE Marsh,6,6,na,na
2nd innings,7.4,LA Pomersbach,A Kumble,SE Marsh,1,1,na,na
2nd innings,7.5,SE Marsh,A Kumble,LA Pomersbach,0,0,na,na
2nd innings,7.6,SE Marsh,A Kumble,LA Pomersbach,4,0,{'legbyes': 4},na
2nd innings,8.1,LA Pomersbach,R Vinay Kumar,SE Marsh,2,2,na,na
2nd innings,8.2,LA Pomersbach,R Vinay Kumar,SE Marsh,0,0,na,na
2nd innings,8.3,LA Pomersbach,R Vinay Kumar,SE Marsh,0,0,na,na
2nd innings,8.4,LA Pomersbach,R Vinay Kumar,SE Marsh,0,0,na,na
2nd innings,8.5,LA Pomersbach,R Vinay Kumar,SE Marsh,4,4,na,na
2nd innings,8.6,LA Pomersbach,R Vinay Kumar,SE Marsh,2,2,na,na
2nd innings,9.1,SE Marsh,A Kumble,LA Pomersbach,4,4,na,na
2nd innings,9.2,SE Marsh,A Kumble,LA Pomersbach,0,0,na,na
2nd innings,9.3,SE Marsh,A Kumble,LA Pomersbach,0,0,na,na
2nd innings,9.4,SE Marsh,A Kumble,LA Pomersbach,0,0,na,na
2nd innings,9.5,SE Marsh,A Kumble,LA Pomersbach,0,0,na,na
2nd innings,9.6,SE Marsh,A Kumble,LA Pomersbach,0,0,na,na
2nd innings,10.1,LA Pomersbach,DW Steyn,SE Marsh,4,4,na,na
2nd innings,10.2,LA Pomersbach,DW Steyn,SE Marsh,6,6,na,na
2nd innings,10.3,LA Pomersbach,DW Steyn,SE Marsh,4,4,na,na
2nd innings,10.4,LA Pomersbach,DW Steyn,SE Marsh,4,4,na,na
2nd innings,10.5,LA Pomersbach,DW Steyn,SE Marsh,1,0,{'wides': 1},na
2nd innings,10.6,LA Pomersbach,DW Steyn,SE Marsh,1,1,na,na
2nd innings,10.7,SE Marsh,DW Steyn,LA Pomersbach,1,1,na,na
2nd innings,11.1,SE Marsh,A Kumble,LA Pomersbach,1,1,na,na
2nd innings,11.2,LA Pomersbach,A Kumble,SE Marsh,1,1,na,na
2nd innings,11.3,SE Marsh,A Kumble,LA Pomersbach,6,6,na,na
2nd innings,11.4,SE Marsh,A Kumble,LA Pomersbach,1,1,na,na
2nd innings,11.5,LA Pomersbach,A Kumble,SE Marsh,0,0,na,na
2nd innings,11.6,LA Pomersbach,A Kumble,SE Marsh,1,1,na,na
2nd innings,12.1,LA Pomersbach,V Kohli,SE Marsh,1,1,na,na
2nd innings,12.2,SE Marsh,V Kohli,LA Pomersbach,4,4,na,na
2nd innings,12.3,SE Marsh,V Kohli,LA Pomersbach,1,1,na,na
2nd innings,12.4,LA Pomersbach,V Kohli,SE Marsh,1,1,na,na
2nd innings,12.5,SE Marsh,V Kohli,LA Pomersbach,1,1,na,na
2nd innings,12.6,LA Pomersbach,V Kohli,SE Marsh,1,1,na,na
2nd innings,13.1,LA Pomersbach,A Kumble,SE Marsh,1,0,{'wides': 1},na
2nd innings,13.2,LA Pomersbach,A Kumble,SE Marsh,1,1,na,na
2nd innings,13.3,SE Marsh,A Kumble,LA Pomersbach,6,6,na,na
2nd innings,13.4,SE Marsh,A Kumble,LA Pomersbach,0,0,na,na
2nd innings,13.5,SE Marsh,A Kumble,LA Pomersbach,1,1,na,na
2nd innings,13.6,LA Pomersbach,A Kumble,SE Marsh,4,4,na,na
2nd innings,13.7,LA Pomersbach,A Kumble,SE Marsh,0,0,na,na
2nd innings,14.1,SE Marsh,Z Khan,LA Pomersbach,1,1,na,na
2nd innings,14.2,LA Pomersbach,Z Khan,SE Marsh,4,4,na,na
2nd innings,14.3,LA Pomersbach,Z Khan,SE Marsh,4,4,na,na
2nd innings,14.4,LA Pomersbach,Z Khan,SE Marsh,4,4,na,na
2nd innings,14.5,LA Pomersbach,Z Khan,SE Marsh,1,0,{'legbyes': 1},na
2nd innings,14.6,SE Marsh,Z Khan,LA Pomersbach,4,4,na,na
2nd innings,15.1,LA Pomersbach,P Kumar,SE Marsh,1,1,na,na
2nd innings,15.2,SE Marsh,P Kumar,LA Pomersbach,1,1,na,na
2nd innings,15.3,LA Pomersbach,P Kumar,SE Marsh,0,0,na,na
2nd innings,15.4,LA Pomersbach,P Kumar,SE Marsh,1,1,na,na
