innings,deliveries,non_striker,bowler,batsman,total_runs,batsman_runs,extras,wickets
1st innings,0.1,HH Gibbs,M Ntini,AC Gilchrist,0,0,na,na
1st innings,0.2,HH Gibbs,M Ntini,AC Gilchrist,1,1,na,na
1st innings,0.3,AC Gilchrist,M Ntini,HH Gibbs,0,0,na,na
1st innings,0.4,AC Gilchrist,M Ntini,HH Gibbs,0,0,na,na
1st innings,0.5,AC Gilchrist,M Ntini,HH Gibbs,0,0,na,na
1st innings,0.6,AC Gilchrist,M Ntini,HH Gibbs,0,0,na,na
1st innings,1.1,HH Gibbs,MS Gony,AC Gilchrist,0,0,na,na
1st innings,1.2,HH Gibbs,MS Gony,AC Gilchrist,1,1,na,na
1st innings,1.3,AC Gilchrist,MS Gony,HH Gibbs,0,0,na,na
1st innings,1.4,AC Gilchrist,MS Gony,HH Gibbs,0,0,na,na
1st innings,1.5,AC Gilchrist,MS Gony,HH Gibbs,4,4,na,na
1st innings,1.6,AC Gilchrist,MS Gony,HH Gibbs,1,0,{'legbyes': 1},na
1st innings,2.1,AC Gilchrist,M Ntini,HH Gibbs,4,4,na,na
1st innings,2.2,AC Gilchrist,M Ntini,HH Gibbs,0,0,na,"{'fielders': ['L Balaji'], 'kind': 'caught', 'player_out': 'HH Gibbs'}"
1st innings,2.3,AC Gilchrist,M Ntini,SB Styris,0,0,na,na
1st innings,2.4,AC Gilchrist,M Ntini,SB Styris,1,1,na,na
1st innings,2.5,SB Styris,M Ntini,AC Gilchrist,1,1,na,na
1st innings,2.6,AC Gilchrist,M Ntini,SB Styris,0,0,na,na
1st innings,3.1,SB Styris,MS Gony,AC Gilchrist,0,0,na,na
1st innings,3.2,SB Styris,MS Gony,AC Gilchrist,2,2,na,na
1st innings,3.3,SB Styris,MS Gony,AC Gilchrist,0,0,na,"{'fielders': ['A Mukund'], 'kind': 'caught', 'player_out': 'AC Gilchrist'}"
1st innings,3.4,SB Styris,MS Gony,Y Venugopal Rao,0,0,na,na
1st innings,3.5,SB Styris,MS Gony,Y Venugopal Rao,0,0,na,na
1st innings,3.6,SB Styris,MS Gony,Y Venugopal Rao,0,0,na,na
1st innings,4.1,Y Venugopal Rao,M Ntini,SB Styris,0,0,na,na
1st innings,4.2,Y Venugopal Rao,M Ntini,SB Styris,0,0,na,na
1st innings,4.3,Y Venugopal Rao,M Ntini,SB Styris,1,1,na,na
1st innings,4.4,SB Styris,M Ntini,Y Venugopal Rao,1,1,na,na
1st innings,4.5,Y Venugopal Rao,M Ntini,SB Styris,1,1,na,na
1st innings,4.6,SB Styris,M Ntini,Y Venugopal Rao,0,0,na,na
1st innings,5.1,Y Venugopal Rao,MS Gony,SB Styris,1,1,na,na
1st innings,5.2,SB Styris,MS Gony,Y Venugopal Rao,0,0,na,na
1st innings,5.3,SB Styris,MS Gony,Y Venugopal Rao,2,2,na,na
1st innings,5.4,SB Styris,MS Gony,Y Venugopal Rao,4,4,na,na
1st innings,5.5,SB Styris,MS Gony,Y Venugopal Rao,0,0,na,na
1st innings,5.6,SB Styris,MS Gony,Y Venugopal Rao,1,1,na,na
1st innings,6.1,SB Styris,JA Morkel,Y Venugopal Rao,1,1,na,na
1st innings,6.2,Y Venugopal Rao,JA Morkel,SB Styris,4,0,{'legbyes': 4},na
1st innings,6.3,Y Venugopal Rao,JA Morkel,SB Styris,1,1,na,na
1st innings,6.4,SB Styris,JA Morkel,Y Venugopal Rao,0,0,na,na
1st innings,6.5,SB Styris,JA Morkel,Y Venugopal Rao,1,1,na,na
1st innings,6.6,Y Venugopal Rao,JA Morkel,SB Styris,4,4,na,na
1st innings,7.1,SB Styris,MS Gony,Y Venugopal Rao,1,1,na,na
1st innings,7.2,Y Venugopal Rao,MS Gony,SB Styris,4,4,na,na
1st innings,7.3,Y Venugopal Rao,MS Gony,SB Styris,1,1,na,na
1st innings,7.4,SB Styris,MS Gony,Y Venugopal Rao,0,0,na,na
1st innings,7.5,SB Styris,MS Gony,Y Venugopal Rao,1,0,{'legbyes': 1},na
1st innings,7.6,Y Venugopal Rao,MS Gony,SB Styris,0,0,na,na
1st innings,8.1,SB Styris,M Muralitharan,Y Venugopal Rao,1,0,{'wides': 1},na
1st innings,8.2,SB Styris,M Muralitharan,Y Venugopal Rao,0,0,na,na
1st innings,8.3,SB Styris,M Muralitharan,Y Venugopal Rao,2,2,na,na
1st innings,8.4,SB Styris,M Muralitharan,Y Venugopal Rao,1,0,{'wides': 1},na
1st innings,8.5,SB Styris,M Muralitharan,Y Venugopal Rao,1,1,na,na
1st innings,8.6,Y Venugopal Rao,M Muralitharan,SB Styris,1,1,na,na
1st innings,8.7,SB Styris,M Muralitharan,Y Venugopal Rao,0,0,na,na
1st innings,8.8,SB Styris,M Muralitharan,Y Venugopal Rao,1,1,na,na
1st innings,9.1,SB Styris,L Balaji,Y Venugopal Rao,0,0,na,na
1st innings,9.2,SB Styris,L Balaji,Y Venugopal Rao,1,1,na,na
1st innings,9.3,Y Venugopal Rao,L Balaji,SB Styris,0,0,na,na
1st innings,9.4,Y Venugopal Rao,L Balaji,SB Styris,4,4,na,na
1st innings,9.5,Y Venugopal Rao,L Balaji,SB Styris,0,0,na,na
1st innings,9.6,Y Venugopal Rao,L Balaji,SB Styris,1,1,na,na
1st innings,10.1,Y Venugopal Rao,M Muralitharan,SB Styris,0,0,na,"{'kind': 'bowled', 'player_out': 'SB Styris'}"
1st innings,10.2,Y Venugopal Rao,M Muralitharan,DB Ravi Teja,0,0,na,na
1st innings,10.3,Y Venugopal Rao,M Muralitharan,DB Ravi Teja,0,0,na,na
1st innings,10.4,Y Venugopal Rao,M Muralitharan,DB Ravi Teja,1,1,na,na
1st innings,10.5,DB Ravi Teja,M Muralitharan,Y Venugopal Rao,0,0,na,na
1st innings,10.6,DB Ravi Teja,M Muralitharan,Y Venugopal Rao,1,1,na,na
1st innings,11.1,DB Ravi Teja,JA Morkel,Y Venugopal Rao,1,0,{'wides': 1},na
1st innings,11.2,DB Ravi Teja,JA Morkel,Y Venugopal Rao,0,0,na,na
1st innings,11.3,DB Ravi Teja,JA Morkel,Y Venugopal Rao,1,1,na,na
1st innings,11.4,Y Venugopal Rao,JA Morkel,DB Ravi Teja,1,1,na,na
1st innings,11.5,DB Ravi Teja,JA Morkel,Y Venugopal Rao,1,1,na,na
1st innings,11.6,Y Venugopal Rao,JA Morkel,DB Ravi Teja,1,1,na,na
1st innings,11.7,DB Ravi Teja,JA Morkel,Y Venugopal Rao,1,1,na,na
1st innings,12.1,DB Ravi Teja,M Muralitharan,Y Venugopal Rao,1,1,na,na
1st innings,12.2,Y Venugopal Rao,M Muralitharan,DB Ravi Teja,1,1,na,na
1st innings,12.3,DB Ravi Teja,M Muralitharan,Y Venugopal Rao,1,1,na,na
1st innings,12.4,Y Venugopal Rao,M Muralitharan,DB Ravi Teja,2,2,na,na
1st innings,12.5,Y Venugopal Rao,M Muralitharan,DB Ravi Teja,0,0,na,na
1st innings,12.6,Y Venugopal Rao,M Muralitharan,DB Ravi Teja,1,1,na,na
1st innings,13.1,Y Venugopal Rao,L Balaji,DB Ravi Teja,0,0,na,na
1st innings,13.2,Y Venugopal Rao,L Balaji,DB Ravi Teja,2,2,na,na
1st innings,13.3,Y Venugopal Rao,L Balaji,DB Ravi Teja,1,1,na,na
1st innings,13.4,DB Ravi Teja,L Balaji,Y Venugopal Rao,6,6,na,na
1st innings,13.5,DB Ravi Teja,L Balaji,Y Venugopal Rao,1,1,na,na
1st innings,13.6,Y Venugopal Rao,L Balaji,DB Ravi Teja,4,4,na,na
1st innings,14.1,DB Ravi Teja,M Muralitharan,Y Venugopal Rao,1,0,{'legbyes': 1},na
1st innings,14.2,Y Venugopal Rao,M Muralitharan,DB Ravi Teja,4,4,na,na
1st innings,14.3,Y Venugopal Rao,M Muralitharan,DB Ravi Teja,0,0,na,na
1st innings,14.4,Y Venugopal Rao,M Muralitharan,DB Ravi Teja,1,1,na,na
1st innings,14.5,DB Ravi Teja,M Muralitharan,Y Venugopal Rao,1,1,na,na
1st innings,14.6,Y Venugopal Rao,M Muralitharan,DB Ravi Teja,1,1,na,na
1st innings,15.1,Y Venugopal Rao,JA Morkel,DB Ravi Teja,2,2,na,na
1st innings,15.2,Y Venugopal Rao,JA Morkel,DB Ravi Teja,1,0,{'wides': 1},na
1st innings,15.3,Y Venugopal Rao,JA Morkel,DB Ravi Teja,1,1,na,na
1st innings,15.4,DB Ravi Teja,JA Morkel,Y Venugopal Rao,1,1,na,na
1st innings,15.5,Y Venugopal Rao,JA Morkel,DB Ravi Teja,1,1,na,na
1st innings,15.6,DB Ravi Teja,JA Morkel,Y Venugopal Rao,4,4,na,na
1st innings,15.7,DB Ravi Teja,JA Morkel,Y Venugopal Rao,1,1,na,na
1st innings,16.1,DB Ravi Teja,L Balaji,Y Venugopal Rao,1,1,na,na
1st innings,16.2,Y Venugopal Rao,L Balaji,DB Ravi Teja,4,4,na,na
1st innings,16.3,Y Venugopal Rao,L Balaji,DB Ravi Teja,0,0,na,na
1st innings,16.4,Y Venugopal Rao,L Balaji,DB Ravi Teja,1,1,na,na
1st innings,16.5,DB Ravi Teja,L Balaji,Y Venugopal Rao,1,1,na,na
1st innings,16.6,Y Venugopal Rao,L Balaji,DB Ravi Teja,1,1,na,na
1st innings,17.1,Y Venugopal Rao,M Ntini,DB Ravi Teja,4,4,na,na
1st innings,17.2,Y Venugopal Rao,M Ntini,DB Ravi Teja,6,6,na,na
1st innings,17.3,Y Venugopal Rao,M Ntini,DB Ravi Teja,1,0,{'legbyes': 1},na
1st innings,17.4,DB Ravi Teja,M Ntini,Y Venugopal Rao,0,0,na,na
1st innings,17.5,DB Ravi Teja,M Ntini,Y Venugopal Rao,1,1,na,na
1st innings,17.6,Y Venugopal Rao,M Ntini,DB Ravi Teja,2,0,{'wides': 2},na
1st innings,17.7,DB Ravi Teja,M Ntini,Y Venugopal Rao,1,1,na,na
1st innings,18.1,DB Ravi Teja,JA Morkel,Y Venugopal Rao,4,4,na,na
1st innings,18.2,DB Ravi Teja,JA Morkel,Y Venugopal Rao,1,1,na,na
1st innings,18.3,Y Venugopal Rao,JA Morkel,DB Ravi Teja,1,0,{'wides': 1},na
1st innings,18.4,Y Venugopal Rao,JA Morkel,DB Ravi Teja,0,0,na,"{'fielders': ['A Mukund'], 'kind': 'caught', 'player_out': 'DB Ravi Teja'}"
1st innings,18.5,Shahid Afridi,JA Morkel,Y Venugopal Rao,1,1,na,"{'fielders': ['MS Gony', 'PA Patel'], 'kind': 'run out', 'player_out': 'Y Venugopal Rao'}"
1st innings,18.6,Shahid Afridi,JA Morkel,AS Yadav,0,0,na,"{'kind': 'bowled', 'player_out': 'AS Yadav'}"
1st innings,18.7,Shahid Afridi,JA Morkel,RP Singh,6,6,na,na
1st innings,19.1,RP Singh,L Balaji,Shahid Afridi,1,1,na,na
1st innings,19.2,Shahid Afridi,L Balaji,RP Singh,4,4,na,na
1st innings,19.3,Shahid Afridi,L Balaji,RP Singh,1,0,{'byes': 1},na
1st innings,19.4,RP Singh,L Balaji,Shahid Afridi,0,0,na,"{'fielders': ['SK Raina'], 'kind': 'caught', 'player_out': 'Shahid Afridi'}"
1st innings,19.5,RP Singh,L Balaji,PP Ojha,1,1,na,na
1st innings,19.6,PP Ojha,L Balaji,RP Singh,0,0,na,"{'fielders': ['JA Morkel'], 'kind': 'caught', 'player_out': 'RP Singh'}"
2nd innings,0.1,SP Fleming,RP Singh,PA Patel,1,0,{'wides': 1},na
2nd innings,0.2,SP Fleming,RP Singh,PA Patel,1,1,na,na
2nd innings,0.3,PA Patel,RP Singh,SP Fleming,0,0,na,na
2nd innings,0.4,PA Patel,RP Singh,SP Fleming,4,4,na,na
2nd innings,0.5,PA Patel,RP Singh,SP Fleming,1,0,{'wides': 1},na
2nd innings,0.6,PA Patel,RP Singh,SP Fleming,1,1,na,na
2nd innings,0.7,SP Fleming,RP Singh,PA Patel,4,4,na,na
2nd innings,0.8,SP Fleming,RP Singh,PA Patel,0,0,na,na
2nd innings,1.1,PA Patel,DP Vijaykumar,SP Fleming,4,4,na,na
2nd innings,1.2,PA Patel,DP Vijaykumar,SP Fleming,0,0,na,na
2nd innings,1.3,PA Patel,DP Vijaykumar,SP Fleming,0,0,na,na
2nd innings,1.4,PA Patel,DP Vijaykumar,SP Fleming,1,1,na,na
2nd innings,1.5,SP Fleming,DP Vijaykumar,PA Patel,0,0,na,na
2nd innings,1.6,SP Fleming,DP Vijaykumar,PA Patel,1,1,na,na
2nd innings,2.1,SP Fleming,RP Singh,PA Patel,0,0,na,na
2nd innings,2.2,SP Fleming,RP Singh,PA Patel,0,0,na,na
2nd innings,2.3,SP Fleming,RP Singh,PA Patel,0,0,na,na
2nd innings,2.4,SP Fleming,RP Singh,PA Patel,0,0,na,na
2nd innings,2.5,SP Fleming,RP Singh,PA Patel,4,4,na,na
2nd innings,2.6,SP Fleming,RP Singh,PA Patel,0,0,na,na
2nd innings,3.1,PA Patel,DP Vijaykumar,SP Fleming,4,4,na,na
2nd innings,3.2,PA Patel,DP Vijaykumar,SP Fleming,0,0,na,"{'fielders': ['AC Gilchrist'], 'kind': 'caught', 'player_out': 'SP Fleming'}"
2nd innings,3.3,PA Patel,DP Vijaykumar,SK Raina,0,0,na,na
2nd innings,3.4,PA Patel,DP Vijaykumar,SK Raina,1,0,{'wides': 1},na
2nd innings,3.5,PA Patel,DP Vijaykumar,SK Raina,4,4,na,na
2nd innings,3.6,PA Patel,DP Vijaykumar,SK Raina,4,4,na,na
2nd innings,3.7,PA Patel,DP Vijaykumar,SK Raina,0,0,na,na
2nd innings,4.1,SK Raina,RP Singh,PA Patel,0,0,na,na
2nd innings,4.2,SK Raina,RP Singh,PA Patel,4,4,na,na
2nd innings,4.3,SK Raina,RP Singh,PA Patel,0,0,na,na
2nd innings,4.4,SK Raina,RP Singh,PA Patel,0,0,na,na
2nd innings,4.5,SK Raina,RP Singh,PA Patel,0,0,na,na
2nd innings,4.6,SK Raina,RP Singh,PA Patel,1,0,{'wides': 1},na
2nd innings,4.7,SK Raina,RP Singh,PA Patel,1,1,na,na
2nd innings,5.1,SK Raina,Shahid Afridi,PA Patel,0,0,na,na
2nd innings,5.2,SK Raina,Shahid Afridi,PA Patel,1,1,na,na
2nd innings,5.3,PA Patel,Shahid Afridi,SK Raina,1,1,na,na
2nd innings,5.4,SK Raina,Shahid Afridi,PA Patel,1,1,na,na
2nd innings,5.5,PA Patel,Shahid Afridi,SK Raina,0,0,na,na
2nd innings,5.6,PA Patel,Shahid Afridi,SK Raina,0,0,na,na
2nd innings,6.1,SK Raina,PM Sarvesh Kumar,PA Patel,0,0,na,na
2nd innings,6.2,SK Raina,PM Sarvesh Kumar,PA Patel,1,1,na,na
2nd innings,6.3,PA Patel,PM Sarvesh Kumar,SK Raina,0,0,na,na
2nd innings,6.4,PA Patel,PM Sarvesh Kumar,SK Raina,4,4,na,na
2nd innings,6.5,PA Patel,PM Sarvesh Kumar,SK Raina,4,4,na,na
2nd innings,6.6,PA Patel,PM Sarvesh Kumar,SK Raina,0,0,na,na
2nd innings,7.1,SK Raina,Shahid Afridi,PA Patel,1,1,na,na
2nd innings,7.2,PA Patel,Shahid Afridi,SK Raina,0,0,na,na
2nd innings,7.3,PA Patel,Shahid Afridi,SK Raina,1,0,{'legbyes': 1},na
2nd innings,7.4,SK Raina,Shahid Afridi,PA Patel,0,0,na,na
2nd innings,7.5,SK Raina,Shahid Afridi,PA Patel,1,1,na,na
2nd innings,7.6,PA Patel,Shahid Afridi,SK Raina,1,0,{'wides': 1},na
2nd innings,7.7,PA Patel,Shahid Afridi,SK Raina,1,0,{'wides': 1},na
2nd innings,7.8,PA Patel,Shahid Afridi,SK Raina,1,1,na,na
2nd innings,8.1,PA Patel,PM Sarvesh Kumar,SK Raina,1,1,na,na
2nd innings,8.2,SK Raina,PM Sarvesh Kumar,PA Patel,0,0,na,na
2nd innings,8.3,SK Raina,PM Sarvesh Kumar,PA Patel,0,0,na,"{'fielders': ['Shahid Afridi'], 'kind': 'caught', 'player_out': 'PA Patel'}"
2nd innings,8.4,SK Raina,PM Sarvesh Kumar,MS Dhoni,4,4,na,na
2nd innings,8.5,SK Raina,PM Sarvesh Kumar,MS Dhoni,4,4,na,na
2nd innings,8.6,SK Raina,PM Sarvesh Kumar,MS Dhoni,0,0,na,na
2nd innings,9.1,MS Dhoni,PP Ojha,SK Raina,0,0,na,na
2nd innings,9.2,MS Dhoni,PP Ojha,SK Raina,0,0,na,na
2nd innings,9.3,MS Dhoni,PP Ojha,SK Raina,1,1,na,na
2nd innings,9.4,SK Raina,PP Ojha,MS Dhoni,0,0,na,na
2nd innings,9.5,SK Raina,PP Ojha,MS Dhoni,2,2,na,na
2nd innings,9.6,SK Raina,PP Ojha,MS Dhoni,1,1,na,na
2nd innings,10.1,SK Raina,SB Styris,MS Dhoni,2,2,na,na
2nd innings,10.2,SK Raina,SB Styris,MS Dhoni,1,1,na,na
2nd innings,10.3,MS Dhoni,SB Styris,SK Raina,0,0,na,na
2nd innings,10.4,MS Dhoni,SB Styris,SK Raina,1,1,na,na
2nd innings,10.5,SK Raina,SB Styris,MS Dhoni,0,0,na,na
2nd innings,10.6,SK Raina,SB Styris,MS Dhoni,1,1,na,na
2nd innings,11.1,SK Raina,PP Ojha,MS Dhoni,0,0,na,na
2nd innings,11.2,SK Raina,PP Ojha,MS Dhoni,1,1,na,na
2nd innings,11.3,MS Dhoni,PP Ojha,SK Raina,1,0,{'legbyes': 1},na
2nd innings,11.4,SK Raina,PP Ojha,MS Dhoni,6,6,na,na
2nd innings,11.5,SK Raina,PP Ojha,MS Dhoni,1,0,{'wides': 1},na
2nd innings,11.6,SK Raina,PP Ojha,MS Dhoni,1,0,{'wides': 1},na
2nd innings,11.7,SK Raina,PP Ojha,MS Dhoni,0,0,na,na
2nd innings,11.8,SK Raina,PP Ojha,MS Dhoni,1,1,na,na
2nd innings,12.1,SK Raina,SB Styris,MS Dhoni,1,1,na,na
2nd innings,12.2,MS Dhoni,SB Styris,SK Raina,0,0,na,na
2nd innings,12.3,MS Dhoni,SB Styris,SK Raina,1,1,na,na
2nd innings,12.4,SK Raina,SB Styris,MS Dhoni,4,4,na,na
2nd innings,12.5,SK Raina,SB Styris,MS Dhoni,1,1,na,na
2nd innings,12.6,MS Dhoni,SB Styris,SK Raina,1,1,na,na
2nd innings,13.1,MS Dhoni,Shahid Afridi,SK Raina,1,1,na,na
2nd innings,13.2,SK Raina,Shahid Afridi,MS Dhoni,4,4,na,na
2nd innings,13.3,SK Raina,Shahid Afridi,MS Dhoni,1,0,{'legbyes': 1},na
2nd innings,13.4,MS Dhoni,Shahid Afridi,SK Raina,0,0,na,na
2nd innings,13.5,MS Dhoni,Shahid Afridi,SK Raina,0,0,na,na
2nd innings,13.6,MS Dhoni,Shahid Afridi,SK Raina,6,6,na,na
2nd innings,14.1,SK Raina,DP Vijaykumar,MS Dhoni,0,0,na,na
2nd innings,14.2,SK Raina,DP Vijaykumar,MS Dhoni,1,1,na,na
2nd innings,14.3,MS Dhoni,DP Vijaykumar,SK Raina,1,1,na,na
2nd innings,14.4,SK Raina,DP Vijaykumar,MS Dhoni,2,2,na,na
2nd innings,14.5,SK Raina,DP Vijaykumar,MS Dhoni,1,1,na,na
2nd innings,14.6,MS Dhoni,DP Vijaykumar,SK Raina,1,1,na,na
2nd innings,15.1,MS Dhoni,PP Ojha,SK Raina,1,1,na,na
2nd innings,15.2,SK Raina,PP Ojha,MS Dhoni,0,0,na,"{'fielders': ['HH Gibbs'], 'kind': 'caught', 'player_out': 'MS Dhoni'}"
2nd innings,15.3,SK Raina,PP Ojha,JA Morkel,1,1,na,na
2nd innings,15.4,JA Morkel,PP Ojha,SK Raina,1,1,na,na
2nd innings,15.5,SK Raina,PP Ojha,JA Morkel,0,0,na,na
2nd innings,15.6,SK Raina,PP Ojha,JA Morkel,0,0,na,na
2nd innings,16.1,JA Morkel,SB Styris,SK Raina,1,1,na,na
2nd innings,16.2,SK Raina,SB Styris,JA Morkel,1,1,na,na
2nd innings,16.3,JA Morkel,SB Styris,SK Raina,1,1,na,na
2nd innings,16.4,SK Raina,SB Styris,JA Morkel,0,0,na,na
2nd innings,16.5,SK Raina,SB Styris,JA Morkel,0,0,na,na
2nd innings,16.6,SK Raina,SB Styris,JA Morkel,0,0,na,na
2nd innings,17.1,JA Morkel,PP Ojha,SK Raina,2,2,na,na
2nd innings,17.2,JA Morkel,PP Ojha,SK Raina,1,1,na,na
2nd innings,17.3,SK Raina,PP Ojha,JA Morkel,1,1,na,na
2nd innings,17.4,JA Morkel,PP Ojha,SK Raina,4,4,na,na
2nd innings,17.5,JA Morkel,PP Ojha,SK Raina,2,2,na,na
2nd innings,17.6,JA Morkel,PP Ojha,SK Raina,1,1,na,na
2nd innings,18.1,JA Morkel,RP Singh,SK Raina,1,1,na,na
2nd innings,18.2,SK Raina,RP Singh,JA Morkel,3,3,na,na
2nd innings,18.3,JA Morkel,RP Singh,SK Raina,1,1,na,na
2nd innings,18.4,SK Raina,RP Singh,JA Morkel,4,4,na,na
2nd innings,18.5,SK Raina,RP Singh,JA Morkel,1,1,na,na
2nd innings,18.6,JA Morkel,RP Singh,SK Raina,0,0,na,na
2nd innings,19.1,SK Raina,DP Vijaykumar,JA Morkel,1,1,na,na
2nd innings,19.2,JA Morkel,DP Vijaykumar,SK Raina,6,6,na,na
