innings,deliveries,non_striker,bowler,batsman,total_runs,batsman_runs,extras,wickets
1st innings,0.1,V Sehwag,AD Mascarenhas,G Gambhir,4,4,na,na
1st innings,0.2,V Sehwag,AD Mascarenhas,G Gambhir,3,3,na,na
1st innings,0.3,G Gambhir,AD Mascarenhas,V Sehwag,0,0,na,na
1st innings,0.4,G Gambhir,AD Mascarenhas,V Sehwag,1,1,na,na
1st innings,0.5,V Sehwag,AD Mascarenhas,G Gambhir,4,4,na,na
1st innings,0.6,V Sehwag,AD Mascarenhas,G Gambhir,0,0,na,na
1st innings,1.1,G Gambhir,SR Watson,V Sehwag,0,0,na,na
1st innings,1.2,G Gambhir,SR Watson,V Sehwag,1,1,na,na
1st innings,1.3,V Sehwag,SR Watson,G Gambhir,0,0,na,na
1st innings,1.4,V Sehwag,SR Watson,G Gambhir,0,0,na,na
1st innings,1.5,V Sehwag,SR Watson,G Gambhir,2,2,na,na
1st innings,1.6,V Sehwag,SR Watson,G Gambhir,0,0,na,na
1st innings,2.1,G Gambhir,AD Mascarenhas,V Sehwag,1,1,na,na
1st innings,2.2,V Sehwag,AD Mascarenhas,G Gambhir,1,1,na,na
1st innings,2.3,G Gambhir,AD Mascarenhas,V Sehwag,0,0,na,na
1st innings,2.4,G Gambhir,AD Mascarenhas,V Sehwag,4,4,na,na
1st innings,2.5,G Gambhir,AD Mascarenhas,V Sehwag,1,1,na,na
1st innings,2.6,V Sehwag,AD Mascarenhas,G Gambhir,1,1,na,na
1st innings,3.1,V Sehwag,SR Watson,G Gambhir,4,4,na,na
1st innings,3.2,V Sehwag,SR Watson,G Gambhir,1,1,na,na
1st innings,3.3,G Gambhir,SR Watson,V Sehwag,0,0,na,na
1st innings,3.4,G Gambhir,SR Watson,V Sehwag,0,0,na,na
1st innings,3.5,G Gambhir,SR Watson,V Sehwag,0,0,na,na
1st innings,3.6,G Gambhir,SR Watson,V Sehwag,1,1,na,na
1st innings,4.1,G Gambhir,MM Patel,V Sehwag,1,1,na,na
1st innings,4.2,V Sehwag,MM Patel,G Gambhir,1,1,na,na
1st innings,4.3,G Gambhir,MM Patel,V Sehwag,1,0,{'wides': 1},na
1st innings,4.4,G Gambhir,MM Patel,V Sehwag,4,4,na,na
1st innings,4.5,G Gambhir,MM Patel,V Sehwag,1,1,na,na
1st innings,4.6,V Sehwag,MM Patel,G Gambhir,1,0,{'legbyes': 1},na
1st innings,4.7,G Gambhir,MM Patel,V Sehwag,1,1,na,na
1st innings,5.1,G Gambhir,SR Watson,V Sehwag,0,0,na,na
1st innings,5.2,G Gambhir,SR Watson,V Sehwag,1,1,na,na
1st innings,5.3,V Sehwag,SR Watson,G Gambhir,4,4,na,na
1st innings,5.4,V Sehwag,SR Watson,G Gambhir,1,1,na,na
1st innings,5.5,G Gambhir,SR Watson,V Sehwag,2,0,{'legbyes': 2},na
1st innings,5.6,G Gambhir,SR Watson,V Sehwag,0,0,na,"{'fielders': ['M Kaif'], 'kind': 'caught', 'player_out': 'V Sehwag'}"
1st innings,6.1,S Dhawan,MM Patel,G Gambhir,1,1,na,na
1st innings,6.2,G Gambhir,MM Patel,S Dhawan,2,2,na,na
1st innings,6.3,G Gambhir,MM Patel,S Dhawan,1,1,na,na
1st innings,6.4,S Dhawan,MM Patel,G Gambhir,0,0,na,na
1st innings,6.5,S Dhawan,MM Patel,G Gambhir,1,1,na,na
1st innings,6.6,G Gambhir,MM Patel,S Dhawan,0,0,na,"{'fielders': ['MM Patel'], 'kind': 'run out', 'player_out': 'S Dhawan'}"
1st innings,7.1,G Gambhir,SK Trivedi,AB de Villiers,1,1,na,na
1st innings,7.2,AB de Villiers,SK Trivedi,G Gambhir,1,1,na,na
1st innings,7.3,G Gambhir,SK Trivedi,AB de Villiers,2,2,na,na
1st innings,7.4,G Gambhir,SK Trivedi,AB de Villiers,0,0,na,na
1st innings,7.5,G Gambhir,SK Trivedi,AB de Villiers,2,2,na,na
1st innings,7.6,G Gambhir,SK Trivedi,AB de Villiers,1,1,na,na
1st innings,8.1,G Gambhir,SK Warne,AB de Villiers,1,1,na,na
1st innings,8.2,AB de Villiers,SK Warne,G Gambhir,1,1,na,na
1st innings,8.3,G Gambhir,SK Warne,AB de Villiers,0,0,na,na
1st innings,8.4,G Gambhir,SK Warne,AB de Villiers,0,0,na,na
1st innings,8.5,G Gambhir,SK Warne,AB de Villiers,2,2,na,na
1st innings,8.6,G Gambhir,SK Warne,AB de Villiers,1,1,na,na
1st innings,9.1,G Gambhir,SK Trivedi,AB de Villiers,0,0,na,na
1st innings,9.2,G Gambhir,SK Trivedi,AB de Villiers,1,1,na,na
1st innings,9.3,AB de Villiers,SK Trivedi,G Gambhir,1,1,na,na
1st innings,9.4,G Gambhir,SK Trivedi,AB de Villiers,1,0,{'wides': 1},na
1st innings,9.5,G Gambhir,SK Trivedi,AB de Villiers,1,1,na,na
1st innings,9.6,AB de Villiers,SK Trivedi,G Gambhir,0,0,na,"{'kind': 'bowled', 'player_out': 'G Gambhir'}"
1st innings,9.7,AB de Villiers,SK Trivedi,KD Karthik,0,0,na,na
1st innings,10.1,KD Karthik,SK Warne,AB de Villiers,2,2,na,na
1st innings,10.2,KD Karthik,SK Warne,AB de Villiers,1,1,na,na
1st innings,10.3,AB de Villiers,SK Warne,KD Karthik,1,1,na,na
1st innings,10.4,KD Karthik,SK Warne,AB de Villiers,0,0,na,na
1st innings,10.5,KD Karthik,SK Warne,AB de Villiers,2,2,na,na
1st innings,10.6,KD Karthik,SK Warne,AB de Villiers,1,1,na,na
1st innings,11.1,KD Karthik,AD Mascarenhas,AB de Villiers,2,2,na,na
1st innings,11.2,KD Karthik,AD Mascarenhas,AB de Villiers,1,0,{'legbyes': 1},na
1st innings,11.3,AB de Villiers,AD Mascarenhas,KD Karthik,2,2,na,na
1st innings,11.4,AB de Villiers,AD Mascarenhas,KD Karthik,0,0,na,na
1st innings,11.5,AB de Villiers,AD Mascarenhas,KD Karthik,0,0,na,na
1st innings,11.6,AB de Villiers,AD Mascarenhas,KD Karthik,1,1,na,na
1st innings,12.1,AB de Villiers,SK Warne,KD Karthik,0,0,na,na
1st innings,12.2,AB de Villiers,SK Warne,KD Karthik,4,4,na,na
1st innings,12.3,AB de Villiers,SK Warne,KD Karthik,2,2,na,na
1st innings,12.4,AB de Villiers,SK Warne,KD Karthik,0,0,na,na
1st innings,12.5,AB de Villiers,SK Warne,KD Karthik,2,2,na,na
1st innings,12.6,AB de Villiers,SK Warne,KD Karthik,0,0,na,na
1st innings,13.1,KD Karthik,AD Mascarenhas,AB de Villiers,1,0,{'legbyes': 1},na
1st innings,13.2,AB de Villiers,AD Mascarenhas,KD Karthik,2,0,{'wides': 2},na
1st innings,13.3,KD Karthik,AD Mascarenhas,AB de Villiers,0,0,na,"{'fielders': ['SK Warne'], 'kind': 'caught', 'player_out': 'AB de Villiers'}"
1st innings,13.4,TM Dilshan,AD Mascarenhas,KD Karthik,0,0,na,na
1st innings,13.5,TM Dilshan,AD Mascarenhas,KD Karthik,1,1,na,na
1st innings,13.6,KD Karthik,AD Mascarenhas,TM Dilshan,1,1,na,na
1st innings,13.7,TM Dilshan,AD Mascarenhas,KD Karthik,0,0,na,"{'fielders': ['M Rawat'], 'kind': 'caught', 'player_out': 'KD Karthik'}"
1st innings,14.1,A Mishra,MM Patel,TM Dilshan,1,1,na,na
1st innings,14.2,TM Dilshan,MM Patel,A Mishra,1,1,na,na
1st innings,14.3,A Mishra,MM Patel,TM Dilshan,0,0,na,na
1st innings,14.4,A Mishra,MM Patel,TM Dilshan,0,0,na,na
1st innings,14.5,A Mishra,MM Patel,TM Dilshan,0,0,na,na
1st innings,14.6,A Mishra,MM Patel,TM Dilshan,0,0,na,na
1st innings,15.1,TM Dilshan,SK Trivedi,A Mishra,2,2,na,na
1st innings,15.2,TM Dilshan,SK Trivedi,A Mishra,0,0,na,na
1st innings,15.3,TM Dilshan,SK Trivedi,A Mishra,1,1,na,na
1st innings,15.4,A Mishra,SK Trivedi,TM Dilshan,1,1,na,na
1st innings,15.5,TM Dilshan,SK Trivedi,A Mishra,0,0,na,"{'kind': 'bowled', 'player_out': 'A Mishra'}"
1st innings,15.6,TM Dilshan,SK Trivedi,MF Maharoof,1,0,{'legbyes': 1},na
1st innings,16.1,TM Dilshan,MM Patel,MF Maharoof,0,0,na,na
1st innings,16.2,TM Dilshan,MM Patel,MF Maharoof,0,0,na,na
1st innings,16.3,TM Dilshan,MM Patel,MF Maharoof,1,1,na,na
1st innings,16.4,MF Maharoof,MM Patel,TM Dilshan,1,1,na,na
1st innings,16.5,TM Dilshan,MM Patel,MF Maharoof,4,4,na,na
1st innings,16.6,TM Dilshan,MM Patel,MF Maharoof,2,2,na,na
1st innings,17.1,MF Maharoof,SK Trivedi,TM Dilshan,4,4,na,na
1st innings,17.2,MF Maharoof,SK Trivedi,TM Dilshan,6,6,na,na
1st innings,17.3,MF Maharoof,SK Trivedi,TM Dilshan,1,1,na,na
1st innings,17.4,TM Dilshan,SK Trivedi,MF Maharoof,2,2,na,na
1st innings,17.5,TM Dilshan,SK Trivedi,MF Maharoof,0,0,na,na
1st innings,17.6,TM Dilshan,SK Trivedi,MF Maharoof,0,0,na,na
1st innings,18.1,MF Maharoof,SK Warne,TM Dilshan,1,1,na,na
1st innings,18.2,TM Dilshan,SK Warne,MF Maharoof,6,6,na,na
1st innings,18.3,TM Dilshan,SK Warne,MF Maharoof,6,6,na,na
1st innings,18.4,TM Dilshan,SK Warne,MF Maharoof,2,2,na,na
1st innings,18.5,TM Dilshan,SK Warne,MF Maharoof,6,6,na,na
1st innings,18.6,TM Dilshan,SK Warne,MF Maharoof,6,6,na,na
1st innings,19.1,MF Maharoof,SR Watson,TM Dilshan,1,1,na,na
1st innings,19.2,TM Dilshan,SR Watson,MF Maharoof,4,4,na,na
1st innings,19.3,TM Dilshan,SR Watson,MF Maharoof,0,0,na,"{'fielders': ['Niraj Patel'], 'kind': 'caught', 'player_out': 'MF Maharoof'}"
1st innings,19.4,TM Dilshan,SR Watson,VY Mahesh,1,0,{'byes': 1},na
1st innings,19.5,VY Mahesh,SR Watson,TM Dilshan,0,0,na,na
1st innings,19.6,VY Mahesh,SR Watson,TM Dilshan,1,1,na,na
2nd innings,0.1,GC Smith,GD McGrath,YK Pathan,0,0,na,na
2nd innings,0.2,GC Smith,GD McGrath,YK Pathan,0,0,na,na
2nd innings,0.3,GC Smith,GD McGrath,YK Pathan,1,1,na,na
2nd innings,0.4,YK Pathan,GD McGrath,GC Smith,0,0,na,na
2nd innings,0.5,YK Pathan,GD McGrath,GC Smith,0,0,na,na
2nd innings,0.6,YK Pathan,GD McGrath,GC Smith,0,0,na,na
2nd innings,1.1,GC Smith,MF Maharoof,YK Pathan,4,4,na,na
2nd innings,1.2,GC Smith,MF Maharoof,YK Pathan,2,2,na,na
2nd innings,1.3,GC Smith,MF Maharoof,YK Pathan,0,0,na,na
2nd innings,1.4,GC Smith,MF Maharoof,YK Pathan,0,0,na,na
2nd innings,1.5,GC Smith,MF Maharoof,YK Pathan,0,0,na,na
2nd innings,1.6,GC Smith,MF Maharoof,YK Pathan,0,0,na,na
2nd innings,2.1,YK Pathan,GD McGrath,GC Smith,1,1,na,na
2nd innings,2.2,GC Smith,GD McGrath,YK Pathan,1,1,na,na
2nd innings,2.3,YK Pathan,GD McGrath,GC Smith,1,0,{'wides': 1},na
2nd innings,2.4,YK Pathan,GD McGrath,GC Smith,1,1,na,na
2nd innings,2.5,GC Smith,GD McGrath,YK Pathan,0,0,na,na
2nd innings,2.6,GC Smith,GD McGrath,YK Pathan,0,0,na,na
2nd innings,2.7,GC Smith,GD McGrath,YK Pathan,0,0,na,na
2nd innings,3.1,YK Pathan,MF Maharoof,GC Smith,0,0,na,"{'fielders': ['AB de Villiers'], 'kind': 'run out', 'player_out': 'YK Pathan'}"
2nd innings,3.2,M Kaif,MF Maharoof,GC Smith,0,0,na,na
2nd innings,3.3,M Kaif,MF Maharoof,GC Smith,1,1,na,na
2nd innings,3.4,GC Smith,MF Maharoof,M Kaif,1,0,{'legbyes': 1},na
2nd innings,3.5,M Kaif,MF Maharoof,GC Smith,0,0,na,na
2nd innings,3.6,M Kaif,MF Maharoof,GC Smith,1,0,{'wides': 1},na
2nd innings,3.7,M Kaif,MF Maharoof,GC Smith,0,0,na,na
2nd innings,4.1,GC Smith,GD McGrath,M Kaif,0,0,na,na
2nd innings,4.2,GC Smith,GD McGrath,M Kaif,0,0,na,na
2nd innings,4.3,GC Smith,GD McGrath,M Kaif,0,0,na,na
2nd innings,4.4,GC Smith,GD McGrath,M Kaif,1,1,na,na
2nd innings,4.5,M Kaif,GD McGrath,GC Smith,0,0,na,na
2nd innings,4.6,M Kaif,GD McGrath,GC Smith,0,0,na,"{'fielders': ['V Sehwag', 'KD Karthik'], 'kind': 'run out', 'player_out': 'M Kaif'}"
2nd innings,5.1,SR Watson,PJ Sangwan,GC Smith,1,1,na,na
2nd innings,5.2,GC Smith,PJ Sangwan,SR Watson,0,0,na,na
2nd innings,5.3,GC Smith,PJ Sangwan,SR Watson,0,0,na,na
2nd innings,5.4,GC Smith,PJ Sangwan,SR Watson,1,1,na,na
2nd innings,5.5,SR Watson,PJ Sangwan,GC Smith,0,0,na,na
2nd innings,5.6,SR Watson,PJ Sangwan,GC Smith,4,0,{'legbyes': 4},na
2nd innings,6.1,GC Smith,VY Mahesh,SR Watson,1,1,na,na
2nd innings,6.2,SR Watson,VY Mahesh,GC Smith,1,0,{'legbyes': 1},na
2nd innings,6.3,GC Smith,VY Mahesh,SR Watson,0,0,na,na
2nd innings,6.4,GC Smith,VY Mahesh,SR Watson,6,6,na,na
2nd innings,6.5,GC Smith,VY Mahesh,SR Watson,0,0,na,na
2nd innings,6.6,GC Smith,VY Mahesh,SR Watson,4,4,na,na
2nd innings,7.1,SR Watson,PJ Sangwan,GC Smith,4,4,na,na
2nd innings,7.2,SR Watson,PJ Sangwan,GC Smith,1,1,na,na
2nd innings,7.3,GC Smith,PJ Sangwan,SR Watson,1,1,na,na
2nd innings,7.4,SR Watson,PJ Sangwan,GC Smith,1,1,na,na
2nd innings,7.5,GC Smith,PJ Sangwan,SR Watson,2,2,na,na
2nd innings,7.6,GC Smith,PJ Sangwan,SR Watson,1,1,na,na
2nd innings,8.1,GC Smith,VY Mahesh,SR Watson,6,6,na,na
2nd innings,8.2,GC Smith,VY Mahesh,SR Watson,5,4,{'noballs': 1},na
2nd innings,8.3,GC Smith,VY Mahesh,SR Watson,1,0,{'noballs': 1},na
2nd innings,8.4,GC Smith,VY Mahesh,SR Watson,2,0,{'byes': 2},na
2nd innings,8.5,GC Smith,VY Mahesh,SR Watson,2,2,na,na
2nd innings,8.6,GC Smith,VY Mahesh,SR Watson,2,2,na,na
2nd innings,8.7,GC Smith,VY Mahesh,SR Watson,0,0,na,na
2nd innings,8.8,GC Smith,VY Mahesh,SR Watson,4,4,na,na
2nd innings,9.1,SR Watson,PJ Sangwan,GC Smith,1,1,na,na
2nd innings,9.2,GC Smith,PJ Sangwan,SR Watson,1,1,na,na
2nd innings,9.3,SR Watson,PJ Sangwan,GC Smith,4,4,na,na
2nd innings,9.4,SR Watson,PJ Sangwan,GC Smith,2,2,na,na
2nd innings,9.5,SR Watson,PJ Sangwan,GC Smith,1,1,na,na
2nd innings,9.6,GC Smith,PJ Sangwan,SR Watson,6,6,na,na
2nd innings,10.1,SR Watson,A Mishra,GC Smith,2,2,na,na
2nd innings,10.2,SR Watson,A Mishra,GC Smith,0,0,na,na
2nd innings,10.3,SR Watson,A Mishra,GC Smith,4,4,na,na
2nd innings,10.4,SR Watson,A Mishra,GC Smith,0,0,na,"{'fielders': ['VY Mahesh'], 'kind': 'caught', 'player_out': 'GC Smith'}"
2nd innings,10.5,SR Watson,A Mishra,RA Jadeja,0,0,na,na
2nd innings,10.6,SR Watson,A Mishra,RA Jadeja,2,2,na,na
2nd innings,11.1,RA Jadeja,MF Maharoof,SR Watson,1,1,na,na
2nd innings,11.2,SR Watson,MF Maharoof,RA Jadeja,4,4,na,na
2nd innings,11.3,SR Watson,MF Maharoof,RA Jadeja,1,0,{'wides': 1},na
2nd innings,11.4,SR Watson,MF Maharoof,RA Jadeja,0,0,na,na
2nd innings,11.5,SR Watson,MF Maharoof,RA Jadeja,1,0,{'legbyes': 1},na
2nd innings,11.6,RA Jadeja,MF Maharoof,SR Watson,2,2,na,na
2nd innings,11.7,RA Jadeja,MF Maharoof,SR Watson,1,1,na,na
2nd innings,12.1,RA Jadeja,A Mishra,SR Watson,1,1,na,na
2nd innings,12.2,SR Watson,A Mishra,RA Jadeja,0,0,na,"{'kind': 'bowled', 'player_out': 'RA Jadeja'}"
2nd innings,12.3,SR Watson,A Mishra,AD Mascarenhas,1,1,na,na
2nd innings,12.4,AD Mascarenhas,A Mishra,SR Watson,0,0,na,na
2nd innings,12.5,AD Mascarenhas,A Mishra,SR Watson,0,0,na,na
2nd innings,12.6,AD Mascarenhas,A Mishra,SR Watson,1,0,{'noballs': 1},na
2nd innings,12.7,AD Mascarenhas,A Mishra,SR Watson,1,1,na,na
2nd innings,13.1,AD Mascarenhas,V Sehwag,SR Watson,1,1,na,na
2nd innings,13.2,SR Watson,V Sehwag,AD Mascarenhas,0,0,na,na
2nd innings,13.3,SR Watson,V Sehwag,AD Mascarenhas,0,0,na,na
2nd innings,13.4,SR Watson,V Sehwag,AD Mascarenhas,1,1,na,na
2nd innings,13.5,AD Mascarenhas,V Sehwag,SR Watson,1,1,na,na
2nd innings,13.6,SR Watson,V Sehwag,AD Mascarenhas,0,0,na,na
2nd innings,14.1,AD Mascarenhas,A Mishra,SR Watson,1,1,na,na
2nd innings,14.2,SR Watson,A Mishra,AD Mascarenhas,1,1,na,na
2nd innings,14.3,AD Mascarenhas,A Mishra,SR Watson,1,0,{'wides': 1},na
2nd innings,14.4,AD Mascarenhas,A Mishra,SR Watson,4,4,na,na
2nd innings,14.5,AD Mascarenhas,A Mishra,SR Watson,6,6,na,na
2nd innings,14.6,AD Mascarenhas,A Mishra,SR Watson,1,0,{'wides': 1},na
2nd innings,14.7,AD Mascarenhas,A Mishra,SR Watson,1,1,na,na
2nd innings,15.1,AD Mascarenhas,V Sehwag,SR Watson,1,1,na,na
2nd innings,15.2,SR Watson,V Sehwag,AD Mascarenhas,6,6,na,na
2nd innings,15.3,SR Watson,V Sehwag,AD Mascarenhas,0,0,na,"{'kind': 'bowled', 'player_out': 'AD Mascarenhas'}"
2nd innings,15.4,SR Watson,V Sehwag,SK Warne,4,4,na,na
2nd innings,15.5,SR Watson,V Sehwag,SK Warne,1,1,na,na
2nd innings,15.6,SK Warne,V Sehwag,SR Watson,6,6,na,na
2nd innings,16.1,SR Watson,GD McGrath,SK Warne,0,0,na,na
2nd innings,16.2,SR Watson,GD McGrath,SK Warne,0,0,na,na
2nd innings,16.3,SR Watson,GD McGrath,SK Warne,1,1,na,na
2nd innings,16.4,SK Warne,GD McGrath,SR Watson,4,4,na,na
2nd innings,16.5,SK Warne,GD McGrath,SR Watson,1,1,na,na
2nd innings,16.6,SR Watson,GD McGrath,SK Warne,0,0,na,na
2nd innings,17.1,SK Warne,PJ Sangwan,SR Watson,1,1,na,na
2nd innings,17.2,SR Watson,PJ Sangwan,SK Warne,0,0,na,na
2nd innings,17.3,SR Watson,PJ Sangwan,SK Warne,0,0,na,na
2nd innings,17.4,SR Watson,PJ Sangwan,SK Warne,2,2,na,na
2nd innings,17.5,SR Watson,PJ Sangwan,SK Warne,2,2,na,na
2nd innings,17.6,SR Watson,PJ Sangwan,SK Warne,1,1,na,na
2nd innings,18.1,SR Watson,MF Maharoof,SK Warne,0,0,na,"{'kind': 'bowled', 'player_out': 'SK Warne'}"
2nd innings,18.2,SR Watson,MF Maharoof,Niraj Patel,0,0,na,"{'fielders': ['KD Karthik'], 'kind': 'run out', 'player_out': 'SR Watson'}"
2nd innings,18.3,Niraj Patel,MF Maharoof,M Rawat,0,0,na,na
2nd innings,18.4,Niraj Patel,MF Maharoof,M Rawat,0,0,na,na
2nd innings,18.5,Niraj Patel,MF Maharoof,M Rawat,1,1,na,na
2nd innings,18.6,M Rawat,MF Maharoof,Niraj Patel,4,4,na,na
2nd innings,19.1,Niraj Patel,VY Mahesh,M Rawat,4,4,na,na
