innings,deliveries,non_striker,bowler,batsman,total_runs,batsman_runs,extras,wickets
1st innings,0.1,SP Fleming,Sohail Tanvir,PA Patel,0,0,na,"{'kind': 'lbw', 'player_out': 'PA Patel'}"
1st innings,0.2,SP Fleming,Sohail Tanvir,S Vidyut,0,0,na,na
1st innings,0.3,SP Fleming,Sohail Tanvir,S Vidyut,1,1,na,na
1st innings,0.4,S Vidyut,Sohail Tanvir,SP Fleming,0,0,na,na
1st innings,0.5,S Vidyut,Sohail Tanvir,SP Fleming,0,0,na,"{'kind': 'lbw', 'player_out': 'SP Fleming'}"
1st innings,0.6,S Vidyut,Sohail Tanvir,SK Raina,0,0,na,na
1st innings,1.1,SK Raina,SR Watson,S Vidyut,4,4,na,na
1st innings,1.2,SK Raina,SR Watson,S Vidyut,0,0,na,na
1st innings,1.3,SK Raina,SR Watson,S Vidyut,0,0,na,na
1st innings,1.4,SK Raina,SR Watson,S Vidyut,1,0,{'wides': 1},na
1st innings,1.5,SK Raina,SR Watson,S Vidyut,0,0,na,na
1st innings,1.6,SK Raina,SR Watson,S Vidyut,0,0,na,na
1st innings,1.7,SK Raina,SR Watson,S Vidyut,4,0,{'byes': 4},na
1st innings,2.1,S Vidyut,Sohail Tanvir,SK Raina,0,0,na,na
1st innings,2.2,S Vidyut,Sohail Tanvir,SK Raina,0,0,na,na
1st innings,2.3,S Vidyut,Sohail Tanvir,SK Raina,1,1,na,na
1st innings,2.4,SK Raina,Sohail Tanvir,S Vidyut,0,0,na,na
1st innings,2.5,SK Raina,Sohail Tanvir,S Vidyut,0,0,na,"{'fielders': ['SK Warne'], 'kind': 'caught', 'player_out': 'S Vidyut'}"
1st innings,2.6,SK Raina,Sohail Tanvir,S Badrinath,1,0,{'legbyes': 1},na
1st innings,3.1,SK Raina,MM Patel,S Badrinath,0,0,na,na
1st innings,3.2,SK Raina,MM Patel,S Badrinath,0,0,na,na
1st innings,3.3,SK Raina,MM Patel,S Badrinath,0,0,na,na
1st innings,3.4,SK Raina,MM Patel,S Badrinath,0,0,na,na
1st innings,3.5,SK Raina,MM Patel,S Badrinath,4,4,na,na
1st innings,3.6,SK Raina,MM Patel,S Badrinath,0,0,na,na
1st innings,4.1,S Badrinath,SK Trivedi,SK Raina,4,4,na,na
1st innings,4.2,S Badrinath,SK Trivedi,SK Raina,1,1,na,na
1st innings,4.3,SK Raina,SK Trivedi,S Badrinath,0,0,na,na
1st innings,4.4,SK Raina,SK Trivedi,S Badrinath,3,3,na,na
1st innings,4.5,S Badrinath,SK Trivedi,SK Raina,4,4,na,na
1st innings,4.6,S Badrinath,SK Trivedi,SK Raina,2,2,na,na
1st innings,5.1,SK Raina,SR Watson,S Badrinath,4,4,na,na
1st innings,5.2,SK Raina,SR Watson,S Badrinath,0,0,na,na
1st innings,5.3,SK Raina,SR Watson,S Badrinath,0,0,na,na
1st innings,5.4,SK Raina,SR Watson,S Badrinath,4,4,na,na
1st innings,5.5,SK Raina,SR Watson,S Badrinath,0,0,na,"{'kind': 'caught and bowled', 'player_out': 'S Badrinath'}"
1st innings,5.6,SK Raina,SR Watson,MS Dhoni,0,0,na,na
1st innings,6.1,MS Dhoni,MM Patel,SK Raina,1,1,na,na
1st innings,6.2,SK Raina,MM Patel,MS Dhoni,1,1,na,na
1st innings,6.3,MS Dhoni,MM Patel,SK Raina,0,0,na,na
1st innings,6.4,MS Dhoni,MM Patel,SK Raina,1,1,na,na
1st innings,6.5,SK Raina,MM Patel,MS Dhoni,0,0,na,na
1st innings,6.6,SK Raina,MM Patel,MS Dhoni,0,0,na,na
1st innings,7.1,MS Dhoni,SK Warne,SK Raina,2,2,na,na
1st innings,7.2,MS Dhoni,SK Warne,SK Raina,1,1,na,na
1st innings,7.3,SK Raina,SK Warne,MS Dhoni,0,0,na,na
1st innings,7.4,SK Raina,SK Warne,MS Dhoni,0,0,na,na
1st innings,7.5,SK Raina,SK Warne,MS Dhoni,0,0,na,"{'fielders': ['GC Smith'], 'kind': 'caught', 'player_out': 'MS Dhoni'}"
1st innings,7.6,SK Raina,SK Warne,JA Morkel,2,2,na,na
1st innings,8.1,JA Morkel,MM Patel,SK Raina,1,1,na,na
1st innings,8.2,SK Raina,MM Patel,JA Morkel,0,0,na,na
1st innings,8.3,SK Raina,MM Patel,JA Morkel,1,1,na,na
1st innings,8.4,JA Morkel,MM Patel,SK Raina,1,1,na,na
1st innings,8.5,SK Raina,MM Patel,JA Morkel,1,1,na,na
1st innings,8.6,JA Morkel,MM Patel,SK Raina,1,1,na,na
1st innings,9.1,JA Morkel,SK Warne,SK Raina,1,1,na,na
1st innings,9.2,SK Raina,SK Warne,JA Morkel,0,0,na,na
1st innings,9.3,SK Raina,SK Warne,JA Morkel,1,1,na,na
1st innings,9.4,JA Morkel,SK Warne,SK Raina,0,0,na,na
1st innings,9.5,JA Morkel,SK Warne,SK Raina,1,1,na,na
1st innings,9.6,SK Raina,SK Warne,JA Morkel,4,4,na,na
1st innings,10.1,JA Morkel,YK Pathan,SK Raina,0,0,na,na
1st innings,10.2,JA Morkel,YK Pathan,SK Raina,1,1,na,na
1st innings,10.3,SK Raina,YK Pathan,JA Morkel,0,0,na,na
1st innings,10.4,SK Raina,YK Pathan,JA Morkel,0,0,na,na
1st innings,10.5,SK Raina,YK Pathan,JA Morkel,0,0,na,na
1st innings,10.6,SK Raina,YK Pathan,JA Morkel,0,0,na,na
1st innings,11.1,JA Morkel,SK Warne,SK Raina,1,1,na,na
1st innings,11.2,SK Raina,SK Warne,JA Morkel,4,4,na,na
1st innings,11.3,SK Raina,SK Warne,JA Morkel,0,0,na,na
1st innings,11.4,SK Raina,SK Warne,JA Morkel,6,6,na,na
1st innings,11.5,SK Raina,SK Warne,JA Morkel,4,4,na,na
1st innings,11.6,SK Raina,SK Warne,JA Morkel,2,2,na,na
1st innings,12.1,JA Morkel,YK Pathan,SK Raina,1,1,na,na
1st innings,12.2,SK Raina,YK Pathan,JA Morkel,4,4,na,na
1st innings,12.3,SK Raina,YK Pathan,JA Morkel,1,1,na,na
1st innings,12.4,JA Morkel,YK Pathan,SK Raina,1,1,na,na
1st innings,12.5,SK Raina,YK Pathan,JA Morkel,1,1,na,na
1st innings,12.6,JA Morkel,YK Pathan,SK Raina,0,0,na,na
1st innings,13.1,SK Raina,SK Trivedi,JA Morkel,0,0,na,na
1st innings,13.2,SK Raina,SK Trivedi,JA Morkel,0,0,na,na
1st innings,13.3,SK Raina,SK Trivedi,JA Morkel,1,1,na,na
1st innings,13.4,JA Morkel,SK Trivedi,SK Raina,1,1,na,na
1st innings,13.5,SK Raina,SK Trivedi,JA Morkel,0,0,na,na
1st innings,13.6,SK Raina,SK Trivedi,JA Morkel,1,1,na,na
1st innings,14.1,SK Raina,MM Patel,JA Morkel,1,1,na,na
1st innings,14.2,JA Morkel,MM Patel,SK Raina,0,0,na,"{'fielders': ['Sohail Tanvir'], 'kind': 'caught', 'player_out': 'SK Raina'}"
1st innings,14.3,Joginder Sharma,MM Patel,JA Morkel,2,2,na,na
1st innings,14.4,Joginder Sharma,MM Patel,JA Morkel,1,1,na,na
1st innings,14.5,JA Morkel,MM Patel,Joginder Sharma,0,0,na,"{'fielders': ['Sohail Tanvir'], 'kind': 'caught', 'player_out': 'Joginder Sharma'}"
1st innings,14.6,JA Morkel,MM Patel,MS Gony,0,0,na,na
1st innings,15.1,MS Gony,SR Watson,JA Morkel,2,2,na,na
1st innings,15.2,MS Gony,SR Watson,JA Morkel,2,2,na,na
1st innings,15.3,MS Gony,SR Watson,JA Morkel,0,0,na,na
1st innings,15.4,MS Gony,SR Watson,JA Morkel,0,0,na,na
1st innings,15.5,MS Gony,SR Watson,JA Morkel,1,1,na,na
1st innings,15.6,JA Morkel,SR Watson,MS Gony,0,0,na,na
1st innings,16.1,MS Gony,Sohail Tanvir,JA Morkel,0,0,na,"{'kind': 'bowled', 'player_out': 'JA Morkel'}"
1st innings,16.2,MS Gony,Sohail Tanvir,M Muralitharan,0,0,na,na
1st innings,16.3,MS Gony,Sohail Tanvir,M Muralitharan,0,0,na,na
1st innings,16.4,MS Gony,Sohail Tanvir,M Muralitharan,0,0,na,"{'kind': 'bowled', 'player_out': 'M Muralitharan'}"
1st innings,16.5,MS Gony,Sohail Tanvir,M Ntini,0,0,na,na
1st innings,16.6,MS Gony,Sohail Tanvir,M Ntini,1,1,na,na
1st innings,17.1,MS Gony,SR Watson,M Ntini,0,0,na,na
1st innings,17.2,MS Gony,SR Watson,M Ntini,0,0,na,na
1st innings,17.3,MS Gony,SR Watson,M Ntini,1,0,{'wides': 1},na
1st innings,17.4,MS Gony,SR Watson,M Ntini,0,0,na,na
1st innings,17.5,MS Gony,SR Watson,M Ntini,0,0,na,na
1st innings,17.6,MS Gony,SR Watson,M Ntini,0,0,na,na
1st innings,17.7,MS Gony,SR Watson,M Ntini,0,0,na,na
1st innings,18.1,M Ntini,Sohail Tanvir,MS Gony,0,0,na,na
1st innings,18.2,M Ntini,Sohail Tanvir,MS Gony,1,1,na,na
1st innings,18.3,MS Gony,Sohail Tanvir,M Ntini,4,4,na,na
1st innings,18.4,MS Gony,Sohail Tanvir,M Ntini,4,4,na,na
1st innings,18.5,MS Gony,Sohail Tanvir,M Ntini,2,2,na,na
1st innings,18.6,MS Gony,Sohail Tanvir,M Ntini,0,0,na,"{'kind': 'bowled', 'player_out': 'M Ntini'}"
2nd innings,0.1,SA Asnodkar,M Ntini,GC Smith,0,0,na,na
2nd innings,0.2,SA Asnodkar,M Ntini,GC Smith,0,0,na,na
2nd innings,0.3,SA Asnodkar,M Ntini,GC Smith,0,0,na,na
2nd innings,0.4,SA Asnodkar,M Ntini,GC Smith,0,0,na,na
2nd innings,0.5,SA Asnodkar,M Ntini,GC Smith,0,0,na,na
2nd innings,0.6,SA Asnodkar,M Ntini,GC Smith,0,0,na,na
2nd innings,1.1,GC Smith,MS Gony,SA Asnodkar,4,4,na,na
2nd innings,1.2,GC Smith,MS Gony,SA Asnodkar,0,0,na,na
2nd innings,1.3,GC Smith,MS Gony,SA Asnodkar,0,0,na,na
2nd innings,1.4,GC Smith,MS Gony,SA Asnodkar,0,0,na,na
2nd innings,1.5,GC Smith,MS Gony,SA Asnodkar,1,1,na,na
2nd innings,1.6,SA Asnodkar,MS Gony,GC Smith,1,1,na,na
2nd innings,2.1,SA Asnodkar,M Ntini,GC Smith,1,1,na,na
2nd innings,2.2,GC Smith,M Ntini,SA Asnodkar,1,0,{'legbyes': 1},na
2nd innings,2.3,SA Asnodkar,M Ntini,GC Smith,4,4,na,na
2nd innings,2.4,SA Asnodkar,M Ntini,GC Smith,0,0,na,na
2nd innings,2.5,SA Asnodkar,M Ntini,GC Smith,1,1,na,na
2nd innings,2.6,GC Smith,M Ntini,SA Asnodkar,1,1,na,na
2nd innings,3.1,GC Smith,MS Gony,SA Asnodkar,0,0,na,na
2nd innings,3.2,GC Smith,MS Gony,SA Asnodkar,1,0,{'legbyes': 1},na
2nd innings,3.3,SA Asnodkar,MS Gony,GC Smith,1,1,na,na
2nd innings,3.4,GC Smith,MS Gony,SA Asnodkar,0,0,na,na
2nd innings,3.5,GC Smith,MS Gony,SA Asnodkar,4,4,na,na
2nd innings,3.6,GC Smith,MS Gony,SA Asnodkar,4,4,na,na
2nd innings,4.1,SA Asnodkar,M Ntini,GC Smith,1,1,na,na
2nd innings,4.2,GC Smith,M Ntini,SA Asnodkar,1,1,na,na
2nd innings,4.3,SA Asnodkar,M Ntini,GC Smith,0,0,na,na
2nd innings,4.4,SA Asnodkar,M Ntini,GC Smith,0,0,na,na
2nd innings,4.5,SA Asnodkar,M Ntini,GC Smith,4,4,na,na
2nd innings,4.6,SA Asnodkar,M Ntini,GC Smith,4,4,na,na
2nd innings,5.1,GC Smith,MS Gony,SA Asnodkar,4,4,na,na
2nd innings,5.2,GC Smith,MS Gony,SA Asnodkar,1,1,na,na
2nd innings,5.3,SA Asnodkar,MS Gony,GC Smith,0,0,na,na
2nd innings,5.4,SA Asnodkar,MS Gony,GC Smith,4,4,na,na
2nd innings,5.5,SA Asnodkar,MS Gony,GC Smith,0,0,na,na
2nd innings,5.6,SA Asnodkar,MS Gony,GC Smith,1,1,na,na
2nd innings,6.1,SA Asnodkar,JA Morkel,GC Smith,0,0,na,na
2nd innings,6.2,SA Asnodkar,JA Morkel,GC Smith,1,1,na,na
2nd innings,6.3,GC Smith,JA Morkel,SA Asnodkar,1,0,{'wides': 1},na
2nd innings,6.4,GC Smith,JA Morkel,SA Asnodkar,0,0,na,na
2nd innings,6.5,GC Smith,JA Morkel,SA Asnodkar,1,0,{'noballs': 1},na
2nd innings,6.6,GC Smith,JA Morkel,SA Asnodkar,1,1,na,na
2nd innings,6.7,SA Asnodkar,JA Morkel,GC Smith,5,0,{'wides': 5},na
2nd innings,6.8,SA Asnodkar,JA Morkel,GC Smith,1,0,{'wides': 1},na
2nd innings,6.9,SA Asnodkar,JA Morkel,GC Smith,0,0,na,na
2nd innings,6.1,SA Asnodkar,JA Morkel,GC Smith,4,0,{'legbyes': 4},na
2nd innings,7.1,GC Smith,M Muralitharan,SA Asnodkar,0,0,na,na
2nd innings,7.2,GC Smith,M Muralitharan,SA Asnodkar,1,1,na,na
2nd innings,7.3,SA Asnodkar,M Muralitharan,GC Smith,1,1,na,na
2nd innings,7.4,GC Smith,M Muralitharan,SA Asnodkar,1,1,na,na
2nd innings,7.5,SA Asnodkar,M Muralitharan,GC Smith,5,0,{'wides': 5},na
2nd innings,7.6,SA Asnodkar,M Muralitharan,GC Smith,0,0,na,na
2nd innings,7.7,SA Asnodkar,M Muralitharan,GC Smith,0,0,na,na
2nd innings,8.1,GC Smith,SK Raina,SA Asnodkar,1,1,na,na
2nd innings,8.2,SA Asnodkar,SK Raina,GC Smith,1,1,na,na
2nd innings,8.3,GC Smith,SK Raina,SA Asnodkar,1,1,na,na
2nd innings,8.4,SA Asnodkar,SK Raina,GC Smith,0,0,na,na
2nd innings,8.5,SA Asnodkar,SK Raina,GC Smith,1,1,na,na
2nd innings,8.6,GC Smith,SK Raina,SA Asnodkar,4,4,na,na
2nd innings,9.1,SA Asnodkar,M Muralitharan,GC Smith,1,1,na,na
2nd innings,9.2,GC Smith,M Muralitharan,SA Asnodkar,0,0,na,na
2nd innings,9.3,GC Smith,M Muralitharan,SA Asnodkar,0,0,na,na
2nd innings,9.4,GC Smith,M Muralitharan,SA Asnodkar,2,2,na,na
2nd innings,9.5,GC Smith,M Muralitharan,SA Asnodkar,0,0,na,na
2nd innings,9.6,GC Smith,M Muralitharan,SA Asnodkar,1,1,na,na
2nd innings,10.1,GC Smith,S Vidyut,SA Asnodkar,0,0,na,"{'fielders': ['M Ntini'], 'kind': 'caught', 'player_out': 'SA Asnodkar'}"
2nd innings,10.2,YK Pathan,S Vidyut,GC Smith,0,0,na,na
2nd innings,10.3,YK Pathan,S Vidyut,GC Smith,1,1,na,na
2nd innings,10.4,GC Smith,S Vidyut,YK Pathan,0,0,na,na
2nd innings,10.5,GC Smith,S Vidyut,YK Pathan,6,6,na,na
2nd innings,10.6,GC Smith,S Vidyut,YK Pathan,1,0,{'wides': 1},na
2nd innings,10.7,GC Smith,S Vidyut,YK Pathan,2,2,na,na
2nd innings,11.1,YK Pathan,M Muralitharan,GC Smith,2,2,na,na
2nd innings,11.2,YK Pathan,M Muralitharan,GC Smith,0,0,na,na
2nd innings,11.3,YK Pathan,M Muralitharan,GC Smith,0,0,na,na
2nd innings,11.4,YK Pathan,M Muralitharan,GC Smith,1,0,{'wides': 1},na
2nd innings,11.5,YK Pathan,M Muralitharan,GC Smith,1,1,na,na
2nd innings,11.6,GC Smith,M Muralitharan,YK Pathan,0,0,na,na
2nd innings,11.7,GC Smith,M Muralitharan,YK Pathan,0,0,na,"{'fielders': ['SK Raina'], 'kind': 'caught', 'player_out': 'YK Pathan'}"
2nd innings,12.1,SR Watson,S Vidyut,GC Smith,1,1,na,na
2nd innings,12.2,GC Smith,S Vidyut,SR Watson,0,0,na,na
2nd innings,12.3,GC Smith,S Vidyut,SR Watson,0,0,na,na
2nd innings,12.4,GC Smith,S Vidyut,SR Watson,6,6,na,na
2nd innings,12.5,GC Smith,S Vidyut,SR Watson,4,4,na,na
2nd innings,12.6,GC Smith,S Vidyut,SR Watson,1,1,na,na
2nd innings,13.1,GC Smith,M Muralitharan,SR Watson,2,2,na,na
2nd innings,13.2,GC Smith,M Muralitharan,SR Watson,1,1,na,na
2nd innings,13.3,SR Watson,M Muralitharan,GC Smith,0,0,na,na
2nd innings,13.4,SR Watson,M Muralitharan,GC Smith,0,0,na,na
2nd innings,13.5,SR Watson,M Muralitharan,GC Smith,1,1,na,na
2nd innings,13.6,GC Smith,M Muralitharan,SR Watson,0,0,na,na
2nd innings,14.1,SR Watson,SK Raina,GC Smith,0,0,na,na
2nd innings,14.2,SR Watson,SK Raina,GC Smith,2,2,na,na
