innings,deliveries,non_striker,bowler,batsman,total_runs,batsman_runs,extras,wickets
1st innings,0.1,K Goel,Kamran Khan,RS Bopara,0,0,na,"{'fielders': ['RA Jadeja', 'SA Asnodkar'], 'kind': 'run out', 'player_out': 'K Goel'}"
1st innings,0.2,KC Sangakkara,Kamran Khan,RS Bopara,0,0,na,na
1st innings,0.3,KC Sangakkara,Kamran Khan,RS Bopara,1,0,{'wides': 1},na
1st innings,0.4,KC Sangakkara,Kamran Khan,RS Bopara,0,0,na,na
1st innings,0.5,KC Sangakkara,Kamran Khan,RS Bopara,0,0,na,na
1st innings,0.6,KC Sangakkara,Kamran Khan,RS Bopara,0,0,na,na
1st innings,0.7,KC Sangakkara,Kamran Khan,RS Bopara,0,0,na,na
1st innings,1.1,RS Bopara,AD Mascarenhas,KC Sangakkara,0,0,na,na
1st innings,1.2,RS Bopara,AD Mascarenhas,KC Sangakkara,0,0,na,na
1st innings,1.3,RS Bopara,AD Mascarenhas,KC Sangakkara,0,0,na,na
1st innings,1.4,RS Bopara,AD Mascarenhas,KC Sangakkara,4,4,na,na
1st innings,1.5,RS Bopara,AD Mascarenhas,KC Sangakkara,1,1,na,na
1st innings,1.6,KC Sangakkara,AD Mascarenhas,RS Bopara,1,1,na,na
1st innings,2.1,KC Sangakkara,MM Patel,RS Bopara,4,4,na,na
1st innings,2.2,KC Sangakkara,MM Patel,RS Bopara,0,0,na,na
1st innings,2.3,KC Sangakkara,MM Patel,RS Bopara,1,1,na,na
1st innings,2.4,RS Bopara,MM Patel,KC Sangakkara,0,0,na,na
1st innings,2.5,RS Bopara,MM Patel,KC Sangakkara,0,0,na,na
1st innings,2.6,RS Bopara,MM Patel,KC Sangakkara,0,0,na,na
1st innings,3.1,KC Sangakkara,AD Mascarenhas,RS Bopara,0,0,na,na
1st innings,3.2,KC Sangakkara,AD Mascarenhas,RS Bopara,4,4,na,na
1st innings,3.3,KC Sangakkara,AD Mascarenhas,RS Bopara,0,0,na,na
1st innings,3.4,KC Sangakkara,AD Mascarenhas,RS Bopara,1,1,na,na
1st innings,3.5,RS Bopara,AD Mascarenhas,KC Sangakkara,0,0,na,na
1st innings,3.6,RS Bopara,AD Mascarenhas,KC Sangakkara,4,4,na,na
1st innings,4.1,KC Sangakkara,Kamran Khan,RS Bopara,0,0,na,"{'fielders': ['MM Patel'], 'kind': 'caught', 'player_out': 'RS Bopara'}"
1st innings,4.2,KC Sangakkara,Kamran Khan,Yuvraj Singh,1,0,{'wides': 1},na
1st innings,4.3,KC Sangakkara,Kamran Khan,Yuvraj Singh,1,1,na,na
1st innings,4.4,Yuvraj Singh,Kamran Khan,KC Sangakkara,0,0,na,na
1st innings,4.5,Yuvraj Singh,Kamran Khan,KC Sangakkara,0,0,na,na
1st innings,4.6,Yuvraj Singh,Kamran Khan,KC Sangakkara,1,0,{'wides': 1},na
1st innings,4.7,Yuvraj Singh,Kamran Khan,KC Sangakkara,0,0,na,na
1st innings,4.8,Yuvraj Singh,Kamran Khan,KC Sangakkara,4,4,na,na
1st innings,5.1,KC Sangakkara,YK Pathan,Yuvraj Singh,1,0,{'wides': 1},na
1st innings,5.2,KC Sangakkara,YK Pathan,Yuvraj Singh,1,0,{'wides': 1},na
1st innings,5.3,KC Sangakkara,YK Pathan,Yuvraj Singh,1,1,na,na
1st innings,5.4,Yuvraj Singh,YK Pathan,KC Sangakkara,1,0,{'wides': 1},na
1st innings,5.5,Yuvraj Singh,YK Pathan,KC Sangakkara,0,0,na,na
1st innings,5.6,Yuvraj Singh,YK Pathan,KC Sangakkara,0,0,na,na
1st innings,5.7,Yuvraj Singh,YK Pathan,KC Sangakkara,2,2,na,na
1st innings,5.8,Yuvraj Singh,YK Pathan,KC Sangakkara,0,0,na,na
1st innings,5.9,Yuvraj Singh,YK Pathan,KC Sangakkara,4,4,na,na
1st innings,6.1,KC Sangakkara,MM Patel,Yuvraj Singh,0,0,na,"{'fielders': ['M Rawat'], 'kind': 'caught', 'player_out': 'Yuvraj Singh'}"
1st innings,6.2,KC Sangakkara,MM Patel,DPMD Jayawardene,0,0,na,na
1st innings,6.3,KC Sangakkara,MM Patel,DPMD Jayawardene,1,1,na,na
1st innings,6.4,DPMD Jayawardene,MM Patel,KC Sangakkara,1,1,na,na
1st innings,6.5,KC Sangakkara,MM Patel,DPMD Jayawardene,2,2,na,na
1st innings,6.6,KC Sangakkara,MM Patel,DPMD Jayawardene,0,0,na,na
1st innings,7.1,DPMD Jayawardene,AD Mascarenhas,KC Sangakkara,1,1,na,na
1st innings,7.2,KC Sangakkara,AD Mascarenhas,DPMD Jayawardene,0,0,na,na
1st innings,7.3,KC Sangakkara,AD Mascarenhas,DPMD Jayawardene,1,1,na,na
1st innings,7.4,DPMD Jayawardene,AD Mascarenhas,KC Sangakkara,1,1,na,na
1st innings,7.5,KC Sangakkara,AD Mascarenhas,DPMD Jayawardene,0,0,na,na
1st innings,7.6,KC Sangakkara,AD Mascarenhas,DPMD Jayawardene,1,1,na,na
1st innings,8.1,KC Sangakkara,MM Patel,DPMD Jayawardene,2,2,na,na
1st innings,8.2,KC Sangakkara,MM Patel,DPMD Jayawardene,0,0,na,"{'fielders': ['Kamran Khan'], 'kind': 'caught', 'player_out': 'DPMD Jayawardene'}"
1st innings,8.3,KC Sangakkara,MM Patel,IK Pathan,0,0,na,na
1st innings,8.4,KC Sangakkara,MM Patel,IK Pathan,0,0,na,na
1st innings,8.5,KC Sangakkara,MM Patel,IK Pathan,3,3,na,na
1st innings,8.6,IK Pathan,MM Patel,KC Sangakkara,1,1,na,na
1st innings,9.1,IK Pathan,SK Warne,KC Sangakkara,0,0,na,na
1st innings,9.2,IK Pathan,SK Warne,KC Sangakkara,1,1,na,na
1st innings,9.3,KC Sangakkara,SK Warne,IK Pathan,0,0,na,na
1st innings,9.4,KC Sangakkara,SK Warne,IK Pathan,0,0,na,na
1st innings,9.5,KC Sangakkara,SK Warne,IK Pathan,6,6,na,na
1st innings,9.6,KC Sangakkara,SK Warne,IK Pathan,1,1,na,na
1st innings,10.1,KC Sangakkara,YK Pathan,IK Pathan,1,1,na,na
1st innings,10.2,IK Pathan,YK Pathan,KC Sangakkara,0,0,na,na
1st innings,10.3,IK Pathan,YK Pathan,KC Sangakkara,1,1,na,na
1st innings,10.4,KC Sangakkara,YK Pathan,IK Pathan,1,1,na,na
1st innings,10.5,IK Pathan,YK Pathan,KC Sangakkara,0,0,na,na
1st innings,10.6,IK Pathan,YK Pathan,KC Sangakkara,0,0,na,na
1st innings,11.1,KC Sangakkara,SK Warne,IK Pathan,1,1,na,na
1st innings,11.2,IK Pathan,SK Warne,KC Sangakkara,4,4,na,na
1st innings,11.3,IK Pathan,SK Warne,KC Sangakkara,1,1,na,na
1st innings,11.4,KC Sangakkara,SK Warne,IK Pathan,0,0,na,na
1st innings,11.5,KC Sangakkara,SK Warne,IK Pathan,1,1,na,na
1st innings,11.6,IK Pathan,SK Warne,KC Sangakkara,1,1,na,na
1st innings,12.1,IK Pathan,YK Pathan,KC Sangakkara,1,1,na,na
1st innings,12.2,KC Sangakkara,YK Pathan,IK Pathan,1,1,na,na
1st innings,12.3,IK Pathan,YK Pathan,KC Sangakkara,1,1,na,na
1st innings,12.4,KC Sangakkara,YK Pathan,IK Pathan,1,1,na,na
1st innings,12.5,IK Pathan,YK Pathan,KC Sangakkara,0,0,na,na
1st innings,12.6,IK Pathan,YK Pathan,KC Sangakkara,1,1,na,na
1st innings,13.1,IK Pathan,AD Mascarenhas,KC Sangakkara,4,4,na,na
1st innings,13.2,IK Pathan,AD Mascarenhas,KC Sangakkara,1,1,na,na
1st innings,13.3,KC Sangakkara,AD Mascarenhas,IK Pathan,1,1,na,na
1st innings,13.4,IK Pathan,AD Mascarenhas,KC Sangakkara,1,1,na,na
1st innings,13.5,KC Sangakkara,AD Mascarenhas,IK Pathan,1,1,na,na
1st innings,13.6,IK Pathan,AD Mascarenhas,KC Sangakkara,2,2,na,na
1st innings,14.1,KC Sangakkara,YK Pathan,IK Pathan,6,6,na,na
1st innings,14.2,KC Sangakkara,YK Pathan,IK Pathan,1,1,na,na
1st innings,14.3,IK Pathan,YK Pathan,KC Sangakkara,1,1,na,na
1st innings,14.4,KC Sangakkara,YK Pathan,IK Pathan,2,2,na,na
1st innings,14.5,KC Sangakkara,YK Pathan,IK Pathan,1,0,{'wides': 1},na
1st innings,14.6,KC Sangakkara,YK Pathan,IK Pathan,0,0,na,na
1st innings,14.7,KC Sangakkara,YK Pathan,IK Pathan,1,1,na,na
1st innings,15.1,KC Sangakkara,SK Warne,IK Pathan,4,4,na,na
1st innings,15.2,KC Sangakkara,SK Warne,IK Pathan,0,0,na,na
1st innings,15.3,KC Sangakkara,SK Warne,IK Pathan,1,1,na,na
1st innings,15.4,IK Pathan,SK Warne,KC Sangakkara,1,1,na,na
1st innings,15.5,KC Sangakkara,SK Warne,IK Pathan,1,1,na,na
1st innings,15.6,IK Pathan,SK Warne,KC Sangakkara,2,2,na,na
1st innings,16.1,KC Sangakkara,Kamran Khan,IK Pathan,1,0,{'legbyes': 1},na
1st innings,16.2,IK Pathan,Kamran Khan,KC Sangakkara,1,1,na,na
1st innings,16.3,KC Sangakkara,Kamran Khan,IK Pathan,0,0,na,na
1st innings,16.4,KC Sangakkara,Kamran Khan,IK Pathan,1,0,{'byes': 1},na
1st innings,16.5,IK Pathan,Kamran Khan,KC Sangakkara,1,1,na,na
1st innings,16.6,KC Sangakkara,Kamran Khan,IK Pathan,0,0,na,na
1st innings,17.1,IK Pathan,SK Warne,KC Sangakkara,0,0,na,na
1st innings,17.2,IK Pathan,SK Warne,KC Sangakkara,6,6,na,na
1st innings,17.3,IK Pathan,SK Warne,KC Sangakkara,1,1,na,na
1st innings,17.4,KC Sangakkara,SK Warne,IK Pathan,0,0,na,na
1st innings,17.5,KC Sangakkara,SK Warne,IK Pathan,4,4,na,na
1st innings,17.6,KC Sangakkara,SK Warne,IK Pathan,1,1,na,na
1st innings,18.1,KC Sangakkara,Kamran Khan,IK Pathan,0,0,na,"{'kind': 'bowled', 'player_out': 'IK Pathan'}"
1st innings,18.2,KC Sangakkara,Kamran Khan,PP Chawla,1,0,{'byes': 1},na
1st innings,18.3,PP Chawla,Kamran Khan,KC Sangakkara,4,4,na,na
1st innings,18.4,PP Chawla,Kamran Khan,KC Sangakkara,1,1,na,na
1st innings,18.5,KC Sangakkara,Kamran Khan,PP Chawla,1,0,{'legbyes': 1},na
1st innings,18.6,PP Chawla,Kamran Khan,KC Sangakkara,0,0,na,"{'fielders': ['M Rawat'], 'kind': 'run out', 'player_out': 'KC Sangakkara'}"
1st innings,19.1,WA Mota,MM Patel,PP Chawla,4,4,na,na
1st innings,19.2,WA Mota,MM Patel,PP Chawla,0,0,na,na
1st innings,19.3,WA Mota,MM Patel,PP Chawla,0,0,na,na
1st innings,19.4,WA Mota,MM Patel,PP Chawla,2,0,{'wides': 2},na
1st innings,19.5,PP Chawla,MM Patel,WA Mota,0,0,na,na
1st innings,19.6,PP Chawla,MM Patel,WA Mota,1,1,na,na
1st innings,19.7,WA Mota,MM Patel,PP Chawla,2,2,na,na
2nd innings,0.1,GC Smith,RR Powar,SA Asnodkar,1,1,na,na
2nd innings,0.2,SA Asnodkar,RR Powar,GC Smith,1,1,na,na
2nd innings,0.3,GC Smith,RR Powar,SA Asnodkar,1,1,na,na
2nd innings,0.4,SA Asnodkar,RR Powar,GC Smith,0,0,na,na
2nd innings,0.5,SA Asnodkar,RR Powar,GC Smith,1,0,{'wides': 1},na
2nd innings,0.6,SA Asnodkar,RR Powar,GC Smith,1,1,na,na
2nd innings,0.7,GC Smith,RR Powar,SA Asnodkar,1,1,na,na
2nd innings,1.1,GC Smith,IK Pathan,SA Asnodkar,1,0,{'wides': 1},na
2nd innings,1.2,GC Smith,IK Pathan,SA Asnodkar,0,0,na,"{'fielders': ['RR Powar'], 'kind': 'caught', 'player_out': 'SA Asnodkar'}"
2nd innings,1.3,GC Smith,IK Pathan,RJ Quiney,1,1,na,na
2nd innings,1.4,RJ Quiney,IK Pathan,GC Smith,0,0,na,na
2nd innings,1.5,RJ Quiney,IK Pathan,GC Smith,1,0,{'wides': 1},na
2nd innings,1.6,RJ Quiney,IK Pathan,GC Smith,0,0,na,na
2nd innings,1.7,RJ Quiney,IK Pathan,GC Smith,0,0,na,"{'fielders': ['KC Sangakkara'], 'kind': 'caught', 'player_out': 'GC Smith'}"
2nd innings,1.8,RJ Quiney,IK Pathan,YK Pathan,0,0,na,na
2nd innings,2.1,YK Pathan,YA Abdulla,RJ Quiney,2,2,na,na
2nd innings,2.2,YK Pathan,YA Abdulla,RJ Quiney,0,0,na,na
2nd innings,2.3,YK Pathan,YA Abdulla,RJ Quiney,4,4,na,na
2nd innings,2.4,YK Pathan,YA Abdulla,RJ Quiney,0,0,na,na
2nd innings,2.5,YK Pathan,YA Abdulla,RJ Quiney,0,0,na,na
2nd innings,2.6,YK Pathan,YA Abdulla,RJ Quiney,0,0,na,na
2nd innings,3.1,RJ Quiney,IK Pathan,YK Pathan,0,0,na,na
2nd innings,3.2,RJ Quiney,IK Pathan,YK Pathan,0,0,na,na
2nd innings,3.3,RJ Quiney,IK Pathan,YK Pathan,0,0,na,na
2nd innings,3.4,RJ Quiney,IK Pathan,YK Pathan,4,4,na,na
2nd innings,3.5,RJ Quiney,IK Pathan,YK Pathan,0,0,na,na
2nd innings,3.6,RJ Quiney,IK Pathan,YK Pathan,4,4,na,na
2nd innings,4.1,YK Pathan,YA Abdulla,RJ Quiney,0,0,na,"{'fielders': ['KC Sangakkara'], 'kind': 'caught', 'player_out': 'RJ Quiney'}"
2nd innings,4.2,YK Pathan,YA Abdulla,AD Mascarenhas,4,4,na,na
2nd innings,4.3,YK Pathan,YA Abdulla,AD Mascarenhas,0,0,na,"{'kind': 'bowled', 'player_out': 'AD Mascarenhas'}"
2nd innings,4.4,YK Pathan,YA Abdulla,RA Jadeja,0,0,na,na
2nd innings,4.5,YK Pathan,YA Abdulla,RA Jadeja,0,0,na,na
2nd innings,4.6,YK Pathan,YA Abdulla,RA Jadeja,0,0,na,na
2nd innings,5.1,RA Jadeja,VRV Singh,YK Pathan,0,0,na,na
2nd innings,5.2,RA Jadeja,VRV Singh,YK Pathan,0,0,na,na
2nd innings,5.3,RA Jadeja,VRV Singh,YK Pathan,0,0,na,na
2nd innings,5.4,RA Jadeja,VRV Singh,YK Pathan,1,1,na,na
2nd innings,5.5,YK Pathan,VRV Singh,RA Jadeja,4,4,na,na
2nd innings,5.6,YK Pathan,VRV Singh,RA Jadeja,0,0,na,na
2nd innings,6.1,RA Jadeja,PP Chawla,YK Pathan,1,1,na,na
2nd innings,6.2,YK Pathan,PP Chawla,RA Jadeja,2,2,na,na
2nd innings,6.3,YK Pathan,PP Chawla,RA Jadeja,1,1,na,na
2nd innings,6.4,RA Jadeja,PP Chawla,YK Pathan,0,0,na,"{'fielders': ['K Goel'], 'kind': 'caught', 'player_out': 'YK Pathan'}"
2nd innings,6.5,RA Jadeja,PP Chawla,AS Raut,1,1,na,na
2nd innings,6.6,AS Raut,PP Chawla,RA Jadeja,1,1,na,na
2nd innings,7.1,AS Raut,VRV Singh,RA Jadeja,0,0,na,na
2nd innings,7.2,AS Raut,VRV Singh,RA Jadeja,0,0,na,na
2nd innings,7.3,AS Raut,VRV Singh,RA Jadeja,2,2,na,na
2nd innings,7.4,AS Raut,VRV Singh,RA Jadeja,0,0,na,na
2nd innings,7.5,AS Raut,VRV Singh,RA Jadeja,1,1,na,na
2nd innings,7.6,RA Jadeja,VRV Singh,AS Raut,0,0,na,na
2nd innings,8.1,AS Raut,PP Chawla,RA Jadeja,0,0,na,na
2nd innings,8.2,AS Raut,PP Chawla,RA Jadeja,1,1,na,na
2nd innings,8.3,RA Jadeja,PP Chawla,AS Raut,0,0,na,na
2nd innings,8.4,RA Jadeja,PP Chawla,AS Raut,0,0,na,"{'fielders': ['RR Powar'], 'kind': 'caught', 'player_out': 'AS Raut'}"
2nd innings,8.5,SK Warne,PP Chawla,RA Jadeja,1,1,na,na
2nd innings,8.6,RA Jadeja,PP Chawla,SK Warne,0,0,na,na
2nd innings,9.1,SK Warne,VRV Singh,RA Jadeja,0,0,na,na
2nd innings,9.2,SK Warne,VRV Singh,RA Jadeja,1,1,na,na
2nd innings,9.3,RA Jadeja,VRV Singh,SK Warne,1,1,na,na
2nd innings,9.4,SK Warne,VRV Singh,RA Jadeja,1,1,na,na
2nd innings,9.5,RA Jadeja,VRV Singh,SK Warne,1,1,na,na
2nd innings,9.6,SK Warne,VRV Singh,RA Jadeja,1,1,na,na
2nd innings,10.1,SK Warne,PP Chawla,RA Jadeja,1,1,na,na
2nd innings,10.2,RA Jadeja,PP Chawla,SK Warne,0,0,na,na
2nd innings,10.3,RA Jadeja,PP Chawla,SK Warne,4,4,na,na
2nd innings,10.4,RA Jadeja,PP Chawla,SK Warne,1,1,na,na
2nd innings,10.5,SK Warne,PP Chawla,RA Jadeja,4,4,na,na
2nd innings,10.6,SK Warne,PP Chawla,RA Jadeja,0,0,na,na
2nd innings,11.1,RA Jadeja,RR Powar,SK Warne,1,1,na,na
2nd innings,11.2,SK Warne,RR Powar,RA Jadeja,0,0,na,na
2nd innings,11.3,SK Warne,RR Powar,RA Jadeja,1,1,na,na
2nd innings,11.4,RA Jadeja,RR Powar,SK Warne,1,1,na,na
2nd innings,11.5,SK Warne,RR Powar,RA Jadeja,4,0,{'legbyes': 4},na
2nd innings,11.6,SK Warne,RR Powar,RA Jadeja,1,1,na,na
2nd innings,12.1,SK Warne,PP Chawla,RA Jadeja,0,0,na,na
2nd innings,12.2,SK Warne,PP Chawla,RA Jadeja,0,0,na,na
2nd innings,12.3,SK Warne,PP Chawla,RA Jadeja,2,2,na,na
2nd innings,12.4,SK Warne,PP Chawla,RA Jadeja,0,0,na,na
2nd innings,12.5,SK Warne,PP Chawla,RA Jadeja,1,1,na,na
2nd innings,12.6,RA Jadeja,PP Chawla,SK Warne,1,1,na,na
2nd innings,13.1,RA Jadeja,Yuvraj Singh,SK Warne,0,0,na,na
2nd innings,13.2,RA Jadeja,Yuvraj Singh,SK Warne,1,1,na,na
2nd innings,13.3,SK Warne,Yuvraj Singh,RA Jadeja,3,3,na,na
2nd innings,13.4,RA Jadeja,Yuvraj Singh,SK Warne,0,0,na,na
2nd innings,13.5,RA Jadeja,Yuvraj Singh,SK Warne,0,0,na,na
2nd innings,13.6,RA Jadeja,Yuvraj Singh,SK Warne,1,1,na,na
2nd innings,14.1,RA Jadeja,YA Abdulla,SK Warne,0,0,na,na
2nd innings,14.2,RA Jadeja,YA Abdulla,SK Warne,1,0,{'wides': 1},na
2nd innings,14.3,RA Jadeja,YA Abdulla,SK Warne,4,4,na,na
2nd innings,14.4,RA Jadeja,YA Abdulla,SK Warne,0,0,na,na
2nd innings,14.5,RA Jadeja,YA Abdulla,SK Warne,1,1,na,na
2nd innings,14.6,SK Warne,YA Abdulla,RA Jadeja,1,1,na,na
2nd innings,14.7,RA Jadeja,YA Abdulla,SK Warne,0,0,na,na
2nd innings,15.1,SK Warne,Yuvraj Singh,RA Jadeja,0,0,na,na
2nd innings,15.2,SK Warne,Yuvraj Singh,RA Jadeja,0,0,na,na
2nd innings,15.3,SK Warne,Yuvraj Singh,RA Jadeja,0,0,na,na
2nd innings,15.4,SK Warne,Yuvraj Singh,RA Jadeja,2,2,na,na
2nd innings,15.5,SK Warne,Yuvraj Singh,RA Jadeja,1,1,na,na
2nd innings,15.6,RA Jadeja,Yuvraj Singh,SK Warne,1,1,na,na
2nd innings,16.1,RA Jadeja,IK Pathan,SK Warne,0,0,na,na
2nd innings,16.2,RA Jadeja,IK Pathan,SK Warne,1,0,{'wides': 1},na
2nd innings,16.3,RA Jadeja,IK Pathan,SK Warne,4,4,na,na
2nd innings,16.4,RA Jadeja,IK Pathan,SK Warne,2,2,na,na
2nd innings,16.5,RA Jadeja,IK Pathan,SK Warne,1,1,na,na
2nd innings,16.6,SK Warne,IK Pathan,RA Jadeja,1,1,na,na
2nd innings,16.7,RA Jadeja,IK Pathan,SK Warne,1,1,na,na
2nd innings,17.1,RA Jadeja,VRV Singh,SK Warne,1,1,na,na
2nd innings,17.2,SK Warne,VRV Singh,RA Jadeja,1,1,na,na
2nd innings,17.3,RA Jadeja,VRV Singh,SK Warne,1,1,na,na
2nd innings,17.4,SK Warne,VRV Singh,RA Jadeja,1,1,na,na
2nd innings,17.5,RA Jadeja,VRV Singh,SK Warne,1,1,na,na
2nd innings,17.6,SK Warne,VRV Singh,RA Jadeja,1,1,na,na
2nd innings,18.1,SK Warne,YA Abdulla,RA Jadeja,0,0,na,"{'kind': 'bowled', 'player_out': 'RA Jadeja'}"
2nd innings,18.2,SK Warne,YA Abdulla,M Rawat,0,0,na,na
2nd innings,18.3,SK Warne,YA Abdulla,M Rawat,1,1,na,na
2nd innings,18.4,M Rawat,YA Abdulla,SK Warne,1,1,na,na
2nd innings,18.5,SK Warne,YA Abdulla,M Rawat,1,1,na,na
2nd innings,18.6,M Rawat,YA Abdulla,SK Warne,1,1,na,na
2nd innings,19.1,M Rawat,IK Pathan,SK Warne,2,2,na,na
2nd innings,19.2,M Rawat,IK Pathan,SK Warne,1,0,{'legbyes': 1},na
2nd innings,19.3,SK Warne,IK Pathan,M Rawat,0,0,na,na
2nd innings,19.4,SK Warne,IK Pathan,M Rawat,1,1,na,na
2nd innings,19.5,M Rawat,IK Pathan,SK Warne,1,1,na,na
2nd innings,19.6,SK Warne,IK Pathan,M Rawat,1,1,na,na
