innings,deliveries,non_striker,bowler,batsman,total_runs,batsman_runs,extras,wickets
1st innings,0.1,SR Tendulkar,MS Gony,ST Jayasuriya,1,1,na,na
1st innings,0.2,ST Jayasuriya,MS Gony,SR Tendulkar,0,0,na,na
1st innings,0.3,ST Jayasuriya,MS Gony,SR Tendulkar,0,0,na,na
1st innings,0.4,ST Jayasuriya,MS Gony,SR Tendulkar,1,1,na,na
1st innings,0.5,SR Tendulkar,MS Gony,ST Jayasuriya,0,0,na,na
1st innings,0.6,SR Tendulkar,MS Gony,ST Jayasuriya,1,1,na,na
1st innings,1.1,SR Tendulkar,T Thushara,ST Jayasuriya,1,0,{'legbyes': 1},na
1st innings,1.2,ST Jayasuriya,T Thushara,SR Tendulkar,0,0,na,na
1st innings,1.3,ST Jayasuriya,T Thushara,SR Tendulkar,1,1,na,na
1st innings,1.4,SR Tendulkar,T Thushara,ST Jayasuriya,4,4,na,na
1st innings,1.5,SR Tendulkar,T Thushara,ST Jayasuriya,1,1,na,na
1st innings,1.6,ST Jayasuriya,T Thushara,SR Tendulkar,0,0,na,na
1st innings,2.1,SR Tendulkar,MS Gony,ST Jayasuriya,1,1,na,na
1st innings,2.2,ST Jayasuriya,MS Gony,SR Tendulkar,4,4,na,na
1st innings,2.3,ST Jayasuriya,MS Gony,SR Tendulkar,0,0,na,na
1st innings,2.4,ST Jayasuriya,MS Gony,SR Tendulkar,1,1,na,na
1st innings,2.5,SR Tendulkar,MS Gony,ST Jayasuriya,0,0,na,na
1st innings,2.6,SR Tendulkar,MS Gony,ST Jayasuriya,4,4,na,na
1st innings,3.1,ST Jayasuriya,T Thushara,SR Tendulkar,1,1,na,na
1st innings,3.2,SR Tendulkar,T Thushara,ST Jayasuriya,0,0,na,na
1st innings,3.3,SR Tendulkar,T Thushara,ST Jayasuriya,4,4,na,na
1st innings,3.4,SR Tendulkar,T Thushara,ST Jayasuriya,1,1,na,na
1st innings,3.5,ST Jayasuriya,T Thushara,SR Tendulkar,0,0,na,na
1st innings,3.6,ST Jayasuriya,T Thushara,SR Tendulkar,1,1,na,na
1st innings,4.1,ST Jayasuriya,A Flintoff,SR Tendulkar,1,1,na,na
1st innings,4.2,SR Tendulkar,A Flintoff,ST Jayasuriya,0,0,na,na
1st innings,4.3,SR Tendulkar,A Flintoff,ST Jayasuriya,4,4,na,na
1st innings,4.4,SR Tendulkar,A Flintoff,ST Jayasuriya,1,1,na,na
1st innings,4.5,ST Jayasuriya,A Flintoff,SR Tendulkar,0,0,na,na
1st innings,4.6,ST Jayasuriya,A Flintoff,SR Tendulkar,2,2,na,na
1st innings,5.1,SR Tendulkar,T Thushara,ST Jayasuriya,0,0,na,na
1st innings,5.2,SR Tendulkar,T Thushara,ST Jayasuriya,4,4,na,na
1st innings,5.3,SR Tendulkar,T Thushara,ST Jayasuriya,0,0,na,na
1st innings,5.4,SR Tendulkar,T Thushara,ST Jayasuriya,0,0,na,na
1st innings,5.5,SR Tendulkar,T Thushara,ST Jayasuriya,0,0,na,"{'fielders': ['ML Hayden'], 'kind': 'caught', 'player_out': 'ST Jayasuriya'}"
1st innings,5.6,SR Tendulkar,T Thushara,S Dhawan,1,1,na,na
1st innings,6.1,SR Tendulkar,JDP Oram,S Dhawan,0,0,na,na
1st innings,6.2,SR Tendulkar,JDP Oram,S Dhawan,1,1,na,na
1st innings,6.3,S Dhawan,JDP Oram,SR Tendulkar,1,1,na,na
1st innings,6.4,SR Tendulkar,JDP Oram,S Dhawan,1,1,na,na
1st innings,6.5,S Dhawan,JDP Oram,SR Tendulkar,1,1,na,na
1st innings,6.6,SR Tendulkar,JDP Oram,S Dhawan,1,1,na,na
1st innings,7.1,SR Tendulkar,Joginder Sharma,S Dhawan,0,0,na,na
1st innings,7.2,SR Tendulkar,Joginder Sharma,S Dhawan,1,1,na,na
1st innings,7.3,S Dhawan,Joginder Sharma,SR Tendulkar,1,1,na,na
1st innings,7.4,SR Tendulkar,Joginder Sharma,S Dhawan,1,1,na,na
1st innings,7.5,S Dhawan,Joginder Sharma,SR Tendulkar,0,0,na,na
1st innings,7.6,S Dhawan,Joginder Sharma,SR Tendulkar,0,0,na,na
1st innings,8.1,SR Tendulkar,JDP Oram,S Dhawan,1,1,na,na
1st innings,8.2,S Dhawan,JDP Oram,SR Tendulkar,0,0,na,na
1st innings,8.3,S Dhawan,JDP Oram,SR Tendulkar,4,4,na,na
1st innings,8.4,S Dhawan,JDP Oram,SR Tendulkar,1,1,na,na
1st innings,8.5,SR Tendulkar,JDP Oram,S Dhawan,0,0,na,na
1st innings,8.6,SR Tendulkar,JDP Oram,S Dhawan,1,1,na,na
1st innings,9.1,SR Tendulkar,Joginder Sharma,S Dhawan,1,1,na,na
1st innings,9.2,S Dhawan,Joginder Sharma,SR Tendulkar,1,1,na,na
1st innings,9.3,SR Tendulkar,Joginder Sharma,S Dhawan,2,2,na,na
1st innings,9.4,SR Tendulkar,Joginder Sharma,S Dhawan,0,0,na,na
1st innings,9.5,SR Tendulkar,Joginder Sharma,S Dhawan,4,4,na,na
1st innings,9.6,SR Tendulkar,Joginder Sharma,S Dhawan,1,1,na,na
1st innings,10.1,SR Tendulkar,JDP Oram,S Dhawan,0,0,na,na
1st innings,10.2,SR Tendulkar,JDP Oram,S Dhawan,1,1,na,na
1st innings,10.3,S Dhawan,JDP Oram,SR Tendulkar,0,0,na,na
1st innings,10.4,S Dhawan,JDP Oram,SR Tendulkar,0,0,na,na
1st innings,10.5,S Dhawan,JDP Oram,SR Tendulkar,4,4,na,na
1st innings,10.6,S Dhawan,JDP Oram,SR Tendulkar,4,4,na,na
1st innings,11.1,SR Tendulkar,MS Gony,S Dhawan,4,4,na,na
1st innings,11.2,SR Tendulkar,MS Gony,S Dhawan,1,0,{'wides': 1},na
1st innings,11.3,SR Tendulkar,MS Gony,S Dhawan,1,1,na,na
1st innings,11.4,S Dhawan,MS Gony,SR Tendulkar,3,3,na,na
1st innings,11.5,SR Tendulkar,MS Gony,S Dhawan,0,0,na,"{'fielders': ['MS Dhoni'], 'kind': 'caught', 'player_out': 'S Dhawan'}"
1st innings,11.6,JP Duminy,MS Gony,SR Tendulkar,1,1,na,na
1st innings,11.7,SR Tendulkar,MS Gony,JP Duminy,1,1,na,na
1st innings,12.1,SR Tendulkar,Joginder Sharma,JP Duminy,1,1,na,na
1st innings,12.2,JP Duminy,Joginder Sharma,SR Tendulkar,1,1,na,na
1st innings,12.3,SR Tendulkar,Joginder Sharma,JP Duminy,4,4,na,na
1st innings,12.4,SR Tendulkar,Joginder Sharma,JP Duminy,1,1,na,na
1st innings,12.5,JP Duminy,Joginder Sharma,SR Tendulkar,1,1,na,na
1st innings,12.6,SR Tendulkar,Joginder Sharma,JP Duminy,1,1,na,na
1st innings,13.1,SR Tendulkar,MS Gony,JP Duminy,1,1,na,na
1st innings,13.2,JP Duminy,MS Gony,SR Tendulkar,1,1,na,na
1st innings,13.3,SR Tendulkar,MS Gony,JP Duminy,0,0,na,"{'kind': 'caught and bowled', 'player_out': 'JP Duminy'}"
1st innings,13.4,SR Tendulkar,MS Gony,DJ Bravo,1,1,na,na
1st innings,13.5,DJ Bravo,MS Gony,SR Tendulkar,1,1,na,na
1st innings,13.6,SR Tendulkar,MS Gony,DJ Bravo,4,4,na,na
1st innings,14.1,DJ Bravo,Joginder Sharma,SR Tendulkar,1,1,na,na
1st innings,14.2,SR Tendulkar,Joginder Sharma,DJ Bravo,0,0,na,na
1st innings,14.3,SR Tendulkar,Joginder Sharma,DJ Bravo,0,0,na,"{'fielders': ['ML Hayden'], 'kind': 'caught', 'player_out': 'DJ Bravo'}"
1st innings,14.4,AM Nayar,Joginder Sharma,SR Tendulkar,1,1,na,na
1st innings,14.5,SR Tendulkar,Joginder Sharma,AM Nayar,1,1,na,na
1st innings,14.6,AM Nayar,Joginder Sharma,SR Tendulkar,1,1,na,na
1st innings,15.1,AM Nayar,A Flintoff,SR Tendulkar,0,0,na,na
1st innings,15.2,AM Nayar,A Flintoff,SR Tendulkar,1,1,na,na
1st innings,15.3,SR Tendulkar,A Flintoff,AM Nayar,0,0,na,na
1st innings,15.4,SR Tendulkar,A Flintoff,AM Nayar,1,0,{'byes': 1},na
1st innings,15.5,AM Nayar,A Flintoff,SR Tendulkar,1,1,na,na
1st innings,15.6,SR Tendulkar,A Flintoff,AM Nayar,4,4,na,na
1st innings,16.1,AM Nayar,T Thushara,SR Tendulkar,4,4,na,na
1st innings,16.2,AM Nayar,T Thushara,SR Tendulkar,1,1,na,na
1st innings,16.3,SR Tendulkar,T Thushara,AM Nayar,2,2,na,na
1st innings,16.4,SR Tendulkar,T Thushara,AM Nayar,2,2,na,na
1st innings,16.5,SR Tendulkar,T Thushara,AM Nayar,4,4,na,na
1st innings,16.6,SR Tendulkar,T Thushara,AM Nayar,1,1,na,na
1st innings,17.1,AM Nayar,A Flintoff,SR Tendulkar,1,1,na,na
1st innings,17.2,SR Tendulkar,A Flintoff,AM Nayar,6,6,na,na
1st innings,17.3,SR Tendulkar,A Flintoff,AM Nayar,2,2,na,na
1st innings,17.4,SR Tendulkar,A Flintoff,AM Nayar,6,6,na,na
1st innings,17.5,SR Tendulkar,A Flintoff,AM Nayar,6,6,na,na
1st innings,17.6,SR Tendulkar,A Flintoff,AM Nayar,1,1,na,na
1st innings,18.1,SR Tendulkar,JDP Oram,AM Nayar,0,0,na,"{'fielders': ['T Thushara'], 'kind': 'caught', 'player_out': 'AM Nayar'}"
1st innings,18.2,Harbhajan Singh,JDP Oram,SR Tendulkar,0,0,na,na
1st innings,18.3,Harbhajan Singh,JDP Oram,SR Tendulkar,4,4,na,na
1st innings,18.4,Harbhajan Singh,JDP Oram,SR Tendulkar,1,1,na,na
1st innings,18.5,SR Tendulkar,JDP Oram,Harbhajan Singh,4,4,na,na
1st innings,18.6,SR Tendulkar,JDP Oram,Harbhajan Singh,0,0,na,"{'fielders': ['JDP Oram'], 'kind': 'run out', 'player_out': 'Harbhajan Singh'}"
1st innings,19.1,SR Tendulkar,A Flintoff,Z Khan,1,1,na,na
1st innings,19.2,Z Khan,A Flintoff,SR Tendulkar,1,1,na,na
1st innings,19.3,SR Tendulkar,A Flintoff,Z Khan,1,1,na,na
1st innings,19.4,Z Khan,A Flintoff,SR Tendulkar,1,1,na,na
1st innings,19.5,SR Tendulkar,A Flintoff,Z Khan,0,0,na,"{'fielders': ['R Ashwin'], 'kind': 'caught', 'player_out': 'Z Khan'}"
1st innings,19.6,PR Shah,A Flintoff,SR Tendulkar,4,4,na,na
2nd innings,0.1,ML Hayden,SL Malinga,PA Patel,0,0,na,na
2nd innings,0.2,ML Hayden,SL Malinga,PA Patel,0,0,na,"{'fielders': ['SR Tendulkar'], 'kind': 'caught', 'player_out': 'PA Patel'}"
2nd innings,0.3,ML Hayden,SL Malinga,SK Raina,0,0,na,na
2nd innings,0.4,ML Hayden,SL Malinga,SK Raina,0,0,na,na
2nd innings,0.5,ML Hayden,SL Malinga,SK Raina,0,0,na,na
2nd innings,0.6,ML Hayden,SL Malinga,SK Raina,2,2,na,na
2nd innings,1.1,SK Raina,Z Khan,ML Hayden,1,1,na,na
2nd innings,1.2,ML Hayden,Z Khan,SK Raina,0,0,na,na
2nd innings,1.3,ML Hayden,Z Khan,SK Raina,4,4,na,na
2nd innings,1.4,ML Hayden,Z Khan,SK Raina,1,1,na,na
2nd innings,1.5,SK Raina,Z Khan,ML Hayden,4,4,na,na
2nd innings,1.6,SK Raina,Z Khan,ML Hayden,4,4,na,na
2nd innings,2.1,ML Hayden,DJ Bravo,SK Raina,1,1,na,na
2nd innings,2.2,SK Raina,DJ Bravo,ML Hayden,0,0,na,na
2nd innings,2.3,SK Raina,DJ Bravo,ML Hayden,0,0,na,na
2nd innings,2.4,SK Raina,DJ Bravo,ML Hayden,1,1,na,na
2nd innings,2.5,ML Hayden,DJ Bravo,SK Raina,0,0,na,"{'fielders': ['RR Raje'], 'kind': 'caught', 'player_out': 'SK Raina'}"
2nd innings,2.6,A Flintoff,DJ Bravo,ML Hayden,0,0,na,na
2nd innings,3.1,ML Hayden,Z Khan,A Flintoff,0,0,na,na
2nd innings,3.2,ML Hayden,Z Khan,A Flintoff,0,0,na,na
2nd innings,3.3,ML Hayden,Z Khan,A Flintoff,0,0,na,na
2nd innings,3.4,ML Hayden,Z Khan,A Flintoff,1,1,na,na
2nd innings,3.5,A Flintoff,Z Khan,ML Hayden,0,0,na,na
2nd innings,3.6,A Flintoff,Z Khan,ML Hayden,0,0,na,na
2nd innings,4.1,ML Hayden,DJ Bravo,A Flintoff,0,0,na,na
2nd innings,4.2,ML Hayden,DJ Bravo,A Flintoff,0,0,na,na
2nd innings,4.3,ML Hayden,DJ Bravo,A Flintoff,4,4,na,na
2nd innings,4.4,ML Hayden,DJ Bravo,A Flintoff,0,0,na,na
2nd innings,4.5,ML Hayden,DJ Bravo,A Flintoff,1,0,{'wides': 1},na
2nd innings,4.6,ML Hayden,DJ Bravo,A Flintoff,6,6,na,na
2nd innings,4.7,ML Hayden,DJ Bravo,A Flintoff,3,3,na,na
2nd innings,5.1,ML Hayden,SL Malinga,A Flintoff,4,0,{'legbyes': 4},na
2nd innings,5.2,ML Hayden,SL Malinga,A Flintoff,1,0,{'legbyes': 1},na
2nd innings,5.3,A Flintoff,SL Malinga,ML Hayden,0,0,na,na
2nd innings,5.4,A Flintoff,SL Malinga,ML Hayden,0,0,na,na
2nd innings,5.5,A Flintoff,SL Malinga,ML Hayden,1,1,na,na
2nd innings,5.6,ML Hayden,SL Malinga,A Flintoff,1,0,{'wides': 1},na
2nd innings,5.7,ML Hayden,SL Malinga,A Flintoff,0,0,na,na
2nd innings,6.1,A Flintoff,RR Raje,ML Hayden,4,4,na,na
2nd innings,6.2,A Flintoff,RR Raje,ML Hayden,4,4,na,na
2nd innings,6.3,A Flintoff,RR Raje,ML Hayden,4,4,na,na
2nd innings,6.4,A Flintoff,RR Raje,ML Hayden,1,1,na,na
2nd innings,6.5,ML Hayden,RR Raje,A Flintoff,1,1,na,na
2nd innings,6.6,A Flintoff,RR Raje,ML Hayden,1,1,na,na
2nd innings,7.1,A Flintoff,Harbhajan Singh,ML Hayden,1,1,na,na
2nd innings,7.2,ML Hayden,Harbhajan Singh,A Flintoff,0,0,na,na
2nd innings,7.3,ML Hayden,Harbhajan Singh,A Flintoff,1,1,na,na
2nd innings,7.4,A Flintoff,Harbhajan Singh,ML Hayden,0,0,na,na
2nd innings,7.5,A Flintoff,Harbhajan Singh,ML Hayden,0,0,na,na
2nd innings,7.6,A Flintoff,Harbhajan Singh,ML Hayden,0,0,na,na
2nd innings,8.1,ML Hayden,ST Jayasuriya,A Flintoff,1,1,na,na
2nd innings,8.2,A Flintoff,ST Jayasuriya,ML Hayden,1,1,na,na
2nd innings,8.3,ML Hayden,ST Jayasuriya,A Flintoff,1,1,na,na
2nd innings,8.4,A Flintoff,ST Jayasuriya,ML Hayden,1,1,na,na
2nd innings,8.5,ML Hayden,ST Jayasuriya,A Flintoff,4,4,na,na
2nd innings,8.6,ML Hayden,ST Jayasuriya,A Flintoff,1,1,na,na
2nd innings,9.1,ML Hayden,Harbhajan Singh,A Flintoff,1,1,na,na
2nd innings,9.2,A Flintoff,Harbhajan Singh,ML Hayden,1,1,na,na
2nd innings,9.3,ML Hayden,Harbhajan Singh,A Flintoff,1,0,{'legbyes': 1},na
2nd innings,9.4,A Flintoff,Harbhajan Singh,ML Hayden,1,1,na,na
2nd innings,9.5,ML Hayden,Harbhajan Singh,A Flintoff,0,0,na,"{'kind': 'caught and bowled', 'player_out': 'A Flintoff'}"
2nd innings,9.6,MS Dhoni,Harbhajan Singh,ML Hayden,0,0,na,na
2nd innings,10.1,ML Hayden,ST Jayasuriya,MS Dhoni,0,0,na,na
2nd innings,10.2,ML Hayden,ST Jayasuriya,MS Dhoni,0,0,na,na
2nd innings,10.3,ML Hayden,ST Jayasuriya,MS Dhoni,1,1,na,na
2nd innings,10.4,MS Dhoni,ST Jayasuriya,ML Hayden,0,0,na,na
2nd innings,10.5,MS Dhoni,ST Jayasuriya,ML Hayden,1,1,na,na
2nd innings,10.6,ML Hayden,ST Jayasuriya,MS Dhoni,1,1,na,na
2nd innings,11.1,ML Hayden,Harbhajan Singh,MS Dhoni,1,1,na,na
2nd innings,11.2,MS Dhoni,Harbhajan Singh,ML Hayden,1,1,na,na
2nd innings,11.3,ML Hayden,Harbhajan Singh,MS Dhoni,1,1,na,na
2nd innings,11.4,MS Dhoni,Harbhajan Singh,ML Hayden,0,0,na,na
2nd innings,11.5,MS Dhoni,Harbhajan Singh,ML Hayden,6,6,na,na
2nd innings,11.6,MS Dhoni,Harbhajan Singh,ML Hayden,1,1,na,na
2nd innings,12.1,MS Dhoni,ST Jayasuriya,ML Hayden,1,1,na,na
2nd innings,12.2,ML Hayden,ST Jayasuriya,MS Dhoni,1,1,na,na
2nd innings,12.3,MS Dhoni,ST Jayasuriya,ML Hayden,4,4,na,na
2nd innings,12.4,MS Dhoni,ST Jayasuriya,ML Hayden,0,0,na,"{'fielders': ['Z Khan'], 'kind': 'caught', 'player_out': 'ML Hayden'}"
2nd innings,12.5,MS Dhoni,ST Jayasuriya,JDP Oram,1,1,na,na
2nd innings,12.6,JDP Oram,ST Jayasuriya,MS Dhoni,1,1,na,na
2nd innings,13.1,JDP Oram,DJ Bravo,MS Dhoni,1,1,na,na
2nd innings,13.2,MS Dhoni,DJ Bravo,JDP Oram,1,1,na,na
2nd innings,13.3,JDP Oram,DJ Bravo,MS Dhoni,0,0,na,na
2nd innings,13.4,JDP Oram,DJ Bravo,MS Dhoni,1,1,na,na
2nd innings,13.5,MS Dhoni,DJ Bravo,JDP Oram,0,0,na,na
2nd innings,13.6,MS Dhoni,DJ Bravo,JDP Oram,0,0,na,na
2nd innings,14.1,JDP Oram,ST Jayasuriya,MS Dhoni,1,1,na,na
2nd innings,14.2,MS Dhoni,ST Jayasuriya,JDP Oram,6,6,na,na
2nd innings,14.3,MS Dhoni,ST Jayasuriya,JDP Oram,0,0,na,"{'fielders': ['PR Shah'], 'kind': 'caught', 'player_out': 'JDP Oram'}"
2nd innings,14.4,S Badrinath,ST Jayasuriya,MS Dhoni,6,6,na,na
2nd innings,14.5,S Badrinath,ST Jayasuriya,MS Dhoni,1,1,na,na
2nd innings,14.6,MS Dhoni,ST Jayasuriya,S Badrinath,0,0,na,na
2nd innings,15.1,S Badrinath,SL Malinga,MS Dhoni,0,0,na,na
2nd innings,15.2,S Badrinath,SL Malinga,MS Dhoni,1,1,na,na
2nd innings,15.3,MS Dhoni,SL Malinga,S Badrinath,0,0,na,"{'fielders': ['DJ Bravo'], 'kind': 'caught', 'player_out': 'S Badrinath'}"
2nd innings,15.4,MS Dhoni,SL Malinga,Joginder Sharma,0,0,na,na
2nd innings,15.5,MS Dhoni,SL Malinga,Joginder Sharma,1,1,na,na
2nd innings,15.6,Joginder Sharma,SL Malinga,MS Dhoni,4,4,na,na
2nd innings,16.1,MS Dhoni,Z Khan,Joginder Sharma,1,1,na,na
2nd innings,16.2,Joginder Sharma,Z Khan,MS Dhoni,6,6,na,na
2nd innings,16.3,Joginder Sharma,Z Khan,MS Dhoni,2,2,na,na
2nd innings,16.4,Joginder Sharma,Z Khan,MS Dhoni,1,1,na,na
2nd innings,16.5,MS Dhoni,Z Khan,Joginder Sharma,1,1,na,na
2nd innings,16.6,Joginder Sharma,Z Khan,MS Dhoni,2,2,na,na
2nd innings,17.1,MS Dhoni,DJ Bravo,Joginder Sharma,0,0,na,na
2nd innings,17.2,MS Dhoni,DJ Bravo,Joginder Sharma,0,0,na,na
2nd innings,17.3,MS Dhoni,DJ Bravo,Joginder Sharma,0,0,na,na
2nd innings,17.4,MS Dhoni,DJ Bravo,Joginder Sharma,6,6,na,na
2nd innings,17.5,MS Dhoni,DJ Bravo,Joginder Sharma,1,1,na,na
2nd innings,17.6,Joginder Sharma,DJ Bravo,MS Dhoni,1,1,na,na
2nd innings,18.1,Joginder Sharma,Z Khan,MS Dhoni,1,1,na,na
2nd innings,18.2,MS Dhoni,Z Khan,Joginder Sharma,1,1,na,na
2nd innings,18.3,Joginder Sharma,Z Khan,MS Dhoni,1,1,na,na
2nd innings,18.4,MS Dhoni,Z Khan,Joginder Sharma,0,0,na,na
2nd innings,18.5,MS Dhoni,Z Khan,Joginder Sharma,2,2,na,na
2nd innings,18.6,MS Dhoni,Z Khan,Joginder Sharma,1,1,na,na
2nd innings,19.1,MS Dhoni,SL Malinga,Joginder Sharma,1,1,na,na
2nd innings,19.2,Joginder Sharma,SL Malinga,MS Dhoni,1,1,na,na
2nd innings,19.3,MS Dhoni,SL Malinga,Joginder Sharma,1,1,na,na
2nd innings,19.4,Joginder Sharma,SL Malinga,MS Dhoni,0,0,na,"{'kind': 'bowled', 'player_out': 'MS Dhoni'}"
2nd innings,19.5,Joginder Sharma,SL Malinga,T Thushara,0,0,na,na
2nd innings,19.6,Joginder Sharma,SL Malinga,T Thushara,1,0,{'wides': 1},na
2nd innings,19.7,Joginder Sharma,SL Malinga,T Thushara,1,1,na,na
