innings,deliveries,non_striker,bowler,batsman,total_runs,batsman_runs,extras,wickets
1st innings,0.1,RV Uthappa,DP Nannes,JH Kallis,0,0,na,"{'kind': 'bowled', 'player_out': 'JH Kallis'}"
1st innings,0.2,RV Uthappa,DP Nannes,KP Pietersen,5,5,na,na
1st innings,0.3,KP Pietersen,DP Nannes,RV Uthappa,0,0,na,na
1st innings,0.4,KP Pietersen,DP Nannes,RV Uthappa,2,2,na,na
1st innings,0.5,KP Pietersen,DP Nannes,RV Uthappa,1,1,na,na
1st innings,0.6,RV Uthappa,DP Nannes,KP Pietersen,1,1,na,na
1st innings,1.1,RV Uthappa,A Nehra,KP Pietersen,1,1,na,na
1st innings,1.2,KP Pietersen,A Nehra,RV Uthappa,0,0,na,"{'fielders': ['PJ Sangwan'], 'kind': 'caught', 'player_out': 'RV Uthappa'}"
1st innings,1.3,LRPL Taylor,A Nehra,KP Pietersen,0,0,na,na
1st innings,1.4,LRPL Taylor,A Nehra,KP Pietersen,0,0,na,na
1st innings,1.5,LRPL Taylor,A Nehra,KP Pietersen,0,0,na,na
1st innings,1.6,LRPL Taylor,A Nehra,KP Pietersen,0,0,na,na
1st innings,2.1,KP Pietersen,DP Nannes,LRPL Taylor,0,0,na,na
1st innings,2.2,KP Pietersen,DP Nannes,LRPL Taylor,0,0,na,na
1st innings,2.3,KP Pietersen,DP Nannes,LRPL Taylor,0,0,na,na
1st innings,2.4,KP Pietersen,DP Nannes,LRPL Taylor,0,0,na,na
1st innings,2.5,KP Pietersen,DP Nannes,LRPL Taylor,1,1,na,na
1st innings,2.6,LRPL Taylor,DP Nannes,KP Pietersen,2,2,na,na
1st innings,3.1,KP Pietersen,A Nehra,LRPL Taylor,0,0,na,na
1st innings,3.2,KP Pietersen,A Nehra,LRPL Taylor,0,0,na,na
1st innings,3.3,KP Pietersen,A Nehra,LRPL Taylor,2,2,na,na
1st innings,3.4,KP Pietersen,A Nehra,LRPL Taylor,4,4,na,na
1st innings,3.5,KP Pietersen,A Nehra,LRPL Taylor,1,1,na,na
1st innings,3.6,LRPL Taylor,A Nehra,KP Pietersen,6,6,na,na
1st innings,4.1,KP Pietersen,PJ Sangwan,LRPL Taylor,0,0,na,na
1st innings,4.2,KP Pietersen,PJ Sangwan,LRPL Taylor,4,4,na,na
1st innings,4.3,KP Pietersen,PJ Sangwan,LRPL Taylor,1,1,na,na
1st innings,4.4,LRPL Taylor,PJ Sangwan,KP Pietersen,2,2,na,na
1st innings,4.5,LRPL Taylor,PJ Sangwan,KP Pietersen,1,0,{'legbyes': 1},na
1st innings,4.6,KP Pietersen,PJ Sangwan,LRPL Taylor,1,0,{'wides': 1},na
1st innings,4.7,KP Pietersen,PJ Sangwan,LRPL Taylor,0,0,na,na
1st innings,5.1,LRPL Taylor,A Nehra,KP Pietersen,1,1,na,na
1st innings,5.2,KP Pietersen,A Nehra,LRPL Taylor,1,1,na,na
1st innings,5.3,LRPL Taylor,A Nehra,KP Pietersen,4,4,na,na
1st innings,5.4,LRPL Taylor,A Nehra,KP Pietersen,0,0,na,na
1st innings,5.5,LRPL Taylor,A Nehra,KP Pietersen,2,1,{'noballs': 1},na
1st innings,5.6,KP Pietersen,A Nehra,LRPL Taylor,1,1,na,na
1st innings,5.7,LRPL Taylor,A Nehra,KP Pietersen,1,1,na,na
1st innings,6.1,LRPL Taylor,A Mishra,KP Pietersen,0,0,na,na
1st innings,6.2,LRPL Taylor,A Mishra,KP Pietersen,1,1,na,na
1st innings,6.3,KP Pietersen,A Mishra,LRPL Taylor,0,0,na,na
1st innings,6.4,KP Pietersen,A Mishra,LRPL Taylor,1,1,na,na
1st innings,6.5,LRPL Taylor,A Mishra,KP Pietersen,1,1,na,na
1st innings,6.6,KP Pietersen,A Mishra,LRPL Taylor,1,1,na,na
1st innings,7.1,KP Pietersen,DL Vettori,LRPL Taylor,0,0,na,na
1st innings,7.2,KP Pietersen,DL Vettori,LRPL Taylor,0,0,na,na
1st innings,7.3,KP Pietersen,DL Vettori,LRPL Taylor,2,2,na,na
1st innings,7.4,KP Pietersen,DL Vettori,LRPL Taylor,4,4,na,na
1st innings,7.5,KP Pietersen,DL Vettori,LRPL Taylor,1,1,na,na
1st innings,7.6,LRPL Taylor,DL Vettori,KP Pietersen,6,6,na,na
1st innings,8.1,KP Pietersen,A Mishra,LRPL Taylor,0,0,na,na
1st innings,8.2,KP Pietersen,A Mishra,LRPL Taylor,1,0,{'wides': 1},na
1st innings,8.3,KP Pietersen,A Mishra,LRPL Taylor,1,1,na,na
1st innings,8.4,LRPL Taylor,A Mishra,KP Pietersen,0,0,na,na
1st innings,8.5,LRPL Taylor,A Mishra,KP Pietersen,1,0,{'wides': 1},na
1st innings,8.6,LRPL Taylor,A Mishra,KP Pietersen,1,1,na,na
1st innings,8.7,KP Pietersen,A Mishra,LRPL Taylor,0,0,na,na
1st innings,8.8,KP Pietersen,A Mishra,LRPL Taylor,2,2,na,na
1st innings,9.1,LRPL Taylor,DL Vettori,KP Pietersen,0,0,na,na
1st innings,9.2,LRPL Taylor,DL Vettori,KP Pietersen,4,4,na,na
1st innings,9.3,LRPL Taylor,DL Vettori,KP Pietersen,0,0,na,"{'kind': 'bowled', 'player_out': 'KP Pietersen'}"
1st innings,9.4,LRPL Taylor,DL Vettori,V Kohli,1,1,na,na
1st innings,9.5,V Kohli,DL Vettori,LRPL Taylor,1,1,na,na
1st innings,9.6,LRPL Taylor,DL Vettori,V Kohli,0,0,na,na
1st innings,10.1,V Kohli,A Mishra,LRPL Taylor,2,2,na,na
1st innings,10.2,V Kohli,A Mishra,LRPL Taylor,0,0,na,na
1st innings,10.3,V Kohli,A Mishra,LRPL Taylor,0,0,na,na
1st innings,10.4,V Kohli,A Mishra,LRPL Taylor,1,1,na,na
1st innings,10.5,LRPL Taylor,A Mishra,V Kohli,1,1,na,na
1st innings,10.6,V Kohli,A Mishra,LRPL Taylor,0,0,na,"{'kind': 'lbw', 'player_out': 'LRPL Taylor'}"
1st innings,11.1,MV Boucher,PJ Sangwan,V Kohli,0,0,na,na
1st innings,11.2,MV Boucher,PJ Sangwan,V Kohli,0,0,na,na
1st innings,11.3,MV Boucher,PJ Sangwan,V Kohli,1,1,na,na
1st innings,11.4,V Kohli,PJ Sangwan,MV Boucher,1,1,na,na
1st innings,11.5,MV Boucher,PJ Sangwan,V Kohli,1,1,na,na
1st innings,11.6,V Kohli,PJ Sangwan,MV Boucher,0,0,na,na
1st innings,12.1,MV Boucher,A Mishra,V Kohli,1,1,na,na
1st innings,12.2,V Kohli,A Mishra,MV Boucher,1,1,na,na
1st innings,12.3,MV Boucher,A Mishra,V Kohli,1,1,na,na
1st innings,12.4,V Kohli,A Mishra,MV Boucher,0,0,na,na
1st innings,12.5,V Kohli,A Mishra,MV Boucher,1,1,na,na
1st innings,12.6,MV Boucher,A Mishra,V Kohli,1,1,na,na
1st innings,13.1,MV Boucher,PJ Sangwan,V Kohli,4,4,na,na
1st innings,13.2,MV Boucher,PJ Sangwan,V Kohli,1,1,na,na
1st innings,13.3,V Kohli,PJ Sangwan,MV Boucher,0,0,na,na
1st innings,13.4,V Kohli,PJ Sangwan,MV Boucher,1,1,na,na
1st innings,13.5,MV Boucher,PJ Sangwan,V Kohli,1,1,na,na
1st innings,13.6,V Kohli,PJ Sangwan,MV Boucher,1,1,na,na
1st innings,14.1,V Kohli,DL Vettori,MV Boucher,2,2,na,na
1st innings,14.2,V Kohli,DL Vettori,MV Boucher,0,0,na,na
1st innings,14.3,V Kohli,DL Vettori,MV Boucher,2,2,na,na
1st innings,14.4,V Kohli,DL Vettori,MV Boucher,1,1,na,na
1st innings,14.5,MV Boucher,DL Vettori,V Kohli,1,1,na,na
1st innings,14.6,V Kohli,DL Vettori,MV Boucher,0,0,na,na
1st innings,15.1,MV Boucher,DP Nannes,V Kohli,1,1,na,na
1st innings,15.2,V Kohli,DP Nannes,MV Boucher,2,2,na,na
1st innings,15.3,V Kohli,DP Nannes,MV Boucher,1,1,na,na
1st innings,15.4,MV Boucher,DP Nannes,V Kohli,0,0,na,na
1st innings,15.5,MV Boucher,DP Nannes,V Kohli,1,1,na,na
1st innings,15.6,V Kohli,DP Nannes,MV Boucher,4,4,na,na
1st innings,16.1,MV Boucher,DL Vettori,V Kohli,1,1,na,na
1st innings,16.2,V Kohli,DL Vettori,MV Boucher,4,4,na,na
1st innings,16.3,V Kohli,DL Vettori,MV Boucher,1,1,na,na
1st innings,16.4,MV Boucher,DL Vettori,V Kohli,1,1,na,na
1st innings,16.5,V Kohli,DL Vettori,MV Boucher,1,1,na,na
1st innings,16.6,MV Boucher,DL Vettori,V Kohli,2,2,na,na
1st innings,17.1,V Kohli,DP Nannes,MV Boucher,0,0,na,na
1st innings,17.2,V Kohli,DP Nannes,MV Boucher,1,1,na,na
1st innings,17.3,MV Boucher,DP Nannes,V Kohli,4,0,{'legbyes': 4},na
1st innings,17.4,MV Boucher,DP Nannes,V Kohli,1,1,na,na
1st innings,17.5,V Kohli,DP Nannes,MV Boucher,0,0,na,na
1st innings,17.6,V Kohli,DP Nannes,MV Boucher,1,0,{'wides': 1},na
1st innings,17.7,V Kohli,DP Nannes,MV Boucher,0,0,na,na
1st innings,18.1,MV Boucher,PJ Sangwan,V Kohli,1,1,na,na
1st innings,18.2,V Kohli,PJ Sangwan,MV Boucher,6,6,na,na
1st innings,18.3,V Kohli,PJ Sangwan,MV Boucher,0,0,na,na
1st innings,18.4,V Kohli,PJ Sangwan,MV Boucher,6,6,na,na
1st innings,18.5,V Kohli,PJ Sangwan,MV Boucher,0,0,na,na
1st innings,18.6,V Kohli,PJ Sangwan,MV Boucher,0,0,na,"{'fielders': ['A Mishra'], 'kind': 'caught', 'player_out': 'MV Boucher'}"
1st innings,19.1,B Akhil,A Nehra,V Kohli,0,0,na,"{'fielders': ['TM Dilshan'], 'kind': 'caught', 'player_out': 'V Kohli'}"
1st innings,19.2,R Vinay Kumar,A Nehra,B Akhil,6,6,na,na
1st innings,19.3,R Vinay Kumar,A Nehra,B Akhil,0,0,na,"{'fielders': ['AB de Villiers'], 'kind': 'run out', 'player_out': 'R Vinay Kumar'}"
1st innings,19.4,Pankaj Singh,A Nehra,B Akhil,1,0,{'wides': 1},na
1st innings,19.5,Pankaj Singh,A Nehra,B Akhil,1,1,na,na
1st innings,19.6,B Akhil,A Nehra,Pankaj Singh,1,1,na,na
1st innings,19.7,Pankaj Singh,A Nehra,B Akhil,1,1,na,na
2nd innings,0.1,V Sehwag,R Vinay Kumar,G Gambhir,1,1,na,na
2nd innings,0.2,G Gambhir,R Vinay Kumar,V Sehwag,0,0,na,na
2nd innings,0.3,G Gambhir,R Vinay Kumar,V Sehwag,1,1,na,na
2nd innings,0.4,V Sehwag,R Vinay Kumar,G Gambhir,1,1,na,na
2nd innings,0.5,G Gambhir,R Vinay Kumar,V Sehwag,6,6,na,na
2nd innings,0.6,G Gambhir,R Vinay Kumar,V Sehwag,0,0,na,na
2nd innings,1.1,V Sehwag,Pankaj Singh,G Gambhir,0,0,na,na
2nd innings,1.2,V Sehwag,Pankaj Singh,G Gambhir,0,0,na,na
2nd innings,1.3,V Sehwag,Pankaj Singh,G Gambhir,1,1,na,na
2nd innings,1.4,G Gambhir,Pankaj Singh,V Sehwag,1,0,{'wides': 1},na
2nd innings,1.5,G Gambhir,Pankaj Singh,V Sehwag,0,0,na,"{'fielders': ['KP Pietersen'], 'kind': 'caught', 'player_out': 'V Sehwag'}"
2nd innings,1.6,G Gambhir,Pankaj Singh,TM Dilshan,0,0,na,na
2nd innings,1.7,G Gambhir,Pankaj Singh,TM Dilshan,2,2,na,na
2nd innings,2.1,TM Dilshan,R Vinay Kumar,G Gambhir,1,1,na,na
2nd innings,2.2,G Gambhir,R Vinay Kumar,TM Dilshan,0,0,na,na
2nd innings,2.3,G Gambhir,R Vinay Kumar,TM Dilshan,4,4,na,na
2nd innings,2.4,G Gambhir,R Vinay Kumar,TM Dilshan,1,1,na,na
2nd innings,2.5,TM Dilshan,R Vinay Kumar,G Gambhir,0,0,na,na
2nd innings,2.6,TM Dilshan,R Vinay Kumar,G Gambhir,1,1,na,na
2nd innings,3.1,TM Dilshan,Pankaj Singh,G Gambhir,1,1,na,na
2nd innings,3.2,G Gambhir,Pankaj Singh,TM Dilshan,2,2,na,na
2nd innings,3.3,G Gambhir,Pankaj Singh,TM Dilshan,1,1,na,na
2nd innings,3.4,TM Dilshan,Pankaj Singh,G Gambhir,0,0,na,na
2nd innings,3.5,TM Dilshan,Pankaj Singh,G Gambhir,1,1,na,na
2nd innings,3.6,G Gambhir,Pankaj Singh,TM Dilshan,6,6,na,na
2nd innings,4.1,TM Dilshan,JH Kallis,G Gambhir,4,4,na,na
2nd innings,4.2,TM Dilshan,JH Kallis,G Gambhir,2,2,na,na
2nd innings,4.3,TM Dilshan,JH Kallis,G Gambhir,0,0,na,na
2nd innings,4.4,TM Dilshan,JH Kallis,G Gambhir,2,2,na,na
2nd innings,4.5,TM Dilshan,JH Kallis,G Gambhir,0,0,na,na
2nd innings,4.6,TM Dilshan,JH Kallis,G Gambhir,0,0,na,na
2nd innings,5.1,G Gambhir,Pankaj Singh,TM Dilshan,1,1,na,na
2nd innings,5.2,TM Dilshan,Pankaj Singh,G Gambhir,1,1,na,na
2nd innings,5.3,G Gambhir,Pankaj Singh,TM Dilshan,1,1,na,na
2nd innings,5.4,TM Dilshan,Pankaj Singh,G Gambhir,0,0,na,"{'fielders': ['MV Boucher'], 'kind': 'caught', 'player_out': 'G Gambhir'}"
2nd innings,5.5,TM Dilshan,Pankaj Singh,AB de Villiers,0,0,na,na
2nd innings,5.6,TM Dilshan,Pankaj Singh,AB de Villiers,1,1,na,na
2nd innings,6.1,TM Dilshan,A Kumble,AB de Villiers,1,1,na,na
2nd innings,6.2,AB de Villiers,A Kumble,TM Dilshan,4,4,na,na
2nd innings,6.3,AB de Villiers,A Kumble,TM Dilshan,1,1,na,na
2nd innings,6.4,TM Dilshan,A Kumble,AB de Villiers,0,0,na,na
2nd innings,6.5,TM Dilshan,A Kumble,AB de Villiers,1,1,na,na
2nd innings,6.6,AB de Villiers,A Kumble,TM Dilshan,0,0,na,na
2nd innings,7.1,TM Dilshan,KP Appanna,AB de Villiers,1,1,na,na
2nd innings,7.2,AB de Villiers,KP Appanna,TM Dilshan,1,1,na,na
2nd innings,7.3,TM Dilshan,KP Appanna,AB de Villiers,1,1,na,na
2nd innings,7.4,AB de Villiers,KP Appanna,TM Dilshan,0,0,na,na
2nd innings,7.5,AB de Villiers,KP Appanna,TM Dilshan,4,4,na,na
2nd innings,7.6,AB de Villiers,KP Appanna,TM Dilshan,1,1,na,na
2nd innings,8.1,AB de Villiers,A Kumble,TM Dilshan,0,0,na,na
2nd innings,8.2,AB de Villiers,A Kumble,TM Dilshan,1,1,na,na
2nd innings,8.3,TM Dilshan,A Kumble,AB de Villiers,0,0,na,na
2nd innings,8.4,TM Dilshan,A Kumble,AB de Villiers,0,0,na,na
2nd innings,8.5,TM Dilshan,A Kumble,AB de Villiers,1,1,na,na
2nd innings,8.6,AB de Villiers,A Kumble,TM Dilshan,1,1,na,na
2nd innings,9.1,AB de Villiers,KP Appanna,TM Dilshan,1,1,na,na
2nd innings,9.2,TM Dilshan,KP Appanna,AB de Villiers,1,1,na,na
2nd innings,9.3,AB de Villiers,KP Appanna,TM Dilshan,0,0,na,na
2nd innings,9.4,AB de Villiers,KP Appanna,TM Dilshan,0,0,na,na
2nd innings,9.5,AB de Villiers,KP Appanna,TM Dilshan,0,0,na,na
2nd innings,9.6,AB de Villiers,KP Appanna,TM Dilshan,1,1,na,na
2nd innings,10.1,AB de Villiers,A Kumble,TM Dilshan,1,1,na,na
2nd innings,10.2,TM Dilshan,A Kumble,AB de Villiers,0,0,na,na
2nd innings,10.3,TM Dilshan,A Kumble,AB de Villiers,1,1,na,na
2nd innings,10.4,AB de Villiers,A Kumble,TM Dilshan,1,1,na,na
2nd innings,10.5,TM Dilshan,A Kumble,AB de Villiers,1,1,na,na
2nd innings,10.6,AB de Villiers,A Kumble,TM Dilshan,1,1,na,na
2nd innings,11.1,AB de Villiers,KP Appanna,TM Dilshan,1,1,na,na
2nd innings,11.2,TM Dilshan,KP Appanna,AB de Villiers,2,2,na,na
2nd innings,11.3,TM Dilshan,KP Appanna,AB de Villiers,2,2,na,na
2nd innings,11.4,TM Dilshan,KP Appanna,AB de Villiers,1,1,na,na
2nd innings,11.5,AB de Villiers,KP Appanna,TM Dilshan,1,1,na,na
2nd innings,11.6,TM Dilshan,KP Appanna,AB de Villiers,1,1,na,na
2nd innings,12.1,TM Dilshan,A Kumble,AB de Villiers,2,2,na,na
2nd innings,12.2,TM Dilshan,A Kumble,AB de Villiers,1,1,na,na
2nd innings,12.3,AB de Villiers,A Kumble,TM Dilshan,0,0,na,na
2nd innings,12.4,AB de Villiers,A Kumble,TM Dilshan,1,1,na,na
2nd innings,12.5,TM Dilshan,A Kumble,AB de Villiers,2,2,na,na
2nd innings,12.6,TM Dilshan,A Kumble,AB de Villiers,1,1,na,na
2nd innings,13.1,TM Dilshan,KP Appanna,AB de Villiers,0,0,na,"{'kind': 'bowled', 'player_out': 'AB de Villiers'}"
2nd innings,13.2,TM Dilshan,KP Appanna,KD Karthik,0,0,na,na
2nd innings,13.3,TM Dilshan,KP Appanna,KD Karthik,0,0,na,na
2nd innings,13.4,TM Dilshan,KP Appanna,KD Karthik,4,4,na,na
2nd innings,13.5,TM Dilshan,KP Appanna,KD Karthik,1,1,na,na
2nd innings,13.6,KD Karthik,KP Appanna,TM Dilshan,0,0,na,na
2nd innings,14.1,TM Dilshan,JH Kallis,KD Karthik,1,0,{'wides': 1},na
2nd innings,14.2,TM Dilshan,JH Kallis,KD Karthik,0,0,na,na
2nd innings,14.3,TM Dilshan,JH Kallis,KD Karthik,0,0,na,na
2nd innings,14.4,TM Dilshan,JH Kallis,KD Karthik,6,6,na,na
2nd innings,14.5,TM Dilshan,JH Kallis,KD Karthik,1,1,na,na
2nd innings,14.6,KD Karthik,JH Kallis,TM Dilshan,1,0,{'wides': 1},na
2nd innings,14.7,KD Karthik,JH Kallis,TM Dilshan,0,0,na,na
2nd innings,14.8,KD Karthik,JH Kallis,TM Dilshan,1,1,na,na
2nd innings,15.1,KD Karthik,B Akhil,TM Dilshan,4,4,na,na
2nd innings,15.2,KD Karthik,B Akhil,TM Dilshan,2,2,na,na
2nd innings,15.3,KD Karthik,B Akhil,TM Dilshan,1,1,na,na
2nd innings,15.4,TM Dilshan,B Akhil,KD Karthik,0,0,na,"{'fielders': ['JH Kallis'], 'kind': 'caught', 'player_out': 'KD Karthik'}"
2nd innings,15.5,TM Dilshan,B Akhil,M Manhas,0,0,na,na
2nd innings,15.6,TM Dilshan,B Akhil,M Manhas,1,1,na,na
2nd innings,16.1,TM Dilshan,JH Kallis,M Manhas,2,2,na,na
2nd innings,16.2,TM Dilshan,JH Kallis,M Manhas,1,1,na,na
2nd innings,16.3,M Manhas,JH Kallis,TM Dilshan,1,0,{'wides': 1},na
2nd innings,16.4,M Manhas,JH Kallis,TM Dilshan,6,6,na,na
2nd innings,16.5,M Manhas,JH Kallis,TM Dilshan,1,1,na,na
2nd innings,16.6,TM Dilshan,JH Kallis,M Manhas,4,4,na,na
2nd innings,16.7,TM Dilshan,JH Kallis,M Manhas,4,4,na,na
2nd innings,17.1,M Manhas,R Vinay Kumar,TM Dilshan,1,1,na,na
2nd innings,17.2,TM Dilshan,R Vinay Kumar,M Manhas,0,0,na,na
2nd innings,17.3,TM Dilshan,R Vinay Kumar,M Manhas,4,4,na,na
2nd innings,17.4,TM Dilshan,R Vinay Kumar,M Manhas,1,1,na,na
2nd innings,17.5,M Manhas,R Vinay Kumar,TM Dilshan,2,2,na,na
2nd innings,17.6,M Manhas,R Vinay Kumar,TM Dilshan,1,1,na,na
2nd innings,18.1,M Manhas,Pankaj Singh,TM Dilshan,4,4,na,na
2nd innings,18.2,M Manhas,Pankaj Singh,TM Dilshan,1,1,na,na
2nd innings,18.3,TM Dilshan,Pankaj Singh,M Manhas,2,2,na,na
2nd innings,18.4,TM Dilshan,Pankaj Singh,M Manhas,1,1,na,na
2nd innings,18.5,M Manhas,Pankaj Singh,TM Dilshan,2,2,na,na
2nd innings,18.6,M Manhas,Pankaj Singh,TM Dilshan,2,2,na,na
2nd innings,19.1,TM Dilshan,R Vinay Kumar,M Manhas,2,2,na,na
2nd innings,19.2,TM Dilshan,R Vinay Kumar,M Manhas,1,1,na,na
