innings,deliveries,non_striker,bowler,batsman,total_runs,batsman_runs,extras,wickets
1st innings,0.1,SR Tendulkar,I Sharma,ST Jayasuriya,1,1,na,na
1st innings,0.2,ST Jayasuriya,I Sharma,SR Tendulkar,0,0,na,na
1st innings,0.3,ST Jayasuriya,I Sharma,SR Tendulkar,0,0,na,na
1st innings,0.4,ST Jayasuriya,I Sharma,SR Tendulkar,3,3,na,na
1st innings,0.5,SR Tendulkar,I Sharma,ST Jayasuriya,0,0,na,na
1st innings,0.6,SR Tendulkar,I Sharma,ST Jayasuriya,0,0,na,na
1st innings,1.1,ST Jayasuriya,AB Dinda,SR Tendulkar,6,6,na,na
1st innings,1.2,ST Jayasuriya,AB Dinda,SR Tendulkar,0,0,na,na
1st innings,1.3,ST Jayasuriya,AB Dinda,SR Tendulkar,0,0,na,na
1st innings,1.4,ST Jayasuriya,AB Dinda,SR Tendulkar,1,0,{'wides': 1},na
1st innings,1.5,ST Jayasuriya,AB Dinda,SR Tendulkar,0,0,na,na
1st innings,1.6,ST Jayasuriya,AB Dinda,SR Tendulkar,4,4,na,na
1st innings,1.7,ST Jayasuriya,AB Dinda,SR Tendulkar,1,1,na,na
1st innings,2.1,ST Jayasuriya,I Sharma,SR Tendulkar,5,0,{'wides': 5},na
1st innings,2.2,ST Jayasuriya,I Sharma,SR Tendulkar,0,0,na,na
1st innings,2.3,ST Jayasuriya,I Sharma,SR Tendulkar,1,0,{'wides': 1},na
1st innings,2.4,ST Jayasuriya,I Sharma,SR Tendulkar,0,0,na,na
1st innings,2.5,ST Jayasuriya,I Sharma,SR Tendulkar,0,0,na,na
1st innings,2.6,ST Jayasuriya,I Sharma,SR Tendulkar,0,0,na,na
1st innings,2.7,ST Jayasuriya,I Sharma,SR Tendulkar,0,0,na,na
1st innings,2.8,ST Jayasuriya,I Sharma,SR Tendulkar,4,4,na,na
1st innings,3.1,SR Tendulkar,AB Dinda,ST Jayasuriya,0,0,na,na
1st innings,3.2,SR Tendulkar,AB Dinda,ST Jayasuriya,3,3,na,na
1st innings,3.3,ST Jayasuriya,AB Dinda,SR Tendulkar,0,0,na,na
1st innings,3.4,ST Jayasuriya,AB Dinda,SR Tendulkar,4,4,na,na
1st innings,3.5,ST Jayasuriya,AB Dinda,SR Tendulkar,1,1,na,na
1st innings,3.6,SR Tendulkar,AB Dinda,ST Jayasuriya,4,4,na,na
1st innings,4.1,ST Jayasuriya,I Sharma,SR Tendulkar,0,0,na,na
1st innings,4.2,ST Jayasuriya,I Sharma,SR Tendulkar,0,0,na,na
1st innings,4.3,ST Jayasuriya,I Sharma,SR Tendulkar,6,6,na,na
1st innings,4.4,ST Jayasuriya,I Sharma,SR Tendulkar,0,0,na,na
1st innings,4.5,ST Jayasuriya,I Sharma,SR Tendulkar,0,0,na,na
1st innings,4.6,ST Jayasuriya,I Sharma,SR Tendulkar,1,1,na,na
1st innings,5.1,ST Jayasuriya,SC Ganguly,SR Tendulkar,1,1,na,na
1st innings,5.2,SR Tendulkar,SC Ganguly,ST Jayasuriya,1,0,{'wides': 1},na
1st innings,5.3,SR Tendulkar,SC Ganguly,ST Jayasuriya,0,0,na,na
1st innings,5.4,SR Tendulkar,SC Ganguly,ST Jayasuriya,0,0,na,na
1st innings,5.5,SR Tendulkar,SC Ganguly,ST Jayasuriya,2,2,na,na
1st innings,5.6,SR Tendulkar,SC Ganguly,ST Jayasuriya,6,6,na,na
1st innings,5.7,SR Tendulkar,SC Ganguly,ST Jayasuriya,6,6,na,na
1st innings,6.1,ST Jayasuriya,BAW Mendis,SR Tendulkar,0,0,na,na
1st innings,6.2,ST Jayasuriya,BAW Mendis,SR Tendulkar,2,2,na,na
1st innings,6.3,ST Jayasuriya,BAW Mendis,SR Tendulkar,1,1,na,na
1st innings,6.4,SR Tendulkar,BAW Mendis,ST Jayasuriya,1,1,na,na
1st innings,6.5,ST Jayasuriya,BAW Mendis,SR Tendulkar,6,6,na,na
1st innings,6.6,ST Jayasuriya,BAW Mendis,SR Tendulkar,1,1,na,na
1st innings,7.1,ST Jayasuriya,CH Gayle,SR Tendulkar,1,1,na,na
1st innings,7.2,SR Tendulkar,CH Gayle,ST Jayasuriya,6,6,na,na
1st innings,7.3,SR Tendulkar,CH Gayle,ST Jayasuriya,1,1,na,na
1st innings,7.4,ST Jayasuriya,CH Gayle,SR Tendulkar,1,1,na,na
1st innings,7.5,SR Tendulkar,CH Gayle,ST Jayasuriya,1,1,na,na
1st innings,7.6,ST Jayasuriya,CH Gayle,SR Tendulkar,4,4,na,na
1st innings,8.1,SR Tendulkar,BAW Mendis,ST Jayasuriya,6,6,na,na
1st innings,8.2,SR Tendulkar,BAW Mendis,ST Jayasuriya,1,1,na,na
1st innings,8.3,ST Jayasuriya,BAW Mendis,SR Tendulkar,6,6,na,na
1st innings,8.4,ST Jayasuriya,BAW Mendis,SR Tendulkar,1,1,na,na
1st innings,8.5,SR Tendulkar,BAW Mendis,ST Jayasuriya,2,2,na,na
1st innings,8.6,SR Tendulkar,BAW Mendis,ST Jayasuriya,1,1,na,na
1st innings,9.1,SR Tendulkar,BJ Hodge,ST Jayasuriya,1,1,na,na
1st innings,9.2,ST Jayasuriya,BJ Hodge,SR Tendulkar,0,0,na,na
1st innings,9.3,ST Jayasuriya,BJ Hodge,SR Tendulkar,4,4,na,na
1st innings,9.4,ST Jayasuriya,BJ Hodge,SR Tendulkar,1,1,na,na
1st innings,9.5,SR Tendulkar,BJ Hodge,ST Jayasuriya,1,1,na,na
1st innings,9.6,ST Jayasuriya,BJ Hodge,SR Tendulkar,1,1,na,na
1st innings,10.1,ST Jayasuriya,LR Shukla,SR Tendulkar,1,1,na,na
1st innings,10.2,SR Tendulkar,LR Shukla,ST Jayasuriya,4,4,na,na
1st innings,10.3,SR Tendulkar,LR Shukla,ST Jayasuriya,0,0,na,na
1st innings,10.4,SR Tendulkar,LR Shukla,ST Jayasuriya,0,0,na,na
1st innings,10.5,SR Tendulkar,LR Shukla,ST Jayasuriya,1,1,na,na
1st innings,10.6,ST Jayasuriya,LR Shukla,SR Tendulkar,1,1,na,na
1st innings,11.1,ST Jayasuriya,BJ Hodge,SR Tendulkar,1,1,na,na
1st innings,11.2,SR Tendulkar,BJ Hodge,ST Jayasuriya,2,2,na,na
1st innings,11.3,SR Tendulkar,BJ Hodge,ST Jayasuriya,0,0,na,na
1st innings,11.4,SR Tendulkar,BJ Hodge,ST Jayasuriya,0,0,na,na
1st innings,11.5,SR Tendulkar,BJ Hodge,ST Jayasuriya,1,1,na,na
1st innings,11.6,ST Jayasuriya,BJ Hodge,SR Tendulkar,1,1,na,na
1st innings,12.1,ST Jayasuriya,LR Shukla,SR Tendulkar,4,4,na,na
1st innings,12.2,ST Jayasuriya,LR Shukla,SR Tendulkar,0,0,na,"{'kind': 'lbw', 'player_out': 'SR Tendulkar'}"
1st innings,12.3,ST Jayasuriya,LR Shukla,Harbhajan Singh,0,0,na,na
1st innings,12.4,ST Jayasuriya,LR Shukla,Harbhajan Singh,4,4,na,na
1st innings,12.5,ST Jayasuriya,LR Shukla,Harbhajan Singh,0,0,na,na
1st innings,12.6,ST Jayasuriya,LR Shukla,Harbhajan Singh,0,0,na,na
1st innings,13.1,Harbhajan Singh,BJ Hodge,ST Jayasuriya,1,1,na,na
1st innings,13.2,ST Jayasuriya,BJ Hodge,Harbhajan Singh,6,6,na,na
1st innings,13.3,ST Jayasuriya,BJ Hodge,Harbhajan Singh,6,6,na,na
1st innings,13.4,ST Jayasuriya,BJ Hodge,Harbhajan Singh,2,2,na,na
1st innings,13.5,ST Jayasuriya,BJ Hodge,Harbhajan Singh,0,0,na,"{'fielders': ['BAW Mendis'], 'kind': 'caught', 'player_out': 'Harbhajan Singh'}"
1st innings,13.6,ST Jayasuriya,BJ Hodge,JP Duminy,1,1,na,na
1st innings,14.1,ST Jayasuriya,LR Shukla,JP Duminy,0,0,na,na
1st innings,14.2,ST Jayasuriya,LR Shukla,JP Duminy,1,1,na,na
1st innings,14.3,JP Duminy,LR Shukla,ST Jayasuriya,0,0,na,na
1st innings,14.4,JP Duminy,LR Shukla,ST Jayasuriya,0,0,na,"{'fielders': ['AN Ghosh'], 'kind': 'caught', 'player_out': 'ST Jayasuriya'}"
1st innings,14.5,JP Duminy,LR Shukla,AM Nayar,2,2,na,na
1st innings,14.6,JP Duminy,LR Shukla,AM Nayar,1,1,na,na
1st innings,15.1,JP Duminy,BAW Mendis,AM Nayar,0,0,na,"{'fielders': ['LR Shukla', 'BB McCullum'], 'kind': 'run out', 'player_out': 'AM Nayar'}"
1st innings,15.2,JP Duminy,BAW Mendis,DJ Bravo,0,0,na,na
1st innings,15.3,JP Duminy,BAW Mendis,DJ Bravo,1,1,na,na
1st innings,15.4,DJ Bravo,BAW Mendis,JP Duminy,1,1,na,na
1st innings,15.5,JP Duminy,BAW Mendis,DJ Bravo,1,1,na,na
1st innings,15.6,DJ Bravo,BAW Mendis,JP Duminy,1,1,na,na
1st innings,16.1,DJ Bravo,LR Shukla,JP Duminy,0,0,na,na
1st innings,16.2,DJ Bravo,LR Shukla,JP Duminy,1,1,na,na
1st innings,16.3,JP Duminy,LR Shukla,DJ Bravo,1,1,na,na
1st innings,16.4,DJ Bravo,LR Shukla,JP Duminy,4,4,na,na
1st innings,16.5,DJ Bravo,LR Shukla,JP Duminy,1,0,{'legbyes': 1},na
1st innings,16.6,JP Duminy,LR Shukla,DJ Bravo,0,0,na,"{'fielders': ['CH Gayle'], 'kind': 'caught', 'player_out': 'DJ Bravo'}"
1st innings,17.1,JP Duminy,BAW Mendis,S Dhawan,0,0,na,na
1st innings,17.2,JP Duminy,BAW Mendis,S Dhawan,1,1,na,na
1st innings,17.3,S Dhawan,BAW Mendis,JP Duminy,1,1,na,na
1st innings,17.4,JP Duminy,BAW Mendis,S Dhawan,2,2,na,na
1st innings,17.5,JP Duminy,BAW Mendis,S Dhawan,2,2,na,na
1st innings,17.6,JP Duminy,BAW Mendis,S Dhawan,1,1,na,na
1st innings,18.1,JP Duminy,I Sharma,S Dhawan,0,0,na,na
1st innings,18.2,JP Duminy,I Sharma,S Dhawan,0,0,na,na
1st innings,18.3,JP Duminy,I Sharma,S Dhawan,2,2,na,na
1st innings,18.4,JP Duminy,I Sharma,S Dhawan,4,4,na,na
1st innings,18.5,JP Duminy,I Sharma,S Dhawan,0,0,na,"{'fielders': ['BB McCullum'], 'kind': 'caught', 'player_out': 'S Dhawan'}"
1st innings,18.6,JP Duminy,I Sharma,SS Tiwary,2,2,na,na
1st innings,19.1,SS Tiwary,CH Gayle,JP Duminy,1,1,na,na
1st innings,19.2,JP Duminy,CH Gayle,SS Tiwary,1,1,na,na
1st innings,19.3,SS Tiwary,CH Gayle,JP Duminy,3,3,na,na
1st innings,19.4,JP Duminy,CH Gayle,SS Tiwary,1,1,na,na
1st innings,19.5,SS Tiwary,CH Gayle,JP Duminy,2,2,na,na
1st innings,19.6,SS Tiwary,CH Gayle,JP Duminy,2,2,na,na
2nd innings,0.1,CH Gayle,Z Khan,BB McCullum,0,0,na,na
2nd innings,0.2,CH Gayle,Z Khan,BB McCullum,1,1,na,na
2nd innings,0.3,BB McCullum,Z Khan,CH Gayle,0,0,na,na
2nd innings,0.4,BB McCullum,Z Khan,CH Gayle,0,0,na,na
2nd innings,0.5,BB McCullum,Z Khan,CH Gayle,2,2,na,na
2nd innings,0.6,BB McCullum,Z Khan,CH Gayle,1,1,na,na
2nd innings,1.1,BB McCullum,SL Malinga,CH Gayle,0,0,na,na
2nd innings,1.2,BB McCullum,SL Malinga,CH Gayle,1,1,na,na
2nd innings,1.3,CH Gayle,SL Malinga,BB McCullum,2,0,{'noballs': 2},na
2nd innings,1.4,BB McCullum,SL Malinga,CH Gayle,1,1,na,na
2nd innings,1.5,CH Gayle,SL Malinga,BB McCullum,0,0,na,na
2nd innings,1.6,CH Gayle,SL Malinga,BB McCullum,0,0,na,na
2nd innings,1.7,CH Gayle,SL Malinga,BB McCullum,0,0,na,"{'fielders': ['JP Duminy'], 'kind': 'caught', 'player_out': 'BB McCullum'}"
2nd innings,2.1,BJ Hodge,DJ Bravo,CH Gayle,6,6,na,na
2nd innings,2.2,BJ Hodge,DJ Bravo,CH Gayle,1,0,{'wides': 1},na
2nd innings,2.3,BJ Hodge,DJ Bravo,CH Gayle,1,1,na,na
2nd innings,2.4,CH Gayle,DJ Bravo,BJ Hodge,0,0,na,na
2nd innings,2.5,CH Gayle,DJ Bravo,BJ Hodge,1,1,na,na
2nd innings,2.6,BJ Hodge,DJ Bravo,CH Gayle,0,0,na,na
2nd innings,2.7,BJ Hodge,DJ Bravo,CH Gayle,0,0,na,"{'fielders': ['SR Tendulkar'], 'kind': 'caught', 'player_out': 'CH Gayle'}"
2nd innings,3.1,SC Ganguly,SL Malinga,BJ Hodge,1,0,{'wides': 1},na
2nd innings,3.2,SC Ganguly,SL Malinga,BJ Hodge,0,0,na,na
2nd innings,3.3,SC Ganguly,SL Malinga,BJ Hodge,0,0,na,na
2nd innings,3.4,SC Ganguly,SL Malinga,BJ Hodge,1,1,na,na
2nd innings,3.5,BJ Hodge,SL Malinga,SC Ganguly,1,1,na,na
2nd innings,3.6,SC Ganguly,SL Malinga,BJ Hodge,4,4,na,na
2nd innings,3.7,SC Ganguly,SL Malinga,BJ Hodge,0,0,na,na
2nd innings,4.1,BJ Hodge,DJ Bravo,SC Ganguly,0,0,na,na
2nd innings,4.2,BJ Hodge,DJ Bravo,SC Ganguly,0,0,na,na
2nd innings,4.3,BJ Hodge,DJ Bravo,SC Ganguly,4,4,na,na
2nd innings,4.4,BJ Hodge,DJ Bravo,SC Ganguly,6,6,na,na
2nd innings,4.5,BJ Hodge,DJ Bravo,SC Ganguly,1,1,na,na
2nd innings,4.6,SC Ganguly,DJ Bravo,BJ Hodge,4,4,na,na
2nd innings,5.1,BJ Hodge,Harbhajan Singh,SC Ganguly,0,0,na,na
2nd innings,5.2,BJ Hodge,Harbhajan Singh,SC Ganguly,0,0,na,na
2nd innings,5.3,BJ Hodge,Harbhajan Singh,SC Ganguly,4,4,na,na
2nd innings,5.4,BJ Hodge,Harbhajan Singh,SC Ganguly,4,4,na,na
2nd innings,5.5,BJ Hodge,Harbhajan Singh,SC Ganguly,0,0,na,na
2nd innings,5.6,BJ Hodge,Harbhajan Singh,SC Ganguly,0,0,na,na
2nd innings,6.1,SC Ganguly,Z Khan,BJ Hodge,0,0,na,na
2nd innings,6.2,SC Ganguly,Z Khan,BJ Hodge,2,2,na,na
2nd innings,6.3,SC Ganguly,Z Khan,BJ Hodge,0,0,na,na
2nd innings,6.4,SC Ganguly,Z Khan,BJ Hodge,1,1,na,na
2nd innings,6.5,BJ Hodge,Z Khan,SC Ganguly,0,0,na,na
2nd innings,6.6,BJ Hodge,Z Khan,SC Ganguly,0,0,na,na
2nd innings,7.1,SC Ganguly,Harbhajan Singh,BJ Hodge,1,1,na,na
2nd innings,7.2,BJ Hodge,Harbhajan Singh,SC Ganguly,1,1,na,na
2nd innings,7.3,SC Ganguly,Harbhajan Singh,BJ Hodge,1,1,na,na
2nd innings,7.4,BJ Hodge,Harbhajan Singh,SC Ganguly,2,2,na,na
2nd innings,7.5,BJ Hodge,Harbhajan Singh,SC Ganguly,1,1,na,na
2nd innings,7.6,SC Ganguly,Harbhajan Singh,BJ Hodge,1,1,na,na
2nd innings,8.1,SC Ganguly,AM Nayar,BJ Hodge,4,4,na,na
2nd innings,8.2,SC Ganguly,AM Nayar,BJ Hodge,1,1,na,na
2nd innings,8.3,BJ Hodge,AM Nayar,SC Ganguly,1,1,na,na
2nd innings,8.4,SC Ganguly,AM Nayar,BJ Hodge,1,1,na,na
2nd innings,8.5,BJ Hodge,AM Nayar,SC Ganguly,0,0,na,na
2nd innings,8.6,BJ Hodge,AM Nayar,SC Ganguly,1,1,na,na
2nd innings,9.1,BJ Hodge,SR Tendulkar,SC Ganguly,1,1,na,na
2nd innings,9.2,SC Ganguly,SR Tendulkar,BJ Hodge,0,0,na,na
2nd innings,9.3,SC Ganguly,SR Tendulkar,BJ Hodge,1,1,na,na
2nd innings,9.4,BJ Hodge,SR Tendulkar,SC Ganguly,1,1,na,na
2nd innings,9.5,SC Ganguly,SR Tendulkar,BJ Hodge,1,1,na,na
2nd innings,9.6,BJ Hodge,SR Tendulkar,SC Ganguly,1,1,na,na
2nd innings,10.1,BJ Hodge,AM Nayar,SC Ganguly,1,1,na,na
2nd innings,10.2,SC Ganguly,AM Nayar,BJ Hodge,0,0,na,"{'kind': 'bowled', 'player_out': 'BJ Hodge'}"
2nd innings,10.3,SC Ganguly,AM Nayar,Yashpal Singh,1,1,na,na
2nd innings,10.4,Yashpal Singh,AM Nayar,SC Ganguly,1,1,na,na
2nd innings,10.5,SC Ganguly,AM Nayar,Yashpal Singh,1,1,na,na
2nd innings,10.6,Yashpal Singh,AM Nayar,SC Ganguly,0,0,na,na
2nd innings,11.1,SC Ganguly,SR Tendulkar,Yashpal Singh,1,1,na,na
2nd innings,11.2,Yashpal Singh,SR Tendulkar,SC Ganguly,1,1,na,na
2nd innings,11.3,SC Ganguly,SR Tendulkar,Yashpal Singh,1,1,na,na
2nd innings,11.4,Yashpal Singh,SR Tendulkar,SC Ganguly,1,1,na,na
2nd innings,11.5,SC Ganguly,SR Tendulkar,Yashpal Singh,1,1,na,na
2nd innings,11.6,Yashpal Singh,SR Tendulkar,SC Ganguly,1,1,na,na
2nd innings,12.1,Yashpal Singh,AM Nayar,SC Ganguly,0,0,na,"{'fielders': ['DJ Bravo'], 'kind': 'caught', 'player_out': 'SC Ganguly'}"
2nd innings,12.2,AN Ghosh,AM Nayar,Yashpal Singh,1,1,na,na
2nd innings,12.3,Yashpal Singh,AM Nayar,AN Ghosh,0,0,na,"{'fielders': ['SR Tendulkar'], 'kind': 'caught', 'player_out': 'AN Ghosh'}"
2nd innings,12.4,Yashpal Singh,AM Nayar,LR Shukla,0,0,na,na
2nd innings,12.5,Yashpal Singh,AM Nayar,LR Shukla,0,0,na,na
2nd innings,12.6,Yashpal Singh,AM Nayar,LR Shukla,0,0,na,na
2nd innings,13.1,LR Shukla,DJ Bravo,Yashpal Singh,2,2,na,na
2nd innings,13.2,LR Shukla,DJ Bravo,Yashpal Singh,0,0,na,"{'fielders': ['PR Shah'], 'kind': 'caught', 'player_out': 'Yashpal Singh'}"
2nd innings,13.3,LR Shukla,DJ Bravo,I Sharma,1,1,na,na
2nd innings,13.4,I Sharma,DJ Bravo,LR Shukla,0,0,na,na
2nd innings,13.5,I Sharma,DJ Bravo,LR Shukla,0,0,na,na
2nd innings,13.6,I Sharma,DJ Bravo,LR Shukla,4,4,na,na
2nd innings,14.1,LR Shukla,Z Khan,I Sharma,1,1,na,na
2nd innings,14.2,I Sharma,Z Khan,LR Shukla,0,0,na,na
2nd innings,14.3,I Sharma,Z Khan,LR Shukla,2,2,na,na
2nd innings,14.4,I Sharma,Z Khan,LR Shukla,0,0,na,na
2nd innings,14.5,I Sharma,Z Khan,LR Shukla,0,0,na,"{'fielders': ['ST Jayasuriya'], 'kind': 'caught', 'player_out': 'LR Shukla'}"
2nd innings,14.6,BAW Mendis,Z Khan,I Sharma,4,4,na,na
2nd innings,15.1,I Sharma,SL Malinga,BAW Mendis,0,0,na,"{'kind': 'bowled', 'player_out': 'BAW Mendis'}"
2nd innings,15.2,I Sharma,SL Malinga,AB Dinda,0,0,na,"{'kind': 'bowled', 'player_out': 'AB Dinda'}"
