innings,deliveries,non_striker,bowler,batsman,total_runs,batsman_runs,extras,wickets
1st innings,0.1,SR Tendulkar,P Kumar,ST Jayasuriya,0,0,na,na
1st innings,0.2,SR Tendulkar,P Kumar,ST Jayasuriya,0,0,na,na
1st innings,0.3,SR Tendulkar,P Kumar,ST Jayasuriya,0,0,na,na
1st innings,0.4,SR Tendulkar,P Kumar,ST Jayasuriya,0,0,na,na
1st innings,0.5,SR Tendulkar,P Kumar,ST Jayasuriya,0,0,na,na
1st innings,0.6,SR Tendulkar,P Kumar,ST Jayasuriya,0,0,na,na
1st innings,1.1,ST Jayasuriya,JH Kallis,SR Tendulkar,1,1,na,na
1st innings,1.2,SR Tendulkar,JH Kallis,ST Jayasuriya,3,0,{'wides': 3},na
1st innings,1.3,SR Tendulkar,JH Kallis,ST Jayasuriya,4,4,na,na
1st innings,1.4,SR Tendulkar,JH Kallis,ST Jayasuriya,0,0,na,na
1st innings,1.5,SR Tendulkar,JH Kallis,ST Jayasuriya,2,2,na,na
1st innings,1.6,SR Tendulkar,JH Kallis,ST Jayasuriya,1,1,na,na
1st innings,1.7,ST Jayasuriya,JH Kallis,SR Tendulkar,1,1,na,na
1st innings,2.1,ST Jayasuriya,P Kumar,SR Tendulkar,4,4,na,na
1st innings,2.2,ST Jayasuriya,P Kumar,SR Tendulkar,0,0,na,na
1st innings,2.3,ST Jayasuriya,P Kumar,SR Tendulkar,0,0,na,na
1st innings,2.4,ST Jayasuriya,P Kumar,SR Tendulkar,0,0,na,na
1st innings,2.5,ST Jayasuriya,P Kumar,SR Tendulkar,4,4,na,na
1st innings,2.6,ST Jayasuriya,P Kumar,SR Tendulkar,1,1,na,na
1st innings,3.1,ST Jayasuriya,D du Preez,SR Tendulkar,0,0,na,na
1st innings,3.2,ST Jayasuriya,D du Preez,SR Tendulkar,0,0,na,na
1st innings,3.3,ST Jayasuriya,D du Preez,SR Tendulkar,0,0,na,"{'fielders': ['R Dravid'], 'kind': 'caught', 'player_out': 'SR Tendulkar'}"
1st innings,3.4,ST Jayasuriya,D du Preez,AM Rahane,0,0,na,"{'fielders': ['RV Uthappa'], 'kind': 'caught', 'player_out': 'AM Rahane'}"
1st innings,3.5,ST Jayasuriya,D du Preez,JP Duminy,0,0,na,na
1st innings,3.6,ST Jayasuriya,D du Preez,JP Duminy,0,0,na,na
1st innings,4.1,JP Duminy,JH Kallis,ST Jayasuriya,0,0,na,na
1st innings,4.2,JP Duminy,JH Kallis,ST Jayasuriya,0,0,na,na
1st innings,4.3,JP Duminy,JH Kallis,ST Jayasuriya,0,0,na,na
1st innings,4.4,JP Duminy,JH Kallis,ST Jayasuriya,1,1,na,na
1st innings,4.5,ST Jayasuriya,JH Kallis,JP Duminy,0,0,na,na
1st innings,4.6,ST Jayasuriya,JH Kallis,JP Duminy,1,1,na,na
1st innings,5.1,ST Jayasuriya,D du Preez,JP Duminy,0,0,na,na
1st innings,5.2,ST Jayasuriya,D du Preez,JP Duminy,0,0,na,"{'fielders': ['MV Boucher'], 'kind': 'caught', 'player_out': 'JP Duminy'}"
1st innings,5.3,ST Jayasuriya,D du Preez,DJ Bravo,1,1,na,na
1st innings,5.4,DJ Bravo,D du Preez,ST Jayasuriya,0,0,na,na
1st innings,5.5,DJ Bravo,D du Preez,ST Jayasuriya,0,0,na,na
1st innings,5.6,DJ Bravo,D du Preez,ST Jayasuriya,1,1,na,na
1st innings,6.1,DJ Bravo,JH Kallis,ST Jayasuriya,0,0,na,na
1st innings,6.2,DJ Bravo,JH Kallis,ST Jayasuriya,1,1,na,na
1st innings,6.3,ST Jayasuriya,JH Kallis,DJ Bravo,0,0,na,na
1st innings,6.4,ST Jayasuriya,JH Kallis,DJ Bravo,1,1,na,na
1st innings,6.5,DJ Bravo,JH Kallis,ST Jayasuriya,1,1,na,na
1st innings,6.6,ST Jayasuriya,JH Kallis,DJ Bravo,0,0,na,na
1st innings,7.1,DJ Bravo,D du Preez,ST Jayasuriya,3,3,na,na
1st innings,7.2,ST Jayasuriya,D du Preez,DJ Bravo,0,0,na,na
1st innings,7.3,ST Jayasuriya,D du Preez,DJ Bravo,0,0,na,na
1st innings,7.4,ST Jayasuriya,D du Preez,DJ Bravo,1,1,na,na
1st innings,7.5,DJ Bravo,D du Preez,ST Jayasuriya,4,4,na,na
1st innings,7.6,DJ Bravo,D du Preez,ST Jayasuriya,6,6,na,na
1st innings,8.1,ST Jayasuriya,JH Kallis,DJ Bravo,0,0,na,na
1st innings,8.2,ST Jayasuriya,JH Kallis,DJ Bravo,0,0,na,na
1st innings,8.3,ST Jayasuriya,JH Kallis,DJ Bravo,1,1,na,na
1st innings,8.4,DJ Bravo,JH Kallis,ST Jayasuriya,4,4,na,na
1st innings,8.5,DJ Bravo,JH Kallis,ST Jayasuriya,0,0,na,na
1st innings,8.6,DJ Bravo,JH Kallis,ST Jayasuriya,1,1,na,na
1st innings,9.1,DJ Bravo,R Vinay Kumar,ST Jayasuriya,0,0,na,na
1st innings,9.2,DJ Bravo,R Vinay Kumar,ST Jayasuriya,4,4,na,na
1st innings,9.3,DJ Bravo,R Vinay Kumar,ST Jayasuriya,1,1,na,na
1st innings,9.4,ST Jayasuriya,R Vinay Kumar,DJ Bravo,0,0,na,na
1st innings,9.5,ST Jayasuriya,R Vinay Kumar,DJ Bravo,0,0,na,na
1st innings,9.6,ST Jayasuriya,R Vinay Kumar,DJ Bravo,0,0,na,na
1st innings,10.1,DJ Bravo,A Kumble,ST Jayasuriya,3,3,na,na
1st innings,10.2,ST Jayasuriya,A Kumble,DJ Bravo,2,2,na,na
1st innings,10.3,ST Jayasuriya,A Kumble,DJ Bravo,1,1,na,na
1st innings,10.4,DJ Bravo,A Kumble,ST Jayasuriya,1,1,na,na
1st innings,10.5,ST Jayasuriya,A Kumble,DJ Bravo,0,0,na,na
1st innings,10.6,ST Jayasuriya,A Kumble,DJ Bravo,1,1,na,na
1st innings,11.1,ST Jayasuriya,R Vinay Kumar,DJ Bravo,1,1,na,na
1st innings,11.2,DJ Bravo,R Vinay Kumar,ST Jayasuriya,1,1,na,na
1st innings,11.3,ST Jayasuriya,R Vinay Kumar,DJ Bravo,1,1,na,na
1st innings,11.4,DJ Bravo,R Vinay Kumar,ST Jayasuriya,1,1,na,na
1st innings,11.5,ST Jayasuriya,R Vinay Kumar,DJ Bravo,1,1,na,na
1st innings,11.6,DJ Bravo,R Vinay Kumar,ST Jayasuriya,1,1,na,na
1st innings,12.1,DJ Bravo,A Kumble,ST Jayasuriya,4,4,na,na
1st innings,12.2,DJ Bravo,A Kumble,ST Jayasuriya,0,0,na,na
1st innings,12.3,DJ Bravo,A Kumble,ST Jayasuriya,0,0,na,na
1st innings,12.4,DJ Bravo,A Kumble,ST Jayasuriya,1,1,na,na
1st innings,12.5,ST Jayasuriya,A Kumble,DJ Bravo,1,1,na,na
1st innings,12.6,DJ Bravo,A Kumble,ST Jayasuriya,4,4,na,na
1st innings,13.1,ST Jayasuriya,P Kumar,DJ Bravo,1,1,na,na
1st innings,13.2,DJ Bravo,P Kumar,ST Jayasuriya,1,1,na,na
1st innings,13.3,ST Jayasuriya,P Kumar,DJ Bravo,2,2,na,na
1st innings,13.4,ST Jayasuriya,P Kumar,DJ Bravo,1,1,na,na
1st innings,13.5,DJ Bravo,P Kumar,ST Jayasuriya,0,0,na,na
1st innings,13.6,DJ Bravo,P Kumar,ST Jayasuriya,1,1,na,na
1st innings,14.1,DJ Bravo,RE van der Merwe,ST Jayasuriya,0,0,na,"{'fielders': ['R Vinay Kumar'], 'kind': 'caught', 'player_out': 'ST Jayasuriya'}"
1st innings,14.2,AM Nayar,RE van der Merwe,DJ Bravo,1,1,na,na
1st innings,14.3,DJ Bravo,RE van der Merwe,AM Nayar,0,0,na,na
1st innings,14.4,DJ Bravo,RE van der Merwe,AM Nayar,2,2,na,na
1st innings,14.5,DJ Bravo,RE van der Merwe,AM Nayar,0,0,na,na
1st innings,14.6,DJ Bravo,RE van der Merwe,AM Nayar,0,0,na,na
1st innings,15.1,AM Nayar,R Vinay Kumar,DJ Bravo,0,0,na,na
1st innings,15.2,AM Nayar,R Vinay Kumar,DJ Bravo,1,1,na,na
1st innings,15.3,DJ Bravo,R Vinay Kumar,AM Nayar,0,0,na,na
1st innings,15.4,DJ Bravo,R Vinay Kumar,AM Nayar,4,4,na,na
1st innings,15.5,DJ Bravo,R Vinay Kumar,AM Nayar,2,2,na,na
1st innings,15.6,DJ Bravo,R Vinay Kumar,AM Nayar,1,1,na,na
1st innings,16.1,DJ Bravo,RE van der Merwe,AM Nayar,0,0,na,na
1st innings,16.2,DJ Bravo,RE van der Merwe,AM Nayar,1,1,na,na
1st innings,16.3,AM Nayar,RE van der Merwe,DJ Bravo,1,1,na,na
1st innings,16.4,DJ Bravo,RE van der Merwe,AM Nayar,1,0,{'legbyes': 1},na
1st innings,16.5,AM Nayar,RE van der Merwe,DJ Bravo,2,2,na,na
1st innings,16.6,AM Nayar,RE van der Merwe,DJ Bravo,2,2,na,na
1st innings,17.1,DJ Bravo,R Vinay Kumar,AM Nayar,1,0,{'legbyes': 1},na
1st innings,17.2,AM Nayar,R Vinay Kumar,DJ Bravo,4,4,na,na
1st innings,17.3,AM Nayar,R Vinay Kumar,DJ Bravo,2,2,na,na
1st innings,17.4,AM Nayar,R Vinay Kumar,DJ Bravo,1,1,na,na
1st innings,17.5,DJ Bravo,R Vinay Kumar,AM Nayar,2,2,na,na
1st innings,17.6,DJ Bravo,R Vinay Kumar,AM Nayar,4,4,na,na
1st innings,18.1,AM Nayar,RE van der Merwe,DJ Bravo,2,2,na,na
1st innings,18.2,AM Nayar,RE van der Merwe,DJ Bravo,2,2,na,na
1st innings,18.3,AM Nayar,RE van der Merwe,DJ Bravo,1,1,na,na
1st innings,18.4,DJ Bravo,RE van der Merwe,AM Nayar,1,1,na,na
1st innings,18.5,AM Nayar,RE van der Merwe,DJ Bravo,6,6,na,na
1st innings,18.6,AM Nayar,RE van der Merwe,DJ Bravo,6,6,na,na
1st innings,19.1,DJ Bravo,D du Preez,AM Nayar,4,4,na,na
1st innings,19.2,DJ Bravo,D du Preez,AM Nayar,4,4,na,na
1st innings,19.3,DJ Bravo,D du Preez,AM Nayar,1,1,na,na
1st innings,19.4,AM Nayar,D du Preez,DJ Bravo,2,2,na,na
1st innings,19.5,AM Nayar,D du Preez,DJ Bravo,1,1,na,na
1st innings,19.6,DJ Bravo,D du Preez,AM Nayar,3,2,{'noballs': 1},na
1st innings,19.7,DJ Bravo,D du Preez,AM Nayar,1,1,na,na
2nd innings,0.1,W Jaffer,Z Khan,JH Kallis,0,0,na,na
2nd innings,0.2,W Jaffer,Z Khan,JH Kallis,1,0,{'wides': 1},na
2nd innings,0.3,W Jaffer,Z Khan,JH Kallis,0,0,na,na
2nd innings,0.4,W Jaffer,Z Khan,JH Kallis,0,0,na,na
2nd innings,0.5,W Jaffer,Z Khan,JH Kallis,4,4,na,na
2nd innings,0.6,W Jaffer,Z Khan,JH Kallis,4,4,na,na
2nd innings,0.7,W Jaffer,Z Khan,JH Kallis,0,0,na,na
2nd innings,1.1,JH Kallis,DJ Bravo,W Jaffer,1,0,{'wides': 1},na
2nd innings,1.2,JH Kallis,DJ Bravo,W Jaffer,4,4,na,na
2nd innings,1.3,JH Kallis,DJ Bravo,W Jaffer,1,1,na,na
2nd innings,1.4,W Jaffer,DJ Bravo,JH Kallis,2,2,na,na
2nd innings,1.5,W Jaffer,DJ Bravo,JH Kallis,0,0,na,na
2nd innings,1.6,W Jaffer,DJ Bravo,JH Kallis,4,4,na,na
2nd innings,1.7,W Jaffer,DJ Bravo,JH Kallis,0,0,na,na
2nd innings,2.1,JH Kallis,Z Khan,W Jaffer,0,0,na,na
2nd innings,2.2,JH Kallis,Z Khan,W Jaffer,1,0,{'wides': 1},na
2nd innings,2.3,JH Kallis,Z Khan,W Jaffer,0,0,na,na
2nd innings,2.4,JH Kallis,Z Khan,W Jaffer,0,0,na,na
2nd innings,2.5,JH Kallis,Z Khan,W Jaffer,0,0,na,na
2nd innings,2.6,JH Kallis,Z Khan,W Jaffer,2,2,na,na
2nd innings,2.7,JH Kallis,Z Khan,W Jaffer,0,0,na,"{'fielders': ['AM Nayar'], 'kind': 'caught', 'player_out': 'W Jaffer'}"
2nd innings,3.1,RV Uthappa,SL Malinga,JH Kallis,6,6,na,na
2nd innings,3.2,RV Uthappa,SL Malinga,JH Kallis,0,0,na,na
2nd innings,3.3,RV Uthappa,SL Malinga,JH Kallis,6,6,na,na
2nd innings,3.4,RV Uthappa,SL Malinga,JH Kallis,1,1,na,na
2nd innings,3.5,JH Kallis,SL Malinga,RV Uthappa,0,0,na,na
2nd innings,3.6,JH Kallis,SL Malinga,RV Uthappa,4,4,na,na
2nd innings,4.1,RV Uthappa,AM Nayar,JH Kallis,0,0,na,na
2nd innings,4.2,RV Uthappa,AM Nayar,JH Kallis,2,2,na,na
2nd innings,4.3,RV Uthappa,AM Nayar,JH Kallis,4,4,na,na
2nd innings,4.4,RV Uthappa,AM Nayar,JH Kallis,4,4,na,na
2nd innings,4.5,RV Uthappa,AM Nayar,JH Kallis,0,0,na,na
2nd innings,4.6,RV Uthappa,AM Nayar,JH Kallis,0,0,na,na
2nd innings,5.1,JH Kallis,SL Malinga,RV Uthappa,0,0,na,na
2nd innings,5.2,JH Kallis,SL Malinga,RV Uthappa,0,0,na,na
2nd innings,5.3,JH Kallis,SL Malinga,RV Uthappa,0,0,na,na
2nd innings,5.4,JH Kallis,SL Malinga,RV Uthappa,0,0,na,na
2nd innings,5.5,JH Kallis,SL Malinga,RV Uthappa,0,0,na,na
2nd innings,5.6,JH Kallis,SL Malinga,RV Uthappa,0,0,na,na
2nd innings,6.1,RV Uthappa,AM Nayar,JH Kallis,1,1,na,na
2nd innings,6.2,JH Kallis,AM Nayar,RV Uthappa,0,0,na,na
2nd innings,6.3,JH Kallis,AM Nayar,RV Uthappa,1,0,{'wides': 1},na
2nd innings,6.4,JH Kallis,AM Nayar,RV Uthappa,1,1,na,na
2nd innings,6.5,RV Uthappa,AM Nayar,JH Kallis,0,0,na,na
2nd innings,6.6,RV Uthappa,AM Nayar,JH Kallis,0,0,na,na
2nd innings,6.7,RV Uthappa,AM Nayar,JH Kallis,0,0,na,na
2nd innings,7.1,JH Kallis,Harbhajan Singh,RV Uthappa,0,0,na,na
2nd innings,7.2,JH Kallis,Harbhajan Singh,RV Uthappa,4,4,na,na
2nd innings,7.3,JH Kallis,Harbhajan Singh,RV Uthappa,1,1,na,na
2nd innings,7.4,RV Uthappa,Harbhajan Singh,JH Kallis,2,2,na,na
2nd innings,7.5,RV Uthappa,Harbhajan Singh,JH Kallis,0,0,na,na
2nd innings,7.6,RV Uthappa,Harbhajan Singh,JH Kallis,1,1,na,na
2nd innings,8.1,RV Uthappa,AM Nayar,JH Kallis,1,1,na,na
2nd innings,8.2,JH Kallis,AM Nayar,RV Uthappa,1,1,na,na
2nd innings,8.3,RV Uthappa,AM Nayar,JH Kallis,1,0,{'wides': 1},na
2nd innings,8.4,RV Uthappa,AM Nayar,JH Kallis,1,0,{'wides': 1},na
2nd innings,8.5,RV Uthappa,AM Nayar,JH Kallis,1,1,na,na
2nd innings,8.6,JH Kallis,AM Nayar,RV Uthappa,1,1,na,na
2nd innings,8.7,RV Uthappa,AM Nayar,JH Kallis,0,0,na,na
2nd innings,8.8,RV Uthappa,AM Nayar,JH Kallis,0,0,na,na
2nd innings,9.1,JH Kallis,Harbhajan Singh,RV Uthappa,0,0,na,na
2nd innings,9.2,JH Kallis,Harbhajan Singh,RV Uthappa,0,0,na,na
2nd innings,9.3,JH Kallis,Harbhajan Singh,RV Uthappa,4,4,na,na
2nd innings,9.4,JH Kallis,Harbhajan Singh,RV Uthappa,1,1,na,na
2nd innings,9.5,RV Uthappa,Harbhajan Singh,JH Kallis,0,0,na,na
2nd innings,9.6,RV Uthappa,Harbhajan Singh,JH Kallis,1,1,na,na
2nd innings,10.1,RV Uthappa,AM Nayar,JH Kallis,1,0,{'wides': 1},na
2nd innings,10.2,RV Uthappa,AM Nayar,JH Kallis,2,2,na,na
2nd innings,10.3,RV Uthappa,AM Nayar,JH Kallis,0,0,na,na
2nd innings,10.4,RV Uthappa,AM Nayar,JH Kallis,1,1,na,na
2nd innings,10.5,JH Kallis,AM Nayar,RV Uthappa,2,2,na,na
2nd innings,10.6,JH Kallis,AM Nayar,RV Uthappa,0,0,na,na
2nd innings,10.7,JH Kallis,AM Nayar,RV Uthappa,1,1,na,na
2nd innings,11.1,JH Kallis,SR Tendulkar,RV Uthappa,2,2,na,na
2nd innings,11.2,JH Kallis,SR Tendulkar,RV Uthappa,0,0,na,na
2nd innings,11.3,JH Kallis,SR Tendulkar,RV Uthappa,0,0,na,na
2nd innings,11.4,JH Kallis,SR Tendulkar,RV Uthappa,2,2,na,na
2nd innings,11.5,JH Kallis,SR Tendulkar,RV Uthappa,1,1,na,na
2nd innings,11.6,RV Uthappa,SR Tendulkar,JH Kallis,1,1,na,na
2nd innings,12.1,RV Uthappa,DJ Bravo,JH Kallis,1,1,na,na
2nd innings,12.2,JH Kallis,DJ Bravo,RV Uthappa,1,1,na,na
2nd innings,12.3,RV Uthappa,DJ Bravo,JH Kallis,2,2,na,na
2nd innings,12.4,RV Uthappa,DJ Bravo,JH Kallis,0,0,na,na
2nd innings,12.5,RV Uthappa,DJ Bravo,JH Kallis,0,0,na,na
2nd innings,12.6,RV Uthappa,DJ Bravo,JH Kallis,1,1,na,na
2nd innings,13.1,RV Uthappa,SR Tendulkar,JH Kallis,1,1,na,na
2nd innings,13.2,JH Kallis,SR Tendulkar,RV Uthappa,4,4,na,na
2nd innings,13.3,JH Kallis,SR Tendulkar,RV Uthappa,1,1,na,na
2nd innings,13.4,RV Uthappa,SR Tendulkar,JH Kallis,1,1,na,na
2nd innings,13.5,JH Kallis,SR Tendulkar,RV Uthappa,4,4,na,na
2nd innings,13.6,JH Kallis,SR Tendulkar,RV Uthappa,4,4,na,na
2nd innings,14.1,RV Uthappa,DJ Bravo,JH Kallis,1,1,na,na
2nd innings,14.2,JH Kallis,DJ Bravo,RV Uthappa,6,6,na,na
2nd innings,14.3,JH Kallis,DJ Bravo,RV Uthappa,1,1,na,na
2nd innings,14.4,RV Uthappa,DJ Bravo,JH Kallis,1,1,na,na
2nd innings,14.5,JH Kallis,DJ Bravo,RV Uthappa,2,2,na,na
2nd innings,14.6,JH Kallis,DJ Bravo,RV Uthappa,4,4,na,na
2nd innings,15.1,RV Uthappa,ST Jayasuriya,JH Kallis,2,2,na,na
2nd innings,15.2,RV Uthappa,ST Jayasuriya,JH Kallis,0,0,na,na
2nd innings,15.3,RV Uthappa,ST Jayasuriya,JH Kallis,1,1,na,na
2nd innings,15.4,JH Kallis,ST Jayasuriya,RV Uthappa,1,1,na,na
2nd innings,15.5,RV Uthappa,ST Jayasuriya,JH Kallis,0,0,na,na
2nd innings,15.6,RV Uthappa,ST Jayasuriya,JH Kallis,1,1,na,na
2nd innings,16.1,RV Uthappa,SL Malinga,JH Kallis,1,1,na,na
2nd innings,16.2,JH Kallis,SL Malinga,RV Uthappa,1,0,{'legbyes': 1},na
2nd innings,16.3,RV Uthappa,SL Malinga,JH Kallis,3,3,na,na
2nd innings,16.4,JH Kallis,SL Malinga,RV Uthappa,1,1,na,na
2nd innings,16.5,RV Uthappa,SL Malinga,JH Kallis,0,0,na,na
2nd innings,16.6,RV Uthappa,SL Malinga,JH Kallis,1,1,na,na
2nd innings,17.1,RV Uthappa,ST Jayasuriya,JH Kallis,2,2,na,na
2nd innings,17.2,RV Uthappa,ST Jayasuriya,JH Kallis,0,0,na,na
2nd innings,17.3,RV Uthappa,ST Jayasuriya,JH Kallis,1,1,na,na
2nd innings,17.4,JH Kallis,ST Jayasuriya,RV Uthappa,2,2,na,na
2nd innings,17.5,JH Kallis,ST Jayasuriya,RV Uthappa,4,4,na,na
2nd innings,17.6,JH Kallis,ST Jayasuriya,RV Uthappa,6,6,na,na
2nd innings,18.1,RV Uthappa,SL Malinga,JH Kallis,1,1,na,na
