innings,deliveries,non_striker,bowler,batsman,total_runs,batsman_runs,extras,wickets
1st innings,0.1,PA Patel,B Lee,GJ Bailey,0,0,na,na
1st innings,0.2,PA Patel,B Lee,GJ Bailey,0,0,na,na
1st innings,0.3,PA Patel,B Lee,GJ Bailey,1,1,na,na
1st innings,0.4,GJ Bailey,B Lee,PA Patel,1,1,na,na
1st innings,0.5,PA Patel,B Lee,GJ Bailey,0,0,na,na
1st innings,0.6,PA Patel,B Lee,GJ Bailey,4,4,na,na
1st innings,1.1,GJ Bailey,IK Pathan,PA Patel,4,4,na,na
1st innings,1.2,GJ Bailey,IK Pathan,PA Patel,0,0,na,na
1st innings,1.3,GJ Bailey,IK Pathan,PA Patel,1,1,na,na
1st innings,1.4,PA Patel,IK Pathan,GJ Bailey,1,1,na,na
1st innings,1.5,GJ Bailey,IK Pathan,PA Patel,1,1,na,na
1st innings,1.6,PA Patel,IK Pathan,GJ Bailey,4,4,na,na
1st innings,2.1,GJ Bailey,B Lee,PA Patel,0,0,na,na
1st innings,2.2,GJ Bailey,B Lee,PA Patel,1,1,na,na
1st innings,2.3,PA Patel,B Lee,GJ Bailey,1,1,na,na
1st innings,2.4,GJ Bailey,B Lee,PA Patel,1,1,na,na
1st innings,2.5,PA Patel,B Lee,GJ Bailey,4,4,na,na
1st innings,2.6,PA Patel,B Lee,GJ Bailey,0,0,na,na
1st innings,3.1,GJ Bailey,IK Pathan,PA Patel,4,4,na,na
1st innings,3.2,GJ Bailey,IK Pathan,PA Patel,0,0,na,na
1st innings,3.3,GJ Bailey,IK Pathan,PA Patel,0,0,na,na
1st innings,3.4,GJ Bailey,IK Pathan,PA Patel,6,6,na,na
1st innings,3.5,GJ Bailey,IK Pathan,PA Patel,1,1,na,na
1st innings,3.6,PA Patel,IK Pathan,GJ Bailey,0,0,na,na
1st innings,4.1,GJ Bailey,RR Powar,PA Patel,0,0,na,na
1st innings,4.2,GJ Bailey,RR Powar,PA Patel,4,4,na,na
1st innings,4.3,GJ Bailey,RR Powar,PA Patel,0,0,na,na
1st innings,4.4,GJ Bailey,RR Powar,PA Patel,1,1,na,na
1st innings,4.5,PA Patel,RR Powar,GJ Bailey,0,0,na,"{'fielders': ['Yuvraj Singh'], 'kind': 'run out', 'player_out': 'GJ Bailey'}"
1st innings,4.6,SK Raina,RR Powar,PA Patel,4,4,na,na
1st innings,5.1,PA Patel,S Sreesanth,SK Raina,4,4,na,na
1st innings,5.2,PA Patel,S Sreesanth,SK Raina,1,1,na,na
1st innings,5.3,SK Raina,S Sreesanth,PA Patel,0,0,na,na
1st innings,5.4,SK Raina,S Sreesanth,PA Patel,1,1,na,na
1st innings,5.5,PA Patel,S Sreesanth,SK Raina,0,0,na,na
1st innings,5.6,PA Patel,S Sreesanth,SK Raina,0,0,na,na
1st innings,6.1,SK Raina,RR Powar,PA Patel,1,1,na,na
1st innings,6.2,PA Patel,RR Powar,SK Raina,1,1,na,na
1st innings,6.3,SK Raina,RR Powar,PA Patel,1,1,na,na
1st innings,6.4,PA Patel,RR Powar,SK Raina,1,1,na,na
1st innings,6.5,SK Raina,RR Powar,PA Patel,0,0,na,"{'kind': 'bowled', 'player_out': 'PA Patel'}"
1st innings,6.6,SK Raina,RR Powar,S Badrinath,0,0,na,na
1st innings,7.1,S Badrinath,S Sreesanth,SK Raina,0,0,na,na
1st innings,7.2,S Badrinath,S Sreesanth,SK Raina,0,0,na,na
1st innings,7.3,S Badrinath,S Sreesanth,SK Raina,1,0,{'wides': 1},na
1st innings,7.4,S Badrinath,S Sreesanth,SK Raina,4,4,na,na
1st innings,7.5,S Badrinath,S Sreesanth,SK Raina,1,1,na,na
1st innings,7.6,SK Raina,S Sreesanth,S Badrinath,0,0,na,na
1st innings,7.7,SK Raina,S Sreesanth,S Badrinath,1,1,na,na
1st innings,8.1,SK Raina,RR Powar,S Badrinath,0,0,na,na
1st innings,8.2,SK Raina,RR Powar,S Badrinath,1,0,{'legbyes': 1},na
1st innings,8.3,S Badrinath,RR Powar,SK Raina,1,1,na,na
1st innings,8.4,SK Raina,RR Powar,S Badrinath,1,1,na,na
1st innings,8.5,S Badrinath,RR Powar,SK Raina,1,1,na,na
1st innings,8.6,SK Raina,RR Powar,S Badrinath,0,0,na,na
1st innings,9.1,S Badrinath,S Sreesanth,SK Raina,1,1,na,na
1st innings,9.2,SK Raina,S Sreesanth,S Badrinath,2,2,na,na
1st innings,9.3,SK Raina,S Sreesanth,S Badrinath,0,0,na,"{'fielders': ['IK Pathan'], 'kind': 'caught', 'player_out': 'S Badrinath'}"
1st innings,9.4,SK Raina,S Sreesanth,MS Dhoni,2,2,na,na
1st innings,9.5,SK Raina,S Sreesanth,MS Dhoni,0,0,na,"{'kind': 'bowled', 'player_out': 'MS Dhoni'}"
1st innings,9.6,SK Raina,S Sreesanth,JDP Oram,0,0,na,na
1st innings,10.1,JDP Oram,RR Powar,SK Raina,1,1,na,na
1st innings,10.2,SK Raina,RR Powar,JDP Oram,0,0,na,na
1st innings,10.3,SK Raina,RR Powar,JDP Oram,1,1,na,na
1st innings,10.4,JDP Oram,RR Powar,SK Raina,0,0,na,na
1st innings,10.5,JDP Oram,RR Powar,SK Raina,1,1,na,na
1st innings,10.6,SK Raina,RR Powar,JDP Oram,1,0,{'legbyes': 1},na
1st innings,11.1,SK Raina,S Sreesanth,JDP Oram,0,0,na,na
1st innings,11.2,SK Raina,S Sreesanth,JDP Oram,4,4,na,na
1st innings,11.3,SK Raina,S Sreesanth,JDP Oram,0,0,na,na
1st innings,11.4,SK Raina,S Sreesanth,JDP Oram,0,0,na,na
1st innings,11.5,SK Raina,S Sreesanth,JDP Oram,1,1,na,na
1st innings,11.6,JDP Oram,S Sreesanth,SK Raina,0,0,na,na
1st innings,12.1,SK Raina,PP Chawla,JDP Oram,2,2,na,na
1st innings,12.2,SK Raina,PP Chawla,JDP Oram,1,1,na,na
1st innings,12.3,JDP Oram,PP Chawla,SK Raina,1,1,na,na
1st innings,12.4,SK Raina,PP Chawla,JDP Oram,0,0,na,na
1st innings,12.5,SK Raina,PP Chawla,JDP Oram,1,1,na,na
1st innings,12.6,JDP Oram,PP Chawla,SK Raina,1,1,na,na
1st innings,13.1,JDP Oram,WA Mota,SK Raina,1,1,na,na
1st innings,13.2,SK Raina,WA Mota,JDP Oram,1,1,na,na
1st innings,13.3,JDP Oram,WA Mota,SK Raina,0,0,na,"{'fielders': ['B Lee'], 'kind': 'caught', 'player_out': 'SK Raina'}"
1st innings,13.4,JDP Oram,WA Mota,MS Gony,0,0,na,na
1st innings,13.5,JDP Oram,WA Mota,MS Gony,1,1,na,na
1st innings,13.6,MS Gony,WA Mota,JDP Oram,1,1,na,na
1st innings,14.1,MS Gony,PP Chawla,JDP Oram,1,1,na,na
1st innings,14.2,JDP Oram,PP Chawla,MS Gony,6,6,na,na
1st innings,14.3,JDP Oram,PP Chawla,MS Gony,0,0,na,na
1st innings,14.4,JDP Oram,PP Chawla,MS Gony,0,0,na,"{'kind': 'bowled', 'player_out': 'MS Gony'}"
1st innings,14.5,JDP Oram,PP Chawla,R Ashwin,0,0,na,na
1st innings,14.6,JDP Oram,PP Chawla,R Ashwin,0,0,na,na
1st innings,15.1,R Ashwin,WA Mota,JDP Oram,1,1,na,na
1st innings,15.2,JDP Oram,WA Mota,R Ashwin,0,0,na,na
1st innings,15.3,JDP Oram,WA Mota,R Ashwin,0,0,na,na
1st innings,15.4,JDP Oram,WA Mota,R Ashwin,1,1,na,na
1st innings,15.5,R Ashwin,WA Mota,JDP Oram,1,1,na,na
1st innings,15.6,JDP Oram,WA Mota,R Ashwin,1,1,na,na
1st innings,16.1,JDP Oram,B Lee,R Ashwin,1,1,na,na
1st innings,16.2,R Ashwin,B Lee,JDP Oram,1,1,na,na
1st innings,16.3,JDP Oram,B Lee,R Ashwin,0,0,na,na
1st innings,16.4,JDP Oram,B Lee,R Ashwin,0,0,na,na
1st innings,16.5,JDP Oram,B Lee,R Ashwin,0,0,na,na
1st innings,16.6,JDP Oram,B Lee,R Ashwin,0,0,na,na
1st innings,17.1,R Ashwin,IK Pathan,JDP Oram,1,0,{'wides': 1},na
1st innings,17.2,R Ashwin,IK Pathan,JDP Oram,1,1,na,na
1st innings,17.3,JDP Oram,IK Pathan,R Ashwin,0,0,na,na
1st innings,17.4,JDP Oram,IK Pathan,R Ashwin,1,1,na,na
1st innings,17.5,R Ashwin,IK Pathan,JDP Oram,0,0,na,"{'kind': 'caught and bowled', 'player_out': 'JDP Oram'}"
1st innings,17.6,T Thushara,IK Pathan,R Ashwin,4,4,na,na
1st innings,17.7,T Thushara,IK Pathan,R Ashwin,0,0,na,"{'fielders': ['LA Pomersbach'], 'kind': 'caught', 'player_out': 'R Ashwin'}"
1st innings,18.1,T Thushara,B Lee,L Balaji,0,0,na,na
1st innings,18.2,T Thushara,B Lee,L Balaji,1,1,na,na
1st innings,18.3,L Balaji,B Lee,T Thushara,0,0,na,na
1st innings,18.4,L Balaji,B Lee,T Thushara,0,0,na,na
1st innings,18.5,L Balaji,B Lee,T Thushara,0,0,na,na
1st innings,18.6,L Balaji,B Lee,T Thushara,0,0,na,na
1st innings,19.1,T Thushara,IK Pathan,L Balaji,0,0,na,na
1st innings,19.2,T Thushara,IK Pathan,L Balaji,2,0,{'byes': 2},na
1st innings,19.3,T Thushara,IK Pathan,L Balaji,1,1,na,na
1st innings,19.4,L Balaji,IK Pathan,T Thushara,1,1,na,"{'fielders': ['SM Katich', 'KC Sangakkara'], 'kind': 'run out', 'player_out': 'T Thushara'}"
1st innings,19.5,L Balaji,IK Pathan,M Muralitharan,1,1,na,na
1st innings,19.6,M Muralitharan,IK Pathan,L Balaji,1,0,{'byes': 1},na
2nd innings,0.1,SM Katich,MS Gony,S Sohal,0,0,na,na
2nd innings,0.2,SM Katich,MS Gony,S Sohal,0,0,na,na
2nd innings,0.3,SM Katich,MS Gony,S Sohal,1,1,na,na
2nd innings,0.4,S Sohal,MS Gony,SM Katich,1,1,na,na
2nd innings,0.5,SM Katich,MS Gony,S Sohal,0,0,na,na
2nd innings,0.6,SM Katich,MS Gony,S Sohal,1,1,na,na
2nd innings,1.1,SM Katich,T Thushara,S Sohal,1,1,na,na
2nd innings,1.2,S Sohal,T Thushara,SM Katich,1,1,na,na
2nd innings,1.3,SM Katich,T Thushara,S Sohal,0,0,na,na
2nd innings,1.4,SM Katich,T Thushara,S Sohal,0,0,na,na
2nd innings,1.5,SM Katich,T Thushara,S Sohal,1,0,{'wides': 1},na
2nd innings,1.6,SM Katich,T Thushara,S Sohal,0,0,na,"{'fielders': ['PA Patel'], 'kind': 'caught', 'player_out': 'S Sohal'}"
2nd innings,1.7,SM Katich,T Thushara,LA Pomersbach,0,0,na,na
2nd innings,2.1,LA Pomersbach,MS Gony,SM Katich,4,4,na,na
2nd innings,2.2,LA Pomersbach,MS Gony,SM Katich,1,1,na,na
2nd innings,2.3,SM Katich,MS Gony,LA Pomersbach,0,0,na,na
2nd innings,2.4,SM Katich,MS Gony,LA Pomersbach,0,0,na,na
2nd innings,2.5,SM Katich,MS Gony,LA Pomersbach,1,1,na,na
2nd innings,2.6,LA Pomersbach,MS Gony,SM Katich,0,0,na,na
2nd innings,3.1,SM Katich,T Thushara,LA Pomersbach,6,6,na,na
2nd innings,3.2,SM Katich,T Thushara,LA Pomersbach,0,0,na,na
2nd innings,3.3,SM Katich,T Thushara,LA Pomersbach,0,0,na,na
2nd innings,3.4,SM Katich,T Thushara,LA Pomersbach,2,2,na,na
2nd innings,3.5,SM Katich,T Thushara,LA Pomersbach,4,4,na,na
2nd innings,3.6,SM Katich,T Thushara,LA Pomersbach,1,1,na,na
2nd innings,4.1,SM Katich,M Muralitharan,LA Pomersbach,0,0,na,na
2nd innings,4.2,SM Katich,M Muralitharan,LA Pomersbach,0,0,na,na
2nd innings,4.3,SM Katich,M Muralitharan,LA Pomersbach,1,1,na,na
2nd innings,4.4,LA Pomersbach,M Muralitharan,SM Katich,0,0,na,na
2nd innings,4.5,LA Pomersbach,M Muralitharan,SM Katich,0,0,na,na
2nd innings,4.6,LA Pomersbach,M Muralitharan,SM Katich,0,0,na,na
2nd innings,5.1,SM Katich,R Ashwin,LA Pomersbach,2,2,na,na
2nd innings,5.2,SM Katich,R Ashwin,LA Pomersbach,0,0,na,na
2nd innings,5.3,SM Katich,R Ashwin,LA Pomersbach,1,1,na,na
2nd innings,5.4,LA Pomersbach,R Ashwin,SM Katich,0,0,na,na
2nd innings,5.5,LA Pomersbach,R Ashwin,SM Katich,0,0,na,na
2nd innings,5.6,LA Pomersbach,R Ashwin,SM Katich,0,0,na,na
2nd innings,6.1,SM Katich,M Muralitharan,LA Pomersbach,1,1,na,na
2nd innings,6.2,LA Pomersbach,M Muralitharan,SM Katich,1,1,na,na
2nd innings,6.3,SM Katich,M Muralitharan,LA Pomersbach,0,0,na,na
2nd innings,6.4,SM Katich,M Muralitharan,LA Pomersbach,1,1,na,na
2nd innings,6.5,LA Pomersbach,M Muralitharan,SM Katich,0,0,na,"{'kind': 'bowled', 'player_out': 'SM Katich'}"
2nd innings,6.6,LA Pomersbach,M Muralitharan,Yuvraj Singh,0,0,na,na
2nd innings,7.1,Yuvraj Singh,T Thushara,LA Pomersbach,1,1,na,na
2nd innings,7.2,LA Pomersbach,T Thushara,Yuvraj Singh,0,0,na,na
2nd innings,7.3,LA Pomersbach,T Thushara,Yuvraj Singh,1,0,{'wides': 1},na
2nd innings,7.4,LA Pomersbach,T Thushara,Yuvraj Singh,0,0,na,na
2nd innings,7.5,LA Pomersbach,T Thushara,Yuvraj Singh,0,0,na,na
2nd innings,7.6,LA Pomersbach,T Thushara,Yuvraj Singh,1,1,na,na
2nd innings,7.7,Yuvraj Singh,T Thushara,LA Pomersbach,1,1,na,na
2nd innings,8.1,Yuvraj Singh,M Muralitharan,LA Pomersbach,0,0,na,na
2nd innings,8.2,Yuvraj Singh,M Muralitharan,LA Pomersbach,0,0,na,na
2nd innings,8.3,Yuvraj Singh,M Muralitharan,LA Pomersbach,1,1,na,na
2nd innings,8.4,LA Pomersbach,M Muralitharan,Yuvraj Singh,0,0,na,na
2nd innings,8.5,LA Pomersbach,M Muralitharan,Yuvraj Singh,1,1,na,na
2nd innings,8.6,Yuvraj Singh,M Muralitharan,LA Pomersbach,0,0,na,na
2nd innings,9.1,LA Pomersbach,R Ashwin,Yuvraj Singh,1,1,na,na
2nd innings,9.2,Yuvraj Singh,R Ashwin,LA Pomersbach,0,0,na,na
2nd innings,9.3,Yuvraj Singh,R Ashwin,LA Pomersbach,1,1,na,na
2nd innings,9.4,LA Pomersbach,R Ashwin,Yuvraj Singh,1,0,{'legbyes': 1},na
2nd innings,9.5,Yuvraj Singh,R Ashwin,LA Pomersbach,1,1,na,na
2nd innings,9.6,LA Pomersbach,R Ashwin,Yuvraj Singh,0,0,na,na
2nd innings,10.1,Yuvraj Singh,SK Raina,LA Pomersbach,0,0,na,na
2nd innings,10.2,Yuvraj Singh,SK Raina,LA Pomersbach,1,0,{'legbyes': 1},na
2nd innings,10.3,LA Pomersbach,SK Raina,Yuvraj Singh,0,0,na,na
2nd innings,10.4,LA Pomersbach,SK Raina,Yuvraj Singh,0,0,na,na
2nd innings,10.5,LA Pomersbach,SK Raina,Yuvraj Singh,1,1,na,na
2nd innings,10.6,Yuvraj Singh,SK Raina,LA Pomersbach,1,1,na,na
2nd innings,11.1,Yuvraj Singh,M Muralitharan,LA Pomersbach,0,0,na,"{'fielders': ['SK Raina'], 'kind': 'caught', 'player_out': 'LA Pomersbach'}"
2nd innings,11.2,Yuvraj Singh,M Muralitharan,KC Sangakkara,1,1,na,na
2nd innings,11.3,KC Sangakkara,M Muralitharan,Yuvraj Singh,0,0,na,na
2nd innings,11.4,KC Sangakkara,M Muralitharan,Yuvraj Singh,0,0,na,na
2nd innings,11.5,KC Sangakkara,M Muralitharan,Yuvraj Singh,0,0,na,na
2nd innings,11.6,KC Sangakkara,M Muralitharan,Yuvraj Singh,1,1,na,na
2nd innings,12.1,KC Sangakkara,SK Raina,Yuvraj Singh,1,1,na,na
2nd innings,12.2,Yuvraj Singh,SK Raina,KC Sangakkara,0,0,na,na
2nd innings,12.3,Yuvraj Singh,SK Raina,KC Sangakkara,1,1,na,na
2nd innings,12.4,KC Sangakkara,SK Raina,Yuvraj Singh,0,0,na,"{'kind': 'bowled', 'player_out': 'Yuvraj Singh'}"
2nd innings,12.5,KC Sangakkara,SK Raina,WA Mota,0,0,na,na
2nd innings,12.6,KC Sangakkara,SK Raina,WA Mota,0,0,na,na
2nd innings,13.1,WA Mota,R Ashwin,KC Sangakkara,1,1,na,na
2nd innings,13.2,KC Sangakkara,R Ashwin,WA Mota,1,1,na,na
2nd innings,13.3,WA Mota,R Ashwin,KC Sangakkara,1,1,na,na
2nd innings,13.4,KC Sangakkara,R Ashwin,WA Mota,0,0,na,na
2nd innings,13.5,KC Sangakkara,R Ashwin,WA Mota,1,1,na,na
2nd innings,13.6,WA Mota,R Ashwin,KC Sangakkara,1,1,na,na
2nd innings,14.1,WA Mota,SK Raina,KC Sangakkara,1,1,na,na
2nd innings,14.2,KC Sangakkara,SK Raina,WA Mota,0,0,na,na
2nd innings,14.3,KC Sangakkara,SK Raina,WA Mota,0,0,na,na
2nd innings,14.4,KC Sangakkara,SK Raina,WA Mota,2,2,na,na
2nd innings,14.5,KC Sangakkara,SK Raina,WA Mota,1,1,na,na
2nd innings,14.6,WA Mota,SK Raina,KC Sangakkara,1,1,na,na
2nd innings,15.1,WA Mota,R Ashwin,KC Sangakkara,0,0,na,"{'kind': 'caught and bowled', 'player_out': 'KC Sangakkara'}"
2nd innings,15.2,WA Mota,R Ashwin,IK Pathan,1,1,na,na
2nd innings,15.3,IK Pathan,R Ashwin,WA Mota,0,0,na,"{'kind': 'lbw', 'player_out': 'WA Mota'}"
2nd innings,15.4,IK Pathan,R Ashwin,B Lee,0,0,na,na
2nd innings,15.5,IK Pathan,R Ashwin,B Lee,0,0,na,na
2nd innings,15.6,IK Pathan,R Ashwin,B Lee,1,1,na,na
2nd innings,16.1,IK Pathan,SK Raina,B Lee,4,4,na,na
2nd innings,16.2,IK Pathan,SK Raina,B Lee,0,0,na,na
2nd innings,16.3,IK Pathan,SK Raina,B Lee,1,1,na,na
2nd innings,16.4,B Lee,SK Raina,IK Pathan,1,1,na,na
2nd innings,16.5,IK Pathan,SK Raina,B Lee,0,0,na,"{'fielders': ['JDP Oram'], 'kind': 'caught', 'player_out': 'B Lee'}"
2nd innings,16.6,IK Pathan,SK Raina,PP Chawla,1,0,{'wides': 1},na
2nd innings,16.7,IK Pathan,SK Raina,PP Chawla,1,1,na,na
2nd innings,17.1,IK Pathan,L Balaji,PP Chawla,1,1,na,na
2nd innings,17.2,PP Chawla,L Balaji,IK Pathan,4,4,na,na
2nd innings,17.3,PP Chawla,L Balaji,IK Pathan,0,0,na,na
2nd innings,17.4,PP Chawla,L Balaji,IK Pathan,0,0,na,na
2nd innings,17.5,PP Chawla,L Balaji,IK Pathan,2,2,na,na
2nd innings,17.6,PP Chawla,L Balaji,IK Pathan,1,0,{'legbyes': 1},na
2nd innings,18.1,PP Chawla,T Thushara,IK Pathan,2,2,na,na
2nd innings,18.2,PP Chawla,T Thushara,IK Pathan,2,2,na,na
2nd innings,18.3,PP Chawla,T Thushara,IK Pathan,0,0,na,na
2nd innings,18.4,PP Chawla,T Thushara,IK Pathan,2,2,na,na
2nd innings,18.5,PP Chawla,T Thushara,IK Pathan,0,0,na,"{'fielders': ['JDP Oram'], 'kind': 'caught', 'player_out': 'IK Pathan'}"
2nd innings,18.6,RR Powar,T Thushara,PP Chawla,2,2,na,na
2nd innings,19.1,PP Chawla,L Balaji,RR Powar,2,2,na,na
2nd innings,19.2,PP Chawla,L Balaji,RR Powar,0,0,na,na
2nd innings,19.3,PP Chawla,L Balaji,RR Powar,4,4,na,na
2nd innings,19.4,PP Chawla,L Balaji,RR Powar,0,0,na,na
2nd innings,19.5,PP Chawla,L Balaji,RR Powar,1,1,na,na
2nd innings,19.6,RR Powar,L Balaji,PP Chawla,0,0,na,na
