innings,deliveries,non_striker,bowler,batsman,total_runs,batsman_runs,extras,wickets
1st innings,0.1,ML Hayden,AD Mascarenhas,PA Patel,0,0,na,na
1st innings,0.2,ML Hayden,AD Mascarenhas,PA Patel,0,0,na,na
1st innings,0.3,ML Hayden,AD Mascarenhas,PA Patel,3,3,na,na
1st innings,0.4,PA Patel,AD Mascarenhas,ML Hayden,1,1,na,na
1st innings,0.5,ML Hayden,AD Mascarenhas,PA Patel,0,0,na,na
1st innings,0.6,ML Hayden,AD Mascarenhas,PA Patel,0,0,na,na
1st innings,1.1,PA Patel,YK Pathan,ML Hayden,0,0,na,"{'kind': 'bowled', 'player_out': 'ML Hayden'}"
1st innings,1.2,PA Patel,YK Pathan,SK Raina,0,0,na,na
1st innings,1.3,PA Patel,YK Pathan,SK Raina,1,1,na,na
1st innings,1.4,SK Raina,YK Pathan,PA Patel,0,0,na,na
1st innings,1.5,SK Raina,YK Pathan,PA Patel,0,0,na,na
1st innings,1.6,SK Raina,YK Pathan,PA Patel,0,0,na,na
1st innings,2.1,PA Patel,AD Mascarenhas,SK Raina,0,0,na,na
1st innings,2.2,PA Patel,AD Mascarenhas,SK Raina,2,2,na,na
1st innings,2.3,PA Patel,AD Mascarenhas,SK Raina,6,6,na,na
1st innings,2.4,PA Patel,AD Mascarenhas,SK Raina,0,0,na,na
1st innings,2.5,PA Patel,AD Mascarenhas,SK Raina,0,0,na,na
1st innings,2.6,PA Patel,AD Mascarenhas,SK Raina,4,4,na,na
1st innings,3.1,SK Raina,YK Pathan,PA Patel,0,0,na,na
1st innings,3.2,SK Raina,YK Pathan,PA Patel,0,0,na,na
1st innings,3.3,SK Raina,YK Pathan,PA Patel,0,0,na,"{'fielders': ['Kamran Khan'], 'kind': 'caught', 'player_out': 'PA Patel'}"
1st innings,3.4,S Badrinath,YK Pathan,SK Raina,1,1,na,na
1st innings,3.5,SK Raina,YK Pathan,S Badrinath,0,0,na,na
1st innings,3.6,SK Raina,YK Pathan,S Badrinath,1,1,na,na
1st innings,4.1,SK Raina,AD Mascarenhas,S Badrinath,0,0,na,na
1st innings,4.2,SK Raina,AD Mascarenhas,S Badrinath,2,2,na,na
1st innings,4.3,SK Raina,AD Mascarenhas,S Badrinath,4,4,na,na
1st innings,4.4,SK Raina,AD Mascarenhas,S Badrinath,0,0,na,na
1st innings,4.5,SK Raina,AD Mascarenhas,S Badrinath,1,1,na,na
1st innings,4.6,S Badrinath,AD Mascarenhas,SK Raina,0,0,na,na
1st innings,5.1,SK Raina,YK Pathan,S Badrinath,1,1,na,na
1st innings,5.2,S Badrinath,YK Pathan,SK Raina,1,1,na,na
1st innings,5.3,SK Raina,YK Pathan,S Badrinath,4,4,na,na
1st innings,5.4,SK Raina,YK Pathan,S Badrinath,1,1,na,na
1st innings,5.5,S Badrinath,YK Pathan,SK Raina,6,6,na,na
1st innings,5.6,S Badrinath,YK Pathan,SK Raina,1,1,na,na
1st innings,6.1,S Badrinath,Kamran Khan,SK Raina,1,1,na,na
1st innings,6.2,SK Raina,Kamran Khan,S Badrinath,0,0,na,na
1st innings,6.3,SK Raina,Kamran Khan,S Badrinath,0,0,na,na
1st innings,6.4,SK Raina,Kamran Khan,S Badrinath,4,4,na,na
1st innings,6.5,SK Raina,Kamran Khan,S Badrinath,1,1,na,na
1st innings,6.6,S Badrinath,Kamran Khan,SK Raina,1,1,na,na
1st innings,7.1,S Badrinath,MM Patel,SK Raina,6,6,na,na
1st innings,7.2,S Badrinath,MM Patel,SK Raina,0,0,na,na
1st innings,7.3,S Badrinath,MM Patel,SK Raina,1,1,na,na
1st innings,7.4,SK Raina,MM Patel,S Badrinath,0,0,na,na
1st innings,7.5,SK Raina,MM Patel,S Badrinath,1,1,na,na
1st innings,7.6,S Badrinath,MM Patel,SK Raina,0,0,na,na
1st innings,8.1,SK Raina,SK Trivedi,S Badrinath,0,0,na,na
1st innings,8.2,SK Raina,SK Trivedi,S Badrinath,1,1,na,na
1st innings,8.3,S Badrinath,SK Trivedi,SK Raina,4,4,na,na
1st innings,8.4,S Badrinath,SK Trivedi,SK Raina,4,4,na,na
1st innings,8.5,S Badrinath,SK Trivedi,SK Raina,1,1,na,na
1st innings,8.6,SK Raina,SK Trivedi,S Badrinath,4,4,na,na
1st innings,9.1,S Badrinath,SK Warne,SK Raina,1,1,na,na
1st innings,9.2,SK Raina,SK Warne,S Badrinath,1,1,na,na
1st innings,9.3,S Badrinath,SK Warne,SK Raina,4,4,na,na
1st innings,9.4,S Badrinath,SK Warne,SK Raina,1,1,na,na
1st innings,9.5,SK Raina,SK Warne,S Badrinath,1,1,na,na
1st innings,9.6,S Badrinath,SK Warne,SK Raina,4,4,na,na
1st innings,10.1,SK Raina,MM Patel,S Badrinath,1,1,na,na
1st innings,10.2,S Badrinath,MM Patel,SK Raina,1,1,na,na
1st innings,10.3,SK Raina,MM Patel,S Badrinath,0,0,na,na
1st innings,10.4,SK Raina,MM Patel,S Badrinath,0,0,na,na
1st innings,10.5,SK Raina,MM Patel,S Badrinath,0,0,na,na
1st innings,10.6,SK Raina,MM Patel,S Badrinath,1,1,na,na
1st innings,11.1,SK Raina,SK Warne,S Badrinath,0,0,na,"{'fielders': ['M Rawat'], 'kind': 'stumped', 'player_out': 'S Badrinath'}"
1st innings,11.2,SK Raina,SK Warne,JDP Oram,0,0,na,na
1st innings,11.3,SK Raina,SK Warne,JDP Oram,0,0,na,na
1st innings,11.4,SK Raina,SK Warne,JDP Oram,1,1,na,na
1st innings,11.5,JDP Oram,SK Warne,SK Raina,0,0,na,na
1st innings,11.6,JDP Oram,SK Warne,SK Raina,1,0,{'wides': 1},na
1st innings,11.7,JDP Oram,SK Warne,SK Raina,0,0,na,na
1st innings,12.1,SK Raina,MM Patel,JDP Oram,0,0,na,na
1st innings,12.2,SK Raina,MM Patel,JDP Oram,1,1,na,na
1st innings,12.3,JDP Oram,MM Patel,SK Raina,0,0,na,na
1st innings,12.4,JDP Oram,MM Patel,SK Raina,1,1,na,na
1st innings,12.5,SK Raina,MM Patel,JDP Oram,0,0,na,"{'fielders': ['AD Mascarenhas'], 'kind': 'caught', 'player_out': 'JDP Oram'}"
1st innings,12.6,MS Dhoni,MM Patel,SK Raina,1,1,na,na
1st innings,13.1,MS Dhoni,SK Warne,SK Raina,4,4,na,na
1st innings,13.2,MS Dhoni,SK Warne,SK Raina,0,0,na,na
1st innings,13.3,MS Dhoni,SK Warne,SK Raina,2,2,na,na
1st innings,13.4,MS Dhoni,SK Warne,SK Raina,1,1,na,na
1st innings,13.5,SK Raina,SK Warne,MS Dhoni,0,0,na,na
1st innings,13.6,SK Raina,SK Warne,MS Dhoni,0,0,na,na
1st innings,14.1,MS Dhoni,Kamran Khan,SK Raina,1,1,na,na
1st innings,14.2,SK Raina,Kamran Khan,MS Dhoni,0,0,na,na
1st innings,14.3,SK Raina,Kamran Khan,MS Dhoni,1,1,na,na
1st innings,14.4,MS Dhoni,Kamran Khan,SK Raina,4,4,na,na
1st innings,14.5,MS Dhoni,Kamran Khan,SK Raina,1,0,{'legbyes': 1},na
1st innings,14.6,SK Raina,Kamran Khan,MS Dhoni,1,1,na,na
1st innings,15.1,SK Raina,SK Warne,MS Dhoni,1,1,na,na
1st innings,15.2,MS Dhoni,SK Warne,SK Raina,0,0,na,na
1st innings,15.3,MS Dhoni,SK Warne,SK Raina,1,0,{'legbyes': 1},na
1st innings,15.4,SK Raina,SK Warne,MS Dhoni,0,0,na,na
1st innings,15.5,SK Raina,SK Warne,MS Dhoni,1,1,na,na
1st innings,15.6,MS Dhoni,SK Warne,SK Raina,1,1,na,na
1st innings,16.1,MS Dhoni,SK Trivedi,SK Raina,1,1,na,na
1st innings,16.2,SK Raina,SK Trivedi,MS Dhoni,1,1,na,na
1st innings,16.3,MS Dhoni,SK Trivedi,SK Raina,0,0,na,na
1st innings,16.4,MS Dhoni,SK Trivedi,SK Raina,4,4,na,na
1st innings,16.5,MS Dhoni,SK Trivedi,SK Raina,4,4,na,na
1st innings,16.6,MS Dhoni,SK Trivedi,SK Raina,2,2,na,na
1st innings,17.1,SK Raina,Kamran Khan,MS Dhoni,6,6,na,na
1st innings,17.2,SK Raina,Kamran Khan,MS Dhoni,1,1,na,na
1st innings,17.3,MS Dhoni,Kamran Khan,SK Raina,6,6,na,na
1st innings,17.4,MS Dhoni,Kamran Khan,SK Raina,6,6,na,na
1st innings,17.5,MS Dhoni,Kamran Khan,SK Raina,2,1,{'noballs': 1},na
1st innings,17.6,SK Raina,AD Mascarenhas,MS Dhoni,2,2,na,na
1st innings,17.7,SK Raina,AD Mascarenhas,MS Dhoni,1,1,na,na
1st innings,18.1,SK Raina,SK Trivedi,MS Dhoni,2,2,na,na
1st innings,18.2,SK Raina,SK Trivedi,MS Dhoni,2,2,na,na
1st innings,18.3,SK Raina,SK Trivedi,MS Dhoni,0,0,na,na
1st innings,18.4,SK Raina,SK Trivedi,MS Dhoni,1,1,na,na
1st innings,18.5,MS Dhoni,SK Trivedi,SK Raina,2,2,na,na
1st innings,18.6,MS Dhoni,SK Trivedi,SK Raina,1,0,{'wides': 1},na
1st innings,18.7,MS Dhoni,SK Trivedi,SK Raina,1,1,na,na
1st innings,19.1,MS Dhoni,MM Patel,SK Raina,1,1,na,na
1st innings,19.2,SK Raina,MM Patel,MS Dhoni,1,1,na,na
1st innings,19.3,MS Dhoni,MM Patel,SK Raina,4,4,na,na
1st innings,19.4,MS Dhoni,MM Patel,SK Raina,0,0,na,"{'fielders': ['GC Smith'], 'kind': 'caught', 'player_out': 'SK Raina'}"
1st innings,19.5,JA Morkel,MM Patel,MS Dhoni,1,1,na,na
1st innings,19.6,MS Dhoni,MM Patel,JA Morkel,4,4,na,na
2nd innings,0.1,GC Smith,S Tyagi,RJ Quiney,1,0,{'wides': 1},na
2nd innings,0.2,GC Smith,S Tyagi,RJ Quiney,0,0,na,na
2nd innings,0.3,GC Smith,S Tyagi,RJ Quiney,1,1,na,na
2nd innings,0.4,RJ Quiney,S Tyagi,GC Smith,1,1,na,na
2nd innings,0.5,GC Smith,S Tyagi,RJ Quiney,4,4,na,na
2nd innings,0.6,GC Smith,S Tyagi,RJ Quiney,0,0,na,na
2nd innings,0.7,GC Smith,S Tyagi,RJ Quiney,0,0,na,na
2nd innings,1.1,RJ Quiney,JA Morkel,GC Smith,0,0,na,na
2nd innings,1.2,RJ Quiney,JA Morkel,GC Smith,0,0,na,na
2nd innings,1.3,RJ Quiney,JA Morkel,GC Smith,1,1,na,na
2nd innings,1.4,GC Smith,JA Morkel,RJ Quiney,0,0,na,na
2nd innings,1.5,GC Smith,JA Morkel,RJ Quiney,1,1,na,na
2nd innings,1.6,RJ Quiney,JA Morkel,GC Smith,0,0,na,"{'fielders': ['S Badrinath'], 'kind': 'caught', 'player_out': 'GC Smith'}"
2nd innings,2.1,SA Asnodkar,S Tyagi,RJ Quiney,0,0,na,na
2nd innings,2.2,SA Asnodkar,S Tyagi,RJ Quiney,0,0,na,na
2nd innings,2.3,SA Asnodkar,S Tyagi,RJ Quiney,0,0,na,na
2nd innings,2.4,SA Asnodkar,S Tyagi,RJ Quiney,4,0,{'legbyes': 4},na
2nd innings,2.5,SA Asnodkar,S Tyagi,RJ Quiney,0,0,na,na
2nd innings,2.6,SA Asnodkar,S Tyagi,RJ Quiney,1,1,na,na
2nd innings,3.1,SA Asnodkar,JA Morkel,RJ Quiney,0,0,na,na
2nd innings,3.2,SA Asnodkar,JA Morkel,RJ Quiney,1,1,na,na
2nd innings,3.3,RJ Quiney,JA Morkel,SA Asnodkar,1,1,na,na
2nd innings,3.4,SA Asnodkar,JA Morkel,RJ Quiney,1,1,na,na
2nd innings,3.5,RJ Quiney,JA Morkel,SA Asnodkar,1,1,na,na
2nd innings,3.6,SA Asnodkar,JA Morkel,RJ Quiney,0,0,na,na
2nd innings,4.1,RJ Quiney,JDP Oram,SA Asnodkar,0,0,na,na
2nd innings,4.2,RJ Quiney,JDP Oram,SA Asnodkar,1,1,na,na
2nd innings,4.3,SA Asnodkar,JDP Oram,RJ Quiney,1,1,na,na
2nd innings,4.4,RJ Quiney,JDP Oram,SA Asnodkar,1,1,na,na
2nd innings,4.5,SA Asnodkar,JDP Oram,RJ Quiney,1,1,na,na
2nd innings,4.6,RJ Quiney,JDP Oram,SA Asnodkar,6,6,na,na
2nd innings,5.1,SA Asnodkar,JA Morkel,RJ Quiney,1,1,na,na
2nd innings,5.2,RJ Quiney,JA Morkel,SA Asnodkar,0,0,na,na
2nd innings,5.3,RJ Quiney,JA Morkel,SA Asnodkar,0,0,na,"{'kind': 'hit wicket', 'player_out': 'SA Asnodkar'}"
2nd innings,5.4,RJ Quiney,JA Morkel,RA Jadeja,1,1,na,na
2nd innings,5.5,RA Jadeja,JA Morkel,RJ Quiney,4,4,na,na
2nd innings,5.6,RA Jadeja,JA Morkel,RJ Quiney,4,4,na,na
2nd innings,6.1,RJ Quiney,M Muralitharan,RA Jadeja,0,0,na,na
2nd innings,6.2,RJ Quiney,M Muralitharan,RA Jadeja,2,2,na,na
2nd innings,6.3,RJ Quiney,M Muralitharan,RA Jadeja,1,0,{'legbyes': 1},na
2nd innings,6.4,RA Jadeja,M Muralitharan,RJ Quiney,1,1,na,na
2nd innings,6.5,RJ Quiney,M Muralitharan,RA Jadeja,0,0,na,na
2nd innings,6.6,RJ Quiney,M Muralitharan,RA Jadeja,0,0,na,na
2nd innings,7.1,RA Jadeja,SK Raina,RJ Quiney,1,1,na,na
2nd innings,7.2,RJ Quiney,SK Raina,RA Jadeja,0,0,na,na
2nd innings,7.3,RJ Quiney,SK Raina,RA Jadeja,1,1,na,na
2nd innings,7.4,RA Jadeja,SK Raina,RJ Quiney,1,1,na,na
2nd innings,7.5,RJ Quiney,SK Raina,RA Jadeja,1,1,na,na
2nd innings,7.6,RA Jadeja,SK Raina,RJ Quiney,0,0,na,na
2nd innings,8.1,RJ Quiney,M Muralitharan,RA Jadeja,1,0,{'wides': 1},na
2nd innings,8.2,RJ Quiney,M Muralitharan,RA Jadeja,0,0,na,na
2nd innings,8.3,RJ Quiney,M Muralitharan,RA Jadeja,1,1,na,na
2nd innings,8.4,RA Jadeja,M Muralitharan,RJ Quiney,0,0,na,na
2nd innings,8.5,RA Jadeja,M Muralitharan,RJ Quiney,1,1,na,na
2nd innings,8.6,RJ Quiney,M Muralitharan,RA Jadeja,1,1,na,na
2nd innings,8.7,RA Jadeja,M Muralitharan,RJ Quiney,4,4,na,na
2nd innings,9.1,RJ Quiney,SK Raina,RA Jadeja,1,1,na,na
2nd innings,9.2,RA Jadeja,SK Raina,RJ Quiney,0,0,na,na
2nd innings,9.3,RA Jadeja,SK Raina,RJ Quiney,0,0,na,"{'kind': 'lbw', 'player_out': 'RJ Quiney'}"
2nd innings,9.4,RA Jadeja,SK Raina,YK Pathan,4,4,na,na
2nd innings,9.5,RA Jadeja,SK Raina,YK Pathan,0,0,na,na
2nd innings,9.6,RA Jadeja,SK Raina,YK Pathan,2,2,na,na
2nd innings,10.1,YK Pathan,L Balaji,RA Jadeja,1,1,na,na
2nd innings,10.2,RA Jadeja,L Balaji,YK Pathan,1,1,na,na
2nd innings,10.3,YK Pathan,L Balaji,RA Jadeja,1,1,na,na
2nd innings,10.4,RA Jadeja,L Balaji,YK Pathan,0,0,na,na
2nd innings,10.5,RA Jadeja,L Balaji,YK Pathan,0,0,na,na
2nd innings,10.6,RA Jadeja,L Balaji,YK Pathan,2,2,na,na
2nd innings,11.1,YK Pathan,M Muralitharan,RA Jadeja,4,4,na,na
2nd innings,11.2,YK Pathan,M Muralitharan,RA Jadeja,1,1,na,na
2nd innings,11.3,RA Jadeja,M Muralitharan,YK Pathan,1,1,na,na
2nd innings,11.4,YK Pathan,M Muralitharan,RA Jadeja,1,1,na,na
2nd innings,11.5,RA Jadeja,M Muralitharan,YK Pathan,2,2,na,na
2nd innings,11.6,RA Jadeja,M Muralitharan,YK Pathan,4,4,na,na
2nd innings,12.1,YK Pathan,L Balaji,RA Jadeja,2,2,na,na
2nd innings,12.2,YK Pathan,L Balaji,RA Jadeja,0,0,na,na
2nd innings,12.3,YK Pathan,L Balaji,RA Jadeja,1,1,na,na
2nd innings,12.4,RA Jadeja,L Balaji,YK Pathan,4,4,na,na
2nd innings,12.5,RA Jadeja,L Balaji,YK Pathan,0,0,na,na
2nd innings,12.6,RA Jadeja,L Balaji,YK Pathan,0,0,na,"{'fielders': ['SK Raina'], 'kind': 'caught', 'player_out': 'YK Pathan'}"
2nd innings,13.1,AD Mascarenhas,JA Morkel,RA Jadeja,1,1,na,na
2nd innings,13.2,RA Jadeja,JA Morkel,AD Mascarenhas,1,1,na,na
2nd innings,13.3,AD Mascarenhas,JA Morkel,RA Jadeja,1,1,na,na
2nd innings,13.4,RA Jadeja,JA Morkel,AD Mascarenhas,0,0,na,na
2nd innings,13.5,RA Jadeja,JA Morkel,AD Mascarenhas,2,2,na,na
2nd innings,13.6,RA Jadeja,JA Morkel,AD Mascarenhas,0,0,na,na
2nd innings,14.1,AD Mascarenhas,JDP Oram,RA Jadeja,1,1,na,na
2nd innings,14.2,RA Jadeja,JDP Oram,AD Mascarenhas,0,0,na,na
2nd innings,14.3,RA Jadeja,JDP Oram,AD Mascarenhas,1,1,na,na
2nd innings,14.4,AD Mascarenhas,JDP Oram,RA Jadeja,1,1,na,na
2nd innings,14.5,RA Jadeja,JDP Oram,AD Mascarenhas,4,4,na,na
2nd innings,14.6,RA Jadeja,JDP Oram,AD Mascarenhas,0,0,na,"{'fielders': ['M Muralitharan'], 'kind': 'caught', 'player_out': 'AD Mascarenhas'}"
2nd innings,15.1,SK Warne,M Muralitharan,RA Jadeja,0,0,na,na
2nd innings,15.2,SK Warne,M Muralitharan,RA Jadeja,6,6,na,na
2nd innings,15.3,SK Warne,M Muralitharan,RA Jadeja,0,0,na,na
2nd innings,15.4,SK Warne,M Muralitharan,RA Jadeja,2,2,na,na
2nd innings,15.5,SK Warne,M Muralitharan,RA Jadeja,1,1,na,na
2nd innings,15.6,RA Jadeja,M Muralitharan,SK Warne,0,0,na,na
2nd innings,16.1,SK Warne,JDP Oram,RA Jadeja,1,1,na,na
2nd innings,16.2,RA Jadeja,JDP Oram,SK Warne,0,0,na,na
2nd innings,16.3,RA Jadeja,JDP Oram,SK Warne,0,0,na,na
2nd innings,16.4,RA Jadeja,JDP Oram,SK Warne,0,0,na,na
2nd innings,16.5,RA Jadeja,JDP Oram,SK Warne,1,1,na,na
2nd innings,16.6,SK Warne,JDP Oram,RA Jadeja,4,4,na,na
2nd innings,17.1,RA Jadeja,L Balaji,SK Warne,0,0,na,na
2nd innings,17.2,RA Jadeja,L Balaji,SK Warne,1,1,na,na
2nd innings,17.3,SK Warne,L Balaji,RA Jadeja,0,0,na,"{'fielders': ['ML Hayden'], 'kind': 'caught', 'player_out': 'RA Jadeja'}"
2nd innings,17.4,M Rawat,L Balaji,SK Warne,1,1,na,na
2nd innings,17.5,SK Warne,L Balaji,M Rawat,1,0,{'wides': 1},na
2nd innings,17.6,SK Warne,L Balaji,M Rawat,1,1,na,na
2nd innings,17.7,M Rawat,L Balaji,SK Warne,0,0,na,"{'fielders': ['S Badrinath'], 'kind': 'caught', 'player_out': 'SK Warne'}"
2nd innings,18.1,M Rawat,JDP Oram,MM Patel,0,0,na,"{'fielders': ['PA Patel'], 'kind': 'caught', 'player_out': 'MM Patel'}"
2nd innings,18.2,M Rawat,JDP Oram,SK Trivedi,1,1,na,na
2nd innings,18.3,SK Trivedi,JDP Oram,M Rawat,0,0,na,na
2nd innings,18.4,SK Trivedi,JDP Oram,M Rawat,1,1,na,na
2nd innings,18.5,M Rawat,JDP Oram,SK Trivedi,1,1,na,na
2nd innings,18.6,SK Trivedi,JDP Oram,M Rawat,1,1,na,na
2nd innings,19.1,SK Trivedi,L Balaji,M Rawat,4,4,na,na
2nd innings,19.2,SK Trivedi,L Balaji,M Rawat,1,1,na,na
2nd innings,19.3,M Rawat,L Balaji,SK Trivedi,0,0,na,"{'fielders': ['SK Raina'], 'kind': 'caught', 'player_out': 'SK Trivedi'}"
