innings,deliveries,non_striker,bowler,batsman,total_runs,batsman_runs,extras,wickets
1st innings,0.1,GJ Bailey,AB Dinda,PA Patel,1,1,na,na
1st innings,0.2,PA Patel,AB Dinda,GJ Bailey,0,0,na,na
1st innings,0.3,PA Patel,AB Dinda,GJ Bailey,0,0,na,na
1st innings,0.4,PA Patel,AB Dinda,GJ Bailey,4,4,na,na
1st innings,0.5,PA Patel,AB Dinda,GJ Bailey,0,0,na,na
1st innings,0.6,PA Patel,AB Dinda,GJ Bailey,0,0,na,na
1st innings,1.1,GJ Bailey,Anureet Singh,PA Patel,4,4,na,na
1st innings,1.2,GJ Bailey,Anureet Singh,PA Patel,0,0,na,na
1st innings,1.3,GJ Bailey,Anureet Singh,PA Patel,1,0,{'wides': 1},na
1st innings,1.4,GJ Bailey,Anureet Singh,PA Patel,0,0,na,na
1st innings,1.5,GJ Bailey,Anureet Singh,PA Patel,1,1,na,na
1st innings,1.6,PA Patel,Anureet Singh,GJ Bailey,1,1,na,na
1st innings,1.7,GJ Bailey,Anureet Singh,PA Patel,1,0,{'wides': 1},na
1st innings,1.8,GJ Bailey,Anureet Singh,PA Patel,4,4,na,na
1st innings,2.1,PA Patel,AB Dinda,GJ Bailey,0,0,na,na
1st innings,2.2,PA Patel,AB Dinda,GJ Bailey,0,0,na,na
1st innings,2.3,PA Patel,AB Dinda,GJ Bailey,4,4,na,na
1st innings,2.4,PA Patel,AB Dinda,GJ Bailey,4,4,na,na
1st innings,2.5,PA Patel,AB Dinda,GJ Bailey,2,2,na,na
1st innings,2.6,PA Patel,AB Dinda,GJ Bailey,0,0,na,na
1st innings,3.1,GJ Bailey,AB Agarkar,PA Patel,1,0,{'wides': 1},na
1st innings,3.2,GJ Bailey,AB Agarkar,PA Patel,1,1,na,na
1st innings,3.3,PA Patel,AB Agarkar,GJ Bailey,4,4,na,na
1st innings,3.4,PA Patel,AB Agarkar,GJ Bailey,0,0,na,na
1st innings,3.5,PA Patel,AB Agarkar,GJ Bailey,1,0,{'legbyes': 1},na
1st innings,3.6,GJ Bailey,AB Agarkar,PA Patel,0,0,na,na
1st innings,3.7,GJ Bailey,AB Agarkar,PA Patel,1,1,na,na
1st innings,4.1,GJ Bailey,M Kartik,PA Patel,4,4,na,na
1st innings,4.2,GJ Bailey,M Kartik,PA Patel,1,1,na,na
1st innings,4.3,PA Patel,M Kartik,GJ Bailey,1,1,na,na
1st innings,4.4,GJ Bailey,M Kartik,PA Patel,0,0,na,na
1st innings,4.5,GJ Bailey,M Kartik,PA Patel,0,0,na,na
1st innings,4.6,GJ Bailey,M Kartik,PA Patel,1,1,na,na
1st innings,5.1,GJ Bailey,BJ Hodge,PA Patel,4,0,{'byes': 4},na
1st innings,5.2,GJ Bailey,BJ Hodge,PA Patel,1,1,na,na
1st innings,5.3,PA Patel,BJ Hodge,GJ Bailey,1,1,na,na
1st innings,5.4,GJ Bailey,BJ Hodge,PA Patel,0,0,na,na
1st innings,5.5,GJ Bailey,BJ Hodge,PA Patel,4,4,na,na
1st innings,5.6,GJ Bailey,BJ Hodge,PA Patel,2,2,na,na
1st innings,6.1,PA Patel,M Kartik,GJ Bailey,5,0,{'wides': 5},na
1st innings,6.2,PA Patel,M Kartik,GJ Bailey,0,0,na,"{'fielders': ['LR Shukla'], 'kind': 'run out', 'player_out': 'PA Patel'}"
1st innings,6.3,GJ Bailey,M Kartik,SK Raina,1,1,na,na
1st innings,6.4,SK Raina,M Kartik,GJ Bailey,1,1,na,na
1st innings,6.5,GJ Bailey,M Kartik,SK Raina,1,1,na,na
1st innings,6.6,SK Raina,M Kartik,GJ Bailey,1,1,na,na
1st innings,6.7,GJ Bailey,M Kartik,SK Raina,4,4,na,na
1st innings,7.1,SK Raina,BAW Mendis,GJ Bailey,2,2,na,na
1st innings,7.2,SK Raina,BAW Mendis,GJ Bailey,1,1,na,na
1st innings,7.3,GJ Bailey,BAW Mendis,SK Raina,1,1,na,na
1st innings,7.4,SK Raina,BAW Mendis,GJ Bailey,1,1,na,na
1st innings,7.5,GJ Bailey,BAW Mendis,SK Raina,1,1,na,na
1st innings,7.6,SK Raina,BAW Mendis,GJ Bailey,1,1,na,na
1st innings,8.1,SK Raina,BJ Hodge,GJ Bailey,1,1,na,na
1st innings,8.2,GJ Bailey,BJ Hodge,SK Raina,0,0,na,na
1st innings,8.3,GJ Bailey,BJ Hodge,SK Raina,1,1,na,na
1st innings,8.4,SK Raina,BJ Hodge,GJ Bailey,1,1,na,na
1st innings,8.5,GJ Bailey,BJ Hodge,SK Raina,0,0,na,na
1st innings,8.6,GJ Bailey,BJ Hodge,SK Raina,1,1,na,na
1st innings,9.1,SK Raina,DJ Hussey,GJ Bailey,0,0,na,"{'fielders': ['BJ Hodge'], 'kind': 'run out', 'player_out': 'GJ Bailey'}"
1st innings,9.2,SK Raina,DJ Hussey,MS Dhoni,1,1,na,na
1st innings,9.3,MS Dhoni,DJ Hussey,SK Raina,2,2,na,na
1st innings,9.4,MS Dhoni,DJ Hussey,SK Raina,2,2,na,na
1st innings,9.5,MS Dhoni,DJ Hussey,SK Raina,0,0,na,na
1st innings,9.6,MS Dhoni,DJ Hussey,SK Raina,0,0,na,na
1st innings,10.1,SK Raina,BAW Mendis,MS Dhoni,1,1,na,na
1st innings,10.2,MS Dhoni,BAW Mendis,SK Raina,1,1,na,na
1st innings,10.3,SK Raina,BAW Mendis,MS Dhoni,0,0,na,na
1st innings,10.4,SK Raina,BAW Mendis,MS Dhoni,0,0,na,na
1st innings,10.5,SK Raina,BAW Mendis,MS Dhoni,1,1,na,na
1st innings,10.6,MS Dhoni,BAW Mendis,SK Raina,4,4,na,na
1st innings,11.1,SK Raina,M Kartik,MS Dhoni,1,1,na,na
1st innings,11.2,MS Dhoni,M Kartik,SK Raina,0,0,na,na
1st innings,11.3,MS Dhoni,M Kartik,SK Raina,4,4,na,na
1st innings,11.4,MS Dhoni,M Kartik,SK Raina,1,0,{'legbyes': 1},na
1st innings,11.5,SK Raina,M Kartik,MS Dhoni,1,1,na,na
1st innings,11.6,MS Dhoni,M Kartik,SK Raina,1,1,na,na
1st innings,12.1,MS Dhoni,DJ Hussey,SK Raina,1,1,na,na
1st innings,12.2,SK Raina,DJ Hussey,MS Dhoni,6,6,na,na
1st innings,12.3,SK Raina,DJ Hussey,MS Dhoni,1,1,na,na
1st innings,12.4,MS Dhoni,DJ Hussey,SK Raina,2,2,na,na
1st innings,12.5,MS Dhoni,DJ Hussey,SK Raina,2,2,na,na
1st innings,12.6,MS Dhoni,DJ Hussey,SK Raina,1,0,{'wides': 1},na
1st innings,12.7,MS Dhoni,DJ Hussey,SK Raina,0,0,na,na
1st innings,13.1,SK Raina,AB Agarkar,MS Dhoni,4,4,na,na
1st innings,13.2,SK Raina,AB Agarkar,MS Dhoni,0,0,na,na
1st innings,13.3,SK Raina,AB Agarkar,MS Dhoni,2,2,na,na
1st innings,13.4,SK Raina,AB Agarkar,MS Dhoni,1,1,na,na
1st innings,13.5,MS Dhoni,AB Agarkar,SK Raina,1,0,{'wides': 1},na
1st innings,13.6,MS Dhoni,AB Agarkar,SK Raina,1,1,na,na
1st innings,13.7,SK Raina,AB Agarkar,MS Dhoni,1,1,na,na
1st innings,14.1,SK Raina,AB Dinda,MS Dhoni,1,1,na,na
1st innings,14.2,MS Dhoni,AB Dinda,SK Raina,0,0,na,na
1st innings,14.3,MS Dhoni,AB Dinda,SK Raina,0,0,na,na
1st innings,14.4,MS Dhoni,AB Dinda,SK Raina,0,0,na,na
1st innings,14.5,MS Dhoni,AB Dinda,SK Raina,1,1,na,na
1st innings,14.6,SK Raina,AB Dinda,MS Dhoni,0,0,na,na
1st innings,15.1,MS Dhoni,BAW Mendis,SK Raina,6,6,na,na
1st innings,15.2,MS Dhoni,BAW Mendis,SK Raina,6,6,na,na
1st innings,15.3,MS Dhoni,BAW Mendis,SK Raina,1,1,na,na
1st innings,15.4,SK Raina,BAW Mendis,MS Dhoni,2,2,na,na
1st innings,15.5,SK Raina,BAW Mendis,MS Dhoni,1,1,na,na
1st innings,15.6,MS Dhoni,BAW Mendis,SK Raina,1,1,na,na
1st innings,16.1,MS Dhoni,AB Dinda,SK Raina,1,1,na,na
1st innings,16.2,SK Raina,AB Dinda,MS Dhoni,4,4,na,na
1st innings,16.3,SK Raina,AB Dinda,MS Dhoni,1,1,na,na
1st innings,16.4,MS Dhoni,AB Dinda,SK Raina,0,0,na,na
1st innings,16.5,MS Dhoni,AB Dinda,SK Raina,6,6,na,na
1st innings,16.6,MS Dhoni,AB Dinda,SK Raina,0,0,na,"{'fielders': ['LR Shukla'], 'kind': 'caught', 'player_out': 'SK Raina'}"
1st innings,17.1,JA Morkel,AB Agarkar,MS Dhoni,1,0,{'wides': 1},na
1st innings,17.2,JA Morkel,AB Agarkar,MS Dhoni,1,1,na,na
1st innings,17.3,MS Dhoni,AB Agarkar,JA Morkel,1,1,na,na
1st innings,17.4,JA Morkel,AB Agarkar,MS Dhoni,1,1,na,na
1st innings,17.5,MS Dhoni,AB Agarkar,JA Morkel,0,0,na,na
1st innings,17.6,MS Dhoni,AB Agarkar,JA Morkel,1,0,{'wides': 1},na
1st innings,17.7,MS Dhoni,AB Agarkar,JA Morkel,1,1,na,na
1st innings,17.8,JA Morkel,AB Agarkar,MS Dhoni,4,4,na,na
1st innings,18.1,MS Dhoni,BAW Mendis,JA Morkel,1,1,na,na
1st innings,18.2,JA Morkel,BAW Mendis,MS Dhoni,4,4,na,na
1st innings,18.3,JA Morkel,BAW Mendis,MS Dhoni,0,0,na,na
1st innings,18.4,JA Morkel,BAW Mendis,MS Dhoni,1,1,na,na
1st innings,18.5,MS Dhoni,BAW Mendis,JA Morkel,1,1,na,na
1st innings,18.6,JA Morkel,BAW Mendis,MS Dhoni,0,0,na,na
1st innings,19.1,MS Dhoni,AB Agarkar,JA Morkel,0,0,na,na
1st innings,19.2,MS Dhoni,AB Agarkar,JA Morkel,6,6,na,na
1st innings,19.3,MS Dhoni,AB Agarkar,JA Morkel,6,6,na,na
1st innings,19.4,MS Dhoni,AB Agarkar,JA Morkel,4,4,na,na
1st innings,19.5,MS Dhoni,AB Agarkar,JA Morkel,1,1,na,na
1st innings,19.6,JA Morkel,AB Agarkar,MS Dhoni,1,0,{'wides': 1},na
1st innings,19.7,JA Morkel,AB Agarkar,MS Dhoni,1,0,{'legbyes': 1},na
2nd innings,0.1,SC Ganguly,JA Morkel,BB McCullum,1,1,na,na
2nd innings,0.2,BB McCullum,JA Morkel,SC Ganguly,1,1,na,na
2nd innings,0.3,SC Ganguly,JA Morkel,BB McCullum,0,0,na,na
2nd innings,0.4,SC Ganguly,JA Morkel,BB McCullum,4,4,na,na
2nd innings,0.5,SC Ganguly,JA Morkel,BB McCullum,4,4,na,na
2nd innings,0.6,SC Ganguly,JA Morkel,BB McCullum,0,0,na,na
2nd innings,1.1,BB McCullum,S Tyagi,SC Ganguly,0,0,na,na
2nd innings,1.2,BB McCullum,S Tyagi,SC Ganguly,0,0,na,na
2nd innings,1.3,BB McCullum,S Tyagi,SC Ganguly,0,0,na,na
2nd innings,1.4,BB McCullum,S Tyagi,SC Ganguly,0,0,na,na
2nd innings,1.5,BB McCullum,S Tyagi,SC Ganguly,1,1,na,na
2nd innings,1.6,SC Ganguly,S Tyagi,BB McCullum,0,0,na,na
2nd innings,2.1,BB McCullum,JA Morkel,SC Ganguly,0,0,na,na
2nd innings,2.2,BB McCullum,JA Morkel,SC Ganguly,1,1,na,na
2nd innings,2.3,SC Ganguly,JA Morkel,BB McCullum,6,6,na,na
2nd innings,2.4,SC Ganguly,JA Morkel,BB McCullum,4,4,na,na
2nd innings,2.5,SC Ganguly,JA Morkel,BB McCullum,0,0,na,na
2nd innings,2.6,SC Ganguly,JA Morkel,BB McCullum,5,4,{'noballs': 1},na
2nd innings,2.7,SC Ganguly,JA Morkel,BB McCullum,0,0,na,na
2nd innings,3.1,BB McCullum,S Tyagi,SC Ganguly,1,1,na,na
2nd innings,3.2,SC Ganguly,S Tyagi,BB McCullum,4,4,na,na
2nd innings,3.3,SC Ganguly,S Tyagi,BB McCullum,1,1,na,na
2nd innings,3.4,BB McCullum,S Tyagi,SC Ganguly,0,0,na,na
2nd innings,3.5,BB McCullum,S Tyagi,SC Ganguly,0,0,na,na
2nd innings,3.6,BB McCullum,S Tyagi,SC Ganguly,0,0,na,na
2nd innings,4.1,SC Ganguly,M Muralitharan,BB McCullum,0,0,na,na
2nd innings,4.2,SC Ganguly,M Muralitharan,BB McCullum,1,1,na,na
2nd innings,4.3,BB McCullum,M Muralitharan,SC Ganguly,0,0,na,na
2nd innings,4.4,BB McCullum,M Muralitharan,SC Ganguly,0,0,na,"{'kind': 'bowled', 'player_out': 'SC Ganguly'}"
2nd innings,4.5,BB McCullum,M Muralitharan,BJ Hodge,0,0,na,na
2nd innings,4.6,BB McCullum,M Muralitharan,BJ Hodge,0,0,na,na
2nd innings,5.1,BJ Hodge,S Tyagi,BB McCullum,0,0,na,na
2nd innings,5.2,BJ Hodge,S Tyagi,BB McCullum,4,4,na,na
2nd innings,5.3,BJ Hodge,S Tyagi,BB McCullum,4,4,na,na
2nd innings,5.4,BJ Hodge,S Tyagi,BB McCullum,4,4,na,na
2nd innings,5.5,BJ Hodge,S Tyagi,BB McCullum,4,4,na,na
2nd innings,5.6,BJ Hodge,S Tyagi,BB McCullum,6,6,na,na
2nd innings,6.1,BB McCullum,SB Jakati,BJ Hodge,1,1,na,na
2nd innings,6.2,BJ Hodge,SB Jakati,BB McCullum,1,1,na,na
2nd innings,6.3,BB McCullum,SB Jakati,BJ Hodge,0,0,na,na
2nd innings,6.4,BB McCullum,SB Jakati,BJ Hodge,1,1,na,na
2nd innings,6.5,BJ Hodge,SB Jakati,BB McCullum,1,1,na,na
2nd innings,6.6,BB McCullum,SB Jakati,BJ Hodge,0,0,na,na
2nd innings,7.1,BJ Hodge,M Muralitharan,BB McCullum,0,0,na,na
2nd innings,7.2,BJ Hodge,M Muralitharan,BB McCullum,4,4,na,na
2nd innings,7.3,BJ Hodge,M Muralitharan,BB McCullum,0,0,na,na
2nd innings,7.4,BJ Hodge,M Muralitharan,BB McCullum,0,0,na,na
2nd innings,7.5,BJ Hodge,M Muralitharan,BB McCullum,0,0,na,na
2nd innings,7.6,BJ Hodge,M Muralitharan,BB McCullum,0,0,na,na
2nd innings,8.1,BB McCullum,SB Jakati,BJ Hodge,1,1,na,na
2nd innings,8.2,BJ Hodge,SB Jakati,BB McCullum,4,0,{'legbyes': 4},na
2nd innings,8.3,BJ Hodge,SB Jakati,BB McCullum,2,2,na,na
2nd innings,8.4,BJ Hodge,SB Jakati,BB McCullum,1,1,na,na
2nd innings,8.5,BB McCullum,SB Jakati,BJ Hodge,0,0,na,na
2nd innings,8.6,BB McCullum,SB Jakati,BJ Hodge,6,6,na,na
2nd innings,9.1,BJ Hodge,M Muralitharan,BB McCullum,0,0,na,na
2nd innings,9.2,BJ Hodge,M Muralitharan,BB McCullum,0,0,na,na
2nd innings,9.3,BJ Hodge,M Muralitharan,BB McCullum,4,4,na,na
2nd innings,9.4,BJ Hodge,M Muralitharan,BB McCullum,1,1,na,na
2nd innings,9.5,BB McCullum,M Muralitharan,BJ Hodge,0,0,na,na
2nd innings,9.6,BB McCullum,M Muralitharan,BJ Hodge,0,0,na,na
2nd innings,10.1,BJ Hodge,SK Raina,BB McCullum,0,0,na,na
2nd innings,10.2,BJ Hodge,SK Raina,BB McCullum,0,0,na,na
2nd innings,10.3,BJ Hodge,SK Raina,BB McCullum,1,1,na,na
2nd innings,10.4,BB McCullum,SK Raina,BJ Hodge,2,2,na,na
2nd innings,10.5,BB McCullum,SK Raina,BJ Hodge,4,4,na,na
2nd innings,10.6,BB McCullum,SK Raina,BJ Hodge,1,1,na,na
2nd innings,11.1,BB McCullum,SB Jakati,BJ Hodge,2,2,na,na
2nd innings,11.2,BB McCullum,SB Jakati,BJ Hodge,0,0,na,na
2nd innings,11.3,BB McCullum,SB Jakati,BJ Hodge,1,1,na,na
2nd innings,11.4,BJ Hodge,SB Jakati,BB McCullum,6,6,na,na
2nd innings,11.5,BJ Hodge,SB Jakati,BB McCullum,1,1,na,na
2nd innings,11.6,BB McCullum,SB Jakati,BJ Hodge,2,2,na,na
2nd innings,12.1,BJ Hodge,SK Raina,BB McCullum,2,2,na,na
2nd innings,12.2,BJ Hodge,SK Raina,BB McCullum,2,2,na,na
2nd innings,12.3,BJ Hodge,SK Raina,BB McCullum,1,1,na,na
2nd innings,12.4,BB McCullum,SK Raina,BJ Hodge,4,4,na,na
2nd innings,12.5,BB McCullum,SK Raina,BJ Hodge,0,0,na,na
2nd innings,12.6,BB McCullum,SK Raina,BJ Hodge,2,2,na,na
2nd innings,13.1,BJ Hodge,SB Jakati,BB McCullum,1,1,na,na
2nd innings,13.2,BB McCullum,SB Jakati,BJ Hodge,6,6,na,na
2nd innings,13.3,BB McCullum,SB Jakati,BJ Hodge,1,1,na,na
2nd innings,13.4,BJ Hodge,SB Jakati,BB McCullum,0,0,na,na
2nd innings,13.5,BJ Hodge,SB Jakati,BB McCullum,2,2,na,na
2nd innings,13.6,BJ Hodge,SB Jakati,BB McCullum,0,0,na,"{'kind': 'bowled', 'player_out': 'BB McCullum'}"
2nd innings,14.1,DJ Hussey,L Balaji,BJ Hodge,1,1,na,na
2nd innings,14.2,BJ Hodge,L Balaji,DJ Hussey,1,1,na,na
2nd innings,14.3,DJ Hussey,L Balaji,BJ Hodge,2,2,na,na
2nd innings,14.4,DJ Hussey,L Balaji,BJ Hodge,0,0,na,na
2nd innings,14.5,DJ Hussey,L Balaji,BJ Hodge,1,1,na,na
2nd innings,14.6,BJ Hodge,L Balaji,DJ Hussey,2,2,na,na
2nd innings,15.1,DJ Hussey,M Muralitharan,BJ Hodge,2,2,na,na
2nd innings,15.2,DJ Hussey,M Muralitharan,BJ Hodge,0,0,na,"{'fielders': ['M Muralitharan', 'MS Dhoni'], 'kind': 'run out', 'player_out': 'DJ Hussey'}"
2nd innings,15.3,WP Saha,M Muralitharan,BJ Hodge,1,1,na,na
2nd innings,15.4,BJ Hodge,M Muralitharan,WP Saha,1,1,na,na
2nd innings,15.5,WP Saha,M Muralitharan,BJ Hodge,1,1,na,na
2nd innings,15.6,BJ Hodge,M Muralitharan,WP Saha,1,1,na,na
2nd innings,16.1,BJ Hodge,L Balaji,WP Saha,4,4,na,na
2nd innings,16.2,BJ Hodge,L Balaji,WP Saha,0,0,na,na
2nd innings,16.3,BJ Hodge,L Balaji,WP Saha,6,6,na,na
2nd innings,16.4,BJ Hodge,L Balaji,WP Saha,1,1,na,na
2nd innings,16.5,WP Saha,L Balaji,BJ Hodge,1,1,na,na
2nd innings,16.6,BJ Hodge,L Balaji,WP Saha,2,2,na,na
2nd innings,17.1,WP Saha,JA Morkel,BJ Hodge,2,2,na,na
2nd innings,17.2,WP Saha,JA Morkel,BJ Hodge,1,1,na,na
2nd innings,17.3,BJ Hodge,JA Morkel,WP Saha,1,1,na,na
2nd innings,17.4,WP Saha,JA Morkel,BJ Hodge,4,4,na,na
2nd innings,17.5,WP Saha,JA Morkel,BJ Hodge,4,4,na,na
2nd innings,17.6,WP Saha,JA Morkel,BJ Hodge,1,1,na,na
2nd innings,18.1,WP Saha,L Balaji,BJ Hodge,6,6,na,na
2nd innings,18.2,WP Saha,L Balaji,BJ Hodge,1,1,na,na
2nd innings,18.3,BJ Hodge,L Balaji,WP Saha,1,1,na,na
2nd innings,18.4,WP Saha,L Balaji,BJ Hodge,6,6,na,na
2nd innings,18.5,WP Saha,L Balaji,BJ Hodge,1,1,na,na
2nd innings,18.6,BJ Hodge,L Balaji,WP Saha,4,4,na,na
2nd innings,19.1,WP Saha,SK Raina,BJ Hodge,0,0,na,na
2nd innings,19.2,WP Saha,SK Raina,BJ Hodge,1,1,na,na
2nd innings,19.3,BJ Hodge,SK Raina,WP Saha,1,1,na,na
2nd innings,19.4,WP Saha,SK Raina,BJ Hodge,1,1,na,na
2nd innings,19.5,BJ Hodge,SK Raina,WP Saha,2,2,na,na
2nd innings,19.6,BJ Hodge,SK Raina,WP Saha,1,1,na,na
