innings,deliveries,non_striker,bowler,batsman,total_runs,batsman_runs,extras,wickets
1st innings,0.1,MK Pandey,RJ Harris,JH Kallis,3,3,na,na
1st innings,0.2,JH Kallis,RJ Harris,MK Pandey,0,0,na,na
1st innings,0.3,JH Kallis,RJ Harris,MK Pandey,0,0,na,na
1st innings,0.4,JH Kallis,RJ Harris,MK Pandey,0,0,na,na
1st innings,0.5,JH Kallis,RJ Harris,MK Pandey,1,1,na,na
1st innings,0.6,MK Pandey,RJ Harris,JH Kallis,0,0,na,na
1st innings,1.1,JH Kallis,RP Singh,MK Pandey,1,1,na,na
1st innings,1.2,MK Pandey,RP Singh,JH Kallis,2,2,na,na
1st innings,1.3,MK Pandey,RP Singh,JH Kallis,0,0,na,na
1st innings,1.4,MK Pandey,RP Singh,JH Kallis,0,0,na,na
1st innings,1.5,MK Pandey,RP Singh,JH Kallis,0,0,na,na
1st innings,1.6,MK Pandey,RP Singh,JH Kallis,0,0,na,"{'fielders': ['TL Suman'], 'kind': 'caught', 'player_out': 'JH Kallis'}"
1st innings,2.1,RE van der Merwe,RJ Harris,MK Pandey,0,0,na,na
1st innings,2.2,RE van der Merwe,RJ Harris,MK Pandey,0,0,na,na
1st innings,2.3,RE van der Merwe,RJ Harris,MK Pandey,4,4,na,na
1st innings,2.4,RE van der Merwe,RJ Harris,MK Pandey,4,4,na,na
1st innings,2.5,RE van der Merwe,RJ Harris,MK Pandey,0,0,na,na
1st innings,2.6,RE van der Merwe,RJ Harris,MK Pandey,0,0,na,na
1st innings,3.1,MK Pandey,RP Singh,RE van der Merwe,0,0,na,na
1st innings,3.2,MK Pandey,RP Singh,RE van der Merwe,0,0,na,na
1st innings,3.3,MK Pandey,RP Singh,RE van der Merwe,0,0,na,na
1st innings,3.4,MK Pandey,RP Singh,RE van der Merwe,2,2,na,na
1st innings,3.5,MK Pandey,RP Singh,RE van der Merwe,4,4,na,na
1st innings,3.6,MK Pandey,RP Singh,RE van der Merwe,4,4,na,na
1st innings,4.1,RE van der Merwe,RJ Harris,MK Pandey,2,2,na,na
1st innings,4.2,RE van der Merwe,RJ Harris,MK Pandey,1,1,na,na
1st innings,4.3,MK Pandey,RJ Harris,RE van der Merwe,0,0,na,na
1st innings,4.4,MK Pandey,RJ Harris,RE van der Merwe,0,0,na,na
1st innings,4.5,MK Pandey,RJ Harris,RE van der Merwe,1,1,na,na
1st innings,4.6,RE van der Merwe,RJ Harris,MK Pandey,2,2,na,na
1st innings,5.1,MK Pandey,A Symonds,RE van der Merwe,0,0,na,na
1st innings,5.2,MK Pandey,A Symonds,RE van der Merwe,1,1,na,na
1st innings,5.3,RE van der Merwe,A Symonds,MK Pandey,0,0,na,na
1st innings,5.4,RE van der Merwe,A Symonds,MK Pandey,0,0,na,na
1st innings,5.5,RE van der Merwe,A Symonds,MK Pandey,0,0,na,na
1st innings,5.6,RE van der Merwe,A Symonds,MK Pandey,1,1,na,na
1st innings,6.1,RE van der Merwe,Jaskaran Singh,MK Pandey,4,4,na,na
1st innings,6.2,RE van der Merwe,Jaskaran Singh,MK Pandey,0,0,na,na
1st innings,6.3,RE van der Merwe,Jaskaran Singh,MK Pandey,2,2,na,na
1st innings,6.4,RE van der Merwe,Jaskaran Singh,MK Pandey,0,0,na,na
1st innings,6.5,RE van der Merwe,Jaskaran Singh,MK Pandey,0,0,na,na
1st innings,6.6,RE van der Merwe,Jaskaran Singh,MK Pandey,0,0,na,na
1st innings,7.1,MK Pandey,PP Ojha,RE van der Merwe,1,1,na,na
1st innings,7.2,RE van der Merwe,PP Ojha,MK Pandey,1,1,na,na
1st innings,7.3,MK Pandey,PP Ojha,RE van der Merwe,4,4,na,na
1st innings,7.4,MK Pandey,PP Ojha,RE van der Merwe,0,0,na,na
1st innings,7.5,MK Pandey,PP Ojha,RE van der Merwe,6,6,na,na
1st innings,7.6,MK Pandey,PP Ojha,RE van der Merwe,0,0,na,na
1st innings,8.1,RE van der Merwe,Jaskaran Singh,MK Pandey,4,4,na,na
1st innings,8.2,RE van der Merwe,Jaskaran Singh,MK Pandey,0,0,na,na
1st innings,8.3,RE van der Merwe,Jaskaran Singh,MK Pandey,2,2,na,na
1st innings,8.4,RE van der Merwe,Jaskaran Singh,MK Pandey,1,0,{'wides': 1},na
1st innings,8.5,RE van der Merwe,Jaskaran Singh,MK Pandey,2,2,na,na
1st innings,8.6,RE van der Merwe,Jaskaran Singh,MK Pandey,1,1,na,na
1st innings,8.7,MK Pandey,Jaskaran Singh,RE van der Merwe,0,0,na,na
1st innings,9.1,RE van der Merwe,A Symonds,MK Pandey,1,1,na,na
1st innings,9.2,MK Pandey,A Symonds,RE van der Merwe,0,0,na,"{'fielders': ['AC Gilchrist'], 'kind': 'stumped', 'player_out': 'RE van der Merwe'}"
1st innings,9.3,MK Pandey,A Symonds,R Dravid,0,0,na,na
1st innings,9.4,MK Pandey,A Symonds,R Dravid,0,0,na,na
1st innings,9.5,MK Pandey,A Symonds,R Dravid,1,1,na,na
1st innings,9.6,R Dravid,A Symonds,MK Pandey,1,1,na,na
1st innings,10.1,R Dravid,TL Suman,MK Pandey,2,2,na,na
1st innings,10.2,R Dravid,TL Suman,MK Pandey,2,2,na,na
1st innings,10.3,R Dravid,TL Suman,MK Pandey,6,6,na,na
1st innings,10.4,R Dravid,TL Suman,MK Pandey,6,6,na,na
1st innings,10.5,R Dravid,TL Suman,MK Pandey,2,2,na,na
1st innings,10.6,R Dravid,TL Suman,MK Pandey,0,0,na,na
1st innings,11.1,MK Pandey,PP Ojha,R Dravid,1,1,na,na
1st innings,11.2,R Dravid,PP Ojha,MK Pandey,1,1,na,na
1st innings,11.3,MK Pandey,PP Ojha,R Dravid,1,1,na,na
1st innings,11.4,R Dravid,PP Ojha,MK Pandey,2,2,na,na
1st innings,11.5,R Dravid,PP Ojha,MK Pandey,2,2,na,na
1st innings,11.6,R Dravid,PP Ojha,MK Pandey,1,1,na,na
1st innings,12.1,R Dravid,A Symonds,MK Pandey,1,1,na,na
1st innings,12.2,MK Pandey,A Symonds,R Dravid,1,1,na,na
1st innings,12.3,R Dravid,A Symonds,MK Pandey,1,1,na,na
1st innings,12.4,MK Pandey,A Symonds,R Dravid,1,1,na,na
1st innings,12.5,R Dravid,A Symonds,MK Pandey,0,0,na,na
1st innings,12.6,R Dravid,A Symonds,MK Pandey,1,1,na,na
1st innings,13.1,R Dravid,RP Singh,MK Pandey,4,4,na,na
1st innings,13.2,R Dravid,RP Singh,MK Pandey,1,1,na,na
1st innings,13.3,MK Pandey,RP Singh,R Dravid,1,1,na,na
1st innings,13.4,R Dravid,RP Singh,MK Pandey,4,4,na,na
1st innings,13.5,R Dravid,RP Singh,MK Pandey,0,0,na,na
1st innings,13.6,R Dravid,RP Singh,MK Pandey,1,1,na,na
1st innings,14.1,R Dravid,PP Ojha,MK Pandey,1,1,na,na
1st innings,14.2,MK Pandey,PP Ojha,R Dravid,0,0,na,"{'fielders': ['HH Gibbs'], 'kind': 'caught', 'player_out': 'R Dravid'}"
1st innings,14.3,LRPL Taylor,PP Ojha,MK Pandey,0,0,na,na
1st innings,14.4,LRPL Taylor,PP Ojha,MK Pandey,4,4,na,na
1st innings,14.5,LRPL Taylor,PP Ojha,MK Pandey,4,4,na,na
1st innings,14.6,LRPL Taylor,PP Ojha,MK Pandey,1,1,na,na
1st innings,15.1,LRPL Taylor,Jaskaran Singh,MK Pandey,2,2,na,na
1st innings,15.2,LRPL Taylor,Jaskaran Singh,MK Pandey,4,4,na,na
1st innings,15.3,LRPL Taylor,Jaskaran Singh,MK Pandey,6,6,na,na
1st innings,15.4,LRPL Taylor,Jaskaran Singh,MK Pandey,0,0,na,na
1st innings,15.5,LRPL Taylor,Jaskaran Singh,MK Pandey,4,4,na,na
1st innings,15.6,LRPL Taylor,Jaskaran Singh,MK Pandey,0,0,na,na
1st innings,16.1,MK Pandey,PP Ojha,LRPL Taylor,1,1,na,na
1st innings,16.2,LRPL Taylor,PP Ojha,MK Pandey,0,0,na,na
1st innings,16.3,LRPL Taylor,PP Ojha,MK Pandey,1,1,na,na
1st innings,16.4,MK Pandey,PP Ojha,LRPL Taylor,0,0,na,na
1st innings,16.5,MK Pandey,PP Ojha,LRPL Taylor,0,0,na,na
1st innings,16.6,MK Pandey,PP Ojha,LRPL Taylor,0,0,na,"{'fielders': ['RP Singh'], 'kind': 'caught', 'player_out': 'LRPL Taylor'}"
1st innings,17.1,MK Pandey,A Symonds,V Kohli,1,1,na,na
1st innings,17.2,V Kohli,A Symonds,MK Pandey,1,1,na,na
1st innings,17.3,MK Pandey,A Symonds,V Kohli,0,0,na,na
1st innings,17.4,MK Pandey,A Symonds,V Kohli,1,1,na,na
1st innings,17.5,V Kohli,A Symonds,MK Pandey,0,0,na,na
1st innings,17.6,V Kohli,A Symonds,MK Pandey,2,2,na,na
1st innings,18.1,MK Pandey,RJ Harris,V Kohli,1,1,na,na
1st innings,18.2,V Kohli,RJ Harris,MK Pandey,1,1,na,na
1st innings,18.3,MK Pandey,RJ Harris,V Kohli,2,2,na,na
1st innings,18.4,MK Pandey,RJ Harris,V Kohli,1,0,{'legbyes': 1},na
1st innings,18.5,V Kohli,RJ Harris,MK Pandey,2,2,na,na
1st innings,18.6,V Kohli,RJ Harris,MK Pandey,1,1,na,na
1st innings,19.1,V Kohli,RP Singh,MK Pandey,2,2,na,na
1st innings,19.2,V Kohli,RP Singh,MK Pandey,6,6,na,na
1st innings,19.3,V Kohli,RP Singh,MK Pandey,1,1,na,na
1st innings,19.4,MK Pandey,RP Singh,V Kohli,6,6,na,na
1st innings,19.5,MK Pandey,RP Singh,V Kohli,2,2,na,na
1st innings,19.6,MK Pandey,RP Singh,V Kohli,6,6,na,na
2nd innings,0.1,HH Gibbs,A Kumble,AC Gilchrist,0,0,na,na
2nd innings,0.2,HH Gibbs,A Kumble,AC Gilchrist,0,0,na,na
2nd innings,0.3,HH Gibbs,A Kumble,AC Gilchrist,4,4,na,na
2nd innings,0.4,HH Gibbs,A Kumble,AC Gilchrist,0,0,na,na
2nd innings,0.5,HH Gibbs,A Kumble,AC Gilchrist,0,0,na,na
2nd innings,0.6,HH Gibbs,A Kumble,AC Gilchrist,0,0,na,na
2nd innings,1.1,AC Gilchrist,JH Kallis,HH Gibbs,0,0,na,na
2nd innings,1.2,AC Gilchrist,JH Kallis,HH Gibbs,4,4,na,na
2nd innings,1.3,AC Gilchrist,JH Kallis,HH Gibbs,2,2,na,na
2nd innings,1.4,AC Gilchrist,JH Kallis,HH Gibbs,1,1,na,na
2nd innings,1.5,HH Gibbs,JH Kallis,AC Gilchrist,0,0,na,na
2nd innings,1.6,HH Gibbs,JH Kallis,AC Gilchrist,1,1,na,na
2nd innings,2.1,HH Gibbs,P Kumar,AC Gilchrist,1,1,na,na
2nd innings,2.2,AC Gilchrist,P Kumar,HH Gibbs,0,0,na,na
2nd innings,2.3,AC Gilchrist,P Kumar,HH Gibbs,2,2,na,na
2nd innings,2.4,AC Gilchrist,P Kumar,HH Gibbs,0,0,na,na
2nd innings,2.5,AC Gilchrist,P Kumar,HH Gibbs,0,0,na,na
2nd innings,2.6,AC Gilchrist,P Kumar,HH Gibbs,1,0,{'legbyes': 1},na
2nd innings,3.1,AC Gilchrist,A Kumble,HH Gibbs,0,0,na,na
2nd innings,3.2,AC Gilchrist,A Kumble,HH Gibbs,4,4,na,na
2nd innings,3.3,AC Gilchrist,A Kumble,HH Gibbs,1,1,na,na
2nd innings,3.4,HH Gibbs,A Kumble,AC Gilchrist,0,0,na,na
2nd innings,3.5,HH Gibbs,A Kumble,AC Gilchrist,1,1,na,na
2nd innings,3.6,AC Gilchrist,A Kumble,HH Gibbs,1,0,{'legbyes': 1},na
2nd innings,4.1,AC Gilchrist,P Kumar,HH Gibbs,6,6,na,na
2nd innings,4.2,AC Gilchrist,P Kumar,HH Gibbs,6,6,na,na
2nd innings,4.3,AC Gilchrist,P Kumar,HH Gibbs,4,4,na,na
2nd innings,4.4,AC Gilchrist,P Kumar,HH Gibbs,1,1,na,na
2nd innings,4.5,HH Gibbs,P Kumar,AC Gilchrist,1,0,{'wides': 1},na
2nd innings,4.6,HH Gibbs,P Kumar,AC Gilchrist,4,4,na,na
2nd innings,4.7,HH Gibbs,P Kumar,AC Gilchrist,0,0,na,na
2nd innings,5.1,AC Gilchrist,RE van der Merwe,HH Gibbs,1,1,na,na
2nd innings,5.2,HH Gibbs,RE van der Merwe,AC Gilchrist,1,1,na,na
2nd innings,5.3,AC Gilchrist,RE van der Merwe,HH Gibbs,4,0,{'byes': 4},na
2nd innings,5.4,AC Gilchrist,RE van der Merwe,HH Gibbs,6,6,na,na
2nd innings,5.5,AC Gilchrist,RE van der Merwe,HH Gibbs,6,6,na,na
2nd innings,5.6,AC Gilchrist,RE van der Merwe,HH Gibbs,1,0,{'wides': 1},na
2nd innings,5.7,AC Gilchrist,RE van der Merwe,HH Gibbs,0,0,na,na
2nd innings,6.1,HH Gibbs,B Akhil,AC Gilchrist,0,0,na,na
2nd innings,6.2,HH Gibbs,B Akhil,AC Gilchrist,1,1,na,na
2nd innings,6.3,AC Gilchrist,B Akhil,HH Gibbs,1,1,na,na
2nd innings,6.4,HH Gibbs,B Akhil,AC Gilchrist,2,2,na,na
2nd innings,6.5,HH Gibbs,B Akhil,AC Gilchrist,0,0,na,"{'fielders': ['RE van der Merwe'], 'kind': 'caught', 'player_out': 'AC Gilchrist'}"
2nd innings,6.6,TL Suman,B Akhil,HH Gibbs,1,1,na,na
2nd innings,7.1,TL Suman,RE van der Merwe,HH Gibbs,1,1,na,na
2nd innings,7.2,HH Gibbs,RE van der Merwe,TL Suman,1,1,na,na
2nd innings,7.3,TL Suman,RE van der Merwe,HH Gibbs,1,0,{'legbyes': 1},na
2nd innings,7.4,HH Gibbs,RE van der Merwe,TL Suman,1,1,na,na
2nd innings,7.5,TL Suman,RE van der Merwe,HH Gibbs,1,1,na,na
2nd innings,7.6,HH Gibbs,RE van der Merwe,TL Suman,0,0,na,na
2nd innings,8.1,TL Suman,B Akhil,HH Gibbs,0,0,na,na
2nd innings,8.2,TL Suman,B Akhil,HH Gibbs,1,1,na,na
2nd innings,8.3,HH Gibbs,B Akhil,TL Suman,1,1,na,na
2nd innings,8.4,TL Suman,B Akhil,HH Gibbs,0,0,na,na
2nd innings,8.5,TL Suman,B Akhil,HH Gibbs,0,0,na,na
2nd innings,8.6,TL Suman,B Akhil,HH Gibbs,1,0,{'wides': 1},na
2nd innings,8.7,TL Suman,B Akhil,HH Gibbs,1,1,na,na
2nd innings,9.1,TL Suman,V Kohli,HH Gibbs,1,0,{'wides': 1},na
2nd innings,9.2,TL Suman,V Kohli,HH Gibbs,1,1,na,na
2nd innings,9.3,HH Gibbs,V Kohli,TL Suman,1,1,na,na
2nd innings,9.4,TL Suman,V Kohli,HH Gibbs,0,0,na,na
2nd innings,9.5,TL Suman,V Kohli,HH Gibbs,1,1,na,na
2nd innings,9.6,HH Gibbs,V Kohli,TL Suman,2,2,na,na
2nd innings,9.7,HH Gibbs,V Kohli,TL Suman,1,1,na,na
2nd innings,10.1,HH Gibbs,A Kumble,TL Suman,0,0,na,na
2nd innings,10.2,HH Gibbs,A Kumble,TL Suman,0,0,na,na
2nd innings,10.3,HH Gibbs,A Kumble,TL Suman,4,4,na,na
2nd innings,10.4,HH Gibbs,A Kumble,TL Suman,1,1,na,na
2nd innings,10.5,TL Suman,A Kumble,HH Gibbs,1,1,na,na
2nd innings,10.6,HH Gibbs,A Kumble,TL Suman,0,0,na,"{'fielders': ['RE van der Merwe'], 'kind': 'caught', 'player_out': 'TL Suman'}"
2nd innings,11.1,A Symonds,V Kohli,HH Gibbs,1,1,na,na
2nd innings,11.2,HH Gibbs,V Kohli,A Symonds,2,2,na,na
2nd innings,11.3,HH Gibbs,V Kohli,A Symonds,0,0,na,na
2nd innings,11.4,HH Gibbs,V Kohli,A Symonds,1,0,{'wides': 1},na
2nd innings,11.5,HH Gibbs,V Kohli,A Symonds,1,1,na,na
2nd innings,11.6,A Symonds,V Kohli,HH Gibbs,1,1,na,na
2nd innings,11.7,HH Gibbs,V Kohli,A Symonds,1,1,na,na
2nd innings,12.1,HH Gibbs,RE van der Merwe,A Symonds,0,0,na,na
2nd innings,12.2,HH Gibbs,RE van der Merwe,A Symonds,0,0,na,na
2nd innings,12.3,HH Gibbs,RE van der Merwe,A Symonds,1,0,{'wides': 1},na
2nd innings,12.4,HH Gibbs,RE van der Merwe,A Symonds,0,0,na,na
2nd innings,12.5,HH Gibbs,RE van der Merwe,A Symonds,4,4,na,na
2nd innings,12.6,HH Gibbs,RE van der Merwe,A Symonds,1,1,na,na
2nd innings,12.7,A Symonds,RE van der Merwe,HH Gibbs,1,1,na,na
2nd innings,13.1,A Symonds,V Kohli,HH Gibbs,2,2,na,na
2nd innings,13.2,A Symonds,V Kohli,HH Gibbs,1,1,na,na
2nd innings,13.3,HH Gibbs,V Kohli,A Symonds,6,6,na,na
2nd innings,13.4,HH Gibbs,V Kohli,A Symonds,1,1,na,na
2nd innings,13.5,A Symonds,V Kohli,HH Gibbs,1,1,na,na
2nd innings,13.6,HH Gibbs,V Kohli,A Symonds,0,0,na,na
2nd innings,14.1,A Symonds,B Akhil,HH Gibbs,0,0,na,"{'fielders': ['MK Pandey'], 'kind': 'caught', 'player_out': 'HH Gibbs'}"
2nd innings,14.2,RG Sharma,B Akhil,A Symonds,1,1,na,na
2nd innings,14.3,A Symonds,B Akhil,RG Sharma,0,0,na,na
2nd innings,14.4,A Symonds,B Akhil,RG Sharma,1,1,na,na
2nd innings,14.5,RG Sharma,B Akhil,A Symonds,1,1,na,na
2nd innings,14.6,A Symonds,B Akhil,RG Sharma,0,0,na,na
2nd innings,15.1,RG Sharma,RE van der Merwe,A Symonds,0,0,na,"{'kind': 'bowled', 'player_out': 'A Symonds'}"
2nd innings,15.2,RG Sharma,RE van der Merwe,Y Venugopal Rao,1,1,na,na
2nd innings,15.3,Y Venugopal Rao,RE van der Merwe,RG Sharma,1,1,na,na
2nd innings,15.4,RG Sharma,RE van der Merwe,Y Venugopal Rao,2,2,na,na
2nd innings,15.5,RG Sharma,RE van der Merwe,Y Venugopal Rao,1,1,na,na
2nd innings,15.6,Y Venugopal Rao,RE van der Merwe,RG Sharma,1,1,na,na
2nd innings,16.1,Y Venugopal Rao,B Akhil,RG Sharma,1,1,na,na
2nd innings,16.2,RG Sharma,B Akhil,Y Venugopal Rao,1,1,na,na
2nd innings,16.3,Y Venugopal Rao,B Akhil,RG Sharma,1,1,na,na
2nd innings,16.4,RG Sharma,B Akhil,Y Venugopal Rao,1,1,na,na
2nd innings,16.5,Y Venugopal Rao,B Akhil,RG Sharma,1,1,na,na
2nd innings,16.6,RG Sharma,B Akhil,Y Venugopal Rao,1,1,na,na
2nd innings,17.1,RG Sharma,P Kumar,Y Venugopal Rao,1,1,na,na
2nd innings,17.2,Y Venugopal Rao,P Kumar,RG Sharma,4,4,na,na
2nd innings,17.3,Y Venugopal Rao,P Kumar,RG Sharma,1,1,na,na
2nd innings,17.4,RG Sharma,P Kumar,Y Venugopal Rao,0,0,na,na
2nd innings,17.5,RG Sharma,P Kumar,Y Venugopal Rao,0,0,na,"{'fielders': ['MV Boucher', 'P Kumar'], 'kind': 'run out', 'player_out': 'Y Venugopal Rao'}"
2nd innings,17.6,AA Bilakhia,P Kumar,RG Sharma,1,1,na,na
2nd innings,18.1,AA Bilakhia,A Kumble,RG Sharma,0,0,na,"{'fielders': ['V Kohli'], 'kind': 'caught', 'player_out': 'RG Sharma'}"
2nd innings,18.2,RJ Harris,A Kumble,AA Bilakhia,1,1,na,na
2nd innings,18.3,AA Bilakhia,A Kumble,RJ Harris,1,1,na,na
2nd innings,18.4,RJ Harris,A Kumble,AA Bilakhia,4,4,na,na
2nd innings,18.5,RJ Harris,A Kumble,AA Bilakhia,1,1,na,na
2nd innings,18.6,AA Bilakhia,A Kumble,RJ Harris,0,0,na,na
2nd innings,19.1,RJ Harris,P Kumar,AA Bilakhia,2,2,na,na
2nd innings,19.2,RJ Harris,P Kumar,AA Bilakhia,4,4,na,na
2nd innings,19.3,RJ Harris,P Kumar,AA Bilakhia,2,2,na,na
2nd innings,19.4,RJ Harris,P Kumar,AA Bilakhia,1,1,na,na
2nd innings,19.5,AA Bilakhia,P Kumar,RJ Harris,3,3,na,na
2nd innings,19.6,RJ Harris,P Kumar,AA Bilakhia,1,1,na,na
