innings,deliveries,non_striker,bowler,batsman,total_runs,batsman_runs,extras,wickets
1st innings,0.1,SC Ganguly,B Lee,CH Gayle,0,0,na,na
1st innings,0.2,SC Ganguly,B Lee,CH Gayle,0,0,na,na
1st innings,0.3,SC Ganguly,B Lee,CH Gayle,4,4,na,na
1st innings,0.4,SC Ganguly,B Lee,CH Gayle,4,4,na,na
1st innings,0.5,SC Ganguly,B Lee,CH Gayle,3,2,{'noballs': 1},na
1st innings,0.6,SC Ganguly,B Lee,CH Gayle,4,0,{'byes': 4},na
1st innings,0.7,SC Ganguly,B Lee,CH Gayle,4,4,na,na
1st innings,1.1,CH Gayle,IK Pathan,SC Ganguly,0,0,na,na
1st innings,1.2,CH Gayle,IK Pathan,SC Ganguly,0,0,na,na
1st innings,1.3,CH Gayle,IK Pathan,SC Ganguly,0,0,na,na
1st innings,1.4,CH Gayle,IK Pathan,SC Ganguly,4,4,na,na
1st innings,1.5,CH Gayle,IK Pathan,SC Ganguly,4,4,na,na
1st innings,1.6,CH Gayle,IK Pathan,SC Ganguly,0,0,na,na
1st innings,2.1,SC Ganguly,SJ Srivastava,CH Gayle,0,0,na,na
1st innings,2.2,SC Ganguly,SJ Srivastava,CH Gayle,0,0,na,na
1st innings,2.3,SC Ganguly,SJ Srivastava,CH Gayle,0,0,na,na
1st innings,2.4,SC Ganguly,SJ Srivastava,CH Gayle,1,0,{'wides': 1},na
1st innings,2.5,SC Ganguly,SJ Srivastava,CH Gayle,0,0,na,na
1st innings,2.6,SC Ganguly,SJ Srivastava,CH Gayle,0,0,na,"{'fielders': ['MS Bisla'], 'kind': 'caught', 'player_out': 'CH Gayle'}"
1st innings,2.7,SC Ganguly,SJ Srivastava,Mandeep Singh,0,0,na,na
1st innings,3.1,Mandeep Singh,B Lee,SC Ganguly,0,0,na,na
1st innings,3.2,Mandeep Singh,B Lee,SC Ganguly,1,1,na,na
1st innings,3.3,SC Ganguly,B Lee,Mandeep Singh,0,0,na,na
1st innings,3.4,SC Ganguly,B Lee,Mandeep Singh,0,0,na,na
1st innings,3.5,SC Ganguly,B Lee,Mandeep Singh,0,0,na,na
1st innings,3.6,SC Ganguly,B Lee,Mandeep Singh,4,4,na,na
1st innings,4.1,Mandeep Singh,SJ Srivastava,SC Ganguly,4,4,na,na
1st innings,4.2,Mandeep Singh,SJ Srivastava,SC Ganguly,2,2,na,na
1st innings,4.3,Mandeep Singh,SJ Srivastava,SC Ganguly,1,0,{'wides': 1},na
1st innings,4.4,Mandeep Singh,SJ Srivastava,SC Ganguly,4,4,na,na
1st innings,4.5,Mandeep Singh,SJ Srivastava,SC Ganguly,1,1,na,na
1st innings,4.6,SC Ganguly,SJ Srivastava,Mandeep Singh,0,0,na,na
1st innings,4.7,SC Ganguly,SJ Srivastava,Mandeep Singh,0,0,na,"{'fielders': ['B Lee'], 'kind': 'caught', 'player_out': 'Mandeep Singh'}"
1st innings,5.1,MK Tiwary,VS Malik,SC Ganguly,1,1,na,na
1st innings,5.2,SC Ganguly,VS Malik,MK Tiwary,0,0,na,na
1st innings,5.3,SC Ganguly,VS Malik,MK Tiwary,2,1,{'noballs': 1},na
1st innings,5.4,MK Tiwary,VS Malik,SC Ganguly,0,0,na,na
1st innings,5.5,MK Tiwary,VS Malik,SC Ganguly,1,1,na,na
1st innings,5.6,SC Ganguly,VS Malik,MK Tiwary,1,1,na,na
1st innings,5.7,MK Tiwary,VS Malik,SC Ganguly,0,0,na,na
1st innings,6.1,SC Ganguly,PP Chawla,MK Tiwary,1,1,na,na
1st innings,6.2,MK Tiwary,PP Chawla,SC Ganguly,1,1,na,na
1st innings,6.3,SC Ganguly,PP Chawla,MK Tiwary,1,1,na,na
1st innings,6.4,MK Tiwary,PP Chawla,SC Ganguly,0,0,na,na
1st innings,6.5,MK Tiwary,PP Chawla,SC Ganguly,1,1,na,na
1st innings,6.6,SC Ganguly,PP Chawla,MK Tiwary,1,1,na,na
1st innings,7.1,SC Ganguly,VS Malik,MK Tiwary,0,0,na,na
1st innings,7.2,SC Ganguly,VS Malik,MK Tiwary,0,0,na,na
1st innings,7.3,SC Ganguly,VS Malik,MK Tiwary,0,0,na,na
1st innings,7.4,SC Ganguly,VS Malik,MK Tiwary,0,0,na,na
1st innings,7.5,SC Ganguly,VS Malik,MK Tiwary,1,1,na,na
1st innings,7.6,MK Tiwary,VS Malik,SC Ganguly,0,0,na,na
1st innings,8.1,SC Ganguly,SJ Srivastava,MK Tiwary,1,0,{'wides': 1},na
1st innings,8.2,SC Ganguly,SJ Srivastava,MK Tiwary,0,0,na,na
1st innings,8.3,SC Ganguly,SJ Srivastava,MK Tiwary,1,1,na,na
1st innings,8.4,MK Tiwary,SJ Srivastava,SC Ganguly,4,4,na,na
1st innings,8.5,MK Tiwary,SJ Srivastava,SC Ganguly,1,1,na,na
1st innings,8.6,SC Ganguly,SJ Srivastava,MK Tiwary,1,0,{'wides': 1},na
1st innings,8.7,SC Ganguly,SJ Srivastava,MK Tiwary,1,1,na,na
1st innings,8.8,MK Tiwary,SJ Srivastava,SC Ganguly,1,1,na,na
1st innings,9.1,MK Tiwary,RS Bopara,SC Ganguly,1,1,na,na
1st innings,9.2,SC Ganguly,RS Bopara,MK Tiwary,1,1,na,na
1st innings,9.3,MK Tiwary,RS Bopara,SC Ganguly,0,0,na,na
1st innings,9.4,MK Tiwary,RS Bopara,SC Ganguly,1,1,na,na
1st innings,9.5,SC Ganguly,RS Bopara,MK Tiwary,4,4,na,na
1st innings,9.6,SC Ganguly,RS Bopara,MK Tiwary,2,2,na,na
1st innings,10.1,MK Tiwary,PP Chawla,SC Ganguly,1,1,na,na
1st innings,10.2,SC Ganguly,PP Chawla,MK Tiwary,1,1,na,na
1st innings,10.3,MK Tiwary,PP Chawla,SC Ganguly,1,1,na,na
1st innings,10.4,SC Ganguly,PP Chawla,MK Tiwary,1,1,na,na
1st innings,10.5,MK Tiwary,PP Chawla,SC Ganguly,6,6,na,na
1st innings,10.6,MK Tiwary,PP Chawla,SC Ganguly,4,4,na,na
1st innings,11.1,SC Ganguly,VS Malik,MK Tiwary,4,4,na,na
1st innings,11.2,SC Ganguly,VS Malik,MK Tiwary,1,1,na,na
1st innings,11.3,MK Tiwary,VS Malik,SC Ganguly,1,0,{'wides': 1},na
1st innings,11.4,MK Tiwary,VS Malik,SC Ganguly,1,1,na,na
1st innings,11.5,SC Ganguly,VS Malik,MK Tiwary,4,4,na,na
1st innings,11.6,SC Ganguly,VS Malik,MK Tiwary,1,1,na,na
1st innings,11.7,MK Tiwary,VS Malik,SC Ganguly,0,0,na,na
1st innings,12.1,SC Ganguly,B Lee,MK Tiwary,2,2,na,na
1st innings,12.2,SC Ganguly,B Lee,MK Tiwary,1,1,na,na
1st innings,12.3,MK Tiwary,B Lee,SC Ganguly,1,1,na,na
1st innings,12.4,SC Ganguly,B Lee,MK Tiwary,4,4,na,na
1st innings,12.5,SC Ganguly,B Lee,MK Tiwary,1,1,na,na
1st innings,12.6,MK Tiwary,B Lee,SC Ganguly,1,1,na,na
1st innings,13.1,MK Tiwary,RS Bopara,SC Ganguly,2,2,na,na
1st innings,13.2,MK Tiwary,RS Bopara,SC Ganguly,0,0,na,na
1st innings,13.3,MK Tiwary,RS Bopara,SC Ganguly,1,1,na,na
1st innings,13.4,SC Ganguly,RS Bopara,MK Tiwary,4,4,na,na
1st innings,13.5,SC Ganguly,RS Bopara,MK Tiwary,4,0,{'byes': 4},na
1st innings,13.6,SC Ganguly,RS Bopara,MK Tiwary,2,2,na,na
1st innings,14.1,MK Tiwary,IK Pathan,SC Ganguly,0,0,na,na
1st innings,14.2,MK Tiwary,IK Pathan,SC Ganguly,0,0,na,na
1st innings,14.3,MK Tiwary,IK Pathan,SC Ganguly,0,0,na,"{'fielders': ['PP Chawla'], 'kind': 'caught', 'player_out': 'SC Ganguly'}"
1st innings,14.4,DJ Hussey,IK Pathan,MK Tiwary,1,1,na,na
1st innings,14.5,MK Tiwary,IK Pathan,DJ Hussey,1,1,na,na
1st innings,14.6,DJ Hussey,IK Pathan,MK Tiwary,0,0,na,na
1st innings,15.1,MK Tiwary,PP Chawla,DJ Hussey,1,1,na,na
1st innings,15.2,DJ Hussey,PP Chawla,MK Tiwary,1,1,na,na
1st innings,15.3,MK Tiwary,PP Chawla,DJ Hussey,1,1,na,na
1st innings,15.4,DJ Hussey,PP Chawla,MK Tiwary,1,1,na,na
1st innings,15.5,MK Tiwary,PP Chawla,DJ Hussey,0,0,na,na
1st innings,15.6,MK Tiwary,PP Chawla,DJ Hussey,0,0,na,"{'kind': 'bowled', 'player_out': 'DJ Hussey'}"
1st innings,16.1,AD Mathews,IK Pathan,MK Tiwary,1,1,na,na
1st innings,16.2,MK Tiwary,IK Pathan,AD Mathews,1,1,na,na
1st innings,16.3,AD Mathews,IK Pathan,MK Tiwary,4,4,na,na
1st innings,16.4,AD Mathews,IK Pathan,MK Tiwary,1,1,na,na
1st innings,16.5,MK Tiwary,IK Pathan,AD Mathews,2,2,na,na
1st innings,16.6,MK Tiwary,IK Pathan,AD Mathews,1,0,{'wides': 1},na
1st innings,16.7,MK Tiwary,IK Pathan,AD Mathews,1,0,{'wides': 1},na
1st innings,16.8,MK Tiwary,IK Pathan,AD Mathews,0,0,na,na
1st innings,17.1,AD Mathews,PP Chawla,MK Tiwary,1,1,na,na
1st innings,17.2,MK Tiwary,PP Chawla,AD Mathews,2,2,na,na
1st innings,17.3,MK Tiwary,PP Chawla,AD Mathews,2,2,na,na
1st innings,17.4,MK Tiwary,PP Chawla,AD Mathews,1,1,na,na
1st innings,17.5,AD Mathews,PP Chawla,MK Tiwary,1,0,{'wides': 1},na
1st innings,17.6,AD Mathews,PP Chawla,MK Tiwary,1,1,na,na
1st innings,17.7,MK Tiwary,PP Chawla,AD Mathews,4,4,na,na
1st innings,18.1,AD Mathews,B Lee,MK Tiwary,1,1,na,na
1st innings,18.2,MK Tiwary,B Lee,AD Mathews,2,2,na,na
1st innings,18.3,MK Tiwary,B Lee,AD Mathews,1,1,na,na
1st innings,18.4,AD Mathews,B Lee,MK Tiwary,0,0,na,na
1st innings,18.5,AD Mathews,B Lee,MK Tiwary,1,1,na,na
1st innings,18.6,MK Tiwary,B Lee,AD Mathews,4,4,na,na
1st innings,19.1,AD Mathews,IK Pathan,MK Tiwary,1,1,na,na
1st innings,19.2,MK Tiwary,IK Pathan,AD Mathews,0,0,na,"{'fielders': ['B Lee'], 'kind': 'caught', 'player_out': 'AD Mathews'}"
1st innings,19.3,WP Saha,IK Pathan,MK Tiwary,6,6,na,na
1st innings,19.4,WP Saha,IK Pathan,MK Tiwary,4,4,na,na
1st innings,19.5,WP Saha,IK Pathan,MK Tiwary,6,6,na,na
1st innings,19.6,WP Saha,IK Pathan,MK Tiwary,4,4,na,na
2nd innings,0.1,Yuvraj Singh,SE Bond,RS Bopara,0,0,na,na
2nd innings,0.2,Yuvraj Singh,SE Bond,RS Bopara,0,0,na,"{'kind': 'lbw', 'player_out': 'RS Bopara'}"
2nd innings,0.3,Yuvraj Singh,SE Bond,MS Bisla,0,0,na,na
2nd innings,0.4,Yuvraj Singh,SE Bond,MS Bisla,1,1,na,na
2nd innings,0.5,MS Bisla,SE Bond,Yuvraj Singh,0,0,na,na
2nd innings,0.6,MS Bisla,SE Bond,Yuvraj Singh,0,0,na,na
2nd innings,1.1,Yuvraj Singh,AB Dinda,MS Bisla,4,4,na,na
2nd innings,1.2,Yuvraj Singh,AB Dinda,MS Bisla,0,0,na,na
2nd innings,1.3,Yuvraj Singh,AB Dinda,MS Bisla,0,0,na,na
2nd innings,1.4,Yuvraj Singh,AB Dinda,MS Bisla,1,0,{'wides': 1},na
2nd innings,1.5,Yuvraj Singh,AB Dinda,MS Bisla,0,0,na,na
2nd innings,1.6,Yuvraj Singh,AB Dinda,MS Bisla,0,0,na,na
2nd innings,1.7,Yuvraj Singh,AB Dinda,MS Bisla,1,0,{'wides': 1},na
2nd innings,1.8,Yuvraj Singh,AB Dinda,MS Bisla,0,0,na,na
2nd innings,2.1,MS Bisla,SE Bond,Yuvraj Singh,1,1,na,na
2nd innings,2.2,Yuvraj Singh,SE Bond,MS Bisla,0,0,na,na
2nd innings,2.3,Yuvraj Singh,SE Bond,MS Bisla,0,0,na,na
2nd innings,2.4,Yuvraj Singh,SE Bond,MS Bisla,1,1,na,na
2nd innings,2.5,MS Bisla,SE Bond,Yuvraj Singh,0,0,na,na
2nd innings,2.6,MS Bisla,SE Bond,Yuvraj Singh,1,1,na,na
2nd innings,3.1,MS Bisla,AB Dinda,Yuvraj Singh,4,4,na,na
2nd innings,3.2,MS Bisla,AB Dinda,Yuvraj Singh,0,0,na,na
2nd innings,3.3,MS Bisla,AB Dinda,Yuvraj Singh,4,4,na,na
2nd innings,3.4,MS Bisla,AB Dinda,Yuvraj Singh,1,1,na,na
2nd innings,3.5,Yuvraj Singh,AB Dinda,MS Bisla,4,4,na,na
2nd innings,3.6,Yuvraj Singh,AB Dinda,MS Bisla,0,0,na,na
2nd innings,4.1,MS Bisla,CH Gayle,Yuvraj Singh,1,1,na,na
2nd innings,4.2,Yuvraj Singh,CH Gayle,MS Bisla,3,3,na,na
2nd innings,4.3,MS Bisla,CH Gayle,Yuvraj Singh,1,1,na,na
2nd innings,4.4,Yuvraj Singh,CH Gayle,MS Bisla,0,0,na,na
2nd innings,4.5,Yuvraj Singh,CH Gayle,MS Bisla,1,0,{'wides': 1},na
2nd innings,4.6,Yuvraj Singh,CH Gayle,MS Bisla,1,1,na,na
2nd innings,4.7,MS Bisla,CH Gayle,Yuvraj Singh,1,1,na,na
2nd innings,5.1,MS Bisla,AB Agarkar,Yuvraj Singh,0,0,na,na
2nd innings,5.2,MS Bisla,AB Agarkar,Yuvraj Singh,4,4,na,na
2nd innings,5.3,MS Bisla,AB Agarkar,Yuvraj Singh,6,6,na,na
2nd innings,5.4,MS Bisla,AB Agarkar,Yuvraj Singh,0,0,na,"{'fielders': ['MK Tiwary'], 'kind': 'caught', 'player_out': 'Yuvraj Singh'}"
2nd innings,5.5,KC Sangakkara,AB Agarkar,MS Bisla,1,1,na,na
2nd innings,5.6,MS Bisla,AB Agarkar,KC Sangakkara,0,0,na,na
2nd innings,6.1,KC Sangakkara,CH Gayle,MS Bisla,0,0,na,na
2nd innings,6.2,KC Sangakkara,CH Gayle,MS Bisla,1,0,{'wides': 1},na
2nd innings,6.3,KC Sangakkara,CH Gayle,MS Bisla,4,4,na,na
2nd innings,6.4,KC Sangakkara,CH Gayle,MS Bisla,0,0,na,na
2nd innings,6.5,KC Sangakkara,CH Gayle,MS Bisla,1,1,na,na
2nd innings,6.6,MS Bisla,CH Gayle,KC Sangakkara,0,0,na,na
2nd innings,6.7,MS Bisla,CH Gayle,KC Sangakkara,4,4,na,na
2nd innings,7.1,KC Sangakkara,AB Agarkar,MS Bisla,0,0,na,na
2nd innings,7.2,KC Sangakkara,AB Agarkar,MS Bisla,2,2,na,na
2nd innings,7.3,KC Sangakkara,AB Agarkar,MS Bisla,0,0,na,"{'fielders': ['DJ Hussey'], 'kind': 'caught', 'player_out': 'MS Bisla'}"
2nd innings,7.4,KC Sangakkara,AB Agarkar,DPMD Jayawardene,2,2,na,na
2nd innings,7.5,KC Sangakkara,AB Agarkar,DPMD Jayawardene,0,0,na,na
2nd innings,7.6,KC Sangakkara,AB Agarkar,DPMD Jayawardene,2,2,na,na
2nd innings,8.1,DPMD Jayawardene,Iqbal Abdulla,KC Sangakkara,0,0,na,na
2nd innings,8.2,DPMD Jayawardene,Iqbal Abdulla,KC Sangakkara,4,4,na,na
2nd innings,8.3,DPMD Jayawardene,Iqbal Abdulla,KC Sangakkara,1,1,na,na
2nd innings,8.4,KC Sangakkara,Iqbal Abdulla,DPMD Jayawardene,2,2,na,na
2nd innings,8.5,KC Sangakkara,Iqbal Abdulla,DPMD Jayawardene,0,0,na,na
2nd innings,8.6,KC Sangakkara,Iqbal Abdulla,DPMD Jayawardene,0,0,na,na
2nd innings,9.1,DPMD Jayawardene,AB Agarkar,KC Sangakkara,0,0,na,na
2nd innings,9.2,DPMD Jayawardene,AB Agarkar,KC Sangakkara,2,2,na,na
2nd innings,9.3,DPMD Jayawardene,AB Agarkar,KC Sangakkara,1,1,na,na
2nd innings,9.4,KC Sangakkara,AB Agarkar,DPMD Jayawardene,4,4,na,na
2nd innings,9.5,KC Sangakkara,AB Agarkar,DPMD Jayawardene,1,1,na,na
2nd innings,9.6,DPMD Jayawardene,AB Agarkar,KC Sangakkara,1,1,na,na
2nd innings,10.1,DPMD Jayawardene,Iqbal Abdulla,KC Sangakkara,0,0,na,na
2nd innings,10.2,DPMD Jayawardene,Iqbal Abdulla,KC Sangakkara,1,1,na,na
2nd innings,10.3,KC Sangakkara,Iqbal Abdulla,DPMD Jayawardene,1,1,na,na
2nd innings,10.4,DPMD Jayawardene,Iqbal Abdulla,KC Sangakkara,1,1,na,na
2nd innings,10.5,KC Sangakkara,Iqbal Abdulla,DPMD Jayawardene,1,1,na,na
2nd innings,10.6,DPMD Jayawardene,Iqbal Abdulla,KC Sangakkara,1,1,na,na
2nd innings,11.1,DPMD Jayawardene,AD Mathews,KC Sangakkara,0,0,na,na
2nd innings,11.2,DPMD Jayawardene,AD Mathews,KC Sangakkara,0,0,na,na
2nd innings,11.3,DPMD Jayawardene,AD Mathews,KC Sangakkara,1,1,na,na
2nd innings,11.4,KC Sangakkara,AD Mathews,DPMD Jayawardene,1,1,na,na
2nd innings,11.5,DPMD Jayawardene,AD Mathews,KC Sangakkara,0,0,na,na
2nd innings,11.6,DPMD Jayawardene,AD Mathews,KC Sangakkara,1,1,na,na
2nd innings,12.1,DPMD Jayawardene,DJ Hussey,KC Sangakkara,1,1,na,na
2nd innings,12.2,KC Sangakkara,DJ Hussey,DPMD Jayawardene,1,1,na,na
2nd innings,12.3,DPMD Jayawardene,DJ Hussey,KC Sangakkara,2,2,na,na
2nd innings,12.4,DPMD Jayawardene,DJ Hussey,KC Sangakkara,2,2,na,na
2nd innings,12.5,DPMD Jayawardene,DJ Hussey,KC Sangakkara,1,1,na,na
2nd innings,12.6,KC Sangakkara,DJ Hussey,DPMD Jayawardene,0,0,na,na
2nd innings,13.1,DPMD Jayawardene,AD Mathews,KC Sangakkara,1,1,na,na
2nd innings,13.2,KC Sangakkara,AD Mathews,DPMD Jayawardene,1,1,na,na
2nd innings,13.3,DPMD Jayawardene,AD Mathews,KC Sangakkara,1,1,na,na
2nd innings,13.4,KC Sangakkara,AD Mathews,DPMD Jayawardene,0,0,na,"{'kind': 'bowled', 'player_out': 'DPMD Jayawardene'}"
2nd innings,13.5,KC Sangakkara,AD Mathews,IK Pathan,1,1,na,na
2nd innings,13.6,IK Pathan,AD Mathews,KC Sangakkara,4,4,na,na
2nd innings,14.1,KC Sangakkara,CH Gayle,IK Pathan,1,1,na,na
2nd innings,14.2,IK Pathan,CH Gayle,KC Sangakkara,0,0,na,"{'fielders': ['WP Saha'], 'kind': 'stumped', 'player_out': 'KC Sangakkara'}"
2nd innings,14.3,IK Pathan,CH Gayle,K Goel,1,1,na,na
2nd innings,14.4,K Goel,CH Gayle,IK Pathan,1,1,na,na
2nd innings,14.5,IK Pathan,CH Gayle,K Goel,1,1,na,na
2nd innings,14.6,K Goel,CH Gayle,IK Pathan,1,1,na,na
2nd innings,15.1,K Goel,AD Mathews,IK Pathan,6,6,na,na
2nd innings,15.2,K Goel,AD Mathews,IK Pathan,1,1,na,na
2nd innings,15.3,IK Pathan,AD Mathews,K Goel,0,0,na,na
2nd innings,15.4,IK Pathan,AD Mathews,K Goel,0,0,na,na
2nd innings,15.5,IK Pathan,AD Mathews,K Goel,1,1,na,na
2nd innings,15.6,K Goel,AD Mathews,IK Pathan,1,1,na,na
2nd innings,16.1,K Goel,SE Bond,IK Pathan,2,2,na,na
2nd innings,16.2,K Goel,SE Bond,IK Pathan,4,4,na,na
2nd innings,16.3,K Goel,SE Bond,IK Pathan,1,1,na,na
2nd innings,16.4,IK Pathan,SE Bond,K Goel,4,4,na,na
2nd innings,16.5,IK Pathan,SE Bond,K Goel,0,0,na,na
2nd innings,16.6,IK Pathan,SE Bond,K Goel,0,0,na,na
2nd innings,17.1,K Goel,AD Mathews,IK Pathan,1,1,na,na
2nd innings,17.2,IK Pathan,AD Mathews,K Goel,1,1,na,na
2nd innings,17.3,K Goel,AD Mathews,IK Pathan,1,1,na,na
2nd innings,17.4,IK Pathan,AD Mathews,K Goel,1,1,na,na
2nd innings,17.5,K Goel,AD Mathews,IK Pathan,1,1,na,na
2nd innings,17.6,IK Pathan,AD Mathews,K Goel,1,1,na,na
2nd innings,18.1,IK Pathan,SE Bond,K Goel,6,6,na,na
2nd innings,18.2,IK Pathan,SE Bond,K Goel,0,0,na,na
2nd innings,18.3,IK Pathan,SE Bond,K Goel,0,0,na,na
2nd innings,18.4,IK Pathan,SE Bond,K Goel,1,1,na,na
2nd innings,18.5,K Goel,SE Bond,IK Pathan,0,0,na,"{'kind': 'caught and bowled', 'player_out': 'IK Pathan'}"
2nd innings,18.6,K Goel,SE Bond,B Lee,1,0,{'wides': 1},na
2nd innings,18.7,K Goel,SE Bond,B Lee,1,1,na,na
2nd innings,19.1,K Goel,AB Agarkar,B Lee,4,4,na,na
2nd innings,19.2,K Goel,AB Agarkar,B Lee,1,1,na,na
2nd innings,19.3,B Lee,AB Agarkar,K Goel,1,0,{'byes': 1},na
2nd innings,19.4,K Goel,AB Agarkar,B Lee,0,0,na,na
2nd innings,19.5,K Goel,AB Agarkar,B Lee,1,1,na,na
2nd innings,19.6,B Lee,AB Agarkar,K Goel,0,0,na,na
