innings,deliveries,non_striker,bowler,batsman,total_runs,batsman_runs,extras,wickets
1st innings,0.1,AC Gilchrist,DW Steyn,HH Gibbs,0,0,na,na
1st innings,0.2,AC Gilchrist,DW Steyn,HH Gibbs,0,0,na,na
1st innings,0.3,AC Gilchrist,DW Steyn,HH Gibbs,1,1,na,na
1st innings,0.4,HH Gibbs,DW Steyn,AC Gilchrist,0,0,na,"{'fielders': ['RV Uthappa'], 'kind': 'caught', 'player_out': 'AC Gilchrist'}"
1st innings,0.5,HH Gibbs,DW Steyn,TL Suman,0,0,na,"{'fielders': ['LRPL Taylor'], 'kind': 'caught', 'player_out': 'TL Suman'}"
1st innings,0.6,HH Gibbs,DW Steyn,RG Sharma,0,0,na,na
1st innings,1.1,RG Sharma,R Vinay Kumar,HH Gibbs,0,0,na,na
1st innings,1.2,RG Sharma,R Vinay Kumar,HH Gibbs,0,0,na,na
1st innings,1.3,RG Sharma,R Vinay Kumar,HH Gibbs,6,6,na,na
1st innings,1.4,RG Sharma,R Vinay Kumar,HH Gibbs,1,1,na,na
1st innings,1.5,HH Gibbs,R Vinay Kumar,RG Sharma,2,0,{'legbyes': 2},na
1st innings,1.6,HH Gibbs,R Vinay Kumar,RG Sharma,0,0,na,na
1st innings,2.1,RG Sharma,DW Steyn,HH Gibbs,4,4,na,na
1st innings,2.2,RG Sharma,DW Steyn,HH Gibbs,0,0,na,na
1st innings,2.3,RG Sharma,DW Steyn,HH Gibbs,0,0,na,"{'kind': 'bowled', 'player_out': 'HH Gibbs'}"
1st innings,2.4,RG Sharma,DW Steyn,MD Mishra,1,0,{'wides': 1},na
1st innings,2.5,RG Sharma,DW Steyn,MD Mishra,0,0,na,na
1st innings,2.6,RG Sharma,DW Steyn,MD Mishra,0,0,na,na
1st innings,2.7,RG Sharma,DW Steyn,MD Mishra,1,1,na,na
1st innings,3.1,RG Sharma,R Vinay Kumar,MD Mishra,1,1,na,na
1st innings,3.2,MD Mishra,R Vinay Kumar,RG Sharma,0,0,na,na
1st innings,3.3,MD Mishra,R Vinay Kumar,RG Sharma,0,0,na,na
1st innings,3.4,MD Mishra,R Vinay Kumar,RG Sharma,2,2,na,na
1st innings,3.5,MD Mishra,R Vinay Kumar,RG Sharma,0,0,na,na
1st innings,3.6,MD Mishra,R Vinay Kumar,RG Sharma,1,1,na,na
1st innings,4.1,MD Mishra,DW Steyn,RG Sharma,2,0,{'legbyes': 2},na
1st innings,4.2,MD Mishra,DW Steyn,RG Sharma,0,0,na,na
1st innings,4.3,MD Mishra,DW Steyn,RG Sharma,1,1,na,na
1st innings,4.4,RG Sharma,DW Steyn,MD Mishra,0,0,na,na
1st innings,4.5,RG Sharma,DW Steyn,MD Mishra,1,1,na,na
1st innings,4.6,MD Mishra,DW Steyn,RG Sharma,4,4,na,na
1st innings,5.1,RG Sharma,JH Kallis,MD Mishra,0,0,na,na
1st innings,5.2,RG Sharma,JH Kallis,MD Mishra,2,2,na,na
1st innings,5.3,RG Sharma,JH Kallis,MD Mishra,4,4,na,na
1st innings,5.4,RG Sharma,JH Kallis,MD Mishra,1,1,na,na
1st innings,5.5,MD Mishra,JH Kallis,RG Sharma,0,0,na,na
1st innings,5.6,MD Mishra,JH Kallis,RG Sharma,0,0,na,na
1st innings,6.1,RG Sharma,A Kumble,MD Mishra,1,1,na,na
1st innings,6.2,MD Mishra,A Kumble,RG Sharma,1,1,na,na
1st innings,6.3,RG Sharma,A Kumble,MD Mishra,1,1,na,na
1st innings,6.4,MD Mishra,A Kumble,RG Sharma,4,4,na,na
1st innings,6.5,MD Mishra,A Kumble,RG Sharma,0,0,na,na
1st innings,6.6,MD Mishra,A Kumble,RG Sharma,1,1,na,na
1st innings,7.1,MD Mishra,V Kohli,RG Sharma,1,1,na,na
1st innings,7.2,RG Sharma,V Kohli,MD Mishra,0,0,na,na
1st innings,7.3,RG Sharma,V Kohli,MD Mishra,0,0,na,na
1st innings,7.4,RG Sharma,V Kohli,MD Mishra,1,1,na,na
1st innings,7.5,MD Mishra,V Kohli,RG Sharma,1,1,na,na
1st innings,7.6,RG Sharma,V Kohli,MD Mishra,1,1,na,na
1st innings,8.1,RG Sharma,A Kumble,MD Mishra,1,1,na,na
1st innings,8.2,MD Mishra,A Kumble,RG Sharma,0,0,na,na
1st innings,8.3,MD Mishra,A Kumble,RG Sharma,2,1,{'noballs': 1},na
1st innings,8.4,RG Sharma,A Kumble,MD Mishra,0,0,na,na
1st innings,8.5,RG Sharma,A Kumble,MD Mishra,6,6,na,na
1st innings,8.6,RG Sharma,A Kumble,MD Mishra,1,1,na,na
1st innings,8.7,MD Mishra,A Kumble,RG Sharma,2,2,na,na
1st innings,9.1,RG Sharma,V Kohli,MD Mishra,0,0,na,na
1st innings,9.2,RG Sharma,V Kohli,MD Mishra,6,6,na,na
1st innings,9.3,RG Sharma,V Kohli,MD Mishra,2,2,na,na
1st innings,9.4,RG Sharma,V Kohli,MD Mishra,2,2,na,na
1st innings,9.5,RG Sharma,V Kohli,MD Mishra,1,1,na,na
1st innings,9.6,MD Mishra,V Kohli,RG Sharma,1,1,na,na
1st innings,10.1,MD Mishra,KP Appanna,RG Sharma,2,2,na,na
1st innings,10.2,MD Mishra,KP Appanna,RG Sharma,0,0,na,na
1st innings,10.3,MD Mishra,KP Appanna,RG Sharma,1,1,na,na
1st innings,10.4,RG Sharma,KP Appanna,MD Mishra,0,0,na,na
1st innings,10.5,RG Sharma,KP Appanna,MD Mishra,6,6,na,na
1st innings,10.6,RG Sharma,KP Appanna,MD Mishra,1,1,na,na
1st innings,11.1,RG Sharma,JH Kallis,MD Mishra,1,1,na,na
1st innings,11.2,MD Mishra,JH Kallis,RG Sharma,4,4,na,na
1st innings,11.3,MD Mishra,JH Kallis,RG Sharma,4,4,na,na
1st innings,11.4,MD Mishra,JH Kallis,RG Sharma,4,4,na,na
1st innings,11.5,MD Mishra,JH Kallis,RG Sharma,1,1,na,na
1st innings,11.6,RG Sharma,JH Kallis,MD Mishra,0,0,na,na
1st innings,12.1,MD Mishra,KP Appanna,RG Sharma,0,0,na,na
1st innings,12.2,MD Mishra,KP Appanna,RG Sharma,0,0,na,na
1st innings,12.3,MD Mishra,KP Appanna,RG Sharma,1,1,na,"{'fielders': ['DW Steyn', 'RV Uthappa'], 'kind': 'run out', 'player_out': 'MD Mishra'}"
1st innings,12.4,RG Sharma,KP Appanna,A Symonds,1,1,na,na
1st innings,12.5,A Symonds,KP Appanna,RG Sharma,1,1,na,na
1st innings,12.6,RG Sharma,KP Appanna,A Symonds,1,1,na,na
1st innings,13.1,RG Sharma,A Kumble,A Symonds,0,0,na,na
1st innings,13.2,RG Sharma,A Kumble,A Symonds,0,0,na,na
1st innings,13.3,RG Sharma,A Kumble,A Symonds,2,2,na,na
1st innings,13.4,RG Sharma,A Kumble,A Symonds,1,1,na,na
1st innings,13.5,A Symonds,A Kumble,RG Sharma,0,0,na,na
1st innings,13.6,A Symonds,A Kumble,RG Sharma,0,0,na,na
1st innings,14.1,RG Sharma,JH Kallis,A Symonds,0,0,na,na
1st innings,14.2,RG Sharma,JH Kallis,A Symonds,0,0,na,na
1st innings,14.3,RG Sharma,JH Kallis,A Symonds,4,4,na,na
1st innings,14.4,RG Sharma,JH Kallis,A Symonds,0,0,na,na
1st innings,14.5,RG Sharma,JH Kallis,A Symonds,1,1,na,na
1st innings,14.6,A Symonds,JH Kallis,RG Sharma,4,4,na,na
1st innings,15.1,RG Sharma,KP Appanna,A Symonds,1,1,na,na
1st innings,15.2,A Symonds,KP Appanna,RG Sharma,1,1,na,na
1st innings,15.3,RG Sharma,KP Appanna,A Symonds,1,1,na,na
1st innings,15.4,A Symonds,KP Appanna,RG Sharma,0,0,na,na
1st innings,15.5,A Symonds,KP Appanna,RG Sharma,4,4,na,na
1st innings,15.6,A Symonds,KP Appanna,RG Sharma,2,0,{'wides': 2},na
1st innings,15.7,RG Sharma,KP Appanna,A Symonds,4,4,na,na
1st innings,16.1,A Symonds,DW Steyn,RG Sharma,1,1,na,na
1st innings,16.2,RG Sharma,DW Steyn,A Symonds,0,0,na,na
1st innings,16.3,RG Sharma,DW Steyn,A Symonds,1,0,{'wides': 1},na
1st innings,16.4,RG Sharma,DW Steyn,A Symonds,1,1,na,na
1st innings,16.5,A Symonds,DW Steyn,RG Sharma,1,1,na,na
1st innings,16.6,RG Sharma,DW Steyn,A Symonds,0,0,na,na
1st innings,16.7,RG Sharma,DW Steyn,A Symonds,1,1,na,na
1st innings,17.1,RG Sharma,A Kumble,A Symonds,1,1,na,na
1st innings,17.2,A Symonds,A Kumble,RG Sharma,1,1,na,na
1st innings,17.3,RG Sharma,A Kumble,A Symonds,0,0,na,"{'fielders': ['RV Uthappa'], 'kind': 'stumped', 'player_out': 'A Symonds'}"
1st innings,17.4,RG Sharma,A Kumble,RJ Harris,1,1,na,na
1st innings,17.5,RJ Harris,A Kumble,RG Sharma,1,1,na,na
1st innings,17.6,RG Sharma,A Kumble,RJ Harris,0,0,na,na
1st innings,18.1,RJ Harris,R Vinay Kumar,RG Sharma,0,0,na,"{'fielders': ['MK Pandey'], 'kind': 'caught', 'player_out': 'RG Sharma'}"
1st innings,18.2,B Sumanth,R Vinay Kumar,RJ Harris,1,1,na,na
1st innings,18.3,RJ Harris,R Vinay Kumar,B Sumanth,2,2,na,na
1st innings,18.4,RJ Harris,R Vinay Kumar,B Sumanth,2,2,na,na
1st innings,18.5,RJ Harris,R Vinay Kumar,B Sumanth,1,1,na,na
1st innings,18.6,B Sumanth,R Vinay Kumar,RJ Harris,2,2,na,na
1st innings,19.1,RJ Harris,JH Kallis,B Sumanth,1,1,na,na
1st innings,19.2,B Sumanth,JH Kallis,RJ Harris,2,2,na,na
1st innings,19.3,B Sumanth,JH Kallis,RJ Harris,6,6,na,na
1st innings,19.4,B Sumanth,JH Kallis,RJ Harris,0,0,na,na
1st innings,19.5,B Sumanth,JH Kallis,RJ Harris,0,0,na,na
1st innings,19.6,B Sumanth,JH Kallis,RJ Harris,1,1,na,na
2nd innings,0.1,JH Kallis,RJ Harris,MK Pandey,0,0,na,"{'fielders': ['AC Gilchrist'], 'kind': 'caught', 'player_out': 'MK Pandey'}"
2nd innings,0.2,JH Kallis,RJ Harris,R Dravid,0,0,na,na
2nd innings,0.3,JH Kallis,RJ Harris,R Dravid,0,0,na,na
2nd innings,0.4,JH Kallis,RJ Harris,R Dravid,4,4,na,na
2nd innings,0.5,JH Kallis,RJ Harris,R Dravid,0,0,na,na
2nd innings,0.6,JH Kallis,RJ Harris,R Dravid,2,2,na,na
2nd innings,1.1,R Dravid,RP Singh,JH Kallis,4,4,na,na
2nd innings,1.2,R Dravid,RP Singh,JH Kallis,1,0,{'wides': 1},na
2nd innings,1.3,R Dravid,RP Singh,JH Kallis,0,0,na,na
2nd innings,1.4,R Dravid,RP Singh,JH Kallis,2,2,na,na
2nd innings,1.5,R Dravid,RP Singh,JH Kallis,0,0,na,na
2nd innings,1.6,R Dravid,RP Singh,JH Kallis,0,0,na,na
2nd innings,1.7,R Dravid,RP Singh,JH Kallis,1,1,na,na
2nd innings,2.1,R Dravid,RJ Harris,JH Kallis,0,0,na,na
2nd innings,2.2,R Dravid,RJ Harris,JH Kallis,0,0,na,na
2nd innings,2.3,R Dravid,RJ Harris,JH Kallis,1,1,na,na
2nd innings,2.4,JH Kallis,RJ Harris,R Dravid,1,1,na,na
2nd innings,2.5,R Dravid,RJ Harris,JH Kallis,0,0,na,na
2nd innings,2.6,R Dravid,RJ Harris,JH Kallis,2,2,na,na
2nd innings,3.1,JH Kallis,A Symonds,R Dravid,4,4,na,na
2nd innings,3.2,JH Kallis,A Symonds,R Dravid,0,0,na,na
2nd innings,3.3,JH Kallis,A Symonds,R Dravid,4,4,na,na
2nd innings,3.4,JH Kallis,A Symonds,R Dravid,1,1,na,na
2nd innings,3.5,R Dravid,A Symonds,JH Kallis,0,0,na,na
2nd innings,3.6,R Dravid,A Symonds,JH Kallis,0,0,na,na
2nd innings,4.1,JH Kallis,PP Ojha,R Dravid,4,4,na,na
2nd innings,4.2,JH Kallis,PP Ojha,R Dravid,0,0,na,na
2nd innings,4.3,JH Kallis,PP Ojha,R Dravid,0,0,na,na
2nd innings,4.4,JH Kallis,PP Ojha,R Dravid,1,0,{'legbyes': 1},na
2nd innings,4.5,R Dravid,PP Ojha,JH Kallis,0,0,na,na
2nd innings,4.6,R Dravid,PP Ojha,JH Kallis,0,0,na,na
2nd innings,5.1,JH Kallis,RP Singh,R Dravid,0,0,na,na
2nd innings,5.2,JH Kallis,RP Singh,R Dravid,0,0,na,na
2nd innings,5.3,JH Kallis,RP Singh,R Dravid,0,0,na,na
2nd innings,5.4,JH Kallis,RP Singh,R Dravid,1,1,na,na
2nd innings,5.5,R Dravid,RP Singh,JH Kallis,1,1,na,na
2nd innings,5.6,JH Kallis,RP Singh,R Dravid,3,0,{'wides': 3},na
2nd innings,5.7,JH Kallis,RP Singh,R Dravid,1,1,na,na
2nd innings,6.1,JH Kallis,PP Ojha,R Dravid,4,4,na,na
2nd innings,6.2,JH Kallis,PP Ojha,R Dravid,2,2,na,na
2nd innings,6.3,JH Kallis,PP Ojha,R Dravid,0,0,na,na
2nd innings,6.4,JH Kallis,PP Ojha,R Dravid,1,1,na,na
2nd innings,6.5,R Dravid,PP Ojha,JH Kallis,0,0,na,na
2nd innings,6.6,R Dravid,PP Ojha,JH Kallis,1,1,na,na
2nd innings,7.1,R Dravid,Harmeet Singh,JH Kallis,1,0,{'wides': 1},na
2nd innings,7.2,R Dravid,Harmeet Singh,JH Kallis,1,0,{'wides': 1},na
2nd innings,7.3,R Dravid,Harmeet Singh,JH Kallis,1,1,na,na
2nd innings,7.4,JH Kallis,Harmeet Singh,R Dravid,2,2,na,na
2nd innings,7.5,JH Kallis,Harmeet Singh,R Dravid,4,4,na,na
2nd innings,7.6,JH Kallis,Harmeet Singh,R Dravid,4,4,na,na
2nd innings,7.7,JH Kallis,Harmeet Singh,R Dravid,1,1,na,na
2nd innings,7.8,R Dravid,Harmeet Singh,JH Kallis,1,1,na,na
2nd innings,8.1,R Dravid,A Symonds,JH Kallis,1,1,na,na
2nd innings,8.2,JH Kallis,A Symonds,R Dravid,4,4,na,na
2nd innings,8.3,JH Kallis,A Symonds,R Dravid,1,1,na,na
2nd innings,8.4,R Dravid,A Symonds,JH Kallis,1,1,na,na
2nd innings,8.5,JH Kallis,A Symonds,R Dravid,0,0,na,na
2nd innings,8.6,JH Kallis,A Symonds,R Dravid,1,1,na,na
2nd innings,9.1,JH Kallis,Harmeet Singh,R Dravid,1,1,na,na
2nd innings,9.2,R Dravid,Harmeet Singh,JH Kallis,0,0,na,na
2nd innings,9.3,R Dravid,Harmeet Singh,JH Kallis,1,1,na,na
2nd innings,9.4,JH Kallis,Harmeet Singh,R Dravid,1,1,na,na
2nd innings,9.5,R Dravid,Harmeet Singh,JH Kallis,0,0,na,na
2nd innings,9.6,R Dravid,Harmeet Singh,JH Kallis,0,0,na,na
2nd innings,10.1,JH Kallis,A Symonds,R Dravid,1,1,na,na
2nd innings,10.2,R Dravid,A Symonds,JH Kallis,1,1,na,na
2nd innings,10.3,JH Kallis,A Symonds,R Dravid,0,0,na,"{'fielders': ['B Sumanth'], 'kind': 'caught', 'player_out': 'R Dravid'}"
2nd innings,10.4,RV Uthappa,A Symonds,JH Kallis,1,1,na,na
2nd innings,10.5,JH Kallis,A Symonds,RV Uthappa,1,1,na,na
2nd innings,10.6,RV Uthappa,A Symonds,JH Kallis,1,1,na,na
2nd innings,11.1,RV Uthappa,Harmeet Singh,JH Kallis,1,1,na,na
2nd innings,11.2,JH Kallis,Harmeet Singh,RV Uthappa,0,0,na,na
2nd innings,11.3,JH Kallis,Harmeet Singh,RV Uthappa,1,1,na,na
2nd innings,11.4,RV Uthappa,Harmeet Singh,JH Kallis,1,1,na,na
2nd innings,11.5,JH Kallis,Harmeet Singh,RV Uthappa,1,1,na,na
2nd innings,11.6,RV Uthappa,Harmeet Singh,JH Kallis,1,1,na,na
2nd innings,12.1,RV Uthappa,A Symonds,JH Kallis,1,1,na,na
2nd innings,12.2,JH Kallis,A Symonds,RV Uthappa,1,1,na,na
2nd innings,12.3,RV Uthappa,A Symonds,JH Kallis,1,1,na,na
2nd innings,12.4,JH Kallis,A Symonds,RV Uthappa,6,6,na,na
2nd innings,12.5,JH Kallis,A Symonds,RV Uthappa,1,1,na,na
2nd innings,12.6,RV Uthappa,A Symonds,JH Kallis,1,1,na,na
2nd innings,13.1,RV Uthappa,PP Ojha,JH Kallis,1,1,na,na
2nd innings,13.2,JH Kallis,PP Ojha,RV Uthappa,1,1,na,na
2nd innings,13.3,RV Uthappa,PP Ojha,JH Kallis,0,0,na,"{'fielders': ['B Sumanth'], 'kind': 'caught', 'player_out': 'JH Kallis'}"
2nd innings,13.4,LRPL Taylor,PP Ojha,RV Uthappa,1,1,na,na
2nd innings,13.5,RV Uthappa,PP Ojha,LRPL Taylor,0,0,na,na
2nd innings,13.6,RV Uthappa,PP Ojha,LRPL Taylor,0,0,na,na
2nd innings,14.1,LRPL Taylor,RP Singh,RV Uthappa,1,1,na,na
2nd innings,14.2,RV Uthappa,RP Singh,LRPL Taylor,1,1,na,na
2nd innings,14.3,LRPL Taylor,RP Singh,RV Uthappa,1,1,na,na
2nd innings,14.4,RV Uthappa,RP Singh,LRPL Taylor,2,0,{'legbyes': 2},na
2nd innings,14.5,RV Uthappa,RP Singh,LRPL Taylor,0,0,na,"{'kind': 'bowled', 'player_out': 'LRPL Taylor'}"
2nd innings,14.6,RV Uthappa,RP Singh,V Kohli,1,1,na,na
2nd innings,15.1,RV Uthappa,PP Ojha,V Kohli,2,2,na,na
2nd innings,15.2,RV Uthappa,PP Ojha,V Kohli,0,0,na,na
2nd innings,15.3,RV Uthappa,PP Ojha,V Kohli,0,0,na,"{'fielders': ['B Sumanth'], 'kind': 'caught', 'player_out': 'V Kohli'}"
2nd innings,15.4,CL White,PP Ojha,RV Uthappa,1,1,na,na
2nd innings,15.5,RV Uthappa,PP Ojha,CL White,2,2,na,na
2nd innings,15.6,RV Uthappa,PP Ojha,CL White,2,2,na,na
2nd innings,16.1,CL White,RP Singh,RV Uthappa,1,1,na,na
2nd innings,16.2,RV Uthappa,RP Singh,CL White,0,0,na,"{'fielders': ['A Symonds'], 'kind': 'caught', 'player_out': 'CL White'}"
2nd innings,16.3,R Vinay Kumar,RP Singh,RV Uthappa,1,0,{'legbyes': 1},na
2nd innings,16.4,RV Uthappa,RP Singh,R Vinay Kumar,2,2,na,na
2nd innings,16.5,RV Uthappa,RP Singh,R Vinay Kumar,0,0,na,na
2nd innings,16.6,RV Uthappa,RP Singh,R Vinay Kumar,0,0,na,na
2nd innings,17.1,R Vinay Kumar,RJ Harris,RV Uthappa,6,6,na,na
2nd innings,17.2,R Vinay Kumar,RJ Harris,RV Uthappa,1,0,{'wides': 1},na
2nd innings,17.3,R Vinay Kumar,RJ Harris,RV Uthappa,2,2,na,na
2nd innings,17.4,R Vinay Kumar,RJ Harris,RV Uthappa,1,0,{'wides': 1},na
2nd innings,17.5,R Vinay Kumar,RJ Harris,RV Uthappa,2,2,na,na
2nd innings,17.6,R Vinay Kumar,RJ Harris,RV Uthappa,6,6,na,na
2nd innings,17.7,R Vinay Kumar,RJ Harris,RV Uthappa,1,1,na,na
2nd innings,17.8,RV Uthappa,RJ Harris,R Vinay Kumar,2,2,na,na
2nd innings,18.1,R Vinay Kumar,Harmeet Singh,RV Uthappa,0,0,na,"{'kind': 'bowled', 'player_out': 'RV Uthappa'}"
2nd innings,18.2,R Vinay Kumar,Harmeet Singh,DW Steyn,0,0,na,"{'kind': 'lbw', 'player_out': 'DW Steyn'}"
2nd innings,18.3,R Vinay Kumar,Harmeet Singh,A Kumble,0,0,na,na
2nd innings,18.4,R Vinay Kumar,Harmeet Singh,A Kumble,1,1,na,na
2nd innings,18.5,A Kumble,Harmeet Singh,R Vinay Kumar,0,0,na,na
2nd innings,18.6,A Kumble,Harmeet Singh,R Vinay Kumar,0,0,na,na
2nd innings,19.1,R Vinay Kumar,RJ Harris,A Kumble,0,0,na,na
2nd innings,19.2,R Vinay Kumar,RJ Harris,A Kumble,1,1,na,na
2nd innings,19.3,A Kumble,RJ Harris,R Vinay Kumar,1,0,{'wides': 1},na
2nd innings,19.4,A Kumble,RJ Harris,R Vinay Kumar,0,0,na,"{'kind': 'bowled', 'player_out': 'R Vinay Kumar'}"
2nd innings,19.5,A Kumble,RJ Harris,KP Appanna,1,1,na,"{'fielders': ['RG Sharma', 'AC Gilchrist'], 'kind': 'run out', 'player_out': 'KP Appanna'}"
