innings,deliveries,non_striker,bowler,batsman,total_runs,batsman_runs,extras,wickets
1st innings,0.1,SP Goswami,CK Langeveldt,JH Kallis,0,0,na,na
1st innings,0.2,SP Goswami,CK Langeveldt,JH Kallis,1,1,na,na
1st innings,0.3,JH Kallis,CK Langeveldt,SP Goswami,0,0,na,na
1st innings,0.4,JH Kallis,CK Langeveldt,SP Goswami,0,0,na,na
1st innings,0.5,JH Kallis,CK Langeveldt,SP Goswami,4,4,na,na
1st innings,0.6,JH Kallis,CK Langeveldt,SP Goswami,0,0,na,na
1st innings,1.1,SP Goswami,I Sharma,JH Kallis,0,0,na,na
1st innings,1.2,SP Goswami,I Sharma,JH Kallis,2,2,na,na
1st innings,1.3,SP Goswami,I Sharma,JH Kallis,0,0,na,na
1st innings,1.4,SP Goswami,I Sharma,JH Kallis,0,0,na,na
1st innings,1.5,SP Goswami,I Sharma,JH Kallis,0,0,na,na
1st innings,1.6,SP Goswami,I Sharma,JH Kallis,4,4,na,na
1st innings,2.1,JH Kallis,CK Langeveldt,SP Goswami,0,0,na,na
1st innings,2.2,JH Kallis,CK Langeveldt,SP Goswami,0,0,na,na
1st innings,2.3,JH Kallis,CK Langeveldt,SP Goswami,4,4,na,na
1st innings,2.4,JH Kallis,CK Langeveldt,SP Goswami,0,0,na,na
1st innings,2.5,JH Kallis,CK Langeveldt,SP Goswami,0,0,na,na
1st innings,2.6,JH Kallis,CK Langeveldt,SP Goswami,0,0,na,"{'fielders': ['I Sharma'], 'kind': 'caught', 'player_out': 'SP Goswami'}"
1st innings,3.1,JH Kallis,I Sharma,MK Pandey,0,0,na,na
1st innings,3.2,JH Kallis,I Sharma,MK Pandey,0,0,na,na
1st innings,3.3,JH Kallis,I Sharma,MK Pandey,0,0,na,na
1st innings,3.4,JH Kallis,I Sharma,MK Pandey,0,0,na,na
1st innings,3.5,JH Kallis,I Sharma,MK Pandey,1,0,{'wides': 1},na
1st innings,3.6,JH Kallis,I Sharma,MK Pandey,0,0,na,na
1st innings,3.7,JH Kallis,I Sharma,MK Pandey,0,0,na,na
1st innings,4.1,MK Pandey,AD Mathews,JH Kallis,0,0,na,na
1st innings,4.2,MK Pandey,AD Mathews,JH Kallis,1,1,na,na
1st innings,4.3,JH Kallis,AD Mathews,MK Pandey,0,0,na,"{'kind': 'bowled', 'player_out': 'MK Pandey'}"
1st innings,4.4,JH Kallis,AD Mathews,V Kohli,0,0,na,na
1st innings,4.5,JH Kallis,AD Mathews,V Kohli,1,1,na,na
1st innings,4.6,V Kohli,AD Mathews,JH Kallis,0,0,na,na
1st innings,5.1,JH Kallis,M Kartik,V Kohli,1,1,na,na
1st innings,5.2,V Kohli,M Kartik,JH Kallis,1,1,na,na
1st innings,5.3,JH Kallis,M Kartik,V Kohli,0,0,na,na
1st innings,5.4,JH Kallis,M Kartik,V Kohli,0,0,na,"{'fielders': ['AD Mathews'], 'kind': 'caught', 'player_out': 'V Kohli'}"
1st innings,5.5,EJG Morgan,M Kartik,JH Kallis,0,0,na,na
1st innings,5.6,EJG Morgan,M Kartik,JH Kallis,4,4,na,na
1st innings,6.1,JH Kallis,BJ Hodge,EJG Morgan,0,0,na,na
1st innings,6.2,JH Kallis,BJ Hodge,EJG Morgan,6,6,na,na
1st innings,6.3,JH Kallis,BJ Hodge,EJG Morgan,2,2,na,na
1st innings,6.4,JH Kallis,BJ Hodge,EJG Morgan,1,1,na,na
1st innings,6.5,EJG Morgan,BJ Hodge,JH Kallis,1,1,na,na
1st innings,6.6,JH Kallis,BJ Hodge,EJG Morgan,1,1,na,na
1st innings,7.1,JH Kallis,M Kartik,EJG Morgan,0,0,na,na
1st innings,7.2,JH Kallis,M Kartik,EJG Morgan,0,0,na,"{'kind': 'bowled', 'player_out': 'EJG Morgan'}"
1st innings,7.3,JH Kallis,M Kartik,R Dravid,1,1,na,na
1st innings,7.4,R Dravid,M Kartik,JH Kallis,2,1,{'noballs': 1},na
1st innings,7.5,JH Kallis,M Kartik,R Dravid,4,4,na,na
1st innings,7.6,JH Kallis,M Kartik,R Dravid,1,1,na,na
1st innings,7.7,R Dravid,M Kartik,JH Kallis,1,0,{'legbyes': 1},na
1st innings,8.1,R Dravid,SC Ganguly,JH Kallis,2,2,na,na
1st innings,8.2,R Dravid,SC Ganguly,JH Kallis,0,0,na,na
1st innings,8.3,R Dravid,SC Ganguly,JH Kallis,1,1,na,na
1st innings,8.4,JH Kallis,SC Ganguly,R Dravid,1,1,na,na
1st innings,8.5,R Dravid,SC Ganguly,JH Kallis,1,1,na,na
1st innings,8.6,JH Kallis,SC Ganguly,R Dravid,4,4,na,na
1st innings,9.1,R Dravid,M Kartik,JH Kallis,0,0,na,na
1st innings,9.2,R Dravid,M Kartik,JH Kallis,0,0,na,na
1st innings,9.3,R Dravid,M Kartik,JH Kallis,1,1,na,na
1st innings,9.4,JH Kallis,M Kartik,R Dravid,1,1,na,na
1st innings,9.5,R Dravid,M Kartik,JH Kallis,1,1,na,na
1st innings,9.6,JH Kallis,M Kartik,R Dravid,1,1,na,na
1st innings,10.1,JH Kallis,AD Mathews,R Dravid,1,0,{'byes': 1},na
1st innings,10.2,R Dravid,AD Mathews,JH Kallis,1,1,na,na
1st innings,10.3,JH Kallis,AD Mathews,R Dravid,4,4,na,na
1st innings,10.4,JH Kallis,AD Mathews,R Dravid,0,0,na,na
1st innings,10.5,JH Kallis,AD Mathews,R Dravid,0,0,na,na
1st innings,10.6,JH Kallis,AD Mathews,R Dravid,1,1,na,na
1st innings,11.1,JH Kallis,SC Ganguly,R Dravid,1,1,na,na
1st innings,11.2,R Dravid,SC Ganguly,JH Kallis,1,1,na,na
1st innings,11.3,JH Kallis,SC Ganguly,R Dravid,1,1,na,na
1st innings,11.4,R Dravid,SC Ganguly,JH Kallis,1,1,na,na
1st innings,11.5,JH Kallis,SC Ganguly,R Dravid,1,1,na,na
1st innings,11.6,R Dravid,SC Ganguly,JH Kallis,4,4,na,na
1st innings,12.1,JH Kallis,AD Mathews,R Dravid,0,0,na,"{'kind': 'bowled', 'player_out': 'R Dravid'}"
1st innings,12.2,JH Kallis,AD Mathews,RV Uthappa,1,1,na,na
1st innings,12.3,RV Uthappa,AD Mathews,JH Kallis,1,1,na,na
1st innings,12.4,JH Kallis,AD Mathews,RV Uthappa,1,1,na,na
1st innings,12.5,RV Uthappa,AD Mathews,JH Kallis,1,1,na,na
1st innings,12.6,JH Kallis,AD Mathews,RV Uthappa,1,1,na,na
1st innings,13.1,JH Kallis,I Sharma,RV Uthappa,1,1,na,na
1st innings,13.2,RV Uthappa,I Sharma,JH Kallis,1,1,na,na
1st innings,13.3,JH Kallis,I Sharma,RV Uthappa,2,2,na,na
1st innings,13.4,JH Kallis,I Sharma,RV Uthappa,1,1,na,na
1st innings,13.5,RV Uthappa,I Sharma,JH Kallis,1,1,na,na
1st innings,13.6,JH Kallis,I Sharma,RV Uthappa,1,1,na,na
1st innings,14.1,JH Kallis,M Kartik,RV Uthappa,1,1,na,na
1st innings,14.2,RV Uthappa,M Kartik,JH Kallis,0,0,na,na
1st innings,14.3,RV Uthappa,M Kartik,JH Kallis,1,1,na,na
1st innings,14.4,JH Kallis,M Kartik,RV Uthappa,1,1,na,na
1st innings,14.5,RV Uthappa,M Kartik,JH Kallis,0,0,na,na
1st innings,14.6,RV Uthappa,M Kartik,JH Kallis,1,1,na,na
1st innings,15.1,RV Uthappa,RS Gavaskar,JH Kallis,0,0,na,na
1st innings,15.2,RV Uthappa,RS Gavaskar,JH Kallis,4,4,na,na
1st innings,15.3,RV Uthappa,RS Gavaskar,JH Kallis,1,1,na,na
1st innings,15.4,JH Kallis,RS Gavaskar,RV Uthappa,2,2,na,na
1st innings,15.5,JH Kallis,RS Gavaskar,RV Uthappa,1,1,na,na
1st innings,15.6,RV Uthappa,RS Gavaskar,JH Kallis,0,0,na,na
1st innings,16.1,JH Kallis,CK Langeveldt,RV Uthappa,1,1,na,na
1st innings,16.2,RV Uthappa,CK Langeveldt,JH Kallis,4,4,na,na
1st innings,16.3,RV Uthappa,CK Langeveldt,JH Kallis,1,1,na,na
1st innings,16.4,JH Kallis,CK Langeveldt,RV Uthappa,1,1,na,na
1st innings,16.5,RV Uthappa,CK Langeveldt,JH Kallis,1,1,na,na
1st innings,16.6,JH Kallis,CK Langeveldt,RV Uthappa,1,1,na,na
1st innings,17.1,JH Kallis,AD Mathews,RV Uthappa,0,0,na,na
1st innings,17.2,JH Kallis,AD Mathews,RV Uthappa,4,4,na,na
1st innings,17.3,JH Kallis,AD Mathews,RV Uthappa,0,0,na,"{'fielders': ['WP Saha'], 'kind': 'caught', 'player_out': 'RV Uthappa'}"
1st innings,17.4,JH Kallis,AD Mathews,RE van der Merwe,1,1,na,na
1st innings,17.5,RE van der Merwe,AD Mathews,JH Kallis,1,1,na,na
1st innings,17.6,JH Kallis,AD Mathews,RE van der Merwe,0,0,na,"{'fielders': ['BJ Hodge'], 'kind': 'caught', 'player_out': 'RE van der Merwe'}"
1st innings,18.1,P Kumar,CK Langeveldt,JH Kallis,1,1,na,na
1st innings,18.2,JH Kallis,CK Langeveldt,P Kumar,1,1,na,na
1st innings,18.3,P Kumar,CK Langeveldt,JH Kallis,4,4,na,na
1st innings,18.4,P Kumar,CK Langeveldt,JH Kallis,1,1,na,na
1st innings,18.5,JH Kallis,CK Langeveldt,P Kumar,0,0,na,na
1st innings,18.6,JH Kallis,CK Langeveldt,P Kumar,2,2,na,na
1st innings,19.1,P Kumar,I Sharma,JH Kallis,2,2,na,na
1st innings,19.2,P Kumar,I Sharma,JH Kallis,6,6,na,na
1st innings,19.3,P Kumar,I Sharma,JH Kallis,1,1,na,na
1st innings,19.4,JH Kallis,I Sharma,P Kumar,0,0,na,na
1st innings,19.5,JH Kallis,I Sharma,P Kumar,1,0,{'legbyes': 1},na
1st innings,19.6,P Kumar,I Sharma,JH Kallis,4,4,na,na
2nd innings,0.1,MK Tiwary,P Kumar,BJ Hodge,0,0,na,na
2nd innings,0.2,MK Tiwary,P Kumar,BJ Hodge,0,0,na,na
2nd innings,0.3,MK Tiwary,P Kumar,BJ Hodge,0,0,na,na
2nd innings,0.4,MK Tiwary,P Kumar,BJ Hodge,1,1,na,na
2nd innings,0.5,BJ Hodge,P Kumar,MK Tiwary,0,0,na,na
2nd innings,0.6,BJ Hodge,P Kumar,MK Tiwary,2,2,na,na
2nd innings,1.1,MK Tiwary,JH Kallis,BJ Hodge,0,0,na,na
2nd innings,1.2,MK Tiwary,JH Kallis,BJ Hodge,1,1,na,na
2nd innings,1.3,BJ Hodge,JH Kallis,MK Tiwary,4,4,na,na
2nd innings,1.4,BJ Hodge,JH Kallis,MK Tiwary,1,1,na,na
2nd innings,1.5,MK Tiwary,JH Kallis,BJ Hodge,2,2,na,na
2nd innings,1.6,MK Tiwary,JH Kallis,BJ Hodge,1,1,na,na
2nd innings,2.1,MK Tiwary,P Kumar,BJ Hodge,4,4,na,na
2nd innings,2.2,MK Tiwary,P Kumar,BJ Hodge,1,1,na,na
2nd innings,2.3,BJ Hodge,P Kumar,MK Tiwary,0,0,na,na
2nd innings,2.4,BJ Hodge,P Kumar,MK Tiwary,1,1,na,na
2nd innings,2.5,MK Tiwary,P Kumar,BJ Hodge,0,0,na,na
2nd innings,2.6,MK Tiwary,P Kumar,BJ Hodge,1,1,na,na
2nd innings,3.1,MK Tiwary,JH Kallis,BJ Hodge,0,0,na,na
2nd innings,3.2,MK Tiwary,JH Kallis,BJ Hodge,3,3,na,na
2nd innings,3.3,BJ Hodge,JH Kallis,MK Tiwary,4,4,na,na
2nd innings,3.4,BJ Hodge,JH Kallis,MK Tiwary,6,6,na,na
2nd innings,3.5,BJ Hodge,JH Kallis,MK Tiwary,0,0,na,na
2nd innings,3.6,BJ Hodge,JH Kallis,MK Tiwary,4,4,na,na
2nd innings,4.1,MK Tiwary,DW Steyn,BJ Hodge,1,1,na,na
2nd innings,4.2,BJ Hodge,DW Steyn,MK Tiwary,6,6,na,na
2nd innings,4.3,BJ Hodge,DW Steyn,MK Tiwary,0,0,na,na
2nd innings,4.4,BJ Hodge,DW Steyn,MK Tiwary,1,1,na,na
2nd innings,4.5,MK Tiwary,DW Steyn,BJ Hodge,4,4,na,na
2nd innings,4.6,MK Tiwary,DW Steyn,BJ Hodge,4,4,na,na
2nd innings,5.1,BJ Hodge,A Kumble,MK Tiwary,0,0,na,na
2nd innings,5.2,BJ Hodge,A Kumble,MK Tiwary,4,4,na,na
2nd innings,5.3,BJ Hodge,A Kumble,MK Tiwary,4,4,na,na
2nd innings,5.4,BJ Hodge,A Kumble,MK Tiwary,1,1,na,na
2nd innings,5.5,MK Tiwary,A Kumble,BJ Hodge,0,0,na,na
2nd innings,5.6,MK Tiwary,A Kumble,BJ Hodge,0,0,na,na
2nd innings,6.1,BJ Hodge,RE van der Merwe,MK Tiwary,0,0,na,na
2nd innings,6.2,BJ Hodge,RE van der Merwe,MK Tiwary,1,1,na,na
2nd innings,6.3,MK Tiwary,RE van der Merwe,BJ Hodge,1,0,{'wides': 1},na
2nd innings,6.4,MK Tiwary,RE van der Merwe,BJ Hodge,1,1,na,na
2nd innings,6.5,BJ Hodge,RE van der Merwe,MK Tiwary,1,0,{'wides': 1},na
2nd innings,6.6,BJ Hodge,RE van der Merwe,MK Tiwary,1,1,na,na
2nd innings,6.7,MK Tiwary,RE van der Merwe,BJ Hodge,0,0,na,na
2nd innings,6.8,MK Tiwary,RE van der Merwe,BJ Hodge,1,1,na,na
2nd innings,7.1,MK Tiwary,A Kumble,BJ Hodge,1,1,na,na
2nd innings,7.2,BJ Hodge,A Kumble,MK Tiwary,0,0,na,na
2nd innings,7.3,BJ Hodge,A Kumble,MK Tiwary,1,1,na,na
2nd innings,7.4,MK Tiwary,A Kumble,BJ Hodge,0,0,na,na
2nd innings,7.5,MK Tiwary,A Kumble,BJ Hodge,0,0,na,na
2nd innings,7.6,MK Tiwary,A Kumble,BJ Hodge,0,0,na,na
2nd innings,8.1,BJ Hodge,RE van der Merwe,MK Tiwary,1,1,na,na
2nd innings,8.2,MK Tiwary,RE van der Merwe,BJ Hodge,1,1,na,na
2nd innings,8.3,BJ Hodge,RE van der Merwe,MK Tiwary,1,1,na,na
2nd innings,8.4,MK Tiwary,RE van der Merwe,BJ Hodge,4,4,na,na
2nd innings,8.5,MK Tiwary,RE van der Merwe,BJ Hodge,2,2,na,na
2nd innings,8.6,MK Tiwary,RE van der Merwe,BJ Hodge,1,0,{'wides': 1},na
2nd innings,8.7,MK Tiwary,RE van der Merwe,BJ Hodge,0,0,na,na
2nd innings,9.1,BJ Hodge,A Kumble,MK Tiwary,4,4,na,na
2nd innings,9.2,BJ Hodge,A Kumble,MK Tiwary,1,1,na,na
2nd innings,9.3,MK Tiwary,A Kumble,BJ Hodge,0,0,na,na
2nd innings,9.4,MK Tiwary,A Kumble,BJ Hodge,0,0,na,na
2nd innings,9.5,MK Tiwary,A Kumble,BJ Hodge,0,0,na,na
2nd innings,9.6,MK Tiwary,A Kumble,BJ Hodge,1,1,na,na
2nd innings,10.1,MK Tiwary,DW Steyn,BJ Hodge,0,0,na,na
2nd innings,10.2,MK Tiwary,DW Steyn,BJ Hodge,4,4,na,na
2nd innings,10.3,MK Tiwary,DW Steyn,BJ Hodge,4,4,na,na
2nd innings,10.4,MK Tiwary,DW Steyn,BJ Hodge,0,0,na,na
2nd innings,10.5,MK Tiwary,DW Steyn,BJ Hodge,1,1,na,na
2nd innings,10.6,BJ Hodge,DW Steyn,MK Tiwary,0,0,na,na
2nd innings,11.1,MK Tiwary,RE van der Merwe,BJ Hodge,4,4,na,na
2nd innings,11.2,MK Tiwary,RE van der Merwe,BJ Hodge,1,1,na,na
2nd innings,11.3,BJ Hodge,RE van der Merwe,MK Tiwary,2,2,na,na
2nd innings,11.4,BJ Hodge,RE van der Merwe,MK Tiwary,0,0,na,"{'kind': 'caught and bowled', 'player_out': 'MK Tiwary'}"
2nd innings,11.5,BJ Hodge,RE van der Merwe,SC Ganguly,0,0,na,na
2nd innings,11.6,BJ Hodge,RE van der Merwe,SC Ganguly,1,1,na,na
2nd innings,12.1,BJ Hodge,DW Steyn,SC Ganguly,1,0,{'wides': 1},na
2nd innings,12.2,BJ Hodge,DW Steyn,SC Ganguly,1,0,{'wides': 1},na
2nd innings,12.3,BJ Hodge,DW Steyn,SC Ganguly,0,0,na,na
2nd innings,12.4,BJ Hodge,DW Steyn,SC Ganguly,1,1,na,na
2nd innings,12.5,SC Ganguly,DW Steyn,BJ Hodge,1,1,na,na
2nd innings,12.6,BJ Hodge,DW Steyn,SC Ganguly,0,0,na,na
2nd innings,12.7,BJ Hodge,DW Steyn,SC Ganguly,2,2,na,na
2nd innings,12.8,BJ Hodge,DW Steyn,SC Ganguly,1,0,{'legbyes': 1},na
2nd innings,13.1,BJ Hodge,RE van der Merwe,SC Ganguly,1,1,na,na
2nd innings,13.2,SC Ganguly,RE van der Merwe,BJ Hodge,0,0,na,na
2nd innings,13.3,SC Ganguly,RE van der Merwe,BJ Hodge,1,1,na,na
2nd innings,13.4,BJ Hodge,RE van der Merwe,SC Ganguly,0,0,na,na
2nd innings,13.5,BJ Hodge,RE van der Merwe,SC Ganguly,1,1,na,na
2nd innings,13.6,SC Ganguly,RE van der Merwe,BJ Hodge,0,0,na,"{'fielders': ['MK Pandey'], 'kind': 'caught', 'player_out': 'BJ Hodge'}"
2nd innings,14.1,SC Ganguly,P Kumar,CA Pujara,0,0,na,na
2nd innings,14.2,SC Ganguly,P Kumar,CA Pujara,1,1,na,na
2nd innings,14.3,CA Pujara,P Kumar,SC Ganguly,1,1,na,na
2nd innings,14.4,SC Ganguly,P Kumar,CA Pujara,1,1,na,na
2nd innings,14.5,CA Pujara,P Kumar,SC Ganguly,1,1,na,na
2nd innings,14.6,SC Ganguly,P Kumar,CA Pujara,0,0,na,na
2nd innings,15.1,CA Pujara,A Kumble,SC Ganguly,0,0,na,na
2nd innings,15.2,CA Pujara,A Kumble,SC Ganguly,1,1,na,na
2nd innings,15.3,SC Ganguly,A Kumble,CA Pujara,0,0,na,na
2nd innings,15.4,SC Ganguly,A Kumble,CA Pujara,0,0,na,na
2nd innings,15.5,SC Ganguly,A Kumble,CA Pujara,0,0,na,na
2nd innings,15.6,SC Ganguly,A Kumble,CA Pujara,1,1,na,na
2nd innings,16.1,SC Ganguly,JH Kallis,CA Pujara,0,0,na,na
2nd innings,16.2,SC Ganguly,JH Kallis,CA Pujara,1,1,na,na
2nd innings,16.3,CA Pujara,JH Kallis,SC Ganguly,2,2,na,na
2nd innings,16.4,CA Pujara,JH Kallis,SC Ganguly,4,4,na,na
2nd innings,16.5,CA Pujara,JH Kallis,SC Ganguly,0,0,na,na
2nd innings,16.6,CA Pujara,JH Kallis,SC Ganguly,1,1,na,na
2nd innings,17.1,CA Pujara,DW Steyn,SC Ganguly,6,6,na,na
2nd innings,17.2,CA Pujara,DW Steyn,SC Ganguly,1,1,na,na
2nd innings,17.3,SC Ganguly,DW Steyn,CA Pujara,0,0,na,na
2nd innings,17.4,SC Ganguly,DW Steyn,CA Pujara,0,0,na,na
2nd innings,17.5,SC Ganguly,DW Steyn,CA Pujara,0,0,na,na
2nd innings,17.6,SC Ganguly,DW Steyn,CA Pujara,0,0,na,na
2nd innings,18.1,CA Pujara,P Kumar,SC Ganguly,0,0,na,na
2nd innings,18.2,CA Pujara,P Kumar,SC Ganguly,0,0,na,"{'fielders': ['EJG Morgan'], 'kind': 'caught', 'player_out': 'SC Ganguly'}"
2nd innings,18.3,OA Shah,P Kumar,CA Pujara,1,1,na,na
2nd innings,18.4,CA Pujara,P Kumar,OA Shah,0,0,na,na
2nd innings,18.5,CA Pujara,P Kumar,OA Shah,0,0,na,na
2nd innings,18.6,CA Pujara,P Kumar,OA Shah,1,1,na,na
2nd innings,19.1,CA Pujara,V Kohli,OA Shah,0,0,na,na
2nd innings,19.2,CA Pujara,V Kohli,OA Shah,1,1,na,na
