innings,deliveries,non_striker,bowler,batsman,total_runs,batsman_runs,extras,wickets
1st innings,0.1,V Sehwag,YK Pathan,DA Warner,0,0,na,na
1st innings,0.2,V Sehwag,YK Pathan,DA Warner,1,1,na,na
1st innings,0.3,DA Warner,YK Pathan,V Sehwag,0,0,na,na
1st innings,0.4,DA Warner,YK Pathan,V Sehwag,6,6,na,na
1st innings,0.5,DA Warner,YK Pathan,V Sehwag,4,4,na,na
1st innings,0.6,DA Warner,YK Pathan,V Sehwag,0,0,na,na
1st innings,1.1,V Sehwag,S Narwal,DA Warner,0,0,na,na
1st innings,1.2,V Sehwag,S Narwal,DA Warner,1,1,na,na
1st innings,1.3,DA Warner,S Narwal,V Sehwag,1,1,na,na
1st innings,1.4,V Sehwag,S Narwal,DA Warner,0,0,na,na
1st innings,1.5,V Sehwag,S Narwal,DA Warner,0,0,na,na
1st innings,1.6,V Sehwag,S Narwal,DA Warner,2,2,na,na
1st innings,2.1,DA Warner,AC Voges,V Sehwag,0,0,na,na
1st innings,2.2,DA Warner,AC Voges,V Sehwag,4,4,na,na
1st innings,2.3,DA Warner,AC Voges,V Sehwag,1,0,{'wides': 1},na
1st innings,2.4,DA Warner,AC Voges,V Sehwag,0,0,na,na
1st innings,2.5,DA Warner,AC Voges,V Sehwag,4,4,na,na
1st innings,2.6,DA Warner,AC Voges,V Sehwag,0,0,na,na
1st innings,2.7,DA Warner,AC Voges,V Sehwag,0,0,na,na
1st innings,3.1,V Sehwag,S Narwal,DA Warner,0,0,na,"{'kind': 'bowled', 'player_out': 'DA Warner'}"
1st innings,3.2,V Sehwag,S Narwal,G Gambhir,1,1,na,na
1st innings,3.3,G Gambhir,S Narwal,V Sehwag,0,0,na,"{'fielders': ['P Dogra'], 'kind': 'caught', 'player_out': 'V Sehwag'}"
1st innings,3.4,PD Collingwood,S Narwal,G Gambhir,4,4,na,na
1st innings,3.5,PD Collingwood,S Narwal,G Gambhir,2,2,na,na
1st innings,3.6,PD Collingwood,S Narwal,G Gambhir,1,0,{'wides': 1},na
1st innings,3.7,PD Collingwood,S Narwal,G Gambhir,0,0,na,na
1st innings,4.1,G Gambhir,SW Tait,PD Collingwood,6,6,na,na
1st innings,4.2,G Gambhir,SW Tait,PD Collingwood,1,0,{'legbyes': 1},na
1st innings,4.3,PD Collingwood,SW Tait,G Gambhir,1,1,na,na
1st innings,4.4,G Gambhir,SW Tait,PD Collingwood,0,0,na,na
1st innings,4.5,G Gambhir,SW Tait,PD Collingwood,4,4,na,na
1st innings,4.6,G Gambhir,SW Tait,PD Collingwood,1,1,na,na
1st innings,5.1,G Gambhir,S Narwal,PD Collingwood,4,4,na,na
1st innings,5.2,G Gambhir,S Narwal,PD Collingwood,0,0,na,na
1st innings,5.3,G Gambhir,S Narwal,PD Collingwood,1,1,na,na
1st innings,5.4,PD Collingwood,S Narwal,G Gambhir,0,0,na,"{'fielders': ['AC Voges', 'NV Ojha'], 'kind': 'run out', 'player_out': 'PD Collingwood'}"
1st innings,5.5,G Gambhir,S Narwal,KM Jadhav,0,0,na,na
1st innings,5.6,G Gambhir,S Narwal,KM Jadhav,2,2,na,na
1st innings,6.1,KM Jadhav,SK Warne,G Gambhir,1,1,na,na
1st innings,6.2,G Gambhir,SK Warne,KM Jadhav,1,1,na,na
1st innings,6.3,KM Jadhav,SK Warne,G Gambhir,0,0,na,na
1st innings,6.4,KM Jadhav,SK Warne,G Gambhir,2,2,na,na
1st innings,6.5,KM Jadhav,SK Warne,G Gambhir,1,1,na,na
1st innings,6.6,G Gambhir,SK Warne,KM Jadhav,1,1,na,na
1st innings,7.1,G Gambhir,SK Trivedi,KM Jadhav,4,4,na,na
1st innings,7.2,G Gambhir,SK Trivedi,KM Jadhav,1,1,na,na
1st innings,7.3,KM Jadhav,SK Trivedi,G Gambhir,0,0,na,na
1st innings,7.4,KM Jadhav,SK Trivedi,G Gambhir,1,0,{'legbyes': 1},na
1st innings,7.5,G Gambhir,SK Trivedi,KM Jadhav,1,1,na,na
1st innings,7.6,KM Jadhav,SK Trivedi,G Gambhir,1,1,na,na
1st innings,8.1,KM Jadhav,SK Warne,G Gambhir,1,1,na,na
1st innings,8.2,G Gambhir,SK Warne,KM Jadhav,0,0,na,na
1st innings,8.3,G Gambhir,SK Warne,KM Jadhav,0,0,na,"{'fielders': ['YK Pathan'], 'kind': 'caught', 'player_out': 'KM Jadhav'}"
1st innings,8.4,KD Karthik,SK Warne,G Gambhir,1,1,na,na
1st innings,8.5,G Gambhir,SK Warne,KD Karthik,2,2,na,na
1st innings,8.6,G Gambhir,SK Warne,KD Karthik,0,0,na,na
1st innings,9.1,KD Karthik,SK Trivedi,G Gambhir,1,1,na,na
1st innings,9.2,G Gambhir,SK Trivedi,KD Karthik,1,1,na,na
1st innings,9.3,KD Karthik,SK Trivedi,G Gambhir,1,1,na,na
1st innings,9.4,G Gambhir,SK Trivedi,KD Karthik,1,0,{'legbyes': 1},na
1st innings,9.5,KD Karthik,SK Trivedi,G Gambhir,4,4,na,na
1st innings,9.6,KD Karthik,SK Trivedi,G Gambhir,1,1,na,na
1st innings,10.1,KD Karthik,SK Warne,G Gambhir,2,2,na,na
1st innings,10.2,KD Karthik,SK Warne,G Gambhir,1,1,na,na
1st innings,10.3,G Gambhir,SK Warne,KD Karthik,0,0,na,na
1st innings,10.4,G Gambhir,SK Warne,KD Karthik,0,0,na,na
1st innings,10.5,G Gambhir,SK Warne,KD Karthik,4,4,na,na
1st innings,10.6,G Gambhir,SK Warne,KD Karthik,0,0,na,na
1st innings,11.1,KD Karthik,YK Pathan,G Gambhir,0,0,na,na
1st innings,11.2,KD Karthik,YK Pathan,G Gambhir,1,1,na,na
1st innings,11.3,G Gambhir,YK Pathan,KD Karthik,1,1,na,na
1st innings,11.4,KD Karthik,YK Pathan,G Gambhir,1,1,na,na
1st innings,11.5,G Gambhir,YK Pathan,KD Karthik,1,1,na,na
1st innings,11.6,KD Karthik,YK Pathan,G Gambhir,1,1,na,na
1st innings,12.1,KD Karthik,SK Warne,G Gambhir,2,2,na,na
1st innings,12.2,KD Karthik,SK Warne,G Gambhir,1,1,na,na
1st innings,12.3,G Gambhir,SK Warne,KD Karthik,1,1,na,na
1st innings,12.4,KD Karthik,SK Warne,G Gambhir,0,0,na,na
1st innings,12.5,KD Karthik,SK Warne,G Gambhir,4,4,na,na
1st innings,12.6,KD Karthik,SK Warne,G Gambhir,1,1,na,na
1st innings,13.1,KD Karthik,SW Tait,G Gambhir,1,1,na,na
1st innings,13.2,G Gambhir,SW Tait,KD Karthik,2,2,na,na
1st innings,13.3,G Gambhir,SW Tait,KD Karthik,0,0,na,na
1st innings,13.4,G Gambhir,SW Tait,KD Karthik,1,1,na,na
1st innings,13.5,KD Karthik,SW Tait,G Gambhir,2,0,{'wides': 2},na
1st innings,13.6,G Gambhir,SW Tait,KD Karthik,4,4,na,na
1st innings,13.7,G Gambhir,SW Tait,KD Karthik,1,1,na,na
1st innings,14.1,G Gambhir,YK Pathan,KD Karthik,1,1,na,na
1st innings,14.2,KD Karthik,YK Pathan,G Gambhir,1,1,na,na
1st innings,14.3,G Gambhir,YK Pathan,KD Karthik,1,1,na,na
1st innings,14.4,KD Karthik,YK Pathan,G Gambhir,1,1,na,na
1st innings,14.5,G Gambhir,YK Pathan,KD Karthik,4,4,na,na
1st innings,14.6,G Gambhir,YK Pathan,KD Karthik,1,1,na,na
1st innings,15.1,G Gambhir,SK Trivedi,KD Karthik,1,1,na,na
1st innings,15.2,KD Karthik,SK Trivedi,G Gambhir,1,1,na,na
1st innings,15.3,G Gambhir,SK Trivedi,KD Karthik,1,1,na,na
1st innings,15.4,KD Karthik,SK Trivedi,G Gambhir,1,1,na,na
1st innings,15.5,G Gambhir,SK Trivedi,KD Karthik,6,6,na,na
1st innings,15.6,G Gambhir,SK Trivedi,KD Karthik,1,1,na,na
1st innings,16.1,G Gambhir,S Narwal,KD Karthik,6,6,na,na
1st innings,16.2,G Gambhir,S Narwal,KD Karthik,6,6,na,na
1st innings,16.3,G Gambhir,S Narwal,KD Karthik,1,1,na,na
1st innings,16.4,KD Karthik,S Narwal,G Gambhir,2,2,na,na
1st innings,16.5,KD Karthik,S Narwal,G Gambhir,0,0,na,"{'fielders': ['YK Pathan'], 'kind': 'caught', 'player_out': 'G Gambhir'}"
1st innings,16.6,AB McDonald,S Narwal,KD Karthik,2,2,na,na
1st innings,17.1,KD Karthik,SW Tait,AB McDonald,1,0,{'legbyes': 1},na
1st innings,17.2,AB McDonald,SW Tait,KD Karthik,5,0,{'noballs': 5},na
1st innings,17.3,AB McDonald,SW Tait,KD Karthik,1,1,na,na
1st innings,17.4,KD Karthik,SW Tait,AB McDonald,1,1,na,na
1st innings,17.5,AB McDonald,SW Tait,KD Karthik,4,4,na,na
1st innings,17.6,AB McDonald,SW Tait,KD Karthik,4,4,na,na
1st innings,17.7,AB McDonald,SW Tait,KD Karthik,4,4,na,na
1st innings,18.1,KD Karthik,SK Trivedi,AB McDonald,0,0,na,na
1st innings,18.2,KD Karthik,SK Trivedi,AB McDonald,2,2,na,na
1st innings,18.3,KD Karthik,SK Trivedi,AB McDonald,1,1,na,na
1st innings,18.4,AB McDonald,SK Trivedi,KD Karthik,1,1,na,na
1st innings,18.5,KD Karthik,SK Trivedi,AB McDonald,4,4,na,na
1st innings,18.6,KD Karthik,SK Trivedi,AB McDonald,1,1,na,na
1st innings,19.1,KD Karthik,SW Tait,AB McDonald,4,4,na,na
1st innings,19.2,KD Karthik,SW Tait,AB McDonald,1,1,na,na
1st innings,19.3,AB McDonald,SW Tait,KD Karthik,0,0,na,na
1st innings,19.4,AB McDonald,SW Tait,KD Karthik,0,0,na,na
1st innings,19.5,AB McDonald,SW Tait,KD Karthik,6,6,na,na
1st innings,19.6,AB McDonald,SW Tait,KD Karthik,0,0,na,"{'fielders': ['AS Raut (sub)'], 'kind': 'caught', 'player_out': 'KD Karthik'}"
2nd innings,0.1,NV Ojha,MF Maharoof,MJ Lumb,0,0,na,na
2nd innings,0.2,NV Ojha,MF Maharoof,MJ Lumb,0,0,na,"{'fielders': ['DA Warner'], 'kind': 'caught', 'player_out': 'MJ Lumb'}"
2nd innings,0.3,FY Fazal,MF Maharoof,NV Ojha,1,1,na,na
2nd innings,0.4,NV Ojha,MF Maharoof,FY Fazal,0,0,na,na
2nd innings,0.5,NV Ojha,MF Maharoof,FY Fazal,0,0,na,"{'kind': 'lbw', 'player_out': 'FY Fazal'}"
2nd innings,0.6,NV Ojha,MF Maharoof,AA Jhunjhunwala,0,0,na,na
2nd innings,1.1,AA Jhunjhunwala,AB McDonald,NV Ojha,1,1,na,na
2nd innings,1.2,NV Ojha,AB McDonald,AA Jhunjhunwala,0,0,na,na
2nd innings,1.3,NV Ojha,AB McDonald,AA Jhunjhunwala,1,1,na,na
2nd innings,1.4,AA Jhunjhunwala,AB McDonald,NV Ojha,4,4,na,na
2nd innings,1.5,AA Jhunjhunwala,AB McDonald,NV Ojha,2,2,na,na
2nd innings,1.6,AA Jhunjhunwala,AB McDonald,NV Ojha,1,1,na,na
2nd innings,2.1,AA Jhunjhunwala,MF Maharoof,NV Ojha,0,0,na,na
2nd innings,2.2,AA Jhunjhunwala,MF Maharoof,NV Ojha,0,0,na,na
2nd innings,2.3,AA Jhunjhunwala,MF Maharoof,NV Ojha,0,0,na,na
2nd innings,2.4,AA Jhunjhunwala,MF Maharoof,NV Ojha,6,6,na,na
2nd innings,2.5,AA Jhunjhunwala,MF Maharoof,NV Ojha,4,4,na,na
2nd innings,2.6,AA Jhunjhunwala,MF Maharoof,NV Ojha,0,0,na,na
2nd innings,3.1,NV Ojha,A Mishra,AA Jhunjhunwala,1,1,na,na
2nd innings,3.2,AA Jhunjhunwala,A Mishra,NV Ojha,4,4,na,na
2nd innings,3.3,AA Jhunjhunwala,A Mishra,NV Ojha,4,4,na,na
2nd innings,3.4,AA Jhunjhunwala,A Mishra,NV Ojha,0,0,na,"{'fielders': ['KD Karthik'], 'kind': 'caught', 'player_out': 'NV Ojha'}"
2nd innings,3.5,AA Jhunjhunwala,A Mishra,AC Voges,1,1,na,na
2nd innings,3.6,AC Voges,A Mishra,AA Jhunjhunwala,1,0,{'wides': 1},na
2nd innings,3.7,AC Voges,A Mishra,AA Jhunjhunwala,0,0,na,na
2nd innings,4.1,AA Jhunjhunwala,MF Maharoof,AC Voges,1,1,na,"{'fielders': ['S Ladda', 'KD Karthik'], 'kind': 'run out', 'player_out': 'AA Jhunjhunwala'}"
2nd innings,4.2,AC Voges,MF Maharoof,YK Pathan,0,0,na,na
2nd innings,4.3,AC Voges,MF Maharoof,YK Pathan,0,0,na,na
2nd innings,4.4,AC Voges,MF Maharoof,YK Pathan,1,1,na,na
2nd innings,4.5,YK Pathan,MF Maharoof,AC Voges,0,0,na,na
2nd innings,4.6,YK Pathan,MF Maharoof,AC Voges,0,0,na,na
2nd innings,5.1,AC Voges,UT Yadav,YK Pathan,1,1,na,na
2nd innings,5.2,YK Pathan,UT Yadav,AC Voges,4,4,na,na
2nd innings,5.3,YK Pathan,UT Yadav,AC Voges,0,0,na,na
2nd innings,5.4,YK Pathan,UT Yadav,AC Voges,0,0,na,na
2nd innings,5.5,YK Pathan,UT Yadav,AC Voges,0,0,na,na
2nd innings,5.6,YK Pathan,UT Yadav,AC Voges,1,1,na,na
2nd innings,6.1,YK Pathan,S Ladda,AC Voges,1,1,na,na
2nd innings,6.2,AC Voges,S Ladda,YK Pathan,2,2,na,na
2nd innings,6.3,AC Voges,S Ladda,YK Pathan,0,0,na,na
2nd innings,6.4,AC Voges,S Ladda,YK Pathan,6,6,na,na
2nd innings,6.5,AC Voges,S Ladda,YK Pathan,0,0,na,na
2nd innings,6.6,AC Voges,S Ladda,YK Pathan,6,6,na,na
2nd innings,7.1,YK Pathan,UT Yadav,AC Voges,2,2,na,na
2nd innings,7.2,YK Pathan,UT Yadav,AC Voges,1,1,na,na
2nd innings,7.3,AC Voges,UT Yadav,YK Pathan,4,4,na,na
2nd innings,7.4,AC Voges,UT Yadav,YK Pathan,0,0,na,na
2nd innings,7.5,AC Voges,UT Yadav,YK Pathan,4,4,na,na
2nd innings,7.6,AC Voges,UT Yadav,YK Pathan,0,0,na,na
2nd innings,8.1,YK Pathan,A Mishra,AC Voges,1,1,na,na
2nd innings,8.2,AC Voges,A Mishra,YK Pathan,0,0,na,"{'fielders': ['DA Warner'], 'kind': 'caught', 'player_out': 'YK Pathan'}"
2nd innings,8.3,AC Voges,A Mishra,P Dogra,0,0,na,na
2nd innings,8.4,AC Voges,A Mishra,P Dogra,0,0,na,na
2nd innings,8.5,AC Voges,A Mishra,P Dogra,0,0,na,na
2nd innings,8.6,AC Voges,A Mishra,P Dogra,1,1,na,na
2nd innings,9.1,AC Voges,S Ladda,P Dogra,0,0,na,na
2nd innings,9.2,AC Voges,S Ladda,P Dogra,1,1,na,na
2nd innings,9.3,P Dogra,S Ladda,AC Voges,1,1,na,na
2nd innings,9.4,AC Voges,S Ladda,P Dogra,0,0,na,na
2nd innings,9.5,AC Voges,S Ladda,P Dogra,0,0,na,na
2nd innings,9.6,AC Voges,S Ladda,P Dogra,0,0,na,na
2nd innings,10.1,P Dogra,A Mishra,AC Voges,0,0,na,na
2nd innings,10.2,P Dogra,A Mishra,AC Voges,2,2,na,na
2nd innings,10.3,P Dogra,A Mishra,AC Voges,0,0,na,"{'fielders': ['DA Warner'], 'kind': 'caught', 'player_out': 'AC Voges'}"
2nd innings,10.4,SK Warne,A Mishra,P Dogra,1,1,na,na
2nd innings,10.5,P Dogra,A Mishra,SK Warne,1,0,{'wides': 1},na
2nd innings,10.6,P Dogra,A Mishra,SK Warne,0,0,na,"{'fielders': ['DA Warner'], 'kind': 'run out', 'player_out': 'SK Warne'}"
2nd innings,10.7,S Narwal,A Mishra,P Dogra,0,0,na,na
2nd innings,11.1,P Dogra,S Ladda,S Narwal,0,0,na,na
2nd innings,11.2,P Dogra,S Ladda,S Narwal,4,4,na,na
2nd innings,11.3,P Dogra,S Ladda,S Narwal,1,0,{'wides': 1},na
2nd innings,11.4,P Dogra,S Ladda,S Narwal,0,0,na,na
2nd innings,11.5,P Dogra,S Ladda,S Narwal,1,1,na,na
2nd innings,11.6,S Narwal,S Ladda,P Dogra,0,0,na,na
2nd innings,11.7,S Narwal,S Ladda,P Dogra,6,6,na,na
2nd innings,12.1,P Dogra,AB McDonald,S Narwal,0,0,na,na
2nd innings,12.2,P Dogra,AB McDonald,S Narwal,2,2,na,na
2nd innings,12.3,P Dogra,AB McDonald,S Narwal,4,4,na,na
2nd innings,12.4,P Dogra,AB McDonald,S Narwal,1,1,na,na
2nd innings,12.5,S Narwal,AB McDonald,P Dogra,0,0,na,na
2nd innings,12.6,S Narwal,AB McDonald,P Dogra,1,1,na,na
2nd innings,13.1,S Narwal,PD Collingwood,P Dogra,2,2,na,na
2nd innings,13.2,S Narwal,PD Collingwood,P Dogra,1,1,na,na
2nd innings,13.3,P Dogra,PD Collingwood,S Narwal,0,0,na,"{'fielders': ['DA Warner'], 'kind': 'caught', 'player_out': 'S Narwal'}"
2nd innings,13.4,SW Tait,PD Collingwood,P Dogra,1,1,na,na
2nd innings,13.5,P Dogra,PD Collingwood,SW Tait,1,1,na,na
2nd innings,13.6,SW Tait,PD Collingwood,P Dogra,1,1,na,na
2nd innings,14.1,SW Tait,A Mishra,P Dogra,1,1,na,na
2nd innings,14.2,P Dogra,A Mishra,SW Tait,0,0,na,na
2nd innings,14.3,P Dogra,A Mishra,SW Tait,6,6,na,na
2nd innings,14.4,P Dogra,A Mishra,SW Tait,0,0,na,na
2nd innings,14.5,P Dogra,A Mishra,SW Tait,1,1,na,na
2nd innings,14.6,SW Tait,A Mishra,P Dogra,0,0,na,na
2nd innings,15.1,P Dogra,UT Yadav,SW Tait,0,0,na,na
2nd innings,15.2,P Dogra,UT Yadav,SW Tait,0,0,na,na
2nd innings,15.3,P Dogra,UT Yadav,SW Tait,1,1,na,na
2nd innings,15.4,SW Tait,UT Yadav,P Dogra,1,1,na,na
2nd innings,15.5,P Dogra,UT Yadav,SW Tait,1,1,na,na
2nd innings,15.6,SW Tait,UT Yadav,P Dogra,1,1,na,na
2nd innings,16.1,SW Tait,S Ladda,P Dogra,2,2,na,na
2nd innings,16.2,SW Tait,S Ladda,P Dogra,0,0,na,"{'fielders': ['KD Karthik'], 'kind': 'stumped', 'player_out': 'P Dogra'}"
2nd innings,16.3,SW Tait,S Ladda,SK Trivedi,0,0,na,na
2nd innings,16.4,SW Tait,S Ladda,SK Trivedi,0,0,na,na
2nd innings,16.5,SW Tait,S Ladda,SK Trivedi,0,0,na,na
2nd innings,16.6,SW Tait,S Ladda,SK Trivedi,6,6,na,na
2nd innings,17.1,SK Trivedi,V Sehwag,SW Tait,0,0,na,na
2nd innings,17.2,SK Trivedi,V Sehwag,SW Tait,1,1,na,na
2nd innings,17.3,SW Tait,V Sehwag,SK Trivedi,1,1,na,na
2nd innings,17.4,SK Trivedi,V Sehwag,SW Tait,0,0,na,"{'fielders': ['KD Karthik'], 'kind': 'stumped', 'player_out': 'SW Tait'}"
