innings,deliveries,non_striker,bowler,batsman,total_runs,batsman_runs,extras,wickets
1st innings,0.1,MS Bisla,P Kumar,RS Bopara,0,0,na,na
1st innings,0.2,MS Bisla,P Kumar,RS Bopara,0,0,na,na
1st innings,0.3,MS Bisla,P Kumar,RS Bopara,1,1,na,na
1st innings,0.4,RS Bopara,P Kumar,MS Bisla,0,0,na,na
1st innings,0.5,RS Bopara,P Kumar,MS Bisla,0,0,na,na
1st innings,0.6,RS Bopara,P Kumar,MS Bisla,0,0,na,na
1st innings,1.1,MS Bisla,DW Steyn,RS Bopara,3,3,na,na
1st innings,1.2,RS Bopara,DW Steyn,MS Bisla,0,0,na,na
1st innings,1.3,RS Bopara,DW Steyn,MS Bisla,0,0,na,na
1st innings,1.4,RS Bopara,DW Steyn,MS Bisla,0,0,na,na
1st innings,1.5,RS Bopara,DW Steyn,MS Bisla,1,0,{'wides': 1},na
1st innings,1.6,RS Bopara,DW Steyn,MS Bisla,4,4,na,na
1st innings,1.7,RS Bopara,DW Steyn,MS Bisla,1,1,na,na
1st innings,2.1,RS Bopara,P Kumar,MS Bisla,1,0,{'wides': 1},na
1st innings,2.2,RS Bopara,P Kumar,MS Bisla,0,0,na,na
1st innings,2.3,RS Bopara,P Kumar,MS Bisla,0,0,na,na
1st innings,2.4,RS Bopara,P Kumar,MS Bisla,4,4,na,na
1st innings,2.5,RS Bopara,P Kumar,MS Bisla,0,0,na,na
1st innings,2.6,RS Bopara,P Kumar,MS Bisla,1,0,{'wides': 1},na
1st innings,2.7,RS Bopara,P Kumar,MS Bisla,1,1,na,na
1st innings,2.8,MS Bisla,P Kumar,RS Bopara,1,1,na,na
1st innings,3.1,MS Bisla,JH Kallis,RS Bopara,1,1,na,na
1st innings,3.2,RS Bopara,JH Kallis,MS Bisla,0,0,na,na
1st innings,3.3,RS Bopara,JH Kallis,MS Bisla,6,6,na,na
1st innings,3.4,RS Bopara,JH Kallis,MS Bisla,0,0,na,na
1st innings,3.5,RS Bopara,JH Kallis,MS Bisla,1,0,{'wides': 1},na
1st innings,3.6,RS Bopara,JH Kallis,MS Bisla,0,0,na,na
1st innings,3.7,RS Bopara,JH Kallis,MS Bisla,0,0,na,na
1st innings,4.1,MS Bisla,DW Steyn,RS Bopara,1,1,na,na
1st innings,4.2,RS Bopara,DW Steyn,MS Bisla,1,0,{'legbyes': 1},na
1st innings,4.3,MS Bisla,DW Steyn,RS Bopara,1,0,{'wides': 1},na
1st innings,4.4,MS Bisla,DW Steyn,RS Bopara,1,1,na,na
1st innings,4.5,RS Bopara,DW Steyn,MS Bisla,4,4,na,na
1st innings,4.6,RS Bopara,DW Steyn,MS Bisla,1,1,na,na
1st innings,4.7,MS Bisla,DW Steyn,RS Bopara,0,0,na,na
1st innings,5.1,RS Bopara,JH Kallis,MS Bisla,6,6,na,na
1st innings,5.2,RS Bopara,JH Kallis,MS Bisla,0,0,na,na
1st innings,5.3,RS Bopara,JH Kallis,MS Bisla,4,4,na,na
1st innings,5.4,RS Bopara,JH Kallis,MS Bisla,0,0,na,na
1st innings,5.5,RS Bopara,JH Kallis,MS Bisla,4,4,na,na
1st innings,5.6,RS Bopara,JH Kallis,MS Bisla,1,1,na,na
1st innings,6.1,RS Bopara,A Kumble,MS Bisla,2,2,na,na
1st innings,6.2,RS Bopara,A Kumble,MS Bisla,0,0,na,na
1st innings,6.3,RS Bopara,A Kumble,MS Bisla,0,0,na,na
1st innings,6.4,RS Bopara,A Kumble,MS Bisla,1,1,na,na
1st innings,6.5,RS Bopara,A Kumble,MS Bisla,1,1,na,na
1st innings,6.6,MS Bisla,A Kumble,RS Bopara,1,1,na,na
1st innings,7.1,MS Bisla,R Vinay Kumar,RS Bopara,0,0,na,na
1st innings,7.2,MS Bisla,R Vinay Kumar,RS Bopara,1,1,na,na
1st innings,7.3,RS Bopara,R Vinay Kumar,MS Bisla,2,2,na,na
1st innings,7.4,RS Bopara,R Vinay Kumar,MS Bisla,1,1,na,na
1st innings,7.5,MS Bisla,R Vinay Kumar,RS Bopara,0,0,na,na
1st innings,7.6,MS Bisla,R Vinay Kumar,RS Bopara,1,0,{'wides': 1},na
1st innings,7.7,MS Bisla,R Vinay Kumar,RS Bopara,0,0,na,na
1st innings,8.1,RS Bopara,A Kumble,MS Bisla,6,6,na,na
1st innings,8.2,RS Bopara,A Kumble,MS Bisla,1,1,na,na
1st innings,8.3,MS Bisla,A Kumble,RS Bopara,0,0,na,na
1st innings,8.4,MS Bisla,A Kumble,RS Bopara,0,0,na,na
1st innings,8.5,MS Bisla,A Kumble,RS Bopara,0,0,na,na
1st innings,8.6,MS Bisla,A Kumble,RS Bopara,6,6,na,na
1st innings,9.1,RS Bopara,R Vinay Kumar,MS Bisla,6,6,na,na
1st innings,9.2,RS Bopara,R Vinay Kumar,MS Bisla,1,1,na,na
1st innings,9.3,MS Bisla,R Vinay Kumar,RS Bopara,4,4,na,na
1st innings,9.4,MS Bisla,R Vinay Kumar,RS Bopara,1,1,na,na
1st innings,9.5,RS Bopara,R Vinay Kumar,MS Bisla,1,1,na,na
1st innings,9.6,MS Bisla,R Vinay Kumar,RS Bopara,1,1,na,na
1st innings,10.1,MS Bisla,V Kohli,RS Bopara,1,1,na,na
1st innings,10.2,RS Bopara,V Kohli,MS Bisla,1,1,na,na
1st innings,10.3,MS Bisla,V Kohli,RS Bopara,2,2,na,na
1st innings,10.4,MS Bisla,V Kohli,RS Bopara,1,1,na,na
1st innings,10.5,RS Bopara,V Kohli,MS Bisla,4,4,na,na
1st innings,10.6,RS Bopara,V Kohli,MS Bisla,0,0,na,na
1st innings,11.1,MS Bisla,A Kumble,RS Bopara,0,0,na,na
1st innings,11.2,MS Bisla,A Kumble,RS Bopara,1,1,na,na
1st innings,11.3,RS Bopara,A Kumble,MS Bisla,1,1,na,na
1st innings,11.4,MS Bisla,A Kumble,RS Bopara,1,1,na,na
1st innings,11.5,RS Bopara,A Kumble,MS Bisla,1,1,na,na
1st innings,11.6,MS Bisla,A Kumble,RS Bopara,4,4,na,na
1st innings,12.1,RS Bopara,V Kohli,MS Bisla,1,0,{'byes': 1},na
1st innings,12.2,MS Bisla,V Kohli,RS Bopara,1,1,na,na
1st innings,12.3,RS Bopara,V Kohli,MS Bisla,2,2,na,na
1st innings,12.4,RS Bopara,V Kohli,MS Bisla,5,4,{'noballs': 1},na
1st innings,12.5,RS Bopara,V Kohli,MS Bisla,1,1,na,na
1st innings,12.6,MS Bisla,V Kohli,RS Bopara,4,4,na,na
1st innings,12.7,MS Bisla,V Kohli,RS Bopara,1,1,na,na
1st innings,13.1,MS Bisla,DW Steyn,RS Bopara,2,2,na,na
1st innings,13.2,MS Bisla,DW Steyn,RS Bopara,4,4,na,na
1st innings,13.3,MS Bisla,DW Steyn,RS Bopara,0,0,na,na
1st innings,13.4,MS Bisla,DW Steyn,RS Bopara,1,1,na,na
1st innings,13.5,RS Bopara,DW Steyn,MS Bisla,0,0,na,na
1st innings,13.6,RS Bopara,DW Steyn,MS Bisla,3,3,na,na
1st innings,14.1,RS Bopara,JH Kallis,MS Bisla,0,0,na,"{'fielders': ['EJG Morgan'], 'kind': 'caught', 'player_out': 'MS Bisla'}"
1st innings,14.2,Yuvraj Singh,JH Kallis,RS Bopara,1,1,na,na
1st innings,14.3,RS Bopara,JH Kallis,Yuvraj Singh,1,1,na,na
1st innings,14.4,Yuvraj Singh,JH Kallis,RS Bopara,1,1,na,na
1st innings,14.5,RS Bopara,JH Kallis,Yuvraj Singh,1,1,na,na
1st innings,14.6,Yuvraj Singh,JH Kallis,RS Bopara,0,0,na,na
1st innings,15.1,RS Bopara,DW Steyn,Yuvraj Singh,4,4,na,na
1st innings,15.2,RS Bopara,DW Steyn,Yuvraj Singh,2,2,na,na
1st innings,15.3,RS Bopara,DW Steyn,Yuvraj Singh,1,1,na,na
1st innings,15.4,Yuvraj Singh,DW Steyn,RS Bopara,1,1,na,na
1st innings,15.5,RS Bopara,DW Steyn,Yuvraj Singh,0,0,na,"{'fielders': ['EJG Morgan'], 'kind': 'caught', 'player_out': 'Yuvraj Singh'}"
1st innings,15.6,RS Bopara,DW Steyn,DPMD Jayawardene,1,1,na,na
1st innings,16.1,RS Bopara,A Kumble,DPMD Jayawardene,1,0,{'wides': 1},na
1st innings,16.2,RS Bopara,A Kumble,DPMD Jayawardene,1,1,na,na
1st innings,16.3,DPMD Jayawardene,A Kumble,RS Bopara,0,0,na,na
1st innings,16.4,DPMD Jayawardene,A Kumble,RS Bopara,1,1,na,na
1st innings,16.5,RS Bopara,A Kumble,DPMD Jayawardene,6,6,na,na
1st innings,16.6,RS Bopara,A Kumble,DPMD Jayawardene,4,4,na,na
1st innings,16.7,RS Bopara,A Kumble,DPMD Jayawardene,1,1,na,na
1st innings,17.1,RS Bopara,P Kumar,DPMD Jayawardene,1,0,{'byes': 1},na
1st innings,17.2,DPMD Jayawardene,P Kumar,RS Bopara,1,0,{'wides': 1},na
1st innings,17.3,DPMD Jayawardene,P Kumar,RS Bopara,1,1,na,na
1st innings,17.4,RS Bopara,P Kumar,DPMD Jayawardene,1,1,na,na
1st innings,17.5,DPMD Jayawardene,P Kumar,RS Bopara,4,4,na,na
1st innings,17.6,DPMD Jayawardene,P Kumar,RS Bopara,4,4,na,na
1st innings,17.7,DPMD Jayawardene,P Kumar,RS Bopara,4,4,na,na
1st innings,18.1,RS Bopara,JH Kallis,DPMD Jayawardene,4,4,na,na
1st innings,18.2,RS Bopara,JH Kallis,DPMD Jayawardene,2,2,na,na
1st innings,18.3,RS Bopara,JH Kallis,DPMD Jayawardene,1,1,na,na
1st innings,18.4,DPMD Jayawardene,JH Kallis,RS Bopara,4,4,na,na
1st innings,18.5,DPMD Jayawardene,JH Kallis,RS Bopara,1,1,na,na
1st innings,18.6,RS Bopara,JH Kallis,DPMD Jayawardene,0,0,na,na
1st innings,19.1,DPMD Jayawardene,P Kumar,RS Bopara,6,6,na,na
1st innings,19.2,DPMD Jayawardene,P Kumar,RS Bopara,4,4,na,na
1st innings,19.3,DPMD Jayawardene,P Kumar,RS Bopara,0,0,na,"{'fielders': ['A Kumble'], 'kind': 'caught', 'player_out': 'RS Bopara'}"
1st innings,19.4,IK Pathan,P Kumar,DPMD Jayawardene,4,4,na,na
1st innings,19.5,IK Pathan,P Kumar,DPMD Jayawardene,1,0,{'wides': 1},na
1st innings,19.6,IK Pathan,P Kumar,DPMD Jayawardene,1,1,na,na
1st innings,19.7,DPMD Jayawardene,P Kumar,IK Pathan,3,3,na,na
2nd innings,0.1,JH Kallis,IK Pathan,MK Pandey,0,0,na,na
2nd innings,0.2,JH Kallis,IK Pathan,MK Pandey,0,0,na,na
2nd innings,0.3,JH Kallis,IK Pathan,MK Pandey,1,1,na,na
2nd innings,0.4,MK Pandey,IK Pathan,JH Kallis,0,0,na,na
2nd innings,0.5,MK Pandey,IK Pathan,JH Kallis,0,0,na,na
2nd innings,0.6,MK Pandey,IK Pathan,JH Kallis,4,4,na,na
2nd innings,1.1,JH Kallis,S Sreesanth,MK Pandey,1,1,na,na
2nd innings,1.2,MK Pandey,S Sreesanth,JH Kallis,0,0,na,na
2nd innings,1.3,MK Pandey,S Sreesanth,JH Kallis,1,1,na,na
2nd innings,1.4,JH Kallis,S Sreesanth,MK Pandey,1,0,{'wides': 1},na
2nd innings,1.5,JH Kallis,S Sreesanth,MK Pandey,1,1,na,na
2nd innings,1.6,MK Pandey,S Sreesanth,JH Kallis,1,1,na,na
2nd innings,1.7,JH Kallis,S Sreesanth,MK Pandey,0,0,na,na
2nd innings,2.1,MK Pandey,IK Pathan,JH Kallis,4,4,na,na
2nd innings,2.2,MK Pandey,IK Pathan,JH Kallis,1,1,na,na
2nd innings,2.3,JH Kallis,IK Pathan,MK Pandey,4,4,na,na
2nd innings,2.4,JH Kallis,IK Pathan,MK Pandey,0,0,na,na
2nd innings,2.5,JH Kallis,IK Pathan,MK Pandey,0,0,na,na
2nd innings,2.6,JH Kallis,IK Pathan,MK Pandey,1,1,na,na
2nd innings,3.1,JH Kallis,S Sreesanth,MK Pandey,1,1,na,na
2nd innings,3.2,MK Pandey,S Sreesanth,JH Kallis,5,0,{'noballs': 5},na
2nd innings,3.3,MK Pandey,S Sreesanth,JH Kallis,4,4,na,na
2nd innings,3.4,MK Pandey,S Sreesanth,JH Kallis,0,0,na,na
2nd innings,3.5,MK Pandey,S Sreesanth,JH Kallis,0,0,na,na
2nd innings,3.6,MK Pandey,S Sreesanth,JH Kallis,1,0,{'wides': 1},na
2nd innings,3.7,MK Pandey,S Sreesanth,JH Kallis,1,0,{'wides': 1},na
2nd innings,3.8,MK Pandey,S Sreesanth,JH Kallis,0,0,na,na
2nd innings,3.9,MK Pandey,S Sreesanth,JH Kallis,0,0,na,na
2nd innings,4.1,JH Kallis,YA Abdulla,MK Pandey,0,0,na,na
2nd innings,4.2,JH Kallis,YA Abdulla,MK Pandey,1,1,na,na
2nd innings,4.3,MK Pandey,YA Abdulla,JH Kallis,4,4,na,na
2nd innings,4.4,MK Pandey,YA Abdulla,JH Kallis,0,0,na,na
2nd innings,4.5,MK Pandey,YA Abdulla,JH Kallis,6,6,na,na
2nd innings,4.6,MK Pandey,YA Abdulla,JH Kallis,0,0,na,na
2nd innings,5.1,JH Kallis,IK Pathan,MK Pandey,4,4,na,na
2nd innings,5.2,JH Kallis,IK Pathan,MK Pandey,6,6,na,na
2nd innings,5.3,JH Kallis,IK Pathan,MK Pandey,0,0,na,na
2nd innings,5.4,JH Kallis,IK Pathan,MK Pandey,1,1,na,na
2nd innings,5.5,MK Pandey,IK Pathan,JH Kallis,1,1,na,na
2nd innings,5.6,JH Kallis,IK Pathan,MK Pandey,6,6,na,na
2nd innings,6.1,MK Pandey,PP Chawla,JH Kallis,1,0,{'legbyes': 1},na
2nd innings,6.2,JH Kallis,PP Chawla,MK Pandey,1,1,na,na
2nd innings,6.3,MK Pandey,PP Chawla,JH Kallis,0,0,na,na
2nd innings,6.4,MK Pandey,PP Chawla,JH Kallis,1,1,na,na
2nd innings,6.5,JH Kallis,PP Chawla,MK Pandey,2,2,na,na
2nd innings,6.6,JH Kallis,PP Chawla,MK Pandey,1,1,na,na
2nd innings,7.1,JH Kallis,Yuvraj Singh,MK Pandey,0,0,na,na
2nd innings,7.2,JH Kallis,Yuvraj Singh,MK Pandey,0,0,na,na
2nd innings,7.3,JH Kallis,Yuvraj Singh,MK Pandey,6,6,na,na
2nd innings,7.4,JH Kallis,Yuvraj Singh,MK Pandey,1,1,na,na
2nd innings,7.5,MK Pandey,Yuvraj Singh,JH Kallis,0,0,na,na
2nd innings,7.6,MK Pandey,Yuvraj Singh,JH Kallis,0,0,na,na
2nd innings,8.1,JH Kallis,PP Chawla,MK Pandey,0,0,na,"{'fielders': ['IK Pathan'], 'kind': 'caught', 'player_out': 'MK Pandey'}"
2nd innings,8.2,JH Kallis,PP Chawla,RV Uthappa,0,0,na,na
2nd innings,8.3,JH Kallis,PP Chawla,RV Uthappa,1,1,na,na
2nd innings,8.4,RV Uthappa,PP Chawla,JH Kallis,0,0,na,na
2nd innings,8.5,RV Uthappa,PP Chawla,JH Kallis,2,2,na,na
2nd innings,8.6,RV Uthappa,PP Chawla,JH Kallis,1,1,na,na
2nd innings,9.1,RV Uthappa,Yuvraj Singh,JH Kallis,2,2,na,na
2nd innings,9.2,RV Uthappa,Yuvraj Singh,JH Kallis,1,1,na,na
2nd innings,9.3,JH Kallis,Yuvraj Singh,RV Uthappa,0,0,na,na
2nd innings,9.4,JH Kallis,Yuvraj Singh,RV Uthappa,1,1,na,na
2nd innings,9.5,RV Uthappa,Yuvraj Singh,JH Kallis,6,6,na,na
2nd innings,9.6,RV Uthappa,Yuvraj Singh,JH Kallis,1,1,na,na
2nd innings,10.1,RV Uthappa,PP Chawla,JH Kallis,1,1,na,na
2nd innings,10.2,JH Kallis,PP Chawla,RV Uthappa,4,4,na,na
2nd innings,10.3,JH Kallis,PP Chawla,RV Uthappa,4,4,na,na
2nd innings,10.4,JH Kallis,PP Chawla,RV Uthappa,1,1,na,na
2nd innings,10.5,RV Uthappa,PP Chawla,JH Kallis,0,0,na,na
2nd innings,10.6,RV Uthappa,PP Chawla,JH Kallis,1,1,na,na
2nd innings,11.1,RV Uthappa,YA Abdulla,JH Kallis,1,1,na,na
2nd innings,11.2,JH Kallis,YA Abdulla,RV Uthappa,1,1,na,na
2nd innings,11.3,RV Uthappa,YA Abdulla,JH Kallis,1,1,na,na
2nd innings,11.4,JH Kallis,YA Abdulla,RV Uthappa,6,6,na,na
2nd innings,11.5,JH Kallis,YA Abdulla,RV Uthappa,4,4,na,na
2nd innings,11.6,JH Kallis,YA Abdulla,RV Uthappa,1,1,na,na
2nd innings,12.1,JH Kallis,S Sreesanth,RV Uthappa,6,6,na,na
2nd innings,12.2,JH Kallis,S Sreesanth,RV Uthappa,2,2,na,na
2nd innings,12.3,JH Kallis,S Sreesanth,RV Uthappa,6,6,na,na
2nd innings,12.4,JH Kallis,S Sreesanth,RV Uthappa,6,6,na,na
2nd innings,12.5,JH Kallis,S Sreesanth,RV Uthappa,4,4,na,na
2nd innings,12.6,JH Kallis,S Sreesanth,RV Uthappa,1,1,na,na
2nd innings,13.1,JH Kallis,Bipul Sharma,RV Uthappa,1,1,na,na
2nd innings,13.2,RV Uthappa,Bipul Sharma,JH Kallis,0,0,na,na
2nd innings,13.3,RV Uthappa,Bipul Sharma,JH Kallis,1,1,na,na
2nd innings,13.4,JH Kallis,Bipul Sharma,RV Uthappa,2,2,na,na
2nd innings,13.5,JH Kallis,Bipul Sharma,RV Uthappa,0,0,na,na
2nd innings,13.6,JH Kallis,Bipul Sharma,RV Uthappa,0,0,na,"{'fielders': ['M Kaif'], 'kind': 'caught', 'player_out': 'RV Uthappa'}"
2nd innings,14.1,JH Kallis,RS Bopara,V Kohli,0,0,na,na
2nd innings,14.2,JH Kallis,RS Bopara,V Kohli,1,1,na,na
2nd innings,14.3,V Kohli,RS Bopara,JH Kallis,0,0,na,na
2nd innings,14.4,V Kohli,RS Bopara,JH Kallis,4,4,na,na
2nd innings,14.5,V Kohli,RS Bopara,JH Kallis,0,0,na,na
2nd innings,14.6,V Kohli,RS Bopara,JH Kallis,1,1,na,na
2nd innings,15.1,V Kohli,Bipul Sharma,JH Kallis,2,2,na,na
2nd innings,15.2,V Kohli,Bipul Sharma,JH Kallis,4,4,na,na
2nd innings,15.3,V Kohli,Bipul Sharma,JH Kallis,2,2,na,na
2nd innings,15.4,V Kohli,Bipul Sharma,JH Kallis,1,1,na,na
2nd innings,15.5,JH Kallis,Bipul Sharma,V Kohli,0,0,na,na
2nd innings,15.6,JH Kallis,Bipul Sharma,V Kohli,1,1,na,na
2nd innings,16.1,JH Kallis,RS Bopara,V Kohli,0,0,na,na
2nd innings,16.2,JH Kallis,RS Bopara,V Kohli,6,6,na,na
2nd innings,16.3,JH Kallis,RS Bopara,V Kohli,1,1,na,na
2nd innings,16.4,V Kohli,RS Bopara,JH Kallis,1,1,na,na
2nd innings,16.5,JH Kallis,RS Bopara,V Kohli,1,1,na,na
2nd innings,16.6,V Kohli,RS Bopara,JH Kallis,2,2,na,na
2nd innings,17.1,JH Kallis,Bipul Sharma,V Kohli,1,1,na,na
2nd innings,17.2,V Kohli,Bipul Sharma,JH Kallis,6,6,na,na
2nd innings,17.3,V Kohli,Bipul Sharma,JH Kallis,6,6,na,na
2nd innings,17.4,V Kohli,Bipul Sharma,JH Kallis,0,0,na,na
2nd innings,17.5,V Kohli,Bipul Sharma,JH Kallis,6,6,na,na
2nd innings,17.6,V Kohli,Bipul Sharma,JH Kallis,4,4,na,na
2nd innings,18.1,JH Kallis,YA Abdulla,V Kohli,0,0,na,na
2nd innings,18.2,JH Kallis,YA Abdulla,V Kohli,1,0,{'wides': 1},na
2nd innings,18.3,JH Kallis,YA Abdulla,V Kohli,4,4,na,na
2nd innings,18.4,JH Kallis,YA Abdulla,V Kohli,1,1,na,na
2nd innings,18.5,V Kohli,YA Abdulla,JH Kallis,4,4,na,na
2nd innings,18.6,V Kohli,YA Abdulla,JH Kallis,1,1,na,na
