innings,deliveries,non_striker,bowler,batsman,total_runs,batsman_runs,extras,wickets
1st innings,0.1,ML Hayden,SE Bond,M Vijay,0,0,na,na
1st innings,0.2,ML Hayden,SE Bond,M Vijay,0,0,na,na
1st innings,0.3,ML Hayden,SE Bond,M Vijay,1,1,na,na
1st innings,0.4,M Vijay,SE Bond,ML Hayden,0,0,na,na
1st innings,0.5,M Vijay,SE Bond,ML Hayden,0,0,na,na
1st innings,0.6,M Vijay,SE Bond,ML Hayden,0,0,na,na
1st innings,1.1,ML Hayden,I Sharma,M Vijay,4,4,na,na
1st innings,1.2,ML Hayden,I Sharma,M Vijay,0,0,na,na
1st innings,1.3,ML Hayden,I Sharma,M Vijay,0,0,na,na
1st innings,1.4,ML Hayden,I Sharma,M Vijay,4,4,na,na
1st innings,1.5,ML Hayden,I Sharma,M Vijay,0,0,na,na
1st innings,1.6,ML Hayden,I Sharma,M Vijay,1,1,na,na
1st innings,2.1,ML Hayden,SE Bond,M Vijay,4,4,na,na
1st innings,2.2,ML Hayden,SE Bond,M Vijay,1,1,na,na
1st innings,2.3,M Vijay,SE Bond,ML Hayden,0,0,na,na
1st innings,2.4,M Vijay,SE Bond,ML Hayden,0,0,na,na
1st innings,2.5,M Vijay,SE Bond,ML Hayden,0,0,na,na
1st innings,2.6,M Vijay,SE Bond,ML Hayden,1,1,na,na
1st innings,3.1,M Vijay,I Sharma,ML Hayden,0,0,na,"{'kind': 'bowled', 'player_out': 'ML Hayden'}"
1st innings,3.2,M Vijay,I Sharma,SK Raina,0,0,na,na
1st innings,3.3,M Vijay,I Sharma,SK Raina,0,0,na,na
1st innings,3.4,M Vijay,I Sharma,SK Raina,1,1,na,na
1st innings,3.5,SK Raina,I Sharma,M Vijay,0,0,na,na
1st innings,3.6,SK Raina,I Sharma,M Vijay,1,1,na,na
1st innings,4.1,SK Raina,AD Mathews,M Vijay,1,1,na,na
1st innings,4.2,M Vijay,AD Mathews,SK Raina,1,1,na,na
1st innings,4.3,SK Raina,AD Mathews,M Vijay,0,0,na,na
1st innings,4.4,SK Raina,AD Mathews,M Vijay,1,1,na,na
1st innings,4.5,M Vijay,AD Mathews,SK Raina,0,0,na,na
1st innings,4.6,M Vijay,AD Mathews,SK Raina,1,1,na,na
1st innings,5.1,M Vijay,LR Shukla,SK Raina,0,0,na,na
1st innings,5.2,M Vijay,LR Shukla,SK Raina,4,4,na,na
1st innings,5.3,M Vijay,LR Shukla,SK Raina,0,0,na,na
1st innings,5.4,M Vijay,LR Shukla,SK Raina,0,0,na,na
1st innings,5.5,M Vijay,LR Shukla,SK Raina,1,1,na,na
1st innings,5.6,SK Raina,LR Shukla,M Vijay,4,4,na,na
1st innings,6.1,M Vijay,AD Mathews,SK Raina,2,2,na,na
1st innings,6.2,M Vijay,AD Mathews,SK Raina,1,1,na,na
1st innings,6.3,SK Raina,AD Mathews,M Vijay,1,1,na,na
1st innings,6.4,M Vijay,AD Mathews,SK Raina,4,4,na,na
1st innings,6.5,M Vijay,AD Mathews,SK Raina,1,1,na,na
1st innings,6.6,SK Raina,AD Mathews,M Vijay,1,1,na,na
1st innings,7.1,SK Raina,M Kartik,M Vijay,2,2,na,na
1st innings,7.2,SK Raina,M Kartik,M Vijay,2,2,na,na
1st innings,7.3,SK Raina,M Kartik,M Vijay,0,0,na,na
1st innings,7.4,SK Raina,M Kartik,M Vijay,1,0,{'wides': 1},na
1st innings,7.5,SK Raina,M Kartik,M Vijay,0,0,na,na
1st innings,7.6,SK Raina,M Kartik,M Vijay,1,1,na,na
1st innings,7.7,M Vijay,M Kartik,SK Raina,1,0,{'legbyes': 1},na
1st innings,8.1,M Vijay,LR Shukla,SK Raina,0,0,na,na
1st innings,8.2,M Vijay,LR Shukla,SK Raina,1,1,na,na
1st innings,8.3,SK Raina,LR Shukla,M Vijay,4,4,na,na
1st innings,8.4,SK Raina,LR Shukla,M Vijay,0,0,na,"{'kind': 'bowled', 'player_out': 'M Vijay'}"
1st innings,8.5,SK Raina,LR Shukla,S Badrinath,1,1,na,na
1st innings,8.6,S Badrinath,LR Shukla,SK Raina,1,1,na,na
1st innings,9.1,S Badrinath,BJ Hodge,SK Raina,0,0,na,"{'kind': 'bowled', 'player_out': 'SK Raina'}"
1st innings,9.2,S Badrinath,BJ Hodge,MS Dhoni,0,0,na,na
1st innings,9.3,S Badrinath,BJ Hodge,MS Dhoni,2,2,na,na
1st innings,9.4,S Badrinath,BJ Hodge,MS Dhoni,1,1,na,na
1st innings,9.5,MS Dhoni,BJ Hodge,S Badrinath,1,1,na,na
1st innings,9.6,S Badrinath,BJ Hodge,MS Dhoni,0,0,na,na
1st innings,10.1,MS Dhoni,LR Shukla,S Badrinath,0,0,na,na
1st innings,10.2,MS Dhoni,LR Shukla,S Badrinath,0,0,na,na
1st innings,10.3,MS Dhoni,LR Shukla,S Badrinath,1,1,na,na
1st innings,10.4,S Badrinath,LR Shukla,MS Dhoni,1,1,na,na
1st innings,10.5,MS Dhoni,LR Shukla,S Badrinath,2,2,na,na
1st innings,10.6,MS Dhoni,LR Shukla,S Badrinath,1,1,na,na
1st innings,11.1,MS Dhoni,M Kartik,S Badrinath,1,1,na,na
1st innings,11.2,S Badrinath,M Kartik,MS Dhoni,1,1,na,na
1st innings,11.3,MS Dhoni,M Kartik,S Badrinath,0,0,na,na
1st innings,11.4,MS Dhoni,M Kartik,S Badrinath,0,0,na,na
1st innings,11.5,MS Dhoni,M Kartik,S Badrinath,2,2,na,na
1st innings,11.6,MS Dhoni,M Kartik,S Badrinath,0,0,na,na
1st innings,12.1,S Badrinath,SE Bond,MS Dhoni,2,2,na,na
1st innings,12.2,S Badrinath,SE Bond,MS Dhoni,1,1,na,na
1st innings,12.3,MS Dhoni,SE Bond,S Badrinath,4,4,na,na
1st innings,12.4,MS Dhoni,SE Bond,S Badrinath,0,0,na,na
1st innings,12.5,MS Dhoni,SE Bond,S Badrinath,1,1,na,na
1st innings,12.6,S Badrinath,SE Bond,MS Dhoni,1,1,na,na
1st innings,13.1,S Badrinath,M Kartik,MS Dhoni,0,0,na,na
1st innings,13.2,S Badrinath,M Kartik,MS Dhoni,0,0,na,na
1st innings,13.3,S Badrinath,M Kartik,MS Dhoni,0,0,na,na
1st innings,13.4,S Badrinath,M Kartik,MS Dhoni,1,1,na,na
1st innings,13.5,MS Dhoni,M Kartik,S Badrinath,1,1,na,na
1st innings,13.6,S Badrinath,M Kartik,MS Dhoni,2,2,na,na
1st innings,14.1,MS Dhoni,AD Mathews,S Badrinath,4,4,na,na
1st innings,14.2,MS Dhoni,AD Mathews,S Badrinath,1,1,na,na
1st innings,14.3,S Badrinath,AD Mathews,MS Dhoni,1,1,na,na
1st innings,14.4,MS Dhoni,AD Mathews,S Badrinath,2,2,na,na
1st innings,14.5,MS Dhoni,AD Mathews,S Badrinath,1,1,na,na
1st innings,14.6,S Badrinath,AD Mathews,MS Dhoni,6,6,na,na
1st innings,15.1,MS Dhoni,M Kartik,S Badrinath,0,0,na,na
1st innings,15.2,MS Dhoni,M Kartik,S Badrinath,2,2,na,na
1st innings,15.3,MS Dhoni,M Kartik,S Badrinath,1,1,na,na
1st innings,15.4,S Badrinath,M Kartik,MS Dhoni,1,1,na,na
1st innings,15.5,MS Dhoni,M Kartik,S Badrinath,1,1,na,na
1st innings,15.6,S Badrinath,M Kartik,MS Dhoni,2,2,na,na
1st innings,16.1,MS Dhoni,I Sharma,S Badrinath,4,4,na,na
1st innings,16.2,MS Dhoni,I Sharma,S Badrinath,0,0,na,na
1st innings,16.3,MS Dhoni,I Sharma,S Badrinath,1,1,na,na
1st innings,16.4,S Badrinath,I Sharma,MS Dhoni,2,2,na,na
1st innings,16.5,S Badrinath,I Sharma,MS Dhoni,4,4,na,na
1st innings,16.6,S Badrinath,I Sharma,MS Dhoni,1,1,na,na
1st innings,17.1,S Badrinath,LR Shukla,MS Dhoni,4,4,na,na
1st innings,17.2,S Badrinath,LR Shukla,MS Dhoni,0,0,na,na
1st innings,17.3,S Badrinath,LR Shukla,MS Dhoni,4,4,na,na
1st innings,17.4,S Badrinath,LR Shukla,MS Dhoni,6,6,na,na
1st innings,17.5,S Badrinath,LR Shukla,MS Dhoni,1,1,na,na
1st innings,17.6,MS Dhoni,LR Shukla,S Badrinath,1,1,na,na
1st innings,18.1,MS Dhoni,SE Bond,S Badrinath,0,0,na,na
1st innings,18.2,MS Dhoni,SE Bond,S Badrinath,1,1,na,na
1st innings,18.3,S Badrinath,SE Bond,MS Dhoni,2,2,na,na
1st innings,18.4,S Badrinath,SE Bond,MS Dhoni,4,4,na,na
1st innings,18.5,S Badrinath,SE Bond,MS Dhoni,6,6,na,na
1st innings,18.6,S Badrinath,SE Bond,MS Dhoni,4,4,na,na
1st innings,19.1,MS Dhoni,I Sharma,S Badrinath,6,6,na,na
1st innings,19.2,MS Dhoni,I Sharma,S Badrinath,1,1,na,na
1st innings,19.3,S Badrinath,I Sharma,MS Dhoni,4,4,na,na
1st innings,19.4,S Badrinath,I Sharma,MS Dhoni,2,2,na,na
1st innings,19.5,S Badrinath,I Sharma,MS Dhoni,1,0,{'legbyes': 1},na
1st innings,19.6,MS Dhoni,I Sharma,S Badrinath,2,2,na,na
2nd innings,0.1,MK Tiwary,JA Morkel,BJ Hodge,0,0,na,na
2nd innings,0.2,MK Tiwary,JA Morkel,BJ Hodge,0,0,na,"{'fielders': ['R Ashwin'], 'kind': 'caught', 'player_out': 'BJ Hodge'}"
2nd innings,0.3,MK Tiwary,JA Morkel,SC Ganguly,0,0,na,na
2nd innings,0.4,MK Tiwary,JA Morkel,SC Ganguly,0,0,na,na
2nd innings,0.5,MK Tiwary,JA Morkel,SC Ganguly,0,0,na,na
2nd innings,0.6,MK Tiwary,JA Morkel,SC Ganguly,0,0,na,na
2nd innings,1.1,SC Ganguly,MS Gony,MK Tiwary,4,4,na,na
2nd innings,1.2,SC Ganguly,MS Gony,MK Tiwary,4,4,na,na
2nd innings,1.3,SC Ganguly,MS Gony,MK Tiwary,0,0,na,"{'kind': 'bowled', 'player_out': 'MK Tiwary'}"
2nd innings,1.4,SC Ganguly,MS Gony,WP Saha,0,0,na,na
2nd innings,1.5,SC Ganguly,MS Gony,WP Saha,2,2,na,na
2nd innings,1.6,SC Ganguly,MS Gony,WP Saha,0,0,na,na
2nd innings,2.1,WP Saha,JA Morkel,SC Ganguly,0,0,na,na
2nd innings,2.2,WP Saha,JA Morkel,SC Ganguly,0,0,na,na
2nd innings,2.3,WP Saha,JA Morkel,SC Ganguly,1,0,{'wides': 1},na
2nd innings,2.4,WP Saha,JA Morkel,SC Ganguly,1,1,na,na
2nd innings,2.5,SC Ganguly,JA Morkel,WP Saha,4,4,na,na
2nd innings,2.6,SC Ganguly,JA Morkel,WP Saha,1,0,{'legbyes': 1},na
2nd innings,2.7,WP Saha,JA Morkel,SC Ganguly,0,0,na,na
2nd innings,3.1,SC Ganguly,MS Gony,WP Saha,4,4,na,na
2nd innings,3.2,SC Ganguly,MS Gony,WP Saha,4,4,na,na
2nd innings,3.3,SC Ganguly,MS Gony,WP Saha,0,0,na,na
2nd innings,3.4,SC Ganguly,MS Gony,WP Saha,0,0,na,na
2nd innings,3.5,SC Ganguly,MS Gony,WP Saha,0,0,na,na
2nd innings,3.6,SC Ganguly,MS Gony,WP Saha,4,4,na,na
2nd innings,4.1,WP Saha,L Balaji,SC Ganguly,0,0,na,na
2nd innings,4.2,WP Saha,L Balaji,SC Ganguly,0,0,na,na
2nd innings,4.3,WP Saha,L Balaji,SC Ganguly,0,0,na,na
2nd innings,4.4,WP Saha,L Balaji,SC Ganguly,1,1,na,na
2nd innings,4.5,SC Ganguly,L Balaji,WP Saha,4,4,na,na
2nd innings,4.6,SC Ganguly,L Balaji,WP Saha,0,0,na,"{'kind': 'bowled', 'player_out': 'WP Saha'}"
2nd innings,5.1,OA Shah,MS Gony,SC Ganguly,1,1,na,na
2nd innings,5.2,SC Ganguly,MS Gony,OA Shah,0,0,na,na
2nd innings,5.3,SC Ganguly,MS Gony,OA Shah,1,1,na,na
2nd innings,5.4,OA Shah,MS Gony,SC Ganguly,4,4,na,na
2nd innings,5.5,OA Shah,MS Gony,SC Ganguly,1,1,na,na
2nd innings,5.6,SC Ganguly,MS Gony,OA Shah,4,4,na,na
2nd innings,6.1,OA Shah,L Balaji,SC Ganguly,1,1,na,na
2nd innings,6.2,SC Ganguly,L Balaji,OA Shah,0,0,na,"{'fielders': ['MS Dhoni'], 'kind': 'caught', 'player_out': 'OA Shah'}"
2nd innings,6.3,SC Ganguly,L Balaji,AD Mathews,0,0,na,na
2nd innings,6.4,SC Ganguly,L Balaji,AD Mathews,1,1,na,na
2nd innings,6.5,AD Mathews,L Balaji,SC Ganguly,1,1,na,na
2nd innings,6.6,SC Ganguly,L Balaji,AD Mathews,1,1,na,na
2nd innings,7.1,SC Ganguly,M Muralitharan,AD Mathews,0,0,na,na
2nd innings,7.2,SC Ganguly,M Muralitharan,AD Mathews,1,1,na,na
2nd innings,7.3,AD Mathews,M Muralitharan,SC Ganguly,1,0,{'legbyes': 1},na
2nd innings,7.4,SC Ganguly,M Muralitharan,AD Mathews,0,0,na,na
2nd innings,7.5,SC Ganguly,M Muralitharan,AD Mathews,1,0,{'wides': 1},na
2nd innings,7.6,SC Ganguly,M Muralitharan,AD Mathews,1,1,na,na
2nd innings,7.7,AD Mathews,M Muralitharan,SC Ganguly,1,1,na,na
2nd innings,8.1,AD Mathews,JM Kemp,SC Ganguly,1,0,{'wides': 1},na
2nd innings,8.2,AD Mathews,JM Kemp,SC Ganguly,0,0,na,"{'fielders': ['JA Morkel'], 'kind': 'caught', 'player_out': 'SC Ganguly'}"
2nd innings,8.3,LR Shukla,JM Kemp,AD Mathews,0,0,na,na
2nd innings,8.4,LR Shukla,JM Kemp,AD Mathews,1,1,na,na
2nd innings,8.5,AD Mathews,JM Kemp,LR Shukla,4,4,na,na
2nd innings,8.6,AD Mathews,JM Kemp,LR Shukla,1,1,na,na
2nd innings,8.7,LR Shukla,JM Kemp,AD Mathews,0,0,na,na
2nd innings,9.1,AD Mathews,R Ashwin,LR Shukla,0,0,na,na
2nd innings,9.2,AD Mathews,R Ashwin,LR Shukla,1,1,na,na
2nd innings,9.3,LR Shukla,R Ashwin,AD Mathews,1,1,na,na
2nd innings,9.4,AD Mathews,R Ashwin,LR Shukla,0,0,na,na
2nd innings,9.5,AD Mathews,R Ashwin,LR Shukla,4,4,na,na
2nd innings,9.6,AD Mathews,R Ashwin,LR Shukla,0,0,na,na
2nd innings,10.1,LR Shukla,JM Kemp,AD Mathews,2,0,{'legbyes': 2},na
2nd innings,10.2,LR Shukla,JM Kemp,AD Mathews,0,0,na,"{'kind': 'lbw', 'player_out': 'AD Mathews'}"
2nd innings,10.3,LR Shukla,JM Kemp,RS Gavaskar,0,0,na,na
2nd innings,10.4,LR Shukla,JM Kemp,RS Gavaskar,0,0,na,na
2nd innings,10.5,LR Shukla,JM Kemp,RS Gavaskar,1,1,na,na
2nd innings,10.6,RS Gavaskar,JM Kemp,LR Shukla,1,1,na,na
2nd innings,11.1,RS Gavaskar,R Ashwin,LR Shukla,1,1,na,na
2nd innings,11.2,LR Shukla,R Ashwin,RS Gavaskar,0,0,na,na
2nd innings,11.3,LR Shukla,R Ashwin,RS Gavaskar,1,1,na,na
2nd innings,11.4,RS Gavaskar,R Ashwin,LR Shukla,4,4,na,na
2nd innings,11.5,RS Gavaskar,R Ashwin,LR Shukla,1,1,na,na
2nd innings,11.6,LR Shukla,R Ashwin,RS Gavaskar,0,0,na,na
2nd innings,12.1,RS Gavaskar,JM Kemp,LR Shukla,1,1,na,na
2nd innings,12.2,LR Shukla,JM Kemp,RS Gavaskar,0,0,na,na
2nd innings,12.3,LR Shukla,JM Kemp,RS Gavaskar,0,0,na,"{'fielders': ['M Vijay'], 'kind': 'caught', 'player_out': 'RS Gavaskar'}"
2nd innings,12.4,SE Bond,JM Kemp,LR Shukla,1,0,{'legbyes': 1},na
2nd innings,12.5,LR Shukla,JM Kemp,SE Bond,1,1,na,na
2nd innings,12.6,SE Bond,JM Kemp,LR Shukla,1,1,na,na
2nd innings,13.1,SE Bond,M Muralitharan,LR Shukla,0,0,na,na
2nd innings,13.2,SE Bond,M Muralitharan,LR Shukla,0,0,na,"{'fielders': ['JA Morkel'], 'kind': 'caught', 'player_out': 'LR Shukla'}"
2nd innings,13.3,SE Bond,M Muralitharan,M Kartik,0,0,na,na
2nd innings,13.4,SE Bond,M Muralitharan,M Kartik,2,2,na,na
2nd innings,13.5,SE Bond,M Muralitharan,M Kartik,0,0,na,na
2nd innings,13.6,SE Bond,M Muralitharan,M Kartik,0,0,na,na
2nd innings,14.1,M Kartik,R Ashwin,SE Bond,0,0,na,"{'kind': 'bowled', 'player_out': 'SE Bond'}"
2nd innings,14.2,M Kartik,R Ashwin,I Sharma,1,1,na,na
2nd innings,14.3,I Sharma,R Ashwin,M Kartik,0,0,na,na
2nd innings,14.4,I Sharma,R Ashwin,M Kartik,4,4,na,na
2nd innings,14.5,I Sharma,R Ashwin,M Kartik,1,1,na,na
2nd innings,14.6,M Kartik,R Ashwin,I Sharma,0,0,na,na
2nd innings,15.1,I Sharma,M Muralitharan,M Kartik,4,4,na,na
2nd innings,15.2,I Sharma,M Muralitharan,M Kartik,0,0,na,na
2nd innings,15.3,I Sharma,M Muralitharan,M Kartik,0,0,na,na
2nd innings,15.4,I Sharma,M Muralitharan,M Kartik,1,1,na,na
2nd innings,15.5,M Kartik,M Muralitharan,I Sharma,1,1,na,na
2nd innings,15.6,I Sharma,M Muralitharan,M Kartik,1,1,na,na
2nd innings,16.1,I Sharma,R Ashwin,M Kartik,1,1,na,na
2nd innings,16.2,M Kartik,R Ashwin,I Sharma,1,1,na,na
2nd innings,16.3,I Sharma,R Ashwin,M Kartik,0,0,na,na
2nd innings,16.4,I Sharma,R Ashwin,M Kartik,1,1,na,na
2nd innings,16.5,M Kartik,R Ashwin,I Sharma,0,0,na,na
2nd innings,16.6,M Kartik,R Ashwin,I Sharma,0,0,na,na
2nd innings,17.1,I Sharma,M Muralitharan,M Kartik,0,0,na,na
2nd innings,17.2,I Sharma,M Muralitharan,M Kartik,1,1,na,na
2nd innings,17.3,M Kartik,M Muralitharan,I Sharma,1,1,na,na
2nd innings,17.4,I Sharma,M Muralitharan,M Kartik,1,1,na,na
2nd innings,17.5,M Kartik,M Muralitharan,I Sharma,0,0,na,na
2nd innings,17.6,M Kartik,M Muralitharan,I Sharma,0,0,na,na
2nd innings,18.1,I Sharma,SK Raina,M Kartik,3,3,na,na
2nd innings,18.2,M Kartik,SK Raina,I Sharma,0,0,na,na
2nd innings,18.3,M Kartik,SK Raina,I Sharma,0,0,na,na
2nd innings,18.4,M Kartik,SK Raina,I Sharma,1,1,na,na
2nd innings,18.5,I Sharma,SK Raina,M Kartik,1,1,na,na
2nd innings,18.6,M Kartik,SK Raina,I Sharma,1,1,na,na
2nd innings,19.1,M Kartik,L Balaji,I Sharma,0,0,na,na
2nd innings,19.2,M Kartik,L Balaji,I Sharma,0,0,na,"{'fielders': ['S Badrinath'], 'kind': 'run out', 'player_out': 'M Kartik'}"
