innings,deliveries,non_striker,bowler,batsman,total_runs,batsman_runs,extras,wickets
1st innings,0.1,AC Gilchrist,A Mishra,MD Mishra,0,0,na,na
1st innings,0.2,AC Gilchrist,A Mishra,MD Mishra,0,0,na,na
1st innings,0.3,AC Gilchrist,A Mishra,MD Mishra,2,1,{'noballs': 1},na
1st innings,0.4,MD Mishra,A Mishra,AC Gilchrist,1,0,{'legbyes': 1},na
1st innings,0.5,AC Gilchrist,A Mishra,MD Mishra,0,0,na,"{'kind': 'bowled', 'player_out': 'MD Mishra'}"
1st innings,0.6,AC Gilchrist,A Mishra,HH Gibbs,0,0,na,na
1st innings,0.7,AC Gilchrist,A Mishra,HH Gibbs,1,1,na,na
1st innings,1.1,AC Gilchrist,DP Nannes,HH Gibbs,0,0,na,na
1st innings,1.2,AC Gilchrist,DP Nannes,HH Gibbs,6,6,na,na
1st innings,1.3,AC Gilchrist,DP Nannes,HH Gibbs,4,4,na,na
1st innings,1.4,AC Gilchrist,DP Nannes,HH Gibbs,0,0,na,na
1st innings,1.5,AC Gilchrist,DP Nannes,HH Gibbs,4,4,na,na
1st innings,1.6,AC Gilchrist,DP Nannes,HH Gibbs,0,0,na,na
1st innings,2.1,HH Gibbs,A Mishra,AC Gilchrist,1,1,na,na
1st innings,2.2,AC Gilchrist,A Mishra,HH Gibbs,0,0,na,na
1st innings,2.3,AC Gilchrist,A Mishra,HH Gibbs,1,1,na,na
1st innings,2.4,HH Gibbs,A Mishra,AC Gilchrist,0,0,na,na
1st innings,2.5,HH Gibbs,A Mishra,AC Gilchrist,4,4,na,na
1st innings,2.6,HH Gibbs,A Mishra,AC Gilchrist,0,0,na,na
1st innings,3.1,AC Gilchrist,Y Nagar,HH Gibbs,0,0,na,na
1st innings,3.2,AC Gilchrist,Y Nagar,HH Gibbs,1,1,na,na
1st innings,3.3,HH Gibbs,Y Nagar,AC Gilchrist,4,4,na,na
1st innings,3.4,HH Gibbs,Y Nagar,AC Gilchrist,4,4,na,na
1st innings,3.5,HH Gibbs,Y Nagar,AC Gilchrist,0,0,na,na
1st innings,3.6,HH Gibbs,Y Nagar,AC Gilchrist,1,1,na,na
1st innings,4.1,HH Gibbs,S Ladda,AC Gilchrist,0,0,na,na
1st innings,4.2,HH Gibbs,S Ladda,AC Gilchrist,0,0,na,na
1st innings,4.3,HH Gibbs,S Ladda,AC Gilchrist,6,6,na,na
1st innings,4.4,HH Gibbs,S Ladda,AC Gilchrist,4,4,na,na
1st innings,4.5,HH Gibbs,S Ladda,AC Gilchrist,0,0,na,"{'fielders': ['KD Karthik'], 'kind': 'caught', 'player_out': 'AC Gilchrist'}"
1st innings,4.6,HH Gibbs,S Ladda,A Symonds,0,0,na,na
1st innings,5.1,A Symonds,A Mishra,HH Gibbs,1,1,na,na
1st innings,5.2,HH Gibbs,A Mishra,A Symonds,1,1,na,na
1st innings,5.3,A Symonds,A Mishra,HH Gibbs,0,0,na,na
1st innings,5.4,A Symonds,A Mishra,HH Gibbs,1,1,na,na
1st innings,5.5,HH Gibbs,A Mishra,A Symonds,0,0,na,na
1st innings,5.6,HH Gibbs,A Mishra,A Symonds,0,0,na,na
1st innings,6.1,A Symonds,S Ladda,HH Gibbs,1,1,na,na
1st innings,6.2,HH Gibbs,S Ladda,A Symonds,1,1,na,na
1st innings,6.3,A Symonds,S Ladda,HH Gibbs,1,1,na,na
1st innings,6.4,HH Gibbs,S Ladda,A Symonds,0,0,na,na
1st innings,6.5,HH Gibbs,S Ladda,A Symonds,6,6,na,na
1st innings,6.6,HH Gibbs,S Ladda,A Symonds,1,1,na,na
1st innings,7.1,HH Gibbs,UT Yadav,A Symonds,1,1,na,na
1st innings,7.2,A Symonds,UT Yadav,HH Gibbs,0,0,na,na
1st innings,7.3,A Symonds,UT Yadav,HH Gibbs,1,1,na,na
1st innings,7.4,HH Gibbs,UT Yadav,A Symonds,1,1,na,na
1st innings,7.5,A Symonds,UT Yadav,HH Gibbs,0,0,na,na
1st innings,7.6,A Symonds,UT Yadav,HH Gibbs,1,1,na,na
1st innings,8.1,A Symonds,DP Nannes,HH Gibbs,6,6,na,na
1st innings,8.2,A Symonds,DP Nannes,HH Gibbs,1,1,na,na
1st innings,8.3,HH Gibbs,DP Nannes,A Symonds,1,1,na,na
1st innings,8.4,A Symonds,DP Nannes,HH Gibbs,0,0,na,na
1st innings,8.5,A Symonds,DP Nannes,HH Gibbs,1,1,na,na
1st innings,8.6,HH Gibbs,DP Nannes,A Symonds,1,1,na,na
1st innings,9.1,HH Gibbs,Y Nagar,A Symonds,1,1,na,na
1st innings,9.2,A Symonds,Y Nagar,HH Gibbs,0,0,na,"{'fielders': ['MC Henriques'], 'kind': 'caught', 'player_out': 'HH Gibbs'}"
1st innings,9.3,A Symonds,Y Nagar,RG Sharma,0,0,na,na
1st innings,9.4,A Symonds,Y Nagar,RG Sharma,0,0,na,na
1st innings,9.5,A Symonds,Y Nagar,RG Sharma,1,1,na,na
1st innings,9.6,RG Sharma,Y Nagar,A Symonds,4,4,na,na
1st innings,10.1,A Symonds,MC Henriques,RG Sharma,1,1,na,na
1st innings,10.2,RG Sharma,MC Henriques,A Symonds,1,1,na,na
1st innings,10.3,A Symonds,MC Henriques,RG Sharma,0,0,na,na
1st innings,10.4,A Symonds,MC Henriques,RG Sharma,0,0,na,na
1st innings,10.5,A Symonds,MC Henriques,RG Sharma,0,0,na,na
1st innings,10.6,A Symonds,MC Henriques,RG Sharma,4,4,na,na
1st innings,11.1,RG Sharma,Y Nagar,A Symonds,0,0,na,na
1st innings,11.2,RG Sharma,Y Nagar,A Symonds,4,4,na,na
1st innings,11.3,RG Sharma,Y Nagar,A Symonds,6,6,na,na
1st innings,11.4,RG Sharma,Y Nagar,A Symonds,1,1,na,na
1st innings,11.5,A Symonds,Y Nagar,RG Sharma,0,0,na,na
1st innings,11.6,A Symonds,Y Nagar,RG Sharma,1,1,na,na
1st innings,12.1,A Symonds,UT Yadav,RG Sharma,1,1,na,na
1st innings,12.2,RG Sharma,UT Yadav,A Symonds,1,1,na,na
1st innings,12.3,A Symonds,UT Yadav,RG Sharma,1,1,na,na
1st innings,12.4,RG Sharma,UT Yadav,A Symonds,0,0,na,na
1st innings,12.5,RG Sharma,UT Yadav,A Symonds,4,4,na,na
1st innings,12.6,RG Sharma,UT Yadav,A Symonds,0,0,na,na
1st innings,13.1,A Symonds,MC Henriques,RG Sharma,1,1,na,na
1st innings,13.2,RG Sharma,MC Henriques,A Symonds,0,0,na,"{'fielders': ['AB de Villiers'], 'kind': 'caught', 'player_out': 'A Symonds'}"
1st innings,13.3,RG Sharma,MC Henriques,TL Suman,0,0,na,na
1st innings,13.4,RG Sharma,MC Henriques,TL Suman,0,0,na,na
1st innings,13.5,RG Sharma,MC Henriques,TL Suman,4,4,na,na
1st innings,13.6,RG Sharma,MC Henriques,TL Suman,1,1,na,na
1st innings,14.1,RG Sharma,DP Nannes,TL Suman,0,0,na,na
1st innings,14.2,RG Sharma,DP Nannes,TL Suman,4,4,na,na
1st innings,14.3,RG Sharma,DP Nannes,TL Suman,1,1,na,na
1st innings,14.4,TL Suman,DP Nannes,RG Sharma,1,1,na,na
1st innings,14.5,RG Sharma,DP Nannes,TL Suman,0,0,na,na
1st innings,14.6,RG Sharma,DP Nannes,TL Suman,1,1,na,na
1st innings,15.1,RG Sharma,MC Henriques,TL Suman,4,4,na,na
1st innings,15.2,RG Sharma,MC Henriques,TL Suman,1,1,na,na
1st innings,15.3,TL Suman,MC Henriques,RG Sharma,2,2,na,na
1st innings,15.4,TL Suman,MC Henriques,RG Sharma,0,0,na,na
1st innings,15.5,TL Suman,MC Henriques,RG Sharma,2,2,na,na
1st innings,15.6,TL Suman,MC Henriques,RG Sharma,0,0,na,na
1st innings,16.1,RG Sharma,UT Yadav,TL Suman,1,1,na,na
1st innings,16.2,TL Suman,UT Yadav,RG Sharma,6,6,na,na
1st innings,16.3,TL Suman,UT Yadav,RG Sharma,0,0,na,na
1st innings,16.4,TL Suman,UT Yadav,RG Sharma,4,4,na,na
1st innings,16.5,TL Suman,UT Yadav,RG Sharma,1,1,na,na
1st innings,16.6,RG Sharma,UT Yadav,TL Suman,6,6,na,na
1st innings,17.1,TL Suman,MC Henriques,RG Sharma,1,1,na,na
1st innings,17.2,RG Sharma,MC Henriques,TL Suman,1,1,na,na
1st innings,17.3,TL Suman,MC Henriques,RG Sharma,6,6,na,na
1st innings,17.4,TL Suman,MC Henriques,RG Sharma,0,0,na,na
1st innings,17.5,TL Suman,MC Henriques,RG Sharma,0,0,na,na
1st innings,17.6,TL Suman,MC Henriques,RG Sharma,6,6,na,na
1st innings,18.1,RG Sharma,DP Nannes,TL Suman,1,1,na,na
1st innings,18.2,TL Suman,DP Nannes,RG Sharma,2,2,na,na
1st innings,18.3,TL Suman,DP Nannes,RG Sharma,4,4,na,na
1st innings,18.4,TL Suman,DP Nannes,RG Sharma,0,0,na,"{'fielders': ['AB de Villiers'], 'kind': 'caught', 'player_out': 'RG Sharma'}"
1st innings,18.5,Y Venugopal Rao,DP Nannes,TL Suman,1,1,na,na
1st innings,18.6,TL Suman,DP Nannes,Y Venugopal Rao,0,0,na,na
1st innings,19.1,Y Venugopal Rao,UT Yadav,TL Suman,2,2,na,na
1st innings,19.2,Y Venugopal Rao,UT Yadav,TL Suman,1,1,na,na
1st innings,19.3,TL Suman,UT Yadav,Y Venugopal Rao,1,1,na,"{'fielders': ['AB de Villiers', 'KD Karthik'], 'kind': 'run out', 'player_out': 'Y Venugopal Rao'}"
1st innings,19.4,TL Suman,UT Yadav,WPUJC Vaas,2,2,na,na
1st innings,19.5,TL Suman,UT Yadav,WPUJC Vaas,1,1,na,na
1st innings,19.6,WPUJC Vaas,UT Yadav,TL Suman,0,0,na,na
2nd innings,0.1,V Sehwag,WPUJC Vaas,DA Warner,0,0,na,na
2nd innings,0.2,V Sehwag,WPUJC Vaas,DA Warner,0,0,na,na
2nd innings,0.3,V Sehwag,WPUJC Vaas,DA Warner,0,0,na,na
2nd innings,0.4,V Sehwag,WPUJC Vaas,DA Warner,4,4,na,na
2nd innings,0.5,V Sehwag,WPUJC Vaas,DA Warner,4,4,na,na
2nd innings,0.6,V Sehwag,WPUJC Vaas,DA Warner,1,1,na,na
2nd innings,1.1,V Sehwag,RP Singh,DA Warner,6,6,na,na
2nd innings,1.2,V Sehwag,RP Singh,DA Warner,4,4,na,na
2nd innings,1.3,V Sehwag,RP Singh,DA Warner,0,0,na,na
2nd innings,1.4,V Sehwag,RP Singh,DA Warner,6,6,na,na
2nd innings,1.5,V Sehwag,RP Singh,DA Warner,4,4,na,na
2nd innings,1.6,V Sehwag,RP Singh,DA Warner,0,0,na,na
2nd innings,2.1,DA Warner,WPUJC Vaas,V Sehwag,0,0,na,na
2nd innings,2.2,DA Warner,WPUJC Vaas,V Sehwag,0,0,na,na
2nd innings,2.3,DA Warner,WPUJC Vaas,V Sehwag,1,1,na,na
2nd innings,2.4,V Sehwag,WPUJC Vaas,DA Warner,1,1,na,na
2nd innings,2.5,DA Warner,WPUJC Vaas,V Sehwag,1,1,na,na
2nd innings,2.6,V Sehwag,WPUJC Vaas,DA Warner,0,0,na,na
2nd innings,3.1,DA Warner,PP Ojha,V Sehwag,1,1,na,na
2nd innings,3.2,V Sehwag,PP Ojha,DA Warner,0,0,na,na
2nd innings,3.3,V Sehwag,PP Ojha,DA Warner,1,1,na,na
2nd innings,3.4,DA Warner,PP Ojha,V Sehwag,0,0,na,na
2nd innings,3.5,DA Warner,PP Ojha,V Sehwag,0,0,na,"{'fielders': ['HH Gibbs'], 'kind': 'caught', 'player_out': 'V Sehwag'}"
2nd innings,3.6,DA Warner,PP Ojha,AB de Villiers,1,1,na,na
2nd innings,4.1,DA Warner,WPUJC Vaas,AB de Villiers,4,4,na,na
2nd innings,4.2,DA Warner,WPUJC Vaas,AB de Villiers,0,0,na,na
2nd innings,4.3,DA Warner,WPUJC Vaas,AB de Villiers,0,0,na,na
2nd innings,4.4,DA Warner,WPUJC Vaas,AB de Villiers,0,0,na,na
2nd innings,4.5,DA Warner,WPUJC Vaas,AB de Villiers,1,1,na,na
2nd innings,4.6,AB de Villiers,WPUJC Vaas,DA Warner,1,1,na,na
2nd innings,5.1,AB de Villiers,RG Sharma,DA Warner,1,1,na,na
2nd innings,5.2,DA Warner,RG Sharma,AB de Villiers,0,0,na,na
2nd innings,5.3,DA Warner,RG Sharma,AB de Villiers,2,2,na,na
2nd innings,5.4,DA Warner,RG Sharma,AB de Villiers,4,4,na,na
2nd innings,5.5,DA Warner,RG Sharma,AB de Villiers,0,0,na,na
2nd innings,5.6,DA Warner,RG Sharma,AB de Villiers,0,0,na,na
2nd innings,6.1,AB de Villiers,R Sharma,DA Warner,6,6,na,na
2nd innings,6.2,AB de Villiers,R Sharma,DA Warner,2,2,na,na
2nd innings,6.3,AB de Villiers,R Sharma,DA Warner,1,1,na,na
2nd innings,6.4,DA Warner,R Sharma,AB de Villiers,1,1,na,na
2nd innings,6.5,AB de Villiers,R Sharma,DA Warner,1,1,na,na
2nd innings,6.6,DA Warner,R Sharma,AB de Villiers,1,1,na,na
2nd innings,7.1,DA Warner,A Symonds,AB de Villiers,2,2,na,na
2nd innings,7.2,DA Warner,A Symonds,AB de Villiers,2,2,na,na
2nd innings,7.3,DA Warner,A Symonds,AB de Villiers,1,1,na,na
2nd innings,7.4,AB de Villiers,A Symonds,DA Warner,1,1,na,na
2nd innings,7.5,DA Warner,A Symonds,AB de Villiers,1,1,na,na
2nd innings,7.6,AB de Villiers,A Symonds,DA Warner,1,1,na,na
2nd innings,8.1,AB de Villiers,PP Ojha,DA Warner,6,6,na,na
2nd innings,8.2,AB de Villiers,PP Ojha,DA Warner,1,1,na,na
2nd innings,8.3,DA Warner,PP Ojha,AB de Villiers,3,3,na,na
2nd innings,8.4,AB de Villiers,PP Ojha,DA Warner,1,1,na,na
2nd innings,8.5,DA Warner,PP Ojha,AB de Villiers,1,1,na,na
2nd innings,8.6,AB de Villiers,PP Ojha,DA Warner,1,1,na,na
2nd innings,9.1,AB de Villiers,A Symonds,DA Warner,1,1,na,na
2nd innings,9.2,DA Warner,A Symonds,AB de Villiers,1,1,na,na
2nd innings,9.3,AB de Villiers,A Symonds,DA Warner,0,0,na,na
2nd innings,9.4,AB de Villiers,A Symonds,DA Warner,0,0,na,na
2nd innings,9.5,AB de Villiers,A Symonds,DA Warner,2,2,na,na
2nd innings,9.6,AB de Villiers,A Symonds,DA Warner,0,0,na,na
2nd innings,10.1,DA Warner,PP Ojha,AB de Villiers,0,0,na,"{'fielders': ['RP Singh', 'AC Gilchrist'], 'kind': 'run out', 'player_out': 'DA Warner'}"
2nd innings,10.2,AB de Villiers,PP Ojha,KD Karthik,1,1,na,na
2nd innings,10.3,KD Karthik,PP Ojha,AB de Villiers,1,0,{'legbyes': 1},na
2nd innings,10.4,AB de Villiers,PP Ojha,KD Karthik,2,2,na,na
2nd innings,10.5,AB de Villiers,PP Ojha,KD Karthik,1,1,na,na
2nd innings,10.6,KD Karthik,PP Ojha,AB de Villiers,1,1,na,na
2nd innings,11.1,KD Karthik,RP Singh,AB de Villiers,1,1,na,na
2nd innings,11.2,AB de Villiers,RP Singh,KD Karthik,0,0,na,na
2nd innings,11.3,AB de Villiers,RP Singh,KD Karthik,4,4,na,na
2nd innings,11.4,AB de Villiers,RP Singh,KD Karthik,0,0,na,na
2nd innings,11.5,AB de Villiers,RP Singh,KD Karthik,1,1,na,na
2nd innings,11.6,KD Karthik,RP Singh,AB de Villiers,0,0,na,na
2nd innings,12.1,AB de Villiers,R Sharma,KD Karthik,1,1,na,na
2nd innings,12.2,KD Karthik,R Sharma,AB de Villiers,0,0,na,"{'kind': 'bowled', 'player_out': 'AB de Villiers'}"
2nd innings,12.3,KD Karthik,R Sharma,M Manhas,0,0,na,na
2nd innings,12.4,KD Karthik,R Sharma,M Manhas,1,1,na,na
2nd innings,12.5,M Manhas,R Sharma,KD Karthik,0,0,na,na
2nd innings,12.6,M Manhas,R Sharma,KD Karthik,1,1,na,na
2nd innings,13.1,M Manhas,RP Singh,KD Karthik,1,1,na,na
2nd innings,13.2,KD Karthik,RP Singh,M Manhas,0,0,na,na
2nd innings,13.3,KD Karthik,RP Singh,M Manhas,1,1,na,na
2nd innings,13.4,M Manhas,RP Singh,KD Karthik,1,1,na,na
2nd innings,13.5,KD Karthik,RP Singh,M Manhas,1,1,na,na
2nd innings,13.6,M Manhas,RP Singh,KD Karthik,1,1,na,na
2nd innings,14.1,M Manhas,R Sharma,KD Karthik,1,1,na,na
2nd innings,14.2,KD Karthik,R Sharma,M Manhas,1,1,na,na
2nd innings,14.3,M Manhas,R Sharma,KD Karthik,1,1,na,na
2nd innings,14.4,KD Karthik,R Sharma,M Manhas,4,4,na,na
2nd innings,14.5,KD Karthik,R Sharma,M Manhas,0,0,na,"{'fielders': ['TL Suman'], 'kind': 'caught', 'player_out': 'M Manhas'}"
2nd innings,14.6,KD Karthik,R Sharma,MC Henriques,4,4,na,na
2nd innings,15.1,MC Henriques,PP Ojha,KD Karthik,1,1,na,na
2nd innings,15.2,KD Karthik,PP Ojha,MC Henriques,1,1,na,na
2nd innings,15.3,MC Henriques,PP Ojha,KD Karthik,6,6,na,na
2nd innings,15.4,MC Henriques,PP Ojha,KD Karthik,1,1,na,na
2nd innings,15.5,KD Karthik,PP Ojha,MC Henriques,4,4,na,na
2nd innings,15.6,KD Karthik,PP Ojha,MC Henriques,2,2,na,na
2nd innings,16.1,MC Henriques,A Symonds,KD Karthik,1,1,na,na
2nd innings,16.2,KD Karthik,A Symonds,MC Henriques,0,0,na,"{'fielders': ['RP Singh'], 'kind': 'caught', 'player_out': 'MC Henriques'}"
2nd innings,16.3,KD Karthik,A Symonds,Y Nagar,1,0,{'wides': 1},na
2nd innings,16.4,KD Karthik,A Symonds,Y Nagar,0,0,na,na
2nd innings,16.5,KD Karthik,A Symonds,Y Nagar,0,0,na,na
2nd innings,16.6,KD Karthik,A Symonds,Y Nagar,1,0,{'legbyes': 1},na
2nd innings,16.7,Y Nagar,A Symonds,KD Karthik,1,1,na,na
2nd innings,17.1,Y Nagar,R Sharma,KD Karthik,1,1,na,na
2nd innings,17.2,KD Karthik,R Sharma,Y Nagar,1,0,{'byes': 1},na
2nd innings,17.3,Y Nagar,R Sharma,KD Karthik,4,4,na,na
2nd innings,17.4,Y Nagar,R Sharma,KD Karthik,6,6,na,na
2nd innings,17.5,Y Nagar,R Sharma,KD Karthik,4,4,na,na
2nd innings,17.6,Y Nagar,R Sharma,KD Karthik,1,1,na,na
2nd innings,18.1,Y Nagar,A Symonds,KD Karthik,4,4,na,na
2nd innings,18.2,Y Nagar,A Symonds,KD Karthik,0,0,na,"{'kind': 'caught and bowled', 'player_out': 'KD Karthik'}"
2nd innings,18.3,Y Nagar,A Symonds,A Mishra,0,0,na,"{'fielders': ['AC Gilchrist'], 'kind': 'caught', 'player_out': 'A Mishra'}"
2nd innings,18.4,Y Nagar,A Symonds,UT Yadav,0,0,na,na
2nd innings,18.5,Y Nagar,A Symonds,UT Yadav,1,1,na,na
2nd innings,18.6,UT Yadav,A Symonds,Y Nagar,1,1,na,na
2nd innings,19.1,UT Yadav,WPUJC Vaas,Y Nagar,0,0,na,"{'kind': 'bowled', 'player_out': 'Y Nagar'}"
2nd innings,19.2,UT Yadav,WPUJC Vaas,S Ladda,0,0,na,"{'fielders': ['WPUJC Vaas'], 'kind': 'run out', 'player_out': 'S Ladda'}"
2nd innings,19.3,DP Nannes,WPUJC Vaas,UT Yadav,1,1,na,na
2nd innings,19.4,UT Yadav,WPUJC Vaas,DP Nannes,0,0,na,na
2nd innings,19.5,UT Yadav,WPUJC Vaas,DP Nannes,1,1,na,na
2nd innings,19.6,DP Nannes,WPUJC Vaas,UT Yadav,1,1,na,na
