innings,deliveries,non_striker,bowler,batsman,total_runs,batsman_runs,extras,wickets
1st innings,0.1,SR Tendulkar,BA Bhatt,DJ Jacobs,1,1,na,na
1st innings,0.2,DJ Jacobs,BA Bhatt,SR Tendulkar,0,0,na,na
1st innings,0.3,DJ Jacobs,BA Bhatt,SR Tendulkar,0,0,na,na
1st innings,0.4,DJ Jacobs,BA Bhatt,SR Tendulkar,1,1,na,na
1st innings,0.5,SR Tendulkar,BA Bhatt,DJ Jacobs,0,0,na,na
1st innings,0.6,SR Tendulkar,BA Bhatt,DJ Jacobs,1,1,na,na
1st innings,1.1,SR Tendulkar,P Kumar,DJ Jacobs,0,0,na,na
1st innings,1.2,SR Tendulkar,P Kumar,DJ Jacobs,0,0,na,na
1st innings,1.3,SR Tendulkar,P Kumar,DJ Jacobs,4,4,na,na
1st innings,1.4,SR Tendulkar,P Kumar,DJ Jacobs,2,0,{'byes': 2},na
1st innings,1.5,SR Tendulkar,P Kumar,DJ Jacobs,4,4,na,na
1st innings,1.6,SR Tendulkar,P Kumar,DJ Jacobs,0,0,na,na
1st innings,2.1,DJ Jacobs,Bipul Sharma,SR Tendulkar,0,0,na,na
1st innings,2.2,DJ Jacobs,Bipul Sharma,SR Tendulkar,1,1,na,na
1st innings,2.3,SR Tendulkar,Bipul Sharma,DJ Jacobs,0,0,na,"{'kind': 'bowled', 'player_out': 'DJ Jacobs'}"
1st innings,2.4,SR Tendulkar,Bipul Sharma,AT Rayudu,0,0,na,na
1st innings,2.5,SR Tendulkar,Bipul Sharma,AT Rayudu,0,0,na,na
1st innings,2.6,SR Tendulkar,Bipul Sharma,AT Rayudu,0,0,na,na
1st innings,3.1,AT Rayudu,P Kumar,SR Tendulkar,1,1,na,na
1st innings,3.2,SR Tendulkar,P Kumar,AT Rayudu,1,1,na,na
1st innings,3.3,AT Rayudu,P Kumar,SR Tendulkar,1,1,na,na
1st innings,3.4,SR Tendulkar,P Kumar,AT Rayudu,1,1,na,na
1st innings,3.5,AT Rayudu,P Kumar,SR Tendulkar,1,1,na,na
1st innings,3.6,SR Tendulkar,P Kumar,AT Rayudu,0,0,na,na
1st innings,4.1,AT Rayudu,Bipul Sharma,SR Tendulkar,0,0,na,na
1st innings,4.2,AT Rayudu,Bipul Sharma,SR Tendulkar,1,1,na,na
1st innings,4.3,SR Tendulkar,Bipul Sharma,AT Rayudu,0,0,na,na
1st innings,4.4,SR Tendulkar,Bipul Sharma,AT Rayudu,4,4,na,na
1st innings,4.5,SR Tendulkar,Bipul Sharma,AT Rayudu,0,0,na,na
1st innings,4.6,SR Tendulkar,Bipul Sharma,AT Rayudu,0,0,na,na
1st innings,5.1,AT Rayudu,BA Bhatt,SR Tendulkar,0,0,na,na
1st innings,5.2,AT Rayudu,BA Bhatt,SR Tendulkar,6,6,na,na
1st innings,5.3,AT Rayudu,BA Bhatt,SR Tendulkar,1,1,na,na
1st innings,5.4,SR Tendulkar,BA Bhatt,AT Rayudu,4,4,na,na
1st innings,5.5,SR Tendulkar,BA Bhatt,AT Rayudu,0,0,na,na
1st innings,5.6,SR Tendulkar,BA Bhatt,AT Rayudu,0,0,na,na
1st innings,6.1,AT Rayudu,RJ Harris,SR Tendulkar,0,0,na,na
1st innings,6.2,AT Rayudu,RJ Harris,SR Tendulkar,1,1,na,na
1st innings,6.3,SR Tendulkar,RJ Harris,AT Rayudu,1,1,na,na
1st innings,6.4,AT Rayudu,RJ Harris,SR Tendulkar,0,0,na,na
1st innings,6.5,AT Rayudu,RJ Harris,SR Tendulkar,2,2,na,na
1st innings,6.6,AT Rayudu,RJ Harris,SR Tendulkar,1,1,na,na
1st innings,7.1,AT Rayudu,Bipul Sharma,SR Tendulkar,1,1,na,na
1st innings,7.2,SR Tendulkar,Bipul Sharma,AT Rayudu,1,1,na,na
1st innings,7.3,AT Rayudu,Bipul Sharma,SR Tendulkar,2,0,{'wides': 2},na
1st innings,7.4,SR Tendulkar,Bipul Sharma,AT Rayudu,1,1,na,na
1st innings,7.5,AT Rayudu,Bipul Sharma,SR Tendulkar,0,0,na,na
1st innings,7.6,AT Rayudu,Bipul Sharma,SR Tendulkar,1,1,na,na
1st innings,7.7,SR Tendulkar,Bipul Sharma,AT Rayudu,0,0,na,na
1st innings,8.1,AT Rayudu,RJ Harris,SR Tendulkar,1,1,na,na
1st innings,8.2,SR Tendulkar,RJ Harris,AT Rayudu,1,1,na,na
1st innings,8.3,AT Rayudu,RJ Harris,SR Tendulkar,1,1,na,na
1st innings,8.4,SR Tendulkar,RJ Harris,AT Rayudu,4,4,na,na
1st innings,8.5,SR Tendulkar,RJ Harris,AT Rayudu,4,4,na,na
1st innings,8.6,SR Tendulkar,RJ Harris,AT Rayudu,0,0,na,na
1st innings,9.1,AT Rayudu,Bipul Sharma,SR Tendulkar,2,2,na,na
1st innings,9.2,AT Rayudu,Bipul Sharma,SR Tendulkar,1,1,na,na
1st innings,9.3,SR Tendulkar,Bipul Sharma,AT Rayudu,1,1,na,na
1st innings,9.4,AT Rayudu,Bipul Sharma,SR Tendulkar,4,4,na,na
1st innings,9.5,AT Rayudu,Bipul Sharma,SR Tendulkar,1,1,na,na
1st innings,9.6,SR Tendulkar,Bipul Sharma,AT Rayudu,1,1,na,na
1st innings,10.1,SR Tendulkar,PP Chawla,AT Rayudu,1,1,na,na
1st innings,10.2,AT Rayudu,PP Chawla,SR Tendulkar,2,2,na,na
1st innings,10.3,AT Rayudu,PP Chawla,SR Tendulkar,4,4,na,na
1st innings,10.4,AT Rayudu,PP Chawla,SR Tendulkar,1,1,na,na
1st innings,10.5,SR Tendulkar,PP Chawla,AT Rayudu,1,1,na,na
1st innings,10.6,AT Rayudu,PP Chawla,SR Tendulkar,1,1,na,na
1st innings,11.1,AT Rayudu,P Kumar,SR Tendulkar,0,0,na,na
1st innings,11.2,AT Rayudu,P Kumar,SR Tendulkar,1,1,na,na
1st innings,11.3,SR Tendulkar,P Kumar,AT Rayudu,6,6,na,na
1st innings,11.4,SR Tendulkar,P Kumar,AT Rayudu,4,4,na,na
1st innings,11.5,SR Tendulkar,P Kumar,AT Rayudu,4,4,na,na
1st innings,11.6,SR Tendulkar,P Kumar,AT Rayudu,0,0,na,na
1st innings,12.1,AT Rayudu,PP Chawla,SR Tendulkar,2,2,na,na
1st innings,12.2,AT Rayudu,PP Chawla,SR Tendulkar,1,1,na,na
1st innings,12.3,SR Tendulkar,PP Chawla,AT Rayudu,1,1,na,na
1st innings,12.4,AT Rayudu,PP Chawla,SR Tendulkar,0,0,na,na
1st innings,12.5,AT Rayudu,PP Chawla,SR Tendulkar,0,0,na,na
1st innings,12.6,AT Rayudu,PP Chawla,SR Tendulkar,1,1,na,na
1st innings,13.1,AT Rayudu,BA Bhatt,SR Tendulkar,1,1,na,na
1st innings,13.2,SR Tendulkar,BA Bhatt,AT Rayudu,1,1,na,na
1st innings,13.3,AT Rayudu,BA Bhatt,SR Tendulkar,1,1,na,na
1st innings,13.4,SR Tendulkar,BA Bhatt,AT Rayudu,0,0,na,na
1st innings,13.5,SR Tendulkar,BA Bhatt,AT Rayudu,4,4,na,na
1st innings,13.6,SR Tendulkar,BA Bhatt,AT Rayudu,1,1,na,na
1st innings,14.1,SR Tendulkar,PP Chawla,AT Rayudu,4,4,na,na
1st innings,14.2,SR Tendulkar,PP Chawla,AT Rayudu,0,0,na,na
1st innings,14.3,SR Tendulkar,PP Chawla,AT Rayudu,0,0,na,"{'fielders': ['KD Karthik'], 'kind': 'caught', 'player_out': 'AT Rayudu'}"
1st innings,14.4,KA Pollard,PP Chawla,SR Tendulkar,1,1,na,na
1st innings,14.5,SR Tendulkar,PP Chawla,KA Pollard,0,0,na,na
1st innings,14.6,SR Tendulkar,PP Chawla,KA Pollard,4,4,na,na
1st innings,15.1,KA Pollard,PC Valthaty,SR Tendulkar,1,1,na,na
1st innings,15.2,SR Tendulkar,PC Valthaty,KA Pollard,1,0,{'legbyes': 1},na
1st innings,15.3,KA Pollard,PC Valthaty,SR Tendulkar,1,1,na,na
1st innings,15.4,SR Tendulkar,PC Valthaty,KA Pollard,2,2,na,na
1st innings,15.5,SR Tendulkar,PC Valthaty,KA Pollard,0,0,na,na
1st innings,15.6,SR Tendulkar,PC Valthaty,KA Pollard,6,6,na,na
1st innings,16.1,KA Pollard,RJ Harris,SR Tendulkar,4,4,na,na
1st innings,16.2,KA Pollard,RJ Harris,SR Tendulkar,0,0,na,"{'fielders': ['AM Nayar'], 'kind': 'caught', 'player_out': 'SR Tendulkar'}"
1st innings,16.3,RG Sharma,RJ Harris,KA Pollard,0,0,na,na
1st innings,16.4,RG Sharma,RJ Harris,KA Pollard,1,1,na,na
1st innings,16.5,KA Pollard,RJ Harris,RG Sharma,0,0,na,na
1st innings,16.6,KA Pollard,RJ Harris,RG Sharma,1,1,na,na
1st innings,17.1,KA Pollard,PP Chawla,RG Sharma,1,1,na,na
1st innings,17.2,RG Sharma,PP Chawla,KA Pollard,1,1,na,na
1st innings,17.3,KA Pollard,PP Chawla,RG Sharma,4,4,na,na
1st innings,17.4,KA Pollard,PP Chawla,RG Sharma,1,1,na,na
1st innings,17.5,RG Sharma,PP Chawla,KA Pollard,6,6,na,na
1st innings,17.6,RG Sharma,PP Chawla,KA Pollard,0,0,na,"{'fielders': ['PC Valthaty'], 'kind': 'caught', 'player_out': 'KA Pollard'}"
1st innings,18.1,RG Sharma,BA Bhatt,A Symonds,0,0,na,na
1st innings,18.2,RG Sharma,BA Bhatt,A Symonds,1,1,na,na
1st innings,18.3,A Symonds,BA Bhatt,RG Sharma,1,1,na,na
1st innings,18.4,RG Sharma,BA Bhatt,A Symonds,1,1,na,na
1st innings,18.5,A Symonds,BA Bhatt,RG Sharma,1,1,na,na
1st innings,18.6,RG Sharma,BA Bhatt,A Symonds,0,0,na,na
1st innings,19.1,A Symonds,RJ Harris,RG Sharma,4,4,na,na
1st innings,19.2,A Symonds,RJ Harris,RG Sharma,1,1,na,na
1st innings,19.3,RG Sharma,RJ Harris,A Symonds,1,1,na,na
1st innings,19.4,A Symonds,RJ Harris,RG Sharma,4,4,na,na
1st innings,19.5,A Symonds,RJ Harris,RG Sharma,0,0,na,"{'fielders': ['DJ Hussey'], 'kind': 'caught', 'player_out': 'RG Sharma'}"
1st innings,19.6,TL Suman,RJ Harris,A Symonds,1,1,na,na
2nd innings,0.1,AC Gilchrist,Harbhajan Singh,PC Valthaty,0,0,na,na
2nd innings,0.2,AC Gilchrist,Harbhajan Singh,PC Valthaty,0,0,na,na
2nd innings,0.3,AC Gilchrist,Harbhajan Singh,PC Valthaty,1,1,na,na
2nd innings,0.4,PC Valthaty,Harbhajan Singh,AC Gilchrist,0,0,na,na
2nd innings,0.5,PC Valthaty,Harbhajan Singh,AC Gilchrist,0,0,na,"{'kind': 'lbw', 'player_out': 'AC Gilchrist'}"
2nd innings,0.6,PC Valthaty,Harbhajan Singh,SE Marsh,0,0,na,na
2nd innings,1.1,SE Marsh,SL Malinga,PC Valthaty,0,0,na,na
2nd innings,1.2,SE Marsh,SL Malinga,PC Valthaty,0,0,na,na
2nd innings,1.3,SE Marsh,SL Malinga,PC Valthaty,1,1,na,na
2nd innings,1.4,PC Valthaty,SL Malinga,SE Marsh,1,1,na,na
2nd innings,1.5,SE Marsh,SL Malinga,PC Valthaty,0,0,na,na
2nd innings,1.6,SE Marsh,SL Malinga,PC Valthaty,0,0,na,na
2nd innings,2.1,PC Valthaty,Harbhajan Singh,SE Marsh,1,1,na,na
2nd innings,2.2,SE Marsh,Harbhajan Singh,PC Valthaty,0,0,na,na
2nd innings,2.3,SE Marsh,Harbhajan Singh,PC Valthaty,0,0,na,na
2nd innings,2.4,SE Marsh,Harbhajan Singh,PC Valthaty,0,0,na,na
2nd innings,2.5,SE Marsh,Harbhajan Singh,PC Valthaty,1,1,na,na
2nd innings,2.6,PC Valthaty,Harbhajan Singh,SE Marsh,1,1,na,na
2nd innings,3.1,PC Valthaty,SL Malinga,SE Marsh,4,4,na,na
2nd innings,3.2,PC Valthaty,SL Malinga,SE Marsh,4,4,na,na
2nd innings,3.3,PC Valthaty,SL Malinga,SE Marsh,1,1,na,na
2nd innings,3.4,SE Marsh,SL Malinga,PC Valthaty,0,0,na,na
2nd innings,3.5,SE Marsh,SL Malinga,PC Valthaty,0,0,na,na
2nd innings,3.6,SE Marsh,SL Malinga,PC Valthaty,0,0,na,na
2nd innings,4.1,PC Valthaty,AN Ahmed,SE Marsh,1,1,na,na
2nd innings,4.2,SE Marsh,AN Ahmed,PC Valthaty,0,0,na,na
2nd innings,4.3,SE Marsh,AN Ahmed,PC Valthaty,0,0,na,na
2nd innings,4.4,SE Marsh,AN Ahmed,PC Valthaty,0,0,na,na
2nd innings,4.5,SE Marsh,AN Ahmed,PC Valthaty,1,1,na,na
2nd innings,4.6,PC Valthaty,AN Ahmed,SE Marsh,1,0,{'legbyes': 1},na
2nd innings,5.1,PC Valthaty,MM Patel,SE Marsh,1,0,{'byes': 1},na
2nd innings,5.2,SE Marsh,MM Patel,PC Valthaty,1,1,na,na
2nd innings,5.3,PC Valthaty,MM Patel,SE Marsh,0,0,na,na
2nd innings,5.4,PC Valthaty,MM Patel,SE Marsh,0,0,na,na
2nd innings,5.5,PC Valthaty,MM Patel,SE Marsh,0,0,na,na
2nd innings,5.6,PC Valthaty,MM Patel,SE Marsh,4,4,na,na
2nd innings,6.1,SE Marsh,AN Ahmed,PC Valthaty,1,1,na,na
2nd innings,6.2,PC Valthaty,AN Ahmed,SE Marsh,4,4,na,na
2nd innings,6.3,PC Valthaty,AN Ahmed,SE Marsh,1,1,na,na
2nd innings,6.4,SE Marsh,AN Ahmed,PC Valthaty,1,1,na,na
2nd innings,6.5,PC Valthaty,AN Ahmed,SE Marsh,1,1,na,na
2nd innings,6.6,SE Marsh,AN Ahmed,PC Valthaty,1,1,na,na
2nd innings,7.1,SE Marsh,MM Patel,PC Valthaty,0,0,na,na
2nd innings,7.2,SE Marsh,MM Patel,PC Valthaty,4,4,na,na
2nd innings,7.3,SE Marsh,MM Patel,PC Valthaty,4,0,{'byes': 4},na
2nd innings,7.4,SE Marsh,MM Patel,PC Valthaty,0,0,na,na
2nd innings,7.5,SE Marsh,MM Patel,PC Valthaty,1,1,na,na
2nd innings,7.6,PC Valthaty,MM Patel,SE Marsh,1,1,na,na
2nd innings,8.1,PC Valthaty,TL Suman,SE Marsh,1,1,na,na
2nd innings,8.2,SE Marsh,TL Suman,PC Valthaty,1,1,na,na
2nd innings,8.3,PC Valthaty,TL Suman,SE Marsh,1,1,na,na
2nd innings,8.4,SE Marsh,TL Suman,PC Valthaty,2,2,na,na
2nd innings,8.5,SE Marsh,TL Suman,PC Valthaty,6,6,na,na
2nd innings,8.6,SE Marsh,TL Suman,PC Valthaty,1,1,na,na
2nd innings,9.1,SE Marsh,KA Pollard,PC Valthaty,1,1,na,na
2nd innings,9.2,PC Valthaty,KA Pollard,SE Marsh,1,1,na,na
2nd innings,9.3,SE Marsh,KA Pollard,PC Valthaty,2,2,na,na
2nd innings,9.4,SE Marsh,KA Pollard,PC Valthaty,1,0,{'wides': 1},na
2nd innings,9.5,SE Marsh,KA Pollard,PC Valthaty,1,1,na,na
2nd innings,9.6,PC Valthaty,KA Pollard,SE Marsh,1,1,na,na
2nd innings,9.7,SE Marsh,KA Pollard,PC Valthaty,0,0,na,na
2nd innings,10.1,PC Valthaty,A Symonds,SE Marsh,4,4,na,na
2nd innings,10.2,PC Valthaty,A Symonds,SE Marsh,0,0,na,na
2nd innings,10.3,PC Valthaty,A Symonds,SE Marsh,1,1,na,na
2nd innings,10.4,SE Marsh,A Symonds,PC Valthaty,6,6,na,na
2nd innings,10.5,SE Marsh,A Symonds,PC Valthaty,0,0,na,"{'fielders': ['KA Pollard'], 'kind': 'caught', 'player_out': 'PC Valthaty'}"
2nd innings,10.6,SE Marsh,A Symonds,DJ Hussey,0,0,na,na
2nd innings,11.1,DJ Hussey,KA Pollard,SE Marsh,1,1,na,na
2nd innings,11.2,SE Marsh,KA Pollard,DJ Hussey,1,1,na,na
2nd innings,11.3,DJ Hussey,KA Pollard,SE Marsh,1,1,na,na
2nd innings,11.4,SE Marsh,KA Pollard,DJ Hussey,0,0,na,na
2nd innings,11.5,SE Marsh,KA Pollard,DJ Hussey,1,0,{'legbyes': 1},na
2nd innings,11.6,DJ Hussey,KA Pollard,SE Marsh,1,1,na,na
2nd innings,12.1,DJ Hussey,MM Patel,SE Marsh,1,1,na,na
2nd innings,12.2,SE Marsh,MM Patel,DJ Hussey,0,0,na,"{'fielders': ['RG Sharma'], 'kind': 'caught', 'player_out': 'DJ Hussey'}"
2nd innings,12.3,KD Karthik,MM Patel,SE Marsh,0,0,na,na
2nd innings,12.4,KD Karthik,MM Patel,SE Marsh,1,1,na,na
2nd innings,12.5,SE Marsh,MM Patel,KD Karthik,1,1,na,na
2nd innings,12.6,KD Karthik,MM Patel,SE Marsh,1,0,{'legbyes': 1},na
2nd innings,13.1,KD Karthik,KA Pollard,SE Marsh,1,1,na,na
2nd innings,13.2,SE Marsh,KA Pollard,KD Karthik,0,0,na,"{'kind': 'lbw', 'player_out': 'KD Karthik'}"
2nd innings,13.3,SE Marsh,KA Pollard,AM Nayar,1,1,na,na
2nd innings,13.4,AM Nayar,KA Pollard,SE Marsh,1,1,na,na
2nd innings,13.5,SE Marsh,KA Pollard,AM Nayar,4,4,na,na
2nd innings,13.6,SE Marsh,KA Pollard,AM Nayar,0,0,na,na
2nd innings,14.1,AM Nayar,AN Ahmed,SE Marsh,1,0,{'byes': 1},na
2nd innings,14.2,SE Marsh,AN Ahmed,AM Nayar,1,1,na,na
2nd innings,14.3,AM Nayar,AN Ahmed,SE Marsh,4,4,na,na
2nd innings,14.4,AM Nayar,AN Ahmed,SE Marsh,1,1,na,na
2nd innings,14.5,SE Marsh,AN Ahmed,AM Nayar,1,1,na,na
2nd innings,14.6,AM Nayar,AN Ahmed,SE Marsh,4,4,na,na
2nd innings,15.1,SE Marsh,Harbhajan Singh,AM Nayar,4,4,na,na
2nd innings,15.2,SE Marsh,Harbhajan Singh,AM Nayar,1,1,na,na
2nd innings,15.3,AM Nayar,Harbhajan Singh,SE Marsh,4,4,na,na
2nd innings,15.4,AM Nayar,Harbhajan Singh,SE Marsh,1,1,na,na
2nd innings,15.5,SE Marsh,Harbhajan Singh,AM Nayar,2,2,na,na
2nd innings,15.6,SE Marsh,Harbhajan Singh,AM Nayar,0,0,na,"{'fielders': ['A Symonds'], 'kind': 'caught', 'player_out': 'AM Nayar'}"
2nd innings,16.1,Bipul Sharma,SL Malinga,SE Marsh,1,1,na,na
2nd innings,16.2,SE Marsh,SL Malinga,Bipul Sharma,1,1,na,na
2nd innings,16.3,Bipul Sharma,SL Malinga,SE Marsh,1,1,na,na
2nd innings,16.4,SE Marsh,SL Malinga,Bipul Sharma,0,0,na,"{'kind': 'bowled', 'player_out': 'Bipul Sharma'}"
2nd innings,16.5,SE Marsh,SL Malinga,PP Chawla,0,0,na,na
2nd innings,16.6,SE Marsh,SL Malinga,PP Chawla,1,0,{'legbyes': 1},na
2nd innings,17.1,SE Marsh,Harbhajan Singh,PP Chawla,1,1,na,na
2nd innings,17.2,PP Chawla,Harbhajan Singh,SE Marsh,1,1,na,na
2nd innings,17.3,SE Marsh,Harbhajan Singh,PP Chawla,4,4,na,na
2nd innings,17.4,SE Marsh,Harbhajan Singh,PP Chawla,1,1,na,na
2nd innings,17.5,PP Chawla,Harbhajan Singh,SE Marsh,1,1,na,na
2nd innings,17.6,SE Marsh,Harbhajan Singh,PP Chawla,1,1,na,na
2nd innings,18.1,SE Marsh,SL Malinga,PP Chawla,1,1,na,na
2nd innings,18.2,PP Chawla,SL Malinga,SE Marsh,1,1,na,na
2nd innings,18.3,SE Marsh,SL Malinga,PP Chawla,1,0,{'legbyes': 1},na
2nd innings,18.4,PP Chawla,SL Malinga,SE Marsh,2,2,na,na
2nd innings,18.5,PP Chawla,SL Malinga,SE Marsh,0,0,na,"{'fielders': ['SR Tendulkar'], 'kind': 'caught', 'player_out': 'SE Marsh'}"
2nd innings,18.6,PP Chawla,SL Malinga,RJ Harris,1,1,na,na
2nd innings,19.1,PP Chawla,MM Patel,RJ Harris,0,0,na,"{'fielders': ['KA Pollard'], 'kind': 'caught', 'player_out': 'RJ Harris'}"
2nd innings,19.2,P Kumar,MM Patel,PP Chawla,1,1,na,na
2nd innings,19.3,PP Chawla,MM Patel,P Kumar,1,1,na,na
2nd innings,19.4,P Kumar,MM Patel,PP Chawla,1,1,na,na
2nd innings,19.5,PP Chawla,MM Patel,P Kumar,0,0,na,na
2nd innings,19.6,PP Chawla,MM Patel,P Kumar,1,1,na,na
