innings,deliveries,non_striker,bowler,batsman,total_runs,batsman_runs,extras,wickets
1st innings,0.1,SR Tendulkar,AA Chavan,TL Suman,1,1,na,na
1st innings,0.2,TL Suman,AA Chavan,SR Tendulkar,0,0,na,na
1st innings,0.3,TL Suman,AA Chavan,SR Tendulkar,1,1,na,na
1st innings,0.4,SR Tendulkar,AA Chavan,TL Suman,0,0,na,na
1st innings,0.5,SR Tendulkar,AA Chavan,TL Suman,0,0,na,na
1st innings,0.6,SR Tendulkar,AA Chavan,TL Suman,0,0,na,na
1st innings,1.1,TL Suman,SR Watson,SR Tendulkar,1,0,{'legbyes': 1},na
1st innings,1.2,SR Tendulkar,SR Watson,TL Suman,4,4,na,na
1st innings,1.3,SR Tendulkar,SR Watson,TL Suman,0,0,na,"{'fielders': ['AL Menaria'], 'kind': 'caught', 'player_out': 'TL Suman'}"
1st innings,1.4,SR Tendulkar,SR Watson,AT Rayudu,0,0,na,na
1st innings,1.5,SR Tendulkar,SR Watson,AT Rayudu,0,0,na,na
1st innings,1.6,SR Tendulkar,SR Watson,AT Rayudu,0,0,na,na
1st innings,2.1,AT Rayudu,AA Chavan,SR Tendulkar,1,1,na,na
1st innings,2.2,SR Tendulkar,AA Chavan,AT Rayudu,1,1,na,na
1st innings,2.3,AT Rayudu,AA Chavan,SR Tendulkar,0,0,na,na
1st innings,2.4,AT Rayudu,AA Chavan,SR Tendulkar,4,4,na,na
1st innings,2.5,AT Rayudu,AA Chavan,SR Tendulkar,0,0,na,na
1st innings,2.6,AT Rayudu,AA Chavan,SR Tendulkar,1,1,na,na
1st innings,3.1,AT Rayudu,SR Watson,SR Tendulkar,1,0,{'legbyes': 1},na
1st innings,3.2,SR Tendulkar,SR Watson,AT Rayudu,0,0,na,na
1st innings,3.3,SR Tendulkar,SR Watson,AT Rayudu,0,0,na,na
1st innings,3.4,SR Tendulkar,SR Watson,AT Rayudu,1,1,na,na
1st innings,3.5,AT Rayudu,SR Watson,SR Tendulkar,1,1,na,na
1st innings,3.6,SR Tendulkar,SR Watson,AT Rayudu,0,0,na,"{'fielders': ['LRPL Taylor'], 'kind': 'caught', 'player_out': 'AT Rayudu'}"
1st innings,4.1,SR Tendulkar,AA Chavan,RG Sharma,0,0,na,na
1st innings,4.2,SR Tendulkar,AA Chavan,RG Sharma,0,0,na,na
1st innings,4.3,SR Tendulkar,AA Chavan,RG Sharma,2,2,na,na
1st innings,4.4,SR Tendulkar,AA Chavan,RG Sharma,0,0,na,na
1st innings,4.5,SR Tendulkar,AA Chavan,RG Sharma,1,1,na,na
1st innings,4.6,RG Sharma,AA Chavan,SR Tendulkar,0,0,na,na
1st innings,5.1,SR Tendulkar,SR Watson,RG Sharma,0,0,na,na
1st innings,5.2,SR Tendulkar,SR Watson,RG Sharma,1,1,na,na
1st innings,5.3,RG Sharma,SR Watson,SR Tendulkar,0,0,na,na
1st innings,5.4,RG Sharma,SR Watson,SR Tendulkar,1,1,na,na
1st innings,5.5,SR Tendulkar,SR Watson,RG Sharma,0,0,na,na
1st innings,5.6,SR Tendulkar,SR Watson,RG Sharma,4,4,na,na
1st innings,6.1,RG Sharma,AA Chavan,SR Tendulkar,0,0,na,na
1st innings,6.2,RG Sharma,AA Chavan,SR Tendulkar,0,0,na,na
1st innings,6.3,RG Sharma,AA Chavan,SR Tendulkar,0,0,na,na
1st innings,6.4,RG Sharma,AA Chavan,SR Tendulkar,1,1,na,na
1st innings,6.5,SR Tendulkar,AA Chavan,RG Sharma,4,4,na,na
1st innings,6.6,SR Tendulkar,AA Chavan,RG Sharma,0,0,na,na
1st innings,7.1,RG Sharma,SK Trivedi,SR Tendulkar,1,1,na,na
1st innings,7.2,SR Tendulkar,SK Trivedi,RG Sharma,0,0,na,na
1st innings,7.3,SR Tendulkar,SK Trivedi,RG Sharma,1,1,na,na
1st innings,7.4,RG Sharma,SK Trivedi,SR Tendulkar,2,2,na,na
1st innings,7.5,RG Sharma,SK Trivedi,SR Tendulkar,4,4,na,na
1st innings,7.6,RG Sharma,SK Trivedi,SR Tendulkar,1,1,na,na
1st innings,8.1,RG Sharma,SK Warne,SR Tendulkar,1,1,na,na
1st innings,8.2,SR Tendulkar,SK Warne,RG Sharma,2,2,na,na
1st innings,8.3,SR Tendulkar,SK Warne,RG Sharma,2,2,na,na
1st innings,8.4,SR Tendulkar,SK Warne,RG Sharma,1,1,na,na
1st innings,8.5,RG Sharma,SK Warne,SR Tendulkar,1,1,na,na
1st innings,8.6,SR Tendulkar,SK Warne,RG Sharma,4,4,na,na
1st innings,9.1,RG Sharma,J Botha,SR Tendulkar,1,1,na,na
1st innings,9.2,SR Tendulkar,J Botha,RG Sharma,1,1,na,na
1st innings,9.3,RG Sharma,J Botha,SR Tendulkar,0,0,na,na
1st innings,9.4,RG Sharma,J Botha,SR Tendulkar,1,1,na,na
1st innings,9.5,SR Tendulkar,J Botha,RG Sharma,1,1,na,na
1st innings,9.6,RG Sharma,J Botha,SR Tendulkar,0,0,na,na
1st innings,10.1,SR Tendulkar,SK Warne,RG Sharma,1,1,na,na
1st innings,10.2,RG Sharma,SK Warne,SR Tendulkar,0,0,na,na
1st innings,10.3,RG Sharma,SK Warne,SR Tendulkar,2,2,na,na
1st innings,10.4,RG Sharma,SK Warne,SR Tendulkar,2,2,na,na
1st innings,10.5,RG Sharma,SK Warne,SR Tendulkar,0,0,na,na
1st innings,10.6,RG Sharma,SK Warne,SR Tendulkar,1,1,na,na
1st innings,11.1,RG Sharma,A Singh,SR Tendulkar,0,0,na,na
1st innings,11.2,RG Sharma,A Singh,SR Tendulkar,4,4,na,na
1st innings,11.3,RG Sharma,A Singh,SR Tendulkar,0,0,na,"{'fielders': ['SR Watson'], 'kind': 'caught', 'player_out': 'SR Tendulkar'}"
1st innings,11.4,KA Pollard,A Singh,RG Sharma,1,1,na,na
1st innings,11.5,RG Sharma,A Singh,KA Pollard,0,0,na,na
1st innings,11.6,RG Sharma,A Singh,KA Pollard,0,0,na,na
1st innings,12.1,KA Pollard,J Botha,RG Sharma,0,0,na,na
1st innings,12.2,KA Pollard,J Botha,RG Sharma,1,0,{'wides': 1},na
1st innings,12.3,KA Pollard,J Botha,RG Sharma,1,1,na,na
1st innings,12.4,RG Sharma,J Botha,KA Pollard,1,1,na,na
1st innings,12.5,KA Pollard,J Botha,RG Sharma,0,0,na,na
1st innings,12.6,KA Pollard,J Botha,RG Sharma,0,0,na,na
1st innings,12.7,KA Pollard,J Botha,RG Sharma,1,1,na,na
1st innings,13.1,KA Pollard,A Singh,RG Sharma,4,4,na,na
1st innings,13.2,KA Pollard,A Singh,RG Sharma,2,2,na,na
1st innings,13.3,KA Pollard,A Singh,RG Sharma,6,6,na,na
1st innings,13.4,KA Pollard,A Singh,RG Sharma,1,1,na,na
1st innings,13.5,RG Sharma,A Singh,KA Pollard,0,0,na,na
1st innings,13.6,RG Sharma,A Singh,KA Pollard,2,2,na,na
1st innings,14.1,KA Pollard,J Botha,RG Sharma,1,1,na,na
1st innings,14.2,RG Sharma,J Botha,KA Pollard,1,1,na,na
1st innings,14.3,KA Pollard,J Botha,RG Sharma,1,1,na,na
1st innings,14.4,RG Sharma,J Botha,KA Pollard,1,1,na,na
1st innings,14.5,KA Pollard,J Botha,RG Sharma,4,4,na,na
1st innings,14.6,KA Pollard,J Botha,RG Sharma,1,1,na,na
1st innings,15.1,KA Pollard,SK Warne,RG Sharma,1,1,na,na
1st innings,15.2,RG Sharma,SK Warne,KA Pollard,1,1,na,na
1st innings,15.3,KA Pollard,SK Warne,RG Sharma,1,1,na,na
1st innings,15.4,RG Sharma,SK Warne,KA Pollard,1,1,na,na
1st innings,15.5,KA Pollard,SK Warne,RG Sharma,0,0,na,na
1st innings,15.6,KA Pollard,SK Warne,RG Sharma,1,1,na,na
1st innings,16.1,KA Pollard,AL Menaria,RG Sharma,1,1,na,na
1st innings,16.2,RG Sharma,AL Menaria,KA Pollard,2,2,na,na
1st innings,16.3,RG Sharma,AL Menaria,KA Pollard,4,4,na,na
1st innings,16.4,RG Sharma,AL Menaria,KA Pollard,4,4,na,na
1st innings,16.5,RG Sharma,AL Menaria,KA Pollard,0,0,na,na
1st innings,16.6,RG Sharma,AL Menaria,KA Pollard,1,1,na,na
1st innings,17.1,RG Sharma,SR Watson,KA Pollard,1,1,na,na
1st innings,17.2,KA Pollard,SR Watson,RG Sharma,2,2,na,na
1st innings,17.3,KA Pollard,SR Watson,RG Sharma,2,0,{'wides': 2},na
1st innings,17.4,RG Sharma,SR Watson,KA Pollard,1,1,na,na
1st innings,17.5,KA Pollard,SR Watson,RG Sharma,1,1,na,na
1st innings,17.6,RG Sharma,SR Watson,KA Pollard,0,0,na,na
1st innings,17.7,RG Sharma,SR Watson,KA Pollard,0,0,na,"{'kind': 'bowled', 'player_out': 'KA Pollard'}"
1st innings,18.1,JEC Franklin,J Botha,RG Sharma,1,1,na,na
1st innings,18.2,RG Sharma,J Botha,JEC Franklin,1,1,na,na
1st innings,18.3,JEC Franklin,J Botha,RG Sharma,0,0,na,na
1st innings,18.4,JEC Franklin,J Botha,RG Sharma,0,0,na,na
1st innings,18.5,JEC Franklin,J Botha,RG Sharma,1,1,na,na
1st innings,18.6,RG Sharma,J Botha,JEC Franklin,4,4,na,na
1st innings,19.1,JEC Franklin,SK Warne,RG Sharma,1,1,na,na
1st innings,19.2,RG Sharma,SK Warne,JEC Franklin,4,4,na,na
1st innings,19.3,RG Sharma,SK Warne,JEC Franklin,1,1,na,na
1st innings,19.4,JEC Franklin,SK Warne,RG Sharma,0,0,na,"{'fielders': ['PR Shah'], 'kind': 'stumped', 'player_out': 'RG Sharma'}"
1st innings,19.5,JEC Franklin,SK Warne,Harbhajan Singh,1,1,na,na
1st innings,19.6,Harbhajan Singh,SK Warne,JEC Franklin,1,1,na,na
2nd innings,0.1,R Dravid,MM Patel,SR Watson,1,0,{'wides': 1},na
2nd innings,0.2,R Dravid,MM Patel,SR Watson,4,4,na,na
2nd innings,0.3,R Dravid,MM Patel,SR Watson,1,1,na,na
2nd innings,0.4,SR Watson,MM Patel,R Dravid,1,1,na,na
2nd innings,0.5,R Dravid,MM Patel,SR Watson,1,1,na,na
2nd innings,0.6,SR Watson,MM Patel,R Dravid,0,0,na,na
2nd innings,0.7,SR Watson,MM Patel,R Dravid,0,0,na,na
2nd innings,1.1,R Dravid,Harbhajan Singh,SR Watson,0,0,na,na
2nd innings,1.2,R Dravid,Harbhajan Singh,SR Watson,0,0,na,na
2nd innings,1.3,R Dravid,Harbhajan Singh,SR Watson,6,6,na,na
2nd innings,1.4,R Dravid,Harbhajan Singh,SR Watson,0,0,na,na
2nd innings,1.5,R Dravid,Harbhajan Singh,SR Watson,6,6,na,na
2nd innings,1.6,R Dravid,Harbhajan Singh,SR Watson,0,0,na,na
2nd innings,2.1,SR Watson,MM Patel,R Dravid,1,1,na,na
2nd innings,2.2,R Dravid,MM Patel,SR Watson,1,1,na,na
2nd innings,2.3,SR Watson,MM Patel,R Dravid,1,1,na,na
2nd innings,2.4,R Dravid,MM Patel,SR Watson,0,0,na,na
2nd innings,2.5,R Dravid,MM Patel,SR Watson,0,0,na,na
2nd innings,2.6,R Dravid,MM Patel,SR Watson,1,1,na,na
2nd innings,3.1,R Dravid,SL Malinga,SR Watson,0,0,na,na
2nd innings,3.2,R Dravid,SL Malinga,SR Watson,0,0,na,na
2nd innings,3.3,R Dravid,SL Malinga,SR Watson,4,4,na,na
2nd innings,3.4,R Dravid,SL Malinga,SR Watson,0,0,na,na
2nd innings,3.5,R Dravid,SL Malinga,SR Watson,0,0,na,na
2nd innings,3.6,R Dravid,SL Malinga,SR Watson,4,4,na,na
2nd innings,4.1,SR Watson,DS Kulkarni,R Dravid,1,1,na,na
2nd innings,4.2,R Dravid,DS Kulkarni,SR Watson,1,1,na,na
2nd innings,4.3,SR Watson,DS Kulkarni,R Dravid,0,0,na,na
2nd innings,4.4,SR Watson,DS Kulkarni,R Dravid,1,1,na,na
2nd innings,4.5,R Dravid,DS Kulkarni,SR Watson,2,2,na,na
2nd innings,4.6,R Dravid,DS Kulkarni,SR Watson,0,0,na,na
2nd innings,5.1,SR Watson,SL Malinga,R Dravid,1,1,na,na
2nd innings,5.2,R Dravid,SL Malinga,SR Watson,4,4,na,na
2nd innings,5.3,R Dravid,SL Malinga,SR Watson,0,0,na,na
2nd innings,5.4,R Dravid,SL Malinga,SR Watson,0,0,na,na
2nd innings,5.5,R Dravid,SL Malinga,SR Watson,6,6,na,na
2nd innings,5.6,R Dravid,SL Malinga,SR Watson,4,4,na,na
2nd innings,6.1,SR Watson,DS Kulkarni,R Dravid,1,1,na,na
2nd innings,6.2,R Dravid,DS Kulkarni,SR Watson,4,4,na,na
2nd innings,6.3,R Dravid,DS Kulkarni,SR Watson,0,0,na,na
2nd innings,6.4,R Dravid,DS Kulkarni,SR Watson,2,2,na,na
2nd innings,6.5,R Dravid,DS Kulkarni,SR Watson,6,6,na,na
2nd innings,6.6,R Dravid,DS Kulkarni,SR Watson,1,1,na,na
2nd innings,7.1,R Dravid,Harbhajan Singh,SR Watson,1,0,{'wides': 1},na
2nd innings,7.2,R Dravid,Harbhajan Singh,SR Watson,0,0,na,na
2nd innings,7.3,R Dravid,Harbhajan Singh,SR Watson,4,4,na,na
2nd innings,7.4,R Dravid,Harbhajan Singh,SR Watson,4,4,na,na
2nd innings,7.5,R Dravid,Harbhajan Singh,SR Watson,4,4,na,na
2nd innings,7.6,R Dravid,Harbhajan Singh,SR Watson,1,1,na,na
2nd innings,7.7,SR Watson,Harbhajan Singh,R Dravid,1,1,na,na
2nd innings,8.1,SR Watson,KA Pollard,R Dravid,0,0,na,na
2nd innings,8.2,SR Watson,KA Pollard,R Dravid,0,0,na,na
2nd innings,8.3,SR Watson,KA Pollard,R Dravid,4,4,na,na
2nd innings,8.4,SR Watson,KA Pollard,R Dravid,0,0,na,na
2nd innings,8.5,SR Watson,KA Pollard,R Dravid,2,2,na,na
2nd innings,8.6,SR Watson,KA Pollard,R Dravid,1,1,na,na
2nd innings,9.1,SR Watson,SL Malinga,R Dravid,0,0,na,na
2nd innings,9.2,SR Watson,SL Malinga,R Dravid,2,2,na,na
2nd innings,9.3,SR Watson,SL Malinga,R Dravid,0,0,na,na
2nd innings,9.4,SR Watson,SL Malinga,R Dravid,1,1,na,na
2nd innings,9.5,R Dravid,SL Malinga,SR Watson,0,0,na,na
2nd innings,9.6,R Dravid,SL Malinga,SR Watson,6,6,na,na
2nd innings,10.1,SR Watson,KA Pollard,R Dravid,1,1,na,na
2nd innings,10.2,R Dravid,KA Pollard,SR Watson,1,1,na,na
2nd innings,10.3,SR Watson,KA Pollard,R Dravid,4,4,na,na
2nd innings,10.4,SR Watson,KA Pollard,R Dravid,1,1,na,na
2nd innings,10.5,R Dravid,KA Pollard,SR Watson,1,1,na,na
2nd innings,10.6,SR Watson,KA Pollard,R Dravid,4,4,na,na
2nd innings,11.1,R Dravid,MM Patel,SR Watson,1,1,na,na
2nd innings,11.2,SR Watson,MM Patel,R Dravid,4,4,na,na
2nd innings,11.3,SR Watson,MM Patel,R Dravid,0,0,na,na
2nd innings,11.4,SR Watson,MM Patel,R Dravid,4,4,na,na
2nd innings,11.5,SR Watson,MM Patel,R Dravid,1,1,na,na
2nd innings,11.6,R Dravid,MM Patel,SR Watson,1,1,na,na
2nd innings,12.1,R Dravid,SL Malinga,SR Watson,6,6,na,na
2nd innings,12.2,R Dravid,SL Malinga,SR Watson,1,1,na,na
2nd innings,12.3,SR Watson,SL Malinga,R Dravid,1,1,na,na
2nd innings,12.4,R Dravid,SL Malinga,SR Watson,0,0,na,na
2nd innings,12.5,R Dravid,SL Malinga,SR Watson,1,1,na,na
2nd innings,12.6,SR Watson,SL Malinga,R Dravid,1,1,na,na
2nd innings,13.1,SR Watson,JEC Franklin,R Dravid,4,4,na,na
