innings,deliveries,non_striker,bowler,batsman,total_runs,batsman_runs,extras,wickets
1st innings,0.1,M Klinger,B Lee,BB McCullum,0,0,na,na
1st innings,0.2,M Klinger,B Lee,BB McCullum,0,0,na,na
1st innings,0.3,M Klinger,B Lee,BB McCullum,0,0,na,na
1st innings,0.4,M Klinger,B Lee,BB McCullum,0,0,na,na
1st innings,0.5,M Klinger,B Lee,BB McCullum,0,0,na,na
1st innings,0.6,M Klinger,B Lee,BB McCullum,0,0,na,na
1st innings,1.1,BB McCullum,JD Unadkat,M Klinger,1,1,na,na
1st innings,1.2,M Klinger,JD Unadkat,BB McCullum,1,0,{'wides': 1},na
1st innings,1.3,M Klinger,JD Unadkat,BB McCullum,1,1,na,na
1st innings,1.4,BB McCullum,JD Unadkat,M Klinger,3,3,na,na
1st innings,1.5,M Klinger,JD Unadkat,BB McCullum,0,0,na,"{'fielders': ['JH Kallis'], 'kind': 'caught', 'player_out': 'BB McCullum'}"
1st innings,1.6,M Klinger,JD Unadkat,PA Patel,1,1,na,na
1st innings,1.7,PA Patel,JD Unadkat,M Klinger,0,0,na,na
1st innings,2.1,M Klinger,B Lee,PA Patel,4,4,na,na
1st innings,2.2,M Klinger,B Lee,PA Patel,4,4,na,na
1st innings,2.3,M Klinger,B Lee,PA Patel,1,1,na,na
1st innings,2.4,PA Patel,B Lee,M Klinger,1,1,na,na
1st innings,2.5,M Klinger,B Lee,PA Patel,0,0,na,na
1st innings,2.6,M Klinger,B Lee,PA Patel,0,0,na,na
1st innings,3.1,PA Patel,JD Unadkat,M Klinger,0,0,na,na
1st innings,3.2,PA Patel,JD Unadkat,M Klinger,1,1,na,na
1st innings,3.3,M Klinger,JD Unadkat,PA Patel,4,4,na,na
1st innings,3.4,M Klinger,JD Unadkat,PA Patel,0,0,na,na
1st innings,3.5,M Klinger,JD Unadkat,PA Patel,0,0,na,na
1st innings,3.6,M Klinger,JD Unadkat,PA Patel,1,1,na,na
1st innings,4.1,M Klinger,Iqbal Abdulla,PA Patel,4,4,na,na
1st innings,4.2,M Klinger,Iqbal Abdulla,PA Patel,0,0,na,na
1st innings,4.3,M Klinger,Iqbal Abdulla,PA Patel,1,1,na,na
1st innings,4.4,PA Patel,Iqbal Abdulla,M Klinger,1,1,na,na
1st innings,4.5,M Klinger,Iqbal Abdulla,PA Patel,1,1,na,na
1st innings,4.6,PA Patel,Iqbal Abdulla,M Klinger,0,0,na,na
1st innings,5.1,M Klinger,JD Unadkat,PA Patel,0,0,na,na
1st innings,5.2,M Klinger,JD Unadkat,PA Patel,0,0,na,"{'fielders': ['R Bhatia'], 'kind': 'caught', 'player_out': 'PA Patel'}"
1st innings,5.3,DPMD Jayawardene,JD Unadkat,M Klinger,4,4,na,na
1st innings,5.4,DPMD Jayawardene,JD Unadkat,M Klinger,1,1,na,na
1st innings,5.5,M Klinger,JD Unadkat,DPMD Jayawardene,0,0,na,na
1st innings,5.6,M Klinger,JD Unadkat,DPMD Jayawardene,0,0,na,na
1st innings,6.1,DPMD Jayawardene,JH Kallis,M Klinger,1,1,na,na
1st innings,6.2,M Klinger,JH Kallis,DPMD Jayawardene,0,0,na,na
1st innings,6.3,M Klinger,JH Kallis,DPMD Jayawardene,1,1,na,na
1st innings,6.4,DPMD Jayawardene,JH Kallis,M Klinger,0,0,na,na
1st innings,6.5,DPMD Jayawardene,JH Kallis,M Klinger,0,0,na,na
1st innings,6.6,DPMD Jayawardene,JH Kallis,M Klinger,1,1,na,na
1st innings,7.1,DPMD Jayawardene,S Ladda,M Klinger,2,1,{'noballs': 1},na
1st innings,7.2,M Klinger,S Ladda,DPMD Jayawardene,6,6,na,na
1st innings,7.3,M Klinger,S Ladda,DPMD Jayawardene,2,2,na,na
1st innings,7.4,M Klinger,S Ladda,DPMD Jayawardene,1,1,na,na
1st innings,7.5,DPMD Jayawardene,S Ladda,M Klinger,1,1,na,na
1st innings,7.6,M Klinger,S Ladda,DPMD Jayawardene,1,1,na,na
1st innings,7.7,DPMD Jayawardene,S Ladda,M Klinger,0,0,na,na
1st innings,8.1,M Klinger,JH Kallis,DPMD Jayawardene,1,1,na,na
1st innings,8.2,DPMD Jayawardene,JH Kallis,M Klinger,4,4,na,na
1st innings,8.3,DPMD Jayawardene,JH Kallis,M Klinger,1,1,na,na
1st innings,8.4,M Klinger,JH Kallis,DPMD Jayawardene,0,0,na,na
1st innings,8.5,M Klinger,JH Kallis,DPMD Jayawardene,2,2,na,na
1st innings,8.6,M Klinger,JH Kallis,DPMD Jayawardene,1,1,na,na
1st innings,9.1,M Klinger,Iqbal Abdulla,DPMD Jayawardene,1,1,na,na
1st innings,9.2,DPMD Jayawardene,Iqbal Abdulla,M Klinger,4,4,na,na
1st innings,9.3,DPMD Jayawardene,Iqbal Abdulla,M Klinger,0,0,na,na
1st innings,9.4,DPMD Jayawardene,Iqbal Abdulla,M Klinger,1,1,na,na
1st innings,9.5,M Klinger,Iqbal Abdulla,DPMD Jayawardene,2,2,na,na
1st innings,9.6,M Klinger,Iqbal Abdulla,DPMD Jayawardene,1,1,na,na
1st innings,10.1,M Klinger,R Bhatia,DPMD Jayawardene,0,0,na,na
1st innings,10.2,M Klinger,R Bhatia,DPMD Jayawardene,1,1,na,na
1st innings,10.3,DPMD Jayawardene,R Bhatia,M Klinger,1,1,na,na
1st innings,10.4,M Klinger,R Bhatia,DPMD Jayawardene,1,1,na,na
1st innings,10.5,DPMD Jayawardene,R Bhatia,M Klinger,1,1,na,na
1st innings,10.6,M Klinger,R Bhatia,DPMD Jayawardene,1,1,na,na
1st innings,11.1,M Klinger,YK Pathan,DPMD Jayawardene,4,4,na,na
1st innings,11.2,M Klinger,YK Pathan,DPMD Jayawardene,1,1,na,na
1st innings,11.3,DPMD Jayawardene,YK Pathan,M Klinger,1,1,na,na
1st innings,11.4,M Klinger,YK Pathan,DPMD Jayawardene,1,1,na,na
1st innings,11.5,DPMD Jayawardene,YK Pathan,M Klinger,0,0,na,"{'fielders': ['Iqbal Abdulla'], 'kind': 'caught', 'player_out': 'M Klinger'}"
1st innings,11.6,RA Jadeja,YK Pathan,DPMD Jayawardene,1,1,na,na
1st innings,12.1,RA Jadeja,JD Unadkat,DPMD Jayawardene,1,1,na,na
1st innings,12.2,DPMD Jayawardene,JD Unadkat,RA Jadeja,0,0,na,na
1st innings,12.3,DPMD Jayawardene,JD Unadkat,RA Jadeja,2,2,na,na
1st innings,12.4,DPMD Jayawardene,JD Unadkat,RA Jadeja,4,4,na,na
1st innings,12.5,DPMD Jayawardene,JD Unadkat,RA Jadeja,0,0,na,na
1st innings,12.6,DPMD Jayawardene,JD Unadkat,RA Jadeja,0,0,na,na
1st innings,13.1,RA Jadeja,YK Pathan,DPMD Jayawardene,1,0,{'wides': 1},na
1st innings,13.2,RA Jadeja,YK Pathan,DPMD Jayawardene,1,1,na,na
1st innings,13.3,DPMD Jayawardene,YK Pathan,RA Jadeja,0,0,na,na
1st innings,13.4,DPMD Jayawardene,YK Pathan,RA Jadeja,1,1,na,na
1st innings,13.5,RA Jadeja,YK Pathan,DPMD Jayawardene,1,1,na,na
1st innings,13.6,DPMD Jayawardene,YK Pathan,RA Jadeja,0,0,na,na
1st innings,13.7,DPMD Jayawardene,YK Pathan,RA Jadeja,0,0,na,na
1st innings,14.1,RA Jadeja,R Bhatia,DPMD Jayawardene,1,1,na,na
1st innings,14.2,DPMD Jayawardene,R Bhatia,RA Jadeja,1,1,na,na
1st innings,14.3,RA Jadeja,R Bhatia,DPMD Jayawardene,1,1,na,na
1st innings,14.4,DPMD Jayawardene,R Bhatia,RA Jadeja,0,0,na,"{'fielders': ['YK Pathan'], 'kind': 'caught', 'player_out': 'RA Jadeja'}"
1st innings,14.5,BJ Hodge,R Bhatia,DPMD Jayawardene,1,1,na,na
1st innings,14.6,DPMD Jayawardene,R Bhatia,BJ Hodge,1,1,na,na
1st innings,15.1,DPMD Jayawardene,YK Pathan,BJ Hodge,1,1,na,na
1st innings,15.2,BJ Hodge,YK Pathan,DPMD Jayawardene,0,0,na,na
1st innings,15.3,BJ Hodge,YK Pathan,DPMD Jayawardene,1,1,na,na
1st innings,15.4,DPMD Jayawardene,YK Pathan,BJ Hodge,0,0,na,na
1st innings,15.5,DPMD Jayawardene,YK Pathan,BJ Hodge,1,1,na,na
1st innings,15.6,BJ Hodge,YK Pathan,DPMD Jayawardene,1,1,na,na
1st innings,16.1,BJ Hodge,R Bhatia,DPMD Jayawardene,6,6,na,na
1st innings,16.2,BJ Hodge,R Bhatia,DPMD Jayawardene,1,1,na,na
1st innings,16.3,DPMD Jayawardene,R Bhatia,BJ Hodge,1,1,na,na
1st innings,16.4,BJ Hodge,R Bhatia,DPMD Jayawardene,2,2,na,na
1st innings,16.5,BJ Hodge,R Bhatia,DPMD Jayawardene,1,1,na,na
1st innings,16.6,DPMD Jayawardene,R Bhatia,BJ Hodge,1,1,na,na
1st innings,17.1,DPMD Jayawardene,B Lee,BJ Hodge,4,4,na,na
1st innings,17.2,DPMD Jayawardene,B Lee,BJ Hodge,2,2,na,na
1st innings,17.3,DPMD Jayawardene,B Lee,BJ Hodge,1,0,{'legbyes': 1},na
1st innings,17.4,BJ Hodge,B Lee,DPMD Jayawardene,1,1,na,na
1st innings,17.5,DPMD Jayawardene,B Lee,BJ Hodge,0,0,na,na
1st innings,17.6,DPMD Jayawardene,B Lee,BJ Hodge,1,0,{'noballs': 1},na
1st innings,17.7,DPMD Jayawardene,B Lee,BJ Hodge,2,2,na,na
1st innings,18.1,BJ Hodge,JH Kallis,DPMD Jayawardene,1,0,{'wides': 1},na
1st innings,18.2,BJ Hodge,JH Kallis,DPMD Jayawardene,4,4,na,na
1st innings,18.3,BJ Hodge,JH Kallis,DPMD Jayawardene,0,0,na,na
1st innings,18.4,BJ Hodge,JH Kallis,DPMD Jayawardene,2,2,na,na
1st innings,18.5,BJ Hodge,JH Kallis,DPMD Jayawardene,1,1,na,na
1st innings,18.6,DPMD Jayawardene,JH Kallis,BJ Hodge,0,0,na,na
1st innings,18.7,DPMD Jayawardene,JH Kallis,BJ Hodge,1,1,na,"{'fielders': ['S Ladda', 'JH Kallis'], 'kind': 'run out', 'player_out': 'DPMD Jayawardene'}"
1st innings,19.1,BJ Hodge,B Lee,RV Gomez,1,1,na,na
1st innings,19.2,RV Gomez,B Lee,BJ Hodge,6,6,na,na
1st innings,19.3,RV Gomez,B Lee,BJ Hodge,4,4,na,na
1st innings,19.4,RV Gomez,B Lee,BJ Hodge,6,6,na,na
1st innings,19.5,RV Gomez,B Lee,BJ Hodge,4,4,na,na
1st innings,19.6,RV Gomez,B Lee,BJ Hodge,1,1,na,na
2nd innings,0.1,EJG Morgan,RP Singh,JH Kallis,0,0,na,na
2nd innings,0.2,EJG Morgan,RP Singh,JH Kallis,1,1,na,na
2nd innings,0.3,JH Kallis,RP Singh,EJG Morgan,0,0,na,na
2nd innings,0.4,JH Kallis,RP Singh,EJG Morgan,4,4,na,na
2nd innings,0.5,JH Kallis,RP Singh,EJG Morgan,0,0,na,na
2nd innings,0.6,JH Kallis,RP Singh,EJG Morgan,4,4,na,na
2nd innings,1.1,EJG Morgan,S Sreesanth,JH Kallis,0,0,na,na
2nd innings,1.2,EJG Morgan,S Sreesanth,JH Kallis,0,0,na,na
2nd innings,1.3,EJG Morgan,S Sreesanth,JH Kallis,4,4,na,na
2nd innings,1.4,EJG Morgan,S Sreesanth,JH Kallis,1,0,{'wides': 1},na
2nd innings,1.5,EJG Morgan,S Sreesanth,JH Kallis,1,1,na,na
2nd innings,1.6,JH Kallis,S Sreesanth,EJG Morgan,0,0,na,na
2nd innings,1.7,JH Kallis,S Sreesanth,EJG Morgan,0,0,na,na
2nd innings,2.1,EJG Morgan,RP Singh,JH Kallis,0,0,na,na
2nd innings,2.2,EJG Morgan,RP Singh,JH Kallis,4,4,na,na
2nd innings,2.3,EJG Morgan,RP Singh,JH Kallis,4,4,na,na
2nd innings,2.4,EJG Morgan,RP Singh,JH Kallis,1,1,na,na
2nd innings,2.5,JH Kallis,RP Singh,EJG Morgan,0,0,na,na
2nd innings,2.6,JH Kallis,RP Singh,EJG Morgan,4,4,na,na
2nd innings,3.1,EJG Morgan,S Sreesanth,JH Kallis,0,0,na,na
2nd innings,3.2,EJG Morgan,S Sreesanth,JH Kallis,0,0,na,na
2nd innings,3.3,EJG Morgan,S Sreesanth,JH Kallis,1,1,na,na
2nd innings,3.4,JH Kallis,S Sreesanth,EJG Morgan,1,1,na,na
2nd innings,3.5,EJG Morgan,S Sreesanth,JH Kallis,2,2,na,na
2nd innings,3.6,EJG Morgan,S Sreesanth,JH Kallis,1,1,na,na
2nd innings,4.1,EJG Morgan,R Vinay Kumar,JH Kallis,2,2,na,na
2nd innings,4.2,EJG Morgan,R Vinay Kumar,JH Kallis,1,1,na,na
2nd innings,4.3,JH Kallis,R Vinay Kumar,EJG Morgan,1,0,{'legbyes': 1},na
2nd innings,4.4,EJG Morgan,R Vinay Kumar,JH Kallis,1,1,na,na
2nd innings,4.5,JH Kallis,R Vinay Kumar,EJG Morgan,1,1,na,na
2nd innings,4.6,EJG Morgan,R Vinay Kumar,JH Kallis,1,1,na,na
2nd innings,5.1,EJG Morgan,P Parameswaran,JH Kallis,1,1,na,na
2nd innings,5.2,JH Kallis,P Parameswaran,EJG Morgan,0,0,na,na
2nd innings,5.3,JH Kallis,P Parameswaran,EJG Morgan,0,0,na,na
2nd innings,5.4,JH Kallis,P Parameswaran,EJG Morgan,0,0,na,na
2nd innings,5.5,JH Kallis,P Parameswaran,EJG Morgan,1,1,na,na
2nd innings,5.6,EJG Morgan,P Parameswaran,JH Kallis,1,1,na,na
2nd innings,6.1,EJG Morgan,R Vinay Kumar,JH Kallis,1,1,na,na
2nd innings,6.2,JH Kallis,R Vinay Kumar,EJG Morgan,0,0,na,na
2nd innings,6.3,JH Kallis,R Vinay Kumar,EJG Morgan,0,0,na,na
2nd innings,6.4,JH Kallis,R Vinay Kumar,EJG Morgan,1,1,na,na
2nd innings,6.5,EJG Morgan,R Vinay Kumar,JH Kallis,4,4,na,na
2nd innings,6.6,EJG Morgan,R Vinay Kumar,JH Kallis,1,1,na,na
2nd innings,7.1,EJG Morgan,P Parameswaran,JH Kallis,0,0,na,na
2nd innings,7.2,EJG Morgan,P Parameswaran,JH Kallis,0,0,na,na
2nd innings,7.3,EJG Morgan,P Parameswaran,JH Kallis,0,0,na,na
2nd innings,7.4,EJG Morgan,P Parameswaran,JH Kallis,2,2,na,na
2nd innings,7.5,EJG Morgan,P Parameswaran,JH Kallis,2,2,na,na
2nd innings,7.6,EJG Morgan,P Parameswaran,JH Kallis,1,1,na,na
2nd innings,8.1,EJG Morgan,RV Gomez,JH Kallis,1,1,na,na
2nd innings,8.2,JH Kallis,RV Gomez,EJG Morgan,4,4,na,na
2nd innings,8.3,JH Kallis,RV Gomez,EJG Morgan,1,1,na,na
2nd innings,8.4,EJG Morgan,RV Gomez,JH Kallis,0,0,na,na
2nd innings,8.5,EJG Morgan,RV Gomez,JH Kallis,0,0,na,na
2nd innings,8.6,EJG Morgan,RV Gomez,JH Kallis,1,1,na,na
2nd innings,9.1,EJG Morgan,RA Jadeja,JH Kallis,4,4,na,na
2nd innings,9.2,EJG Morgan,RA Jadeja,JH Kallis,1,1,na,na
2nd innings,9.3,JH Kallis,RA Jadeja,EJG Morgan,1,1,na,na
2nd innings,9.4,EJG Morgan,RA Jadeja,JH Kallis,0,0,na,na
2nd innings,9.5,EJG Morgan,RA Jadeja,JH Kallis,0,0,na,na
2nd innings,9.6,EJG Morgan,RA Jadeja,JH Kallis,1,1,na,na
2nd innings,10.1,EJG Morgan,RV Gomez,JH Kallis,0,0,na,na
2nd innings,10.2,EJG Morgan,RV Gomez,JH Kallis,0,0,na,"{'kind': 'bowled', 'player_out': 'JH Kallis'}"
2nd innings,10.3,EJG Morgan,RV Gomez,G Gambhir,0,0,na,"{'fielders': ['DPMD Jayawardene'], 'kind': 'caught', 'player_out': 'G Gambhir'}"
2nd innings,10.4,EJG Morgan,RV Gomez,MK Tiwary,0,0,na,na
2nd innings,10.5,EJG Morgan,RV Gomez,MK Tiwary,0,0,na,na
2nd innings,10.6,EJG Morgan,RV Gomez,MK Tiwary,0,0,na,na
2nd innings,11.1,MK Tiwary,RP Singh,EJG Morgan,1,0,{'wides': 1},na
2nd innings,11.2,MK Tiwary,RP Singh,EJG Morgan,4,4,na,na
2nd innings,11.3,MK Tiwary,RP Singh,EJG Morgan,0,0,na,na
2nd innings,11.4,MK Tiwary,RP Singh,EJG Morgan,6,6,na,na
2nd innings,11.5,MK Tiwary,RP Singh,EJG Morgan,2,2,na,na
2nd innings,11.6,MK Tiwary,RP Singh,EJG Morgan,2,2,na,na
2nd innings,11.7,MK Tiwary,RP Singh,EJG Morgan,0,0,na,na
2nd innings,12.1,EJG Morgan,RV Gomez,MK Tiwary,0,0,na,na
2nd innings,12.2,EJG Morgan,RV Gomez,MK Tiwary,0,0,na,na
2nd innings,12.3,EJG Morgan,RV Gomez,MK Tiwary,1,1,na,na
2nd innings,12.4,MK Tiwary,RV Gomez,EJG Morgan,0,0,na,na
2nd innings,12.5,MK Tiwary,RV Gomez,EJG Morgan,2,2,na,na
2nd innings,12.6,MK Tiwary,RV Gomez,EJG Morgan,1,1,na,na
2nd innings,13.1,MK Tiwary,R Vinay Kumar,EJG Morgan,4,4,na,na
2nd innings,13.2,MK Tiwary,R Vinay Kumar,EJG Morgan,0,0,na,na
2nd innings,13.3,MK Tiwary,R Vinay Kumar,EJG Morgan,0,0,na,na
2nd innings,13.4,MK Tiwary,R Vinay Kumar,EJG Morgan,4,4,na,na
2nd innings,13.5,MK Tiwary,R Vinay Kumar,EJG Morgan,1,1,na,na
2nd innings,13.6,EJG Morgan,R Vinay Kumar,MK Tiwary,0,0,na,"{'fielders': ['BB McCullum'], 'kind': 'caught', 'player_out': 'MK Tiwary'}"
2nd innings,14.1,EJG Morgan,RV Gomez,YK Pathan,1,1,na,na
2nd innings,14.2,YK Pathan,RV Gomez,EJG Morgan,0,0,na,na
2nd innings,14.3,YK Pathan,RV Gomez,EJG Morgan,1,1,na,na
2nd innings,14.4,EJG Morgan,RV Gomez,YK Pathan,0,0,na,na
2nd innings,14.5,EJG Morgan,RV Gomez,YK Pathan,1,1,na,na
2nd innings,14.6,YK Pathan,RV Gomez,EJG Morgan,0,0,na,na
2nd innings,15.1,EJG Morgan,P Parameswaran,YK Pathan,2,2,na,na
2nd innings,15.2,EJG Morgan,P Parameswaran,YK Pathan,1,1,na,na
2nd innings,15.3,YK Pathan,P Parameswaran,EJG Morgan,1,1,na,na
2nd innings,15.4,EJG Morgan,P Parameswaran,YK Pathan,0,0,na,na
2nd innings,15.5,EJG Morgan,P Parameswaran,YK Pathan,1,1,na,na
2nd innings,15.6,YK Pathan,P Parameswaran,EJG Morgan,1,1,na,na
2nd innings,16.1,YK Pathan,S Sreesanth,EJG Morgan,0,0,na,na
2nd innings,16.2,YK Pathan,S Sreesanth,EJG Morgan,6,6,na,na
2nd innings,16.3,YK Pathan,S Sreesanth,EJG Morgan,4,4,na,na
2nd innings,16.4,YK Pathan,S Sreesanth,EJG Morgan,1,1,na,na
2nd innings,16.5,EJG Morgan,S Sreesanth,YK Pathan,1,1,na,na
2nd innings,16.6,YK Pathan,S Sreesanth,EJG Morgan,1,1,na,na
2nd innings,17.1,YK Pathan,P Parameswaran,EJG Morgan,1,1,na,na
2nd innings,17.2,EJG Morgan,P Parameswaran,YK Pathan,1,1,na,na
2nd innings,17.3,YK Pathan,P Parameswaran,EJG Morgan,0,0,na,na
2nd innings,17.4,YK Pathan,P Parameswaran,EJG Morgan,0,0,na,na
2nd innings,17.5,YK Pathan,P Parameswaran,EJG Morgan,1,1,na,na
2nd innings,17.6,EJG Morgan,P Parameswaran,YK Pathan,4,4,na,na
2nd innings,18.1,YK Pathan,R Vinay Kumar,EJG Morgan,1,1,na,na
2nd innings,18.2,EJG Morgan,R Vinay Kumar,YK Pathan,4,4,na,na
2nd innings,18.3,EJG Morgan,R Vinay Kumar,YK Pathan,1,1,na,na
2nd innings,18.4,YK Pathan,R Vinay Kumar,EJG Morgan,0,0,na,"{'fielders': ['PA Patel', 'R Vinay Kumar'], 'kind': 'run out', 'player_out': 'EJG Morgan'}"
2nd innings,18.5,MV Boucher,R Vinay Kumar,YK Pathan,0,0,na,"{'fielders': ['DPMD Jayawardene'], 'kind': 'caught', 'player_out': 'YK Pathan'}"
2nd innings,18.6,MV Boucher,R Vinay Kumar,B Lee,0,0,na,na
2nd innings,19.1,B Lee,RP Singh,MV Boucher,2,2,na,na
2nd innings,19.2,B Lee,RP Singh,MV Boucher,2,2,na,na
2nd innings,19.3,B Lee,RP Singh,MV Boucher,1,1,na,na
2nd innings,19.4,MV Boucher,RP Singh,B Lee,1,1,na,"{'fielders': ['RA Jadeja', 'PA Patel'], 'kind': 'run out', 'player_out': 'B Lee'}"
2nd innings,19.5,MV Boucher,RP Singh,R Bhatia,1,1,na,na
2nd innings,19.6,R Bhatia,RP Singh,MV Boucher,0,0,na,"{'kind': 'bowled', 'player_out': 'MV Boucher'}"
