innings,deliveries,non_striker,bowler,batsman,total_runs,batsman_runs,extras,wickets
1st innings,0.1,MK Pandey,B Lee,JD Ryder,0,0,na,na
1st innings,0.2,MK Pandey,B Lee,JD Ryder,0,0,na,na
1st innings,0.3,MK Pandey,B Lee,JD Ryder,0,0,na,na
1st innings,0.4,MK Pandey,B Lee,JD Ryder,1,1,na,na
1st innings,0.5,JD Ryder,B Lee,MK Pandey,4,4,na,na
1st innings,0.6,JD Ryder,B Lee,MK Pandey,4,4,na,na
1st innings,1.1,MK Pandey,YK Pathan,JD Ryder,0,0,na,na
1st innings,1.2,MK Pandey,YK Pathan,JD Ryder,0,0,na,"{'fielders': ['MK Tiwary'], 'kind': 'caught', 'player_out': 'JD Ryder'}"
1st innings,1.3,CJ Ferguson,YK Pathan,MK Pandey,0,0,na,na
1st innings,1.4,CJ Ferguson,YK Pathan,MK Pandey,0,0,na,na
1st innings,1.5,CJ Ferguson,YK Pathan,MK Pandey,1,1,na,na
1st innings,1.6,MK Pandey,YK Pathan,CJ Ferguson,0,0,na,na
1st innings,2.1,CJ Ferguson,B Lee,MK Pandey,0,0,na,na
1st innings,2.2,CJ Ferguson,B Lee,MK Pandey,4,4,na,na
1st innings,2.3,CJ Ferguson,B Lee,MK Pandey,2,2,na,na
1st innings,2.4,CJ Ferguson,B Lee,MK Pandey,1,1,na,na
1st innings,2.5,MK Pandey,B Lee,CJ Ferguson,0,0,na,na
1st innings,2.6,MK Pandey,B Lee,CJ Ferguson,0,0,na,na
1st innings,3.1,CJ Ferguson,Iqbal Abdulla,MK Pandey,0,0,na,na
1st innings,3.2,CJ Ferguson,Iqbal Abdulla,MK Pandey,0,0,na,na
1st innings,3.3,CJ Ferguson,Iqbal Abdulla,MK Pandey,0,0,na,"{'kind': 'lbw', 'player_out': 'MK Pandey'}"
1st innings,3.4,CJ Ferguson,Iqbal Abdulla,SC Ganguly,1,1,na,na
1st innings,3.5,SC Ganguly,Iqbal Abdulla,CJ Ferguson,0,0,na,na
1st innings,3.6,SC Ganguly,Iqbal Abdulla,CJ Ferguson,0,0,na,na
1st innings,4.1,CJ Ferguson,JH Kallis,SC Ganguly,1,1,na,na
1st innings,4.2,SC Ganguly,JH Kallis,CJ Ferguson,0,0,na,na
1st innings,4.3,SC Ganguly,JH Kallis,CJ Ferguson,1,1,na,na
1st innings,4.4,CJ Ferguson,JH Kallis,SC Ganguly,1,1,na,na
1st innings,4.5,SC Ganguly,JH Kallis,CJ Ferguson,0,0,na,na
1st innings,4.6,SC Ganguly,JH Kallis,CJ Ferguson,4,4,na,na
1st innings,5.1,CJ Ferguson,Iqbal Abdulla,SC Ganguly,1,0,{'wides': 1},na
1st innings,5.2,CJ Ferguson,Iqbal Abdulla,SC Ganguly,0,0,na,na
1st innings,5.3,CJ Ferguson,Iqbal Abdulla,SC Ganguly,1,1,na,na
1st innings,5.4,SC Ganguly,Iqbal Abdulla,CJ Ferguson,1,1,na,na
1st innings,5.5,CJ Ferguson,Iqbal Abdulla,SC Ganguly,0,0,na,na
1st innings,5.6,CJ Ferguson,Iqbal Abdulla,SC Ganguly,0,0,na,na
1st innings,5.7,CJ Ferguson,Iqbal Abdulla,SC Ganguly,1,0,{'legbyes': 1},na
1st innings,6.1,CJ Ferguson,Shakib Al Hasan,SC Ganguly,0,0,na,na
1st innings,6.2,CJ Ferguson,Shakib Al Hasan,SC Ganguly,1,1,na,na
1st innings,6.3,SC Ganguly,Shakib Al Hasan,CJ Ferguson,0,0,na,na
1st innings,6.4,SC Ganguly,Shakib Al Hasan,CJ Ferguson,1,1,na,na
1st innings,6.5,CJ Ferguson,Shakib Al Hasan,SC Ganguly,1,1,na,na
1st innings,6.6,SC Ganguly,Shakib Al Hasan,CJ Ferguson,0,0,na,na
1st innings,7.1,CJ Ferguson,YK Pathan,SC Ganguly,1,1,na,na
1st innings,7.2,SC Ganguly,YK Pathan,CJ Ferguson,2,2,na,na
1st innings,7.3,SC Ganguly,YK Pathan,CJ Ferguson,4,4,na,na
1st innings,7.4,SC Ganguly,YK Pathan,CJ Ferguson,1,1,na,na
1st innings,7.5,CJ Ferguson,YK Pathan,SC Ganguly,1,1,na,na
1st innings,7.6,SC Ganguly,YK Pathan,CJ Ferguson,1,1,na,na
1st innings,8.1,SC Ganguly,Shakib Al Hasan,CJ Ferguson,1,1,na,na
1st innings,8.2,CJ Ferguson,Shakib Al Hasan,SC Ganguly,1,1,na,na
1st innings,8.3,SC Ganguly,Shakib Al Hasan,CJ Ferguson,0,0,na,"{'fielders': ['SP Goswami'], 'kind': 'stumped', 'player_out': 'CJ Ferguson'}"
1st innings,8.4,SC Ganguly,Shakib Al Hasan,RV Uthappa,0,0,na,na
1st innings,8.5,SC Ganguly,Shakib Al Hasan,RV Uthappa,1,1,na,na
1st innings,8.6,RV Uthappa,Shakib Al Hasan,SC Ganguly,1,1,na,na
1st innings,9.1,RV Uthappa,Iqbal Abdulla,SC Ganguly,0,0,na,na
1st innings,9.2,RV Uthappa,Iqbal Abdulla,SC Ganguly,0,0,na,na
1st innings,9.3,RV Uthappa,Iqbal Abdulla,SC Ganguly,1,1,na,na
1st innings,9.4,SC Ganguly,Iqbal Abdulla,RV Uthappa,1,1,na,na
1st innings,9.5,RV Uthappa,Iqbal Abdulla,SC Ganguly,0,0,na,na
1st innings,9.6,RV Uthappa,Iqbal Abdulla,SC Ganguly,6,6,na,na
1st innings,10.1,SC Ganguly,Shakib Al Hasan,RV Uthappa,0,0,na,na
1st innings,10.2,SC Ganguly,Shakib Al Hasan,RV Uthappa,4,4,na,na
1st innings,10.3,SC Ganguly,Shakib Al Hasan,RV Uthappa,0,0,na,na
1st innings,10.4,SC Ganguly,Shakib Al Hasan,RV Uthappa,0,0,na,na
1st innings,10.5,SC Ganguly,Shakib Al Hasan,RV Uthappa,0,0,na,na
1st innings,10.6,SC Ganguly,Shakib Al Hasan,RV Uthappa,1,1,na,na
1st innings,11.1,SC Ganguly,R Bhatia,RV Uthappa,0,0,na,na
1st innings,11.2,SC Ganguly,R Bhatia,RV Uthappa,2,2,na,na
1st innings,11.3,SC Ganguly,R Bhatia,RV Uthappa,0,0,na,na
1st innings,11.4,SC Ganguly,R Bhatia,RV Uthappa,5,0,{'wides': 5},na
1st innings,11.5,SC Ganguly,R Bhatia,RV Uthappa,1,1,na,na
1st innings,11.6,RV Uthappa,R Bhatia,SC Ganguly,1,1,na,na
1st innings,11.7,SC Ganguly,R Bhatia,RV Uthappa,0,0,na,na
1st innings,12.1,RV Uthappa,Shakib Al Hasan,SC Ganguly,2,0,{'wides': 2},na
1st innings,12.2,SC Ganguly,Shakib Al Hasan,RV Uthappa,1,1,na,na
1st innings,12.3,RV Uthappa,Shakib Al Hasan,SC Ganguly,0,0,na,"{'fielders': ['YK Pathan'], 'kind': 'caught', 'player_out': 'SC Ganguly'}"
1st innings,12.4,RV Uthappa,Shakib Al Hasan,Yuvraj Singh,0,0,na,na
1st innings,12.5,RV Uthappa,Shakib Al Hasan,Yuvraj Singh,0,0,na,na
1st innings,12.6,RV Uthappa,Shakib Al Hasan,Yuvraj Singh,1,1,na,na
1st innings,12.7,Yuvraj Singh,Shakib Al Hasan,RV Uthappa,0,0,na,na
1st innings,13.1,RV Uthappa,YK Pathan,Yuvraj Singh,4,4,na,na
1st innings,13.2,RV Uthappa,YK Pathan,Yuvraj Singh,1,1,na,na
1st innings,13.3,Yuvraj Singh,YK Pathan,RV Uthappa,0,0,na,na
1st innings,13.4,Yuvraj Singh,YK Pathan,RV Uthappa,1,1,na,na
1st innings,13.5,RV Uthappa,YK Pathan,Yuvraj Singh,1,1,na,na
1st innings,13.6,Yuvraj Singh,YK Pathan,RV Uthappa,0,0,na,"{'fielders': ['B Lee'], 'kind': 'caught', 'player_out': 'RV Uthappa'}"
1st innings,14.1,S Rana,R Bhatia,Yuvraj Singh,1,1,na,na
1st innings,14.2,Yuvraj Singh,R Bhatia,S Rana,0,0,na,na
1st innings,14.3,Yuvraj Singh,R Bhatia,S Rana,0,0,na,na
1st innings,14.4,Yuvraj Singh,R Bhatia,S Rana,1,1,na,na
1st innings,14.5,S Rana,R Bhatia,Yuvraj Singh,0,0,na,na
1st innings,14.6,S Rana,R Bhatia,Yuvraj Singh,0,0,na,na
1st innings,15.1,Yuvraj Singh,YK Pathan,S Rana,1,1,na,na
1st innings,15.2,S Rana,YK Pathan,Yuvraj Singh,1,1,na,na
1st innings,15.3,Yuvraj Singh,YK Pathan,S Rana,0,0,na,na
1st innings,15.4,Yuvraj Singh,YK Pathan,S Rana,1,1,na,na
1st innings,15.5,S Rana,YK Pathan,Yuvraj Singh,2,2,na,na
1st innings,15.6,S Rana,YK Pathan,Yuvraj Singh,1,0,{'legbyes': 1},na
1st innings,16.1,S Rana,B Lee,Yuvraj Singh,0,0,na,na
1st innings,16.2,S Rana,B Lee,Yuvraj Singh,0,0,na,na
1st innings,16.3,S Rana,B Lee,Yuvraj Singh,4,4,na,na
1st innings,16.4,S Rana,B Lee,Yuvraj Singh,1,1,na,na
1st innings,16.5,Yuvraj Singh,B Lee,S Rana,1,1,na,na
1st innings,16.6,S Rana,B Lee,Yuvraj Singh,0,0,na,na
1st innings,17.1,Yuvraj Singh,JH Kallis,S Rana,4,4,na,na
1st innings,17.2,Yuvraj Singh,JH Kallis,S Rana,4,4,na,na
1st innings,17.3,Yuvraj Singh,JH Kallis,S Rana,1,1,na,na
1st innings,17.4,S Rana,JH Kallis,Yuvraj Singh,0,0,na,na
1st innings,17.5,S Rana,JH Kallis,Yuvraj Singh,1,1,na,na
1st innings,17.6,Yuvraj Singh,JH Kallis,S Rana,1,1,na,na
1st innings,18.1,Yuvraj Singh,B Lee,S Rana,1,0,{'legbyes': 1},na
1st innings,18.2,S Rana,B Lee,Yuvraj Singh,0,0,na,na
1st innings,18.3,S Rana,B Lee,Yuvraj Singh,2,2,na,na
1st innings,18.4,S Rana,B Lee,Yuvraj Singh,2,2,na,na
1st innings,18.5,S Rana,B Lee,Yuvraj Singh,1,1,na,na
1st innings,18.6,S Rana,B Lee,Yuvraj Singh,1,1,na,na
1st innings,19.1,S Rana,L Balaji,Yuvraj Singh,1,1,na,na
1st innings,19.2,Yuvraj Singh,L Balaji,S Rana,1,1,na,na
1st innings,19.3,S Rana,L Balaji,Yuvraj Singh,0,0,na,"{'fielders': ['SP Goswami'], 'kind': 'caught', 'player_out': 'Yuvraj Singh'}"
1st innings,19.4,WD Parnell,L Balaji,S Rana,3,2,{'noballs': 1},na
1st innings,19.5,WD Parnell,L Balaji,S Rana,1,1,na,na
1st innings,19.6,S Rana,L Balaji,WD Parnell,1,1,na,na
1st innings,19.7,WD Parnell,L Balaji,S Rana,0,0,na,"{'kind': 'bowled', 'player_out': 'S Rana'}"
2nd innings,0.1,SP Goswami,AC Thomas,G Gambhir,1,1,na,na
2nd innings,0.2,G Gambhir,AC Thomas,SP Goswami,2,2,na,na
2nd innings,0.3,G Gambhir,AC Thomas,SP Goswami,4,4,na,na
2nd innings,0.4,G Gambhir,AC Thomas,SP Goswami,0,0,na,"{'fielders': ['RV Uthappa'], 'kind': 'caught', 'player_out': 'SP Goswami'}"
2nd innings,0.5,G Gambhir,AC Thomas,MK Tiwary,0,0,na,na
2nd innings,0.6,G Gambhir,AC Thomas,MK Tiwary,0,0,na,na
2nd innings,1.1,MK Tiwary,WD Parnell,G Gambhir,0,0,na,na
2nd innings,1.2,MK Tiwary,WD Parnell,G Gambhir,0,0,na,na
2nd innings,1.3,MK Tiwary,WD Parnell,G Gambhir,1,0,{'legbyes': 1},na
2nd innings,1.4,G Gambhir,WD Parnell,MK Tiwary,0,0,na,na
2nd innings,1.5,G Gambhir,WD Parnell,MK Tiwary,4,4,na,na
2nd innings,1.6,G Gambhir,WD Parnell,MK Tiwary,5,5,na,na
2nd innings,2.1,G Gambhir,AC Thomas,MK Tiwary,5,5,na,na
2nd innings,2.2,MK Tiwary,AC Thomas,G Gambhir,0,0,na,na
2nd innings,2.3,MK Tiwary,AC Thomas,G Gambhir,1,1,na,na
2nd innings,2.4,G Gambhir,AC Thomas,MK Tiwary,1,1,na,na
2nd innings,2.5,MK Tiwary,AC Thomas,G Gambhir,1,0,{'wides': 1},na
2nd innings,2.6,MK Tiwary,AC Thomas,G Gambhir,1,1,na,na
2nd innings,2.7,G Gambhir,AC Thomas,MK Tiwary,6,6,na,na
2nd innings,3.1,MK Tiwary,R Sharma,G Gambhir,1,1,na,na
2nd innings,3.2,G Gambhir,R Sharma,MK Tiwary,0,0,na,na
2nd innings,3.3,G Gambhir,R Sharma,MK Tiwary,0,0,na,na
2nd innings,3.4,G Gambhir,R Sharma,MK Tiwary,0,0,na,na
2nd innings,3.5,G Gambhir,R Sharma,MK Tiwary,0,0,na,na
2nd innings,3.6,G Gambhir,R Sharma,MK Tiwary,0,0,na,na
2nd innings,4.1,MK Tiwary,WD Parnell,G Gambhir,1,1,na,na
2nd innings,4.2,G Gambhir,WD Parnell,MK Tiwary,1,1,na,na
2nd innings,4.3,MK Tiwary,WD Parnell,G Gambhir,4,4,na,na
2nd innings,4.4,MK Tiwary,WD Parnell,G Gambhir,4,4,na,na
2nd innings,4.5,MK Tiwary,WD Parnell,G Gambhir,0,0,na,na
2nd innings,4.6,MK Tiwary,WD Parnell,G Gambhir,0,0,na,na
2nd innings,5.1,G Gambhir,B Kumar,MK Tiwary,0,0,na,na
2nd innings,5.2,G Gambhir,B Kumar,MK Tiwary,0,0,na,na
2nd innings,5.3,G Gambhir,B Kumar,MK Tiwary,0,0,na,na
2nd innings,5.4,G Gambhir,B Kumar,MK Tiwary,0,0,na,na
2nd innings,5.5,G Gambhir,B Kumar,MK Tiwary,1,1,na,na
2nd innings,5.6,MK Tiwary,B Kumar,G Gambhir,0,0,na,na
2nd innings,6.1,G Gambhir,Yuvraj Singh,MK Tiwary,0,0,na,na
2nd innings,6.2,G Gambhir,Yuvraj Singh,MK Tiwary,0,0,na,na
2nd innings,6.3,G Gambhir,Yuvraj Singh,MK Tiwary,0,0,na,na
2nd innings,6.4,G Gambhir,Yuvraj Singh,MK Tiwary,1,1,na,na
2nd innings,6.5,MK Tiwary,Yuvraj Singh,G Gambhir,4,4,na,na
2nd innings,6.6,MK Tiwary,Yuvraj Singh,G Gambhir,1,1,na,na
2nd innings,7.1,MK Tiwary,B Kumar,G Gambhir,2,2,na,na
2nd innings,7.2,MK Tiwary,B Kumar,G Gambhir,1,1,na,na
2nd innings,7.3,G Gambhir,B Kumar,MK Tiwary,0,0,na,"{'kind': 'bowled', 'player_out': 'MK Tiwary'}"
2nd innings,7.4,G Gambhir,B Kumar,YK Pathan,1,0,{'noballs': 1},na
2nd innings,7.5,G Gambhir,B Kumar,YK Pathan,1,1,na,na
2nd innings,7.6,YK Pathan,B Kumar,G Gambhir,4,4,na,na
2nd innings,7.7,YK Pathan,B Kumar,G Gambhir,1,1,na,na
2nd innings,8.1,YK Pathan,R Sharma,G Gambhir,0,0,na,na
2nd innings,8.2,YK Pathan,R Sharma,G Gambhir,1,1,na,na
2nd innings,8.3,G Gambhir,R Sharma,YK Pathan,0,0,na,na
2nd innings,8.4,G Gambhir,R Sharma,YK Pathan,0,0,na,na
2nd innings,8.5,G Gambhir,R Sharma,YK Pathan,4,4,na,na
2nd innings,8.6,G Gambhir,R Sharma,YK Pathan,4,4,na,na
2nd innings,9.1,YK Pathan,WD Parnell,G Gambhir,1,1,na,na
2nd innings,9.2,G Gambhir,WD Parnell,YK Pathan,1,1,na,na
2nd innings,9.3,YK Pathan,WD Parnell,G Gambhir,1,1,na,na
2nd innings,9.4,G Gambhir,WD Parnell,YK Pathan,1,1,na,na
2nd innings,9.5,YK Pathan,WD Parnell,G Gambhir,1,1,na,na
2nd innings,9.6,G Gambhir,WD Parnell,YK Pathan,0,0,na,na
2nd innings,10.1,YK Pathan,R Sharma,G Gambhir,4,4,na,na
2nd innings,10.2,YK Pathan,R Sharma,G Gambhir,1,1,na,na
2nd innings,10.3,G Gambhir,R Sharma,YK Pathan,1,1,na,na
2nd innings,10.4,YK Pathan,R Sharma,G Gambhir,0,0,na,na
2nd innings,10.5,YK Pathan,R Sharma,G Gambhir,1,1,na,na
2nd innings,10.6,G Gambhir,R Sharma,YK Pathan,4,4,na,na
2nd innings,11.1,YK Pathan,AC Thomas,G Gambhir,1,1,na,na
2nd innings,11.2,G Gambhir,AC Thomas,YK Pathan,1,1,na,na
2nd innings,11.3,YK Pathan,AC Thomas,G Gambhir,1,1,na,na
2nd innings,11.4,G Gambhir,AC Thomas,YK Pathan,1,1,na,na
2nd innings,11.5,YK Pathan,AC Thomas,G Gambhir,2,2,na,na
2nd innings,11.6,YK Pathan,AC Thomas,G Gambhir,1,1,na,na
2nd innings,12.1,YK Pathan,Yuvraj Singh,G Gambhir,0,0,na,na
2nd innings,12.2,YK Pathan,Yuvraj Singh,G Gambhir,0,0,na,na
2nd innings,12.3,YK Pathan,Yuvraj Singh,G Gambhir,0,0,na,na
2nd innings,12.4,YK Pathan,Yuvraj Singh,G Gambhir,2,2,na,na
2nd innings,12.5,YK Pathan,Yuvraj Singh,G Gambhir,4,4,na,na
2nd innings,12.6,YK Pathan,Yuvraj Singh,G Gambhir,0,0,na,na
2nd innings,13.1,G Gambhir,B Kumar,YK Pathan,6,6,na,na
2nd innings,13.2,G Gambhir,B Kumar,YK Pathan,0,0,na,na
2nd innings,13.3,G Gambhir,B Kumar,YK Pathan,1,1,na,na
2nd innings,13.4,YK Pathan,B Kumar,G Gambhir,1,1,na,na
2nd innings,13.5,G Gambhir,B Kumar,YK Pathan,0,0,na,na
2nd innings,13.6,G Gambhir,B Kumar,YK Pathan,0,0,na,na
2nd innings,14.1,YK Pathan,R Sharma,G Gambhir,1,1,na,na
2nd innings,14.2,G Gambhir,R Sharma,YK Pathan,2,2,na,na
2nd innings,14.3,G Gambhir,R Sharma,YK Pathan,0,0,na,na
2nd innings,14.4,G Gambhir,R Sharma,YK Pathan,1,1,na,na
2nd innings,14.5,YK Pathan,R Sharma,G Gambhir,0,0,na,na
2nd innings,14.6,YK Pathan,R Sharma,G Gambhir,4,4,na,na
2nd innings,15.1,G Gambhir,WD Parnell,YK Pathan,0,0,na,na
2nd innings,15.2,G Gambhir,WD Parnell,YK Pathan,1,1,na,na
2nd innings,15.3,YK Pathan,WD Parnell,G Gambhir,2,0,{'wides': 2},na
2nd innings,15.4,G Gambhir,WD Parnell,YK Pathan,0,0,na,na
2nd innings,15.5,G Gambhir,WD Parnell,YK Pathan,0,0,na,"{'fielders': ['SC Ganguly'], 'kind': 'caught', 'player_out': 'YK Pathan'}"
2nd innings,15.6,G Gambhir,WD Parnell,R Bhatia,0,0,na,na
2nd innings,15.7,G Gambhir,WD Parnell,R Bhatia,0,0,na,na
2nd innings,16.1,R Bhatia,S Rana,G Gambhir,0,0,na,na
2nd innings,16.2,R Bhatia,S Rana,G Gambhir,0,0,na,na
2nd innings,16.3,R Bhatia,S Rana,G Gambhir,1,1,na,na
2nd innings,16.4,G Gambhir,S Rana,R Bhatia,1,1,na,na
