innings,deliveries,non_striker,bowler,batsman,total_runs,batsman_runs,extras,wickets
1st innings,0.1,PC Valthaty,B Lee,AC Gilchrist,0,0,na,na
1st innings,0.2,PC Valthaty,B Lee,AC Gilchrist,0,0,na,na
1st innings,0.3,PC Valthaty,B Lee,AC Gilchrist,0,0,na,na
1st innings,0.4,PC Valthaty,B Lee,AC Gilchrist,1,1,na,na
1st innings,0.5,AC Gilchrist,B Lee,PC Valthaty,1,1,na,na
1st innings,0.6,PC Valthaty,B Lee,AC Gilchrist,1,1,na,na
1st innings,1.1,PC Valthaty,L Balaji,AC Gilchrist,4,4,na,na
1st innings,1.2,PC Valthaty,L Balaji,AC Gilchrist,0,0,na,na
1st innings,1.3,PC Valthaty,L Balaji,AC Gilchrist,0,0,na,na
1st innings,1.4,PC Valthaty,L Balaji,AC Gilchrist,0,0,na,na
1st innings,1.5,PC Valthaty,L Balaji,AC Gilchrist,1,1,na,na
1st innings,1.6,AC Gilchrist,L Balaji,PC Valthaty,2,2,na,na
1st innings,2.1,PC Valthaty,B Lee,AC Gilchrist,6,6,na,na
1st innings,2.2,PC Valthaty,B Lee,AC Gilchrist,0,0,na,na
1st innings,2.3,PC Valthaty,B Lee,AC Gilchrist,4,4,na,na
1st innings,2.4,PC Valthaty,B Lee,AC Gilchrist,1,0,{'wides': 1},na
1st innings,2.5,PC Valthaty,B Lee,AC Gilchrist,1,1,na,na
1st innings,2.6,AC Gilchrist,B Lee,PC Valthaty,0,0,na,na
1st innings,2.7,AC Gilchrist,B Lee,PC Valthaty,0,0,na,na
1st innings,3.1,PC Valthaty,Iqbal Abdulla,AC Gilchrist,0,0,na,na
1st innings,3.2,PC Valthaty,Iqbal Abdulla,AC Gilchrist,0,0,na,na
1st innings,3.3,PC Valthaty,Iqbal Abdulla,AC Gilchrist,4,4,na,na
1st innings,3.4,PC Valthaty,Iqbal Abdulla,AC Gilchrist,1,1,na,na
1st innings,3.5,AC Gilchrist,Iqbal Abdulla,PC Valthaty,0,0,na,na
1st innings,3.6,AC Gilchrist,Iqbal Abdulla,PC Valthaty,0,0,na,na
1st innings,4.1,PC Valthaty,YK Pathan,AC Gilchrist,1,1,na,na
1st innings,4.2,AC Gilchrist,YK Pathan,PC Valthaty,4,4,na,na
1st innings,4.3,AC Gilchrist,YK Pathan,PC Valthaty,0,0,na,"{'fielders': ['MK Tiwary'], 'kind': 'caught', 'player_out': 'PC Valthaty'}"
1st innings,4.4,AC Gilchrist,YK Pathan,SE Marsh,1,1,na,na
1st innings,4.5,SE Marsh,YK Pathan,AC Gilchrist,2,0,{'wides': 2},na
1st innings,4.6,AC Gilchrist,YK Pathan,SE Marsh,0,0,na,na
1st innings,4.7,AC Gilchrist,YK Pathan,SE Marsh,0,0,na,na
1st innings,5.1,SE Marsh,Iqbal Abdulla,AC Gilchrist,0,0,na,na
1st innings,5.2,SE Marsh,Iqbal Abdulla,AC Gilchrist,1,1,na,na
1st innings,5.3,AC Gilchrist,Iqbal Abdulla,SE Marsh,0,0,na,na
1st innings,5.4,AC Gilchrist,Iqbal Abdulla,SE Marsh,4,4,na,na
1st innings,5.5,AC Gilchrist,Iqbal Abdulla,SE Marsh,0,0,na,na
1st innings,5.6,AC Gilchrist,Iqbal Abdulla,SE Marsh,0,0,na,"{'fielders': ['SP Goswami', 'Iqbal Abdulla'], 'kind': 'run out', 'player_out': 'SE Marsh'}"
1st innings,6.1,AC Gilchrist,YK Pathan,KD Karthik,0,0,na,na
1st innings,6.2,AC Gilchrist,YK Pathan,KD Karthik,0,0,na,na
1st innings,6.3,AC Gilchrist,YK Pathan,KD Karthik,1,1,na,na
1st innings,6.4,KD Karthik,YK Pathan,AC Gilchrist,0,0,na,na
1st innings,6.5,KD Karthik,YK Pathan,AC Gilchrist,0,0,na,na
1st innings,6.6,KD Karthik,YK Pathan,AC Gilchrist,0,0,na,na
1st innings,7.1,AC Gilchrist,Iqbal Abdulla,KD Karthik,1,1,na,na
1st innings,7.2,KD Karthik,Iqbal Abdulla,AC Gilchrist,0,0,na,na
1st innings,7.3,KD Karthik,Iqbal Abdulla,AC Gilchrist,1,1,na,na
1st innings,7.4,AC Gilchrist,Iqbal Abdulla,KD Karthik,1,1,na,na
1st innings,7.5,KD Karthik,Iqbal Abdulla,AC Gilchrist,0,0,na,"{'kind': 'bowled', 'player_out': 'AC Gilchrist'}"
1st innings,7.6,KD Karthik,Iqbal Abdulla,AM Nayar,0,0,na,na
1st innings,8.1,AM Nayar,YK Pathan,KD Karthik,4,4,na,na
1st innings,8.2,AM Nayar,YK Pathan,KD Karthik,0,0,na,na
1st innings,8.3,AM Nayar,YK Pathan,KD Karthik,0,0,na,na
1st innings,8.4,AM Nayar,YK Pathan,KD Karthik,4,4,na,na
1st innings,8.5,AM Nayar,YK Pathan,KD Karthik,1,1,na,na
1st innings,8.6,KD Karthik,YK Pathan,AM Nayar,0,0,na,na
1st innings,9.1,AM Nayar,R Bhatia,KD Karthik,0,0,na,na
1st innings,9.2,AM Nayar,R Bhatia,KD Karthik,0,0,na,"{'fielders': ['EJG Morgan', 'SP Goswami'], 'kind': 'run out', 'player_out': 'AM Nayar'}"
1st innings,9.3,KD Karthik,R Bhatia,DJ Hussey,1,1,na,na
1st innings,9.4,DJ Hussey,R Bhatia,KD Karthik,0,0,na,na
1st innings,9.5,DJ Hussey,R Bhatia,KD Karthik,1,1,na,na
1st innings,9.6,KD Karthik,R Bhatia,DJ Hussey,0,0,na,na
1st innings,10.1,DJ Hussey,MK Tiwary,KD Karthik,4,4,na,na
1st innings,10.2,DJ Hussey,MK Tiwary,KD Karthik,0,0,na,na
1st innings,10.3,DJ Hussey,MK Tiwary,KD Karthik,0,0,na,na
1st innings,10.4,DJ Hussey,MK Tiwary,KD Karthik,1,1,na,na
1st innings,10.5,KD Karthik,MK Tiwary,DJ Hussey,1,0,{'wides': 1},na
1st innings,10.6,KD Karthik,MK Tiwary,DJ Hussey,2,2,na,na
1st innings,10.7,KD Karthik,MK Tiwary,DJ Hussey,1,1,na,na
1st innings,11.1,KD Karthik,R Bhatia,DJ Hussey,0,0,na,na
1st innings,11.2,KD Karthik,R Bhatia,DJ Hussey,0,0,na,na
1st innings,11.3,KD Karthik,R Bhatia,DJ Hussey,0,0,na,na
1st innings,11.4,KD Karthik,R Bhatia,DJ Hussey,0,0,na,na
1st innings,11.5,KD Karthik,R Bhatia,DJ Hussey,1,0,{'wides': 1},na
1st innings,11.6,KD Karthik,R Bhatia,DJ Hussey,0,0,na,na
1st innings,11.7,KD Karthik,R Bhatia,DJ Hussey,1,0,{'byes': 1},na
1st innings,12.1,KD Karthik,YK Pathan,DJ Hussey,2,2,na,na
1st innings,12.2,KD Karthik,YK Pathan,DJ Hussey,1,1,na,na
1st innings,12.3,DJ Hussey,YK Pathan,KD Karthik,0,0,na,na
1st innings,12.4,DJ Hussey,YK Pathan,KD Karthik,1,1,na,na
1st innings,12.5,KD Karthik,YK Pathan,DJ Hussey,1,1,na,na
1st innings,12.6,DJ Hussey,YK Pathan,KD Karthik,1,1,na,na
1st innings,13.1,DJ Hussey,R Bhatia,KD Karthik,5,5,na,na
1st innings,13.2,KD Karthik,R Bhatia,DJ Hussey,1,1,na,na
1st innings,13.3,DJ Hussey,R Bhatia,KD Karthik,0,0,na,na
1st innings,13.4,DJ Hussey,R Bhatia,KD Karthik,1,1,na,na
1st innings,13.5,KD Karthik,R Bhatia,DJ Hussey,1,1,na,na
1st innings,13.6,DJ Hussey,R Bhatia,KD Karthik,0,0,na,na
1st innings,14.1,KD Karthik,Iqbal Abdulla,DJ Hussey,0,0,na,na
1st innings,14.2,KD Karthik,Iqbal Abdulla,DJ Hussey,4,4,na,na
1st innings,14.3,KD Karthik,Iqbal Abdulla,DJ Hussey,1,1,na,na
1st innings,14.4,DJ Hussey,Iqbal Abdulla,KD Karthik,1,1,na,na
1st innings,14.5,KD Karthik,Iqbal Abdulla,DJ Hussey,0,0,na,na
1st innings,14.6,KD Karthik,Iqbal Abdulla,DJ Hussey,0,0,na,"{'kind': 'lbw', 'player_out': 'DJ Hussey'}"
1st innings,15.1,Bipul Sharma,R Bhatia,KD Karthik,0,0,na,na
1st innings,15.2,Bipul Sharma,R Bhatia,KD Karthik,0,0,na,na
1st innings,15.3,Bipul Sharma,R Bhatia,KD Karthik,1,1,na,na
1st innings,15.4,KD Karthik,R Bhatia,Bipul Sharma,1,1,na,na
1st innings,15.5,Bipul Sharma,R Bhatia,KD Karthik,1,1,na,na
1st innings,15.6,KD Karthik,R Bhatia,Bipul Sharma,4,4,na,na
1st innings,16.1,Bipul Sharma,L Balaji,KD Karthik,1,1,na,na
1st innings,16.2,KD Karthik,L Balaji,Bipul Sharma,2,2,na,na
1st innings,16.3,KD Karthik,L Balaji,Bipul Sharma,1,1,na,na
1st innings,16.4,Bipul Sharma,L Balaji,KD Karthik,1,1,na,na
1st innings,16.5,KD Karthik,L Balaji,Bipul Sharma,0,0,na,na
1st innings,16.6,KD Karthik,L Balaji,Bipul Sharma,2,2,na,na
1st innings,17.1,Bipul Sharma,B Lee,KD Karthik,0,0,na,na
1st innings,17.2,Bipul Sharma,B Lee,KD Karthik,0,0,na,na
1st innings,17.3,Bipul Sharma,B Lee,KD Karthik,1,1,na,na
1st innings,17.4,KD Karthik,B Lee,Bipul Sharma,1,1,na,na
1st innings,17.5,Bipul Sharma,B Lee,KD Karthik,1,1,na,na
1st innings,17.6,KD Karthik,B Lee,Bipul Sharma,0,0,na,na
1st innings,18.1,Bipul Sharma,L Balaji,KD Karthik,1,1,na,na
1st innings,18.2,KD Karthik,L Balaji,Bipul Sharma,2,2,na,na
1st innings,18.3,KD Karthik,L Balaji,Bipul Sharma,1,1,na,na
1st innings,18.4,Bipul Sharma,L Balaji,KD Karthik,1,1,na,na
1st innings,18.5,KD Karthik,L Balaji,Bipul Sharma,1,1,na,na
1st innings,18.6,Bipul Sharma,L Balaji,KD Karthik,1,1,na,na
1st innings,19.1,Bipul Sharma,B Lee,KD Karthik,1,1,na,na
1st innings,19.2,KD Karthik,B Lee,Bipul Sharma,1,1,na,na
1st innings,19.3,Bipul Sharma,B Lee,KD Karthik,4,4,na,na
1st innings,19.4,Bipul Sharma,B Lee,KD Karthik,1,1,na,"{'fielders': ['YK Pathan', 'SP Goswami'], 'kind': 'run out', 'player_out': 'KD Karthik'}"
1st innings,19.5,Bipul Sharma,B Lee,P Kumar,2,2,na,na
1st innings,19.6,Bipul Sharma,B Lee,P Kumar,0,0,na,na
2nd innings,0.1,EJG Morgan,P Kumar,JH Kallis,0,0,na,na
2nd innings,0.2,EJG Morgan,P Kumar,JH Kallis,0,0,na,na
2nd innings,0.3,EJG Morgan,P Kumar,JH Kallis,1,1,na,na
2nd innings,0.4,JH Kallis,P Kumar,EJG Morgan,4,4,na,na
2nd innings,0.5,JH Kallis,P Kumar,EJG Morgan,0,0,na,na
2nd innings,0.6,JH Kallis,P Kumar,EJG Morgan,0,0,na,na
2nd innings,1.1,EJG Morgan,BA Bhatt,JH Kallis,0,0,na,"{'fielders': ['DJ Hussey'], 'kind': 'caught', 'player_out': 'JH Kallis'}"
2nd innings,1.2,EJG Morgan,BA Bhatt,G Gambhir,0,0,na,na
2nd innings,1.3,EJG Morgan,BA Bhatt,G Gambhir,1,1,na,na
2nd innings,1.4,G Gambhir,BA Bhatt,EJG Morgan,3,3,na,na
2nd innings,1.5,EJG Morgan,BA Bhatt,G Gambhir,1,1,na,na
2nd innings,1.6,G Gambhir,BA Bhatt,EJG Morgan,0,0,na,na
2nd innings,2.1,EJG Morgan,P Kumar,G Gambhir,1,1,na,na
2nd innings,2.2,G Gambhir,P Kumar,EJG Morgan,0,0,na,na
2nd innings,2.3,G Gambhir,P Kumar,EJG Morgan,4,4,na,na
2nd innings,2.4,G Gambhir,P Kumar,EJG Morgan,4,4,na,na
2nd innings,2.5,G Gambhir,P Kumar,EJG Morgan,0,0,na,na
2nd innings,2.6,G Gambhir,P Kumar,EJG Morgan,0,0,na,na
2nd innings,3.1,EJG Morgan,DJ Hussey,G Gambhir,1,1,na,na
2nd innings,3.2,G Gambhir,DJ Hussey,EJG Morgan,4,4,na,na
2nd innings,3.3,G Gambhir,DJ Hussey,EJG Morgan,4,4,na,na
2nd innings,3.4,G Gambhir,DJ Hussey,EJG Morgan,1,1,na,na
2nd innings,3.5,EJG Morgan,DJ Hussey,G Gambhir,1,1,na,na
2nd innings,3.6,G Gambhir,DJ Hussey,EJG Morgan,4,4,na,na
2nd innings,4.1,EJG Morgan,BA Bhatt,G Gambhir,1,1,na,na
2nd innings,4.2,G Gambhir,BA Bhatt,EJG Morgan,0,0,na,"{'fielders': ['RJ Harris'], 'kind': 'caught', 'player_out': 'EJG Morgan'}"
2nd innings,4.3,MK Tiwary,BA Bhatt,G Gambhir,0,0,na,na
2nd innings,4.4,MK Tiwary,BA Bhatt,G Gambhir,0,0,na,na
2nd innings,4.5,MK Tiwary,BA Bhatt,G Gambhir,4,4,na,na
2nd innings,4.6,MK Tiwary,BA Bhatt,G Gambhir,1,1,na,na
2nd innings,5.1,MK Tiwary,RJ Harris,G Gambhir,1,0,{'legbyes': 1},na
2nd innings,5.2,G Gambhir,RJ Harris,MK Tiwary,0,0,na,na
2nd innings,5.3,G Gambhir,RJ Harris,MK Tiwary,4,4,na,na
2nd innings,5.4,G Gambhir,RJ Harris,MK Tiwary,0,0,na,na
2nd innings,5.5,G Gambhir,RJ Harris,MK Tiwary,0,0,na,na
2nd innings,5.6,G Gambhir,RJ Harris,MK Tiwary,0,0,na,na
2nd innings,6.1,MK Tiwary,PP Chawla,G Gambhir,3,0,{'wides': 3},na
2nd innings,6.2,MK Tiwary,PP Chawla,G Gambhir,1,1,na,na
2nd innings,6.3,G Gambhir,PP Chawla,MK Tiwary,1,1,na,na
2nd innings,6.4,MK Tiwary,PP Chawla,G Gambhir,0,0,na,na
2nd innings,6.5,MK Tiwary,PP Chawla,G Gambhir,4,4,na,na
2nd innings,6.6,MK Tiwary,PP Chawla,G Gambhir,0,0,na,na
2nd innings,6.7,MK Tiwary,PP Chawla,G Gambhir,0,0,na,na
2nd innings,7.1,G Gambhir,DJ Hussey,MK Tiwary,1,1,na,na
2nd innings,7.2,MK Tiwary,DJ Hussey,G Gambhir,0,0,na,na
2nd innings,7.3,MK Tiwary,DJ Hussey,G Gambhir,1,1,na,na
2nd innings,7.4,G Gambhir,DJ Hussey,MK Tiwary,0,0,na,na
2nd innings,7.5,G Gambhir,DJ Hussey,MK Tiwary,1,1,na,na
2nd innings,7.6,MK Tiwary,DJ Hussey,G Gambhir,1,1,na,na
2nd innings,8.1,MK Tiwary,PP Chawla,G Gambhir,1,1,na,na
2nd innings,8.2,G Gambhir,PP Chawla,MK Tiwary,0,0,na,na
2nd innings,8.3,G Gambhir,PP Chawla,MK Tiwary,1,1,na,na
2nd innings,8.4,MK Tiwary,PP Chawla,G Gambhir,0,0,na,na
2nd innings,8.5,MK Tiwary,PP Chawla,G Gambhir,1,1,na,na
2nd innings,8.6,G Gambhir,PP Chawla,MK Tiwary,1,1,na,na
2nd innings,9.1,G Gambhir,BA Bhatt,MK Tiwary,0,0,na,na
2nd innings,9.2,G Gambhir,BA Bhatt,MK Tiwary,4,4,na,na
2nd innings,9.3,G Gambhir,BA Bhatt,MK Tiwary,1,1,na,na
2nd innings,9.4,MK Tiwary,BA Bhatt,G Gambhir,2,2,na,na
2nd innings,9.5,MK Tiwary,BA Bhatt,G Gambhir,1,1,na,na
2nd innings,9.6,G Gambhir,BA Bhatt,MK Tiwary,1,1,na,na
2nd innings,10.1,G Gambhir,RJ Harris,MK Tiwary,0,0,na,na
2nd innings,10.2,G Gambhir,RJ Harris,MK Tiwary,1,1,na,na
2nd innings,10.3,MK Tiwary,RJ Harris,G Gambhir,1,1,na,na
2nd innings,10.4,G Gambhir,RJ Harris,MK Tiwary,1,1,na,na
2nd innings,10.5,MK Tiwary,RJ Harris,G Gambhir,5,0,{'wides': 5},na
2nd innings,10.6,MK Tiwary,RJ Harris,G Gambhir,1,1,na,na
2nd innings,10.7,G Gambhir,RJ Harris,MK Tiwary,0,0,na,na
2nd innings,11.1,MK Tiwary,Bipul Sharma,G Gambhir,1,1,na,na
2nd innings,11.2,G Gambhir,Bipul Sharma,MK Tiwary,0,0,na,na
2nd innings,11.3,G Gambhir,Bipul Sharma,MK Tiwary,1,1,na,na
2nd innings,11.4,MK Tiwary,Bipul Sharma,G Gambhir,1,0,{'wides': 1},na
2nd innings,11.5,MK Tiwary,Bipul Sharma,G Gambhir,1,1,na,na
2nd innings,11.6,G Gambhir,Bipul Sharma,MK Tiwary,0,0,na,na
2nd innings,11.7,G Gambhir,Bipul Sharma,MK Tiwary,1,1,na,na
2nd innings,12.1,G Gambhir,PC Valthaty,MK Tiwary,1,1,na,na
2nd innings,12.2,MK Tiwary,PC Valthaty,G Gambhir,1,1,na,na
2nd innings,12.3,G Gambhir,PC Valthaty,MK Tiwary,4,4,na,na
2nd innings,12.4,G Gambhir,PC Valthaty,MK Tiwary,0,0,na,na
2nd innings,12.5,G Gambhir,PC Valthaty,MK Tiwary,0,0,na,na
2nd innings,12.6,G Gambhir,PC Valthaty,MK Tiwary,0,0,na,na
2nd innings,13.1,MK Tiwary,Bipul Sharma,G Gambhir,1,1,na,na
2nd innings,13.2,G Gambhir,Bipul Sharma,MK Tiwary,1,0,{'wides': 1},na
2nd innings,13.3,G Gambhir,Bipul Sharma,MK Tiwary,0,0,na,na
2nd innings,13.4,G Gambhir,Bipul Sharma,MK Tiwary,0,0,na,na
2nd innings,13.5,G Gambhir,Bipul Sharma,MK Tiwary,1,1,na,na
2nd innings,13.6,MK Tiwary,Bipul Sharma,G Gambhir,1,1,na,na
2nd innings,13.7,G Gambhir,Bipul Sharma,MK Tiwary,0,0,na,na
2nd innings,14.1,MK Tiwary,PC Valthaty,G Gambhir,4,4,na,na
2nd innings,14.2,MK Tiwary,PC Valthaty,G Gambhir,1,1,na,na
2nd innings,14.3,G Gambhir,PC Valthaty,MK Tiwary,1,1,na,na
2nd innings,14.4,MK Tiwary,PC Valthaty,G Gambhir,0,0,na,na
2nd innings,14.5,MK Tiwary,PC Valthaty,G Gambhir,1,1,na,na
2nd innings,14.6,G Gambhir,PC Valthaty,MK Tiwary,0,0,na,na
2nd innings,15.1,MK Tiwary,PP Chawla,G Gambhir,2,2,na,na
2nd innings,15.2,MK Tiwary,PP Chawla,G Gambhir,0,0,na,na
2nd innings,15.3,MK Tiwary,PP Chawla,G Gambhir,1,1,na,na
2nd innings,15.4,G Gambhir,PP Chawla,MK Tiwary,6,6,na,na
2nd innings,15.5,G Gambhir,PP Chawla,MK Tiwary,0,0,na,na
2nd innings,15.6,G Gambhir,PP Chawla,MK Tiwary,1,0,{'wides': 1},na
2nd innings,15.7,G Gambhir,PP Chawla,MK Tiwary,1,1,na,na
2nd innings,16.1,G Gambhir,BA Bhatt,MK Tiwary,1,1,na,na
2nd innings,16.2,MK Tiwary,BA Bhatt,G Gambhir,0,0,na,na
2nd innings,16.3,MK Tiwary,BA Bhatt,G Gambhir,0,0,na,na
2nd innings,16.4,MK Tiwary,BA Bhatt,G Gambhir,1,1,na,na
2nd innings,16.5,G Gambhir,BA Bhatt,MK Tiwary,0,0,na,na
2nd innings,16.6,G Gambhir,BA Bhatt,MK Tiwary,0,0,na,na
2nd innings,17.1,MK Tiwary,PP Chawla,G Gambhir,4,4,na,na
2nd innings,17.2,MK Tiwary,PP Chawla,G Gambhir,1,1,na,na
