innings,deliveries,non_striker,bowler,batsman,total_runs,batsman_runs,extras,wickets
1st innings,0.1,SR Tendulkar,A Mishra,DJ Jacobs,1,1,na,na
1st innings,0.2,DJ Jacobs,A Mishra,SR Tendulkar,0,0,na,na
1st innings,0.3,DJ Jacobs,A Mishra,SR Tendulkar,1,1,na,na
1st innings,0.4,SR Tendulkar,A Mishra,DJ Jacobs,0,0,na,na
1st innings,0.5,SR Tendulkar,A Mishra,DJ Jacobs,4,4,na,na
1st innings,0.6,SR Tendulkar,A Mishra,DJ Jacobs,0,0,na,na
1st innings,1.1,DJ Jacobs,DW Steyn,SR Tendulkar,4,4,na,na
1st innings,1.2,DJ Jacobs,DW Steyn,SR Tendulkar,0,0,na,na
1st innings,1.3,DJ Jacobs,DW Steyn,SR Tendulkar,4,4,na,na
1st innings,1.4,DJ Jacobs,DW Steyn,SR Tendulkar,1,1,na,na
1st innings,1.5,SR Tendulkar,DW Steyn,DJ Jacobs,0,0,na,na
1st innings,1.6,SR Tendulkar,DW Steyn,DJ Jacobs,0,0,na,na
1st innings,2.1,DJ Jacobs,PP Ojha,SR Tendulkar,2,2,na,na
1st innings,2.2,DJ Jacobs,PP Ojha,SR Tendulkar,1,1,na,na
1st innings,2.3,SR Tendulkar,PP Ojha,DJ Jacobs,0,0,na,na
1st innings,2.4,SR Tendulkar,PP Ojha,DJ Jacobs,0,0,na,na
1st innings,2.5,SR Tendulkar,PP Ojha,DJ Jacobs,6,6,na,na
1st innings,2.6,SR Tendulkar,PP Ojha,DJ Jacobs,1,1,na,na
1st innings,3.1,SR Tendulkar,I Sharma,DJ Jacobs,0,0,na,na
1st innings,3.2,SR Tendulkar,I Sharma,DJ Jacobs,1,1,na,na
1st innings,3.3,DJ Jacobs,I Sharma,SR Tendulkar,1,1,na,na
1st innings,3.4,SR Tendulkar,I Sharma,DJ Jacobs,4,4,na,na
1st innings,3.5,SR Tendulkar,I Sharma,DJ Jacobs,4,4,na,na
1st innings,3.6,SR Tendulkar,I Sharma,DJ Jacobs,1,1,na,na
1st innings,4.1,SR Tendulkar,DT Christian,DJ Jacobs,1,1,na,na
1st innings,4.2,DJ Jacobs,DT Christian,SR Tendulkar,0,0,na,na
1st innings,4.3,DJ Jacobs,DT Christian,SR Tendulkar,1,1,na,na
1st innings,4.4,SR Tendulkar,DT Christian,DJ Jacobs,4,4,na,na
1st innings,4.5,SR Tendulkar,DT Christian,DJ Jacobs,4,4,na,na
1st innings,4.6,SR Tendulkar,DT Christian,DJ Jacobs,1,1,na,na
1st innings,5.1,SR Tendulkar,I Sharma,DJ Jacobs,0,0,na,"{'fielders': ['PP Ojha'], 'kind': 'caught', 'player_out': 'DJ Jacobs'}"
1st innings,5.2,AT Rayudu,I Sharma,SR Tendulkar,0,0,na,na
1st innings,5.3,AT Rayudu,I Sharma,SR Tendulkar,4,4,na,na
1st innings,5.4,AT Rayudu,I Sharma,SR Tendulkar,4,4,na,na
1st innings,5.5,AT Rayudu,I Sharma,SR Tendulkar,1,0,{'wides': 1},na
1st innings,5.6,AT Rayudu,I Sharma,SR Tendulkar,0,0,na,na
1st innings,5.7,AT Rayudu,I Sharma,SR Tendulkar,1,0,{'legbyes': 1},na
1st innings,6.1,AT Rayudu,PP Ojha,SR Tendulkar,1,1,na,na
1st innings,6.2,SR Tendulkar,PP Ojha,AT Rayudu,1,1,na,na
1st innings,6.3,AT Rayudu,PP Ojha,SR Tendulkar,1,0,{'wides': 1},na
1st innings,6.4,AT Rayudu,PP Ojha,SR Tendulkar,1,1,na,na
1st innings,6.5,SR Tendulkar,PP Ojha,AT Rayudu,1,1,na,na
1st innings,6.6,AT Rayudu,PP Ojha,SR Tendulkar,1,1,na,na
1st innings,6.7,SR Tendulkar,PP Ojha,AT Rayudu,2,2,na,na
1st innings,7.1,AT Rayudu,DT Christian,SR Tendulkar,0,0,na,na
1st innings,7.2,AT Rayudu,DT Christian,SR Tendulkar,1,1,na,na
1st innings,7.3,SR Tendulkar,DT Christian,AT Rayudu,1,1,na,na
1st innings,7.4,AT Rayudu,DT Christian,SR Tendulkar,0,0,na,na
1st innings,7.5,AT Rayudu,DT Christian,SR Tendulkar,1,1,na,na
1st innings,7.6,SR Tendulkar,DT Christian,AT Rayudu,1,1,na,na
1st innings,8.1,SR Tendulkar,A Mishra,AT Rayudu,1,1,na,na
1st innings,8.2,AT Rayudu,A Mishra,SR Tendulkar,0,0,na,"{'fielders': ['DW Steyn'], 'kind': 'caught', 'player_out': 'SR Tendulkar'}"
1st innings,8.3,KA Pollard,A Mishra,AT Rayudu,0,0,na,na
1st innings,8.4,KA Pollard,A Mishra,AT Rayudu,0,0,na,"{'fielders': ['S Dhawan'], 'kind': 'caught', 'player_out': 'AT Rayudu'}"
1st innings,8.5,KA Pollard,A Mishra,RG Sharma,0,0,na,na
1st innings,8.6,KA Pollard,A Mishra,RG Sharma,0,0,na,na
1st innings,9.1,RG Sharma,PP Ojha,KA Pollard,0,0,na,"{'fielders': ['KC Sangakkara'], 'kind': 'caught', 'player_out': 'KA Pollard'}"
1st innings,9.2,A Symonds,PP Ojha,RG Sharma,0,0,na,na
1st innings,9.3,A Symonds,PP Ojha,RG Sharma,1,1,na,na
1st innings,9.4,RG Sharma,PP Ojha,A Symonds,0,0,na,na
1st innings,9.5,RG Sharma,PP Ojha,A Symonds,1,1,na,na
1st innings,9.6,A Symonds,PP Ojha,RG Sharma,0,0,na,na
1st innings,10.1,RG Sharma,A Mishra,A Symonds,0,0,na,na
1st innings,10.2,RG Sharma,A Mishra,A Symonds,0,0,na,na
1st innings,10.3,RG Sharma,A Mishra,A Symonds,0,0,na,na
1st innings,10.4,RG Sharma,A Mishra,A Symonds,1,1,na,na
1st innings,10.5,A Symonds,A Mishra,RG Sharma,1,1,na,na
1st innings,10.6,RG Sharma,A Mishra,A Symonds,0,0,na,na
1st innings,11.1,A Symonds,DW Steyn,RG Sharma,0,0,na,na
1st innings,11.2,A Symonds,DW Steyn,RG Sharma,1,1,na,na
1st innings,11.3,RG Sharma,DW Steyn,A Symonds,1,1,na,na
1st innings,11.4,A Symonds,DW Steyn,RG Sharma,0,0,na,na
1st innings,11.5,A Symonds,DW Steyn,RG Sharma,1,1,na,na
1st innings,11.6,RG Sharma,DW Steyn,A Symonds,1,1,na,na
1st innings,12.1,RG Sharma,PP Ojha,A Symonds,1,1,na,na
1st innings,12.2,A Symonds,PP Ojha,RG Sharma,0,0,na,na
1st innings,12.3,A Symonds,PP Ojha,RG Sharma,4,4,na,na
1st innings,12.4,A Symonds,PP Ojha,RG Sharma,2,2,na,na
1st innings,12.5,A Symonds,PP Ojha,RG Sharma,0,0,na,na
1st innings,12.6,A Symonds,PP Ojha,RG Sharma,2,2,na,na
1st innings,13.1,RG Sharma,DT Christian,A Symonds,2,2,na,na
1st innings,13.2,RG Sharma,DT Christian,A Symonds,4,4,na,na
1st innings,13.3,RG Sharma,DT Christian,A Symonds,1,1,na,na
1st innings,13.4,A Symonds,DT Christian,RG Sharma,1,1,na,na
1st innings,13.5,RG Sharma,DT Christian,A Symonds,1,1,na,na
1st innings,13.6,A Symonds,DT Christian,RG Sharma,1,1,na,na
1st innings,14.1,A Symonds,A Mishra,RG Sharma,0,0,na,na
1st innings,14.2,A Symonds,A Mishra,RG Sharma,0,0,na,na
1st innings,14.3,A Symonds,A Mishra,RG Sharma,1,1,na,na
1st innings,14.4,RG Sharma,A Mishra,A Symonds,1,1,na,na
1st innings,14.5,A Symonds,A Mishra,RG Sharma,1,1,na,na
1st innings,14.6,RG Sharma,A Mishra,A Symonds,2,2,na,na
1st innings,15.1,A Symonds,I Sharma,RG Sharma,4,4,na,na
1st innings,15.2,A Symonds,I Sharma,RG Sharma,1,1,na,na
1st innings,15.3,RG Sharma,I Sharma,A Symonds,1,0,{'legbyes': 1},na
1st innings,15.4,A Symonds,I Sharma,RG Sharma,4,4,na,na
1st innings,15.5,A Symonds,I Sharma,RG Sharma,1,1,na,na
1st innings,15.6,RG Sharma,I Sharma,A Symonds,1,1,na,na
1st innings,16.1,RG Sharma,DW Steyn,A Symonds,0,0,na,na
1st innings,16.2,RG Sharma,DW Steyn,A Symonds,2,2,na,na
1st innings,16.3,RG Sharma,DW Steyn,A Symonds,1,1,na,na
1st innings,16.4,A Symonds,DW Steyn,RG Sharma,4,4,na,na
1st innings,16.5,A Symonds,DW Steyn,RG Sharma,1,1,na,na
1st innings,16.6,RG Sharma,DW Steyn,A Symonds,2,2,na,na
1st innings,17.1,A Symonds,I Sharma,RG Sharma,1,1,na,na
1st innings,17.2,RG Sharma,I Sharma,A Symonds,4,4,na,na
1st innings,17.3,RG Sharma,I Sharma,A Symonds,1,1,na,na
1st innings,17.4,A Symonds,I Sharma,RG Sharma,1,1,na,na
1st innings,17.5,RG Sharma,I Sharma,A Symonds,0,0,na,na
1st innings,17.6,RG Sharma,I Sharma,A Symonds,1,1,na,na
1st innings,18.1,RG Sharma,DW Steyn,A Symonds,4,4,na,na
1st innings,18.2,RG Sharma,DW Steyn,A Symonds,6,6,na,na
1st innings,18.3,RG Sharma,DW Steyn,A Symonds,2,2,na,na
1st innings,18.4,RG Sharma,DW Steyn,A Symonds,4,4,na,na
1st innings,18.5,RG Sharma,DW Steyn,A Symonds,0,0,na,na
1st innings,18.6,RG Sharma,DW Steyn,A Symonds,0,0,na,na
1st innings,19.1,A Symonds,DT Christian,RG Sharma,6,6,na,na
1st innings,19.2,A Symonds,DT Christian,RG Sharma,1,1,na,na
1st innings,19.3,RG Sharma,DT Christian,A Symonds,1,0,{'legbyes': 1},na
1st innings,19.4,A Symonds,DT Christian,RG Sharma,6,6,na,na
1st innings,19.5,A Symonds,DT Christian,RG Sharma,6,6,na,na
1st innings,19.6,A Symonds,DT Christian,RG Sharma,4,4,na,na
2nd innings,0.1,S Dhawan,MM Patel,S Sohal,1,1,na,na
2nd innings,0.2,S Sohal,MM Patel,S Dhawan,0,0,na,na
2nd innings,0.3,S Sohal,MM Patel,S Dhawan,4,4,na,na
2nd innings,0.4,S Sohal,MM Patel,S Dhawan,0,0,na,na
2nd innings,0.5,S Sohal,MM Patel,S Dhawan,0,0,na,na
2nd innings,0.6,S Sohal,MM Patel,S Dhawan,0,0,na,na
2nd innings,1.1,S Dhawan,Harbhajan Singh,S Sohal,3,3,na,na
2nd innings,1.2,S Sohal,Harbhajan Singh,S Dhawan,1,1,na,na
2nd innings,1.3,S Dhawan,Harbhajan Singh,S Sohal,1,1,na,na
2nd innings,1.4,S Sohal,Harbhajan Singh,S Dhawan,4,4,na,na
2nd innings,1.5,S Sohal,Harbhajan Singh,S Dhawan,0,0,na,"{'fielders': ['KA Pollard', 'DJ Jacobs'], 'kind': 'run out', 'player_out': 'S Sohal'}"
2nd innings,1.6,S Dhawan,Harbhajan Singh,KC Sangakkara,1,1,na,na
2nd innings,2.1,S Dhawan,MM Patel,KC Sangakkara,1,1,na,na
2nd innings,2.2,KC Sangakkara,MM Patel,S Dhawan,4,4,na,na
2nd innings,2.3,KC Sangakkara,MM Patel,S Dhawan,4,4,na,na
2nd innings,2.4,KC Sangakkara,MM Patel,S Dhawan,0,0,na,na
2nd innings,2.5,KC Sangakkara,MM Patel,S Dhawan,1,1,na,na
2nd innings,2.6,S Dhawan,MM Patel,KC Sangakkara,0,0,na,na
2nd innings,3.1,KC Sangakkara,Harbhajan Singh,S Dhawan,0,0,na,na
2nd innings,3.2,KC Sangakkara,Harbhajan Singh,S Dhawan,0,0,na,na
2nd innings,3.3,KC Sangakkara,Harbhajan Singh,S Dhawan,4,4,na,na
2nd innings,3.4,KC Sangakkara,Harbhajan Singh,S Dhawan,0,0,na,na
2nd innings,3.5,KC Sangakkara,Harbhajan Singh,S Dhawan,1,1,na,na
2nd innings,3.6,S Dhawan,Harbhajan Singh,KC Sangakkara,1,1,na,na
2nd innings,4.1,S Dhawan,AN Ahmed,KC Sangakkara,4,4,na,na
2nd innings,4.2,S Dhawan,AN Ahmed,KC Sangakkara,0,0,na,na
2nd innings,4.3,S Dhawan,AN Ahmed,KC Sangakkara,2,2,na,na
2nd innings,4.4,S Dhawan,AN Ahmed,KC Sangakkara,1,1,na,na
2nd innings,4.5,KC Sangakkara,AN Ahmed,S Dhawan,0,0,na,na
2nd innings,4.6,KC Sangakkara,AN Ahmed,S Dhawan,1,1,na,na
2nd innings,5.1,KC Sangakkara,SL Malinga,S Dhawan,1,1,na,na
2nd innings,5.2,S Dhawan,SL Malinga,KC Sangakkara,1,1,na,na
2nd innings,5.3,KC Sangakkara,SL Malinga,S Dhawan,0,0,na,na
2nd innings,5.4,KC Sangakkara,SL Malinga,S Dhawan,0,0,na,"{'kind': 'bowled', 'player_out': 'S Dhawan'}"
2nd innings,5.5,KC Sangakkara,SL Malinga,CL White,0,0,na,na
2nd innings,5.6,KC Sangakkara,SL Malinga,CL White,0,0,na,na
2nd innings,6.1,CL White,AN Ahmed,KC Sangakkara,1,1,na,na
2nd innings,6.2,KC Sangakkara,AN Ahmed,CL White,0,0,na,na
2nd innings,6.3,KC Sangakkara,AN Ahmed,CL White,0,0,na,na
2nd innings,6.4,KC Sangakkara,AN Ahmed,CL White,0,0,na,na
2nd innings,6.5,KC Sangakkara,AN Ahmed,CL White,1,1,na,na
2nd innings,6.6,CL White,AN Ahmed,KC Sangakkara,1,1,na,na
2nd innings,7.1,CL White,KA Pollard,KC Sangakkara,5,0,{'wides': 5},na
2nd innings,7.2,CL White,KA Pollard,KC Sangakkara,4,4,na,na
2nd innings,7.3,CL White,KA Pollard,KC Sangakkara,1,1,na,na
2nd innings,7.4,KC Sangakkara,KA Pollard,CL White,0,0,na,"{'fielders': ['SL Malinga'], 'kind': 'run out', 'player_out': 'CL White'}"
2nd innings,7.5,B Chipli,KA Pollard,KC Sangakkara,1,1,na,na
2nd innings,7.6,KC Sangakkara,KA Pollard,B Chipli,0,0,na,na
2nd innings,7.7,KC Sangakkara,KA Pollard,B Chipli,1,0,{'wides': 1},na
2nd innings,7.8,KC Sangakkara,KA Pollard,B Chipli,1,1,na,na
2nd innings,8.1,KC Sangakkara,R Sathish,B Chipli,0,0,na,na
2nd innings,8.2,KC Sangakkara,R Sathish,B Chipli,1,1,na,na
2nd innings,8.3,B Chipli,R Sathish,KC Sangakkara,2,2,na,na
2nd innings,8.4,B Chipli,R Sathish,KC Sangakkara,1,1,na,na
2nd innings,8.5,KC Sangakkara,R Sathish,B Chipli,4,4,na,na
2nd innings,8.6,KC Sangakkara,R Sathish,B Chipli,0,0,na,na
2nd innings,9.1,B Chipli,KA Pollard,KC Sangakkara,4,4,na,na
2nd innings,9.2,B Chipli,KA Pollard,KC Sangakkara,1,1,na,na
2nd innings,9.3,KC Sangakkara,KA Pollard,B Chipli,0,0,na,na
2nd innings,9.4,KC Sangakkara,KA Pollard,B Chipli,0,0,na,"{'fielders': ['R Sathish'], 'kind': 'caught', 'player_out': 'B Chipli'}"
2nd innings,9.5,KC Sangakkara,KA Pollard,DT Christian,1,1,na,na
2nd innings,9.6,DT Christian,KA Pollard,KC Sangakkara,1,1,na,na
2nd innings,10.1,DT Christian,R Sathish,KC Sangakkara,1,1,na,na
2nd innings,10.2,KC Sangakkara,R Sathish,DT Christian,1,1,na,na
2nd innings,10.3,DT Christian,R Sathish,KC Sangakkara,1,1,na,na
2nd innings,10.4,KC Sangakkara,R Sathish,DT Christian,0,0,na,na
2nd innings,10.5,KC Sangakkara,R Sathish,DT Christian,1,1,na,na
2nd innings,10.6,DT Christian,R Sathish,KC Sangakkara,0,0,na,na
2nd innings,11.1,KC Sangakkara,Harbhajan Singh,DT Christian,1,1,na,na
2nd innings,11.2,DT Christian,Harbhajan Singh,KC Sangakkara,1,1,na,na
2nd innings,11.3,KC Sangakkara,Harbhajan Singh,DT Christian,1,1,na,na
2nd innings,11.4,DT Christian,Harbhajan Singh,KC Sangakkara,0,0,na,na
2nd innings,11.5,DT Christian,Harbhajan Singh,KC Sangakkara,1,1,na,na
2nd innings,11.6,KC Sangakkara,Harbhajan Singh,DT Christian,1,1,na,na
2nd innings,12.1,KC Sangakkara,AN Ahmed,DT Christian,0,0,na,na
2nd innings,12.2,KC Sangakkara,AN Ahmed,DT Christian,0,0,na,na
2nd innings,12.3,KC Sangakkara,AN Ahmed,DT Christian,6,6,na,na
2nd innings,12.4,KC Sangakkara,AN Ahmed,DT Christian,2,2,na,na
2nd innings,12.5,KC Sangakkara,AN Ahmed,DT Christian,1,1,na,na
2nd innings,12.6,DT Christian,AN Ahmed,KC Sangakkara,1,1,na,na
2nd innings,13.1,DT Christian,SL Malinga,KC Sangakkara,1,1,na,na
2nd innings,13.2,KC Sangakkara,SL Malinga,DT Christian,1,1,na,na
2nd innings,13.3,DT Christian,SL Malinga,KC Sangakkara,0,0,na,"{'kind': 'bowled', 'player_out': 'KC Sangakkara'}"
2nd innings,13.4,DT Christian,SL Malinga,DB Ravi Teja,0,0,na,na
2nd innings,13.5,DT Christian,SL Malinga,DB Ravi Teja,1,1,na,na
2nd innings,13.6,DB Ravi Teja,SL Malinga,DT Christian,1,1,na,na
2nd innings,14.1,DB Ravi Teja,MM Patel,DT Christian,0,0,na,na
2nd innings,14.2,DB Ravi Teja,MM Patel,DT Christian,4,4,na,na
2nd innings,14.3,DB Ravi Teja,MM Patel,DT Christian,0,0,na,na
2nd innings,14.4,DB Ravi Teja,MM Patel,DT Christian,0,0,na,"{'fielders': ['DJ Jacobs'], 'kind': 'stumped', 'player_out': 'DT Christian'}"
2nd innings,14.5,DB Ravi Teja,MM Patel,A Mishra,1,1,na,na
2nd innings,14.6,A Mishra,MM Patel,DB Ravi Teja,0,0,na,na
2nd innings,15.1,DB Ravi Teja,SL Malinga,A Mishra,0,0,na,na
2nd innings,15.2,DB Ravi Teja,SL Malinga,A Mishra,1,1,na,na
2nd innings,15.3,A Mishra,SL Malinga,DB Ravi Teja,0,0,na,"{'kind': 'caught and bowled', 'player_out': 'DB Ravi Teja'}"
2nd innings,15.4,A Mishra,SL Malinga,DW Steyn,0,0,na,na
2nd innings,15.5,A Mishra,SL Malinga,DW Steyn,0,0,na,na
2nd innings,15.6,A Mishra,SL Malinga,DW Steyn,0,0,na,na
2nd innings,16.1,DW Steyn,MM Patel,A Mishra,4,4,na,na
2nd innings,16.2,DW Steyn,MM Patel,A Mishra,4,4,na,na
2nd innings,16.3,DW Steyn,MM Patel,A Mishra,1,1,na,na
2nd innings,16.4,A Mishra,MM Patel,DW Steyn,1,1,na,na
2nd innings,16.5,DW Steyn,MM Patel,A Mishra,4,4,na,na
2nd innings,16.6,DW Steyn,MM Patel,A Mishra,1,1,na,na
2nd innings,17.1,DW Steyn,SL Malinga,A Mishra,1,0,{'legbyes': 1},na
2nd innings,17.2,A Mishra,SL Malinga,DW Steyn,0,0,na,na
2nd innings,17.3,A Mishra,SL Malinga,DW Steyn,1,1,na,na
2nd innings,17.4,DW Steyn,SL Malinga,A Mishra,0,0,na,na
2nd innings,17.5,DW Steyn,SL Malinga,A Mishra,1,1,na,na
2nd innings,17.6,A Mishra,SL Malinga,DW Steyn,4,0,{'legbyes': 4},na
2nd innings,18.1,DW Steyn,AN Ahmed,A Mishra,1,1,na,na
2nd innings,18.2,A Mishra,AN Ahmed,DW Steyn,1,0,{'wides': 1},na
2nd innings,18.3,A Mishra,AN Ahmed,DW Steyn,1,1,na,na
2nd innings,18.4,DW Steyn,AN Ahmed,A Mishra,1,1,na,na
2nd innings,18.5,A Mishra,AN Ahmed,DW Steyn,1,1,na,na
2nd innings,18.6,DW Steyn,AN Ahmed,A Mishra,0,0,na,"{'fielders': ['A Symonds', 'AN Ahmed'], 'kind': 'run out', 'player_out': 'DW Steyn'}"
2nd innings,18.7,I Sharma,AN Ahmed,A Mishra,1,1,na,na
2nd innings,19.1,I Sharma,Harbhajan Singh,A Mishra,1,1,na,na
2nd innings,19.2,A Mishra,Harbhajan Singh,I Sharma,0,0,na,na
2nd innings,19.3,A Mishra,Harbhajan Singh,I Sharma,1,1,na,na
2nd innings,19.4,I Sharma,Harbhajan Singh,A Mishra,0,0,na,na
2nd innings,19.5,I Sharma,Harbhajan Singh,A Mishra,0,0,na,na
2nd innings,19.6,I Sharma,Harbhajan Singh,A Mishra,4,4,na,na
