innings,deliveries,non_striker,bowler,batsman,total_runs,batsman_runs,extras,wickets
1st innings,0.1,VVS Laxman,AC Thomas,BB McCullum,0,0,na,"{'fielders': ['RV Uthappa'], 'kind': 'caught', 'player_out': 'BB McCullum'}"
1st innings,0.2,VVS Laxman,AC Thomas,PA Patel,0,0,na,na
1st innings,0.3,VVS Laxman,AC Thomas,PA Patel,4,4,na,na
1st innings,0.4,VVS Laxman,AC Thomas,PA Patel,0,0,na,na
1st innings,0.5,VVS Laxman,AC Thomas,PA Patel,4,4,na,na
1st innings,0.6,VVS Laxman,AC Thomas,PA Patel,1,1,na,na
1st innings,1.1,VVS Laxman,SB Wagh,PA Patel,0,0,na,na
1st innings,1.2,VVS Laxman,SB Wagh,PA Patel,0,0,na,na
1st innings,1.3,VVS Laxman,SB Wagh,PA Patel,0,0,na,na
1st innings,1.4,VVS Laxman,SB Wagh,PA Patel,1,1,na,na
1st innings,1.5,PA Patel,SB Wagh,VVS Laxman,0,0,na,na
1st innings,1.6,PA Patel,SB Wagh,VVS Laxman,0,0,na,na
1st innings,2.1,VVS Laxman,WD Parnell,PA Patel,1,1,na,na
1st innings,2.2,PA Patel,WD Parnell,VVS Laxman,0,0,na,"{'kind': 'bowled', 'player_out': 'VVS Laxman'}"
1st innings,2.3,PA Patel,WD Parnell,DPMD Jayawardene,0,0,na,na
1st innings,2.4,PA Patel,WD Parnell,DPMD Jayawardene,2,2,na,na
1st innings,2.5,PA Patel,WD Parnell,DPMD Jayawardene,0,0,na,"{'fielders': ['RV Uthappa'], 'kind': 'caught', 'player_out': 'DPMD Jayawardene'}"
1st innings,2.6,PA Patel,WD Parnell,BJ Hodge,0,0,na,na
1st innings,3.1,BJ Hodge,SB Wagh,PA Patel,0,0,na,na
1st innings,3.2,BJ Hodge,SB Wagh,PA Patel,0,0,na,na
1st innings,3.3,BJ Hodge,SB Wagh,PA Patel,4,4,na,na
1st innings,3.4,BJ Hodge,SB Wagh,PA Patel,4,4,na,na
1st innings,3.5,BJ Hodge,SB Wagh,PA Patel,1,1,na,na
1st innings,3.6,PA Patel,SB Wagh,BJ Hodge,0,0,na,na
1st innings,4.1,BJ Hodge,WD Parnell,PA Patel,0,0,na,na
1st innings,4.2,BJ Hodge,WD Parnell,PA Patel,1,1,na,na
1st innings,4.3,PA Patel,WD Parnell,BJ Hodge,1,1,na,na
1st innings,4.4,BJ Hodge,WD Parnell,PA Patel,0,0,na,na
1st innings,4.5,BJ Hodge,WD Parnell,PA Patel,0,0,na,"{'fielders': ['GC Smith'], 'kind': 'caught', 'player_out': 'PA Patel'}"
1st innings,4.6,BJ Hodge,WD Parnell,RA Jadeja,0,0,na,na
1st innings,5.1,RA Jadeja,AC Thomas,BJ Hodge,0,0,na,na
1st innings,5.2,RA Jadeja,AC Thomas,BJ Hodge,0,0,na,na
1st innings,5.3,RA Jadeja,AC Thomas,BJ Hodge,1,1,na,na
1st innings,5.4,BJ Hodge,AC Thomas,RA Jadeja,4,4,na,na
1st innings,5.5,BJ Hodge,AC Thomas,RA Jadeja,4,4,na,na
1st innings,5.6,BJ Hodge,AC Thomas,RA Jadeja,4,4,na,na
1st innings,6.1,RA Jadeja,M Kartik,BJ Hodge,3,3,na,na
1st innings,6.2,BJ Hodge,M Kartik,RA Jadeja,0,0,na,na
1st innings,6.3,BJ Hodge,M Kartik,RA Jadeja,1,1,na,na
1st innings,6.4,RA Jadeja,M Kartik,BJ Hodge,1,1,na,na
1st innings,6.5,BJ Hodge,M Kartik,RA Jadeja,0,0,na,na
1st innings,6.6,BJ Hodge,M Kartik,RA Jadeja,0,0,na,na
1st innings,7.1,RA Jadeja,R Sharma,BJ Hodge,4,4,na,na
1st innings,7.2,RA Jadeja,R Sharma,BJ Hodge,0,0,na,na
1st innings,7.3,RA Jadeja,R Sharma,BJ Hodge,2,0,{'legbyes': 2},na
1st innings,7.4,RA Jadeja,R Sharma,BJ Hodge,0,0,na,na
1st innings,7.5,RA Jadeja,R Sharma,BJ Hodge,1,1,na,na
1st innings,7.6,BJ Hodge,R Sharma,RA Jadeja,0,0,na,na
1st innings,8.1,RA Jadeja,M Kartik,BJ Hodge,2,2,na,na
1st innings,8.2,RA Jadeja,M Kartik,BJ Hodge,1,1,na,na
1st innings,8.3,BJ Hodge,M Kartik,RA Jadeja,1,1,na,na
1st innings,8.4,RA Jadeja,M Kartik,BJ Hodge,0,0,na,na
1st innings,8.5,RA Jadeja,M Kartik,BJ Hodge,0,0,na,na
1st innings,8.6,RA Jadeja,M Kartik,BJ Hodge,0,0,na,na
1st innings,9.1,BJ Hodge,Yuvraj Singh,RA Jadeja,2,2,na,na
1st innings,9.2,BJ Hodge,Yuvraj Singh,RA Jadeja,0,0,na,na
1st innings,9.3,BJ Hodge,Yuvraj Singh,RA Jadeja,1,1,na,na
1st innings,9.4,RA Jadeja,Yuvraj Singh,BJ Hodge,1,1,na,na
1st innings,9.5,BJ Hodge,Yuvraj Singh,RA Jadeja,6,6,na,na
1st innings,9.6,BJ Hodge,Yuvraj Singh,RA Jadeja,2,2,na,na
1st innings,10.1,RA Jadeja,R Sharma,BJ Hodge,1,1,na,na
1st innings,10.2,BJ Hodge,R Sharma,RA Jadeja,0,0,na,na
1st innings,10.3,BJ Hodge,R Sharma,RA Jadeja,2,2,na,na
1st innings,10.4,BJ Hodge,R Sharma,RA Jadeja,6,6,na,na
1st innings,10.5,BJ Hodge,R Sharma,RA Jadeja,0,0,na,na
1st innings,10.6,BJ Hodge,R Sharma,RA Jadeja,0,0,na,na
1st innings,11.1,RA Jadeja,M Kartik,BJ Hodge,0,0,na,na
1st innings,11.2,RA Jadeja,M Kartik,BJ Hodge,6,6,na,na
1st innings,11.3,RA Jadeja,M Kartik,BJ Hodge,1,1,na,na
1st innings,11.4,BJ Hodge,M Kartik,RA Jadeja,0,0,na,na
1st innings,11.5,BJ Hodge,M Kartik,RA Jadeja,1,1,na,na
1st innings,11.6,RA Jadeja,M Kartik,BJ Hodge,1,1,na,na
1st innings,12.1,RA Jadeja,JD Ryder,BJ Hodge,0,0,na,na
1st innings,12.2,RA Jadeja,JD Ryder,BJ Hodge,0,0,na,na
1st innings,12.3,RA Jadeja,JD Ryder,BJ Hodge,1,1,na,na
1st innings,12.4,BJ Hodge,JD Ryder,RA Jadeja,1,1,na,na
1st innings,12.5,RA Jadeja,JD Ryder,BJ Hodge,1,1,na,na
1st innings,12.6,BJ Hodge,JD Ryder,RA Jadeja,1,1,na,na
1st innings,13.1,BJ Hodge,M Kartik,RA Jadeja,1,0,{'wides': 1},na
1st innings,13.2,BJ Hodge,M Kartik,RA Jadeja,2,1,{'noballs': 1},na
1st innings,13.3,RA Jadeja,M Kartik,BJ Hodge,6,6,na,na
1st innings,13.4,RA Jadeja,M Kartik,BJ Hodge,1,1,na,na
1st innings,13.5,BJ Hodge,M Kartik,RA Jadeja,1,1,na,na
1st innings,13.6,RA Jadeja,M Kartik,BJ Hodge,0,0,na,na
1st innings,13.7,RA Jadeja,M Kartik,BJ Hodge,0,0,na,na
1st innings,13.8,RA Jadeja,M Kartik,BJ Hodge,1,1,na,na
1st innings,14.1,RA Jadeja,WD Parnell,BJ Hodge,1,1,na,na
1st innings,14.2,BJ Hodge,WD Parnell,RA Jadeja,0,0,na,na
1st innings,14.3,BJ Hodge,WD Parnell,RA Jadeja,0,0,na,na
1st innings,14.4,BJ Hodge,WD Parnell,RA Jadeja,6,6,na,na
1st innings,14.5,BJ Hodge,WD Parnell,RA Jadeja,1,1,na,na
1st innings,14.6,RA Jadeja,WD Parnell,BJ Hodge,4,4,na,na
1st innings,15.1,BJ Hodge,R Sharma,RA Jadeja,1,1,na,na
1st innings,15.2,RA Jadeja,R Sharma,BJ Hodge,0,0,na,"{'fielders': ['M Kartik'], 'kind': 'caught', 'player_out': 'BJ Hodge'}"
1st innings,15.3,RV Gomez,R Sharma,RA Jadeja,1,1,na,na
1st innings,15.4,RA Jadeja,R Sharma,RV Gomez,0,0,na,na
1st innings,15.5,RA Jadeja,R Sharma,RV Gomez,0,0,na,na
1st innings,15.6,RA Jadeja,R Sharma,RV Gomez,0,0,na,na
1st innings,16.1,RV Gomez,JD Ryder,RA Jadeja,0,0,na,"{'fielders': ['WD Parnell'], 'kind': 'caught', 'player_out': 'RA Jadeja'}"
1st innings,16.2,R Vinay Kumar,JD Ryder,RV Gomez,1,1,na,na
1st innings,16.3,RV Gomez,JD Ryder,R Vinay Kumar,1,1,na,na
1st innings,16.4,R Vinay Kumar,JD Ryder,RV Gomez,2,2,na,na
1st innings,16.5,R Vinay Kumar,JD Ryder,RV Gomez,0,0,na,na
1st innings,16.6,R Vinay Kumar,JD Ryder,RV Gomez,0,0,na,"{'fielders': ['WD Parnell', 'RV Uthappa'], 'kind': 'run out', 'player_out': 'R Vinay Kumar'}"
1st innings,17.1,S Sreesanth,R Sharma,RV Gomez,1,1,na,na
1st innings,17.2,RV Gomez,R Sharma,S Sreesanth,0,0,na,na
1st innings,17.3,RV Gomez,R Sharma,S Sreesanth,0,0,na,na
1st innings,17.4,RV Gomez,R Sharma,S Sreesanth,0,0,na,na
1st innings,17.5,RV Gomez,R Sharma,S Sreesanth,1,0,{'legbyes': 1},na
1st innings,17.6,S Sreesanth,R Sharma,RV Gomez,1,1,na,na
1st innings,18.1,S Sreesanth,AC Thomas,RV Gomez,1,1,na,na
1st innings,18.2,RV Gomez,AC Thomas,S Sreesanth,0,0,na,na
1st innings,18.3,RV Gomez,AC Thomas,S Sreesanth,1,1,na,na
1st innings,18.4,S Sreesanth,AC Thomas,RV Gomez,2,2,na,na
1st innings,18.5,S Sreesanth,AC Thomas,RV Gomez,4,4,na,na
1st innings,18.6,S Sreesanth,AC Thomas,RV Gomez,1,1,na,na
1st innings,19.1,S Sreesanth,WD Parnell,RV Gomez,2,2,na,na
1st innings,19.2,S Sreesanth,WD Parnell,RV Gomez,4,4,na,na
1st innings,19.3,S Sreesanth,WD Parnell,RV Gomez,4,4,na,na
1st innings,19.4,S Sreesanth,WD Parnell,RV Gomez,5,0,{'wides': 5},na
1st innings,19.5,S Sreesanth,WD Parnell,RV Gomez,2,2,na,na
1st innings,19.6,S Sreesanth,WD Parnell,RV Gomez,1,1,na,"{'fielders': ['RV Uthappa', 'NL McCullum (sub)'], 'kind': 'run out', 'player_out': 'S Sreesanth'}"
1st innings,19.7,RV Gomez,WD Parnell,RP Singh,1,0,{'byes': 1},na
2nd innings,0.1,GC Smith,RP Singh,JD Ryder,0,0,na,na
2nd innings,0.2,GC Smith,RP Singh,JD Ryder,2,2,na,na
2nd innings,0.3,GC Smith,RP Singh,JD Ryder,4,4,na,na
2nd innings,0.4,GC Smith,RP Singh,JD Ryder,0,0,na,na
2nd innings,0.5,GC Smith,RP Singh,JD Ryder,4,4,na,na
2nd innings,0.6,GC Smith,RP Singh,JD Ryder,0,0,na,na
2nd innings,1.1,JD Ryder,S Sreesanth,GC Smith,1,0,{'wides': 1},na
2nd innings,1.2,JD Ryder,S Sreesanth,GC Smith,2,2,na,na
2nd innings,1.3,JD Ryder,S Sreesanth,GC Smith,0,0,na,na
2nd innings,1.4,JD Ryder,S Sreesanth,GC Smith,4,4,na,na
2nd innings,1.5,JD Ryder,S Sreesanth,GC Smith,1,0,{'wides': 1},na
2nd innings,1.6,JD Ryder,S Sreesanth,GC Smith,0,0,na,na
2nd innings,1.7,JD Ryder,S Sreesanth,GC Smith,0,0,na,na
2nd innings,1.8,JD Ryder,S Sreesanth,GC Smith,1,0,{'wides': 1},na
2nd innings,1.9,JD Ryder,S Sreesanth,GC Smith,1,1,na,na
2nd innings,2.1,JD Ryder,M Muralitharan,GC Smith,0,0,na,na
2nd innings,2.2,JD Ryder,M Muralitharan,GC Smith,1,1,na,na
2nd innings,2.3,GC Smith,M Muralitharan,JD Ryder,1,1,na,na
2nd innings,2.4,JD Ryder,M Muralitharan,GC Smith,0,0,na,na
2nd innings,2.5,JD Ryder,M Muralitharan,GC Smith,1,1,na,na
2nd innings,2.6,GC Smith,M Muralitharan,JD Ryder,4,4,na,na
2nd innings,3.1,JD Ryder,R Vinay Kumar,GC Smith,0,0,na,na
2nd innings,3.2,JD Ryder,R Vinay Kumar,GC Smith,1,1,na,na
2nd innings,3.3,GC Smith,R Vinay Kumar,JD Ryder,2,2,na,na
2nd innings,3.4,GC Smith,R Vinay Kumar,JD Ryder,1,0,{'wides': 1},na
2nd innings,3.5,GC Smith,R Vinay Kumar,JD Ryder,0,0,na,"{'kind': 'caught and bowled', 'player_out': 'JD Ryder'}"
2nd innings,3.6,GC Smith,R Vinay Kumar,M Manhas,0,0,na,na
2nd innings,3.7,GC Smith,R Vinay Kumar,M Manhas,0,0,na,na
2nd innings,4.1,M Manhas,RP Singh,GC Smith,0,0,na,na
2nd innings,4.2,M Manhas,RP Singh,GC Smith,2,2,na,na
2nd innings,4.3,M Manhas,RP Singh,GC Smith,0,0,na,na
2nd innings,4.4,M Manhas,RP Singh,GC Smith,0,0,na,na
2nd innings,4.5,M Manhas,RP Singh,GC Smith,0,0,na,na
2nd innings,4.6,M Manhas,RP Singh,GC Smith,4,4,na,na
2nd innings,5.1,GC Smith,R Vinay Kumar,M Manhas,0,0,na,na
2nd innings,5.2,GC Smith,R Vinay Kumar,M Manhas,1,1,na,na
2nd innings,5.3,M Manhas,R Vinay Kumar,GC Smith,0,0,na,na
2nd innings,5.4,M Manhas,R Vinay Kumar,GC Smith,1,1,na,na
2nd innings,5.5,GC Smith,R Vinay Kumar,M Manhas,1,0,{'legbyes': 1},na
2nd innings,5.6,M Manhas,R Vinay Kumar,GC Smith,4,4,na,na
2nd innings,6.1,GC Smith,S Sreesanth,M Manhas,0,0,na,na
2nd innings,6.2,GC Smith,S Sreesanth,M Manhas,4,4,na,na
2nd innings,6.3,GC Smith,S Sreesanth,M Manhas,0,0,na,na
2nd innings,6.4,GC Smith,S Sreesanth,M Manhas,1,1,na,na
2nd innings,6.5,M Manhas,S Sreesanth,GC Smith,1,1,na,na
2nd innings,6.6,GC Smith,S Sreesanth,M Manhas,1,1,na,na
2nd innings,7.1,GC Smith,RA Jadeja,M Manhas,0,0,na,na
2nd innings,7.2,GC Smith,RA Jadeja,M Manhas,1,1,na,na
2nd innings,7.3,M Manhas,RA Jadeja,GC Smith,2,2,na,na
2nd innings,7.4,M Manhas,RA Jadeja,GC Smith,0,0,na,"{'fielders': ['RP Singh'], 'kind': 'caught', 'player_out': 'GC Smith'}"
2nd innings,7.5,Yuvraj Singh,RA Jadeja,M Manhas,1,1,na,na
2nd innings,7.6,M Manhas,RA Jadeja,Yuvraj Singh,0,0,na,na
2nd innings,8.1,Yuvraj Singh,S Sreesanth,M Manhas,1,1,na,na
2nd innings,8.2,M Manhas,S Sreesanth,Yuvraj Singh,0,0,na,na
2nd innings,8.3,M Manhas,S Sreesanth,Yuvraj Singh,1,0,{'wides': 1},na
2nd innings,8.4,M Manhas,S Sreesanth,Yuvraj Singh,0,0,na,na
2nd innings,8.5,M Manhas,S Sreesanth,Yuvraj Singh,1,1,na,na
2nd innings,8.6,Yuvraj Singh,S Sreesanth,M Manhas,1,1,na,na
2nd innings,8.7,M Manhas,S Sreesanth,Yuvraj Singh,0,0,na,na
2nd innings,9.1,Yuvraj Singh,BJ Hodge,M Manhas,0,0,na,na
2nd innings,9.2,Yuvraj Singh,BJ Hodge,M Manhas,1,1,na,na
2nd innings,9.3,M Manhas,BJ Hodge,Yuvraj Singh,1,1,na,na
2nd innings,9.4,Yuvraj Singh,BJ Hodge,M Manhas,0,0,na,na
2nd innings,9.5,Yuvraj Singh,BJ Hodge,M Manhas,0,0,na,"{'fielders': ['RA Jadeja'], 'kind': 'caught', 'player_out': 'M Manhas'}"
2nd innings,9.6,RV Uthappa,BJ Hodge,Yuvraj Singh,0,0,na,na
2nd innings,10.1,Yuvraj Singh,M Muralitharan,RV Uthappa,4,4,na,na
2nd innings,10.2,Yuvraj Singh,M Muralitharan,RV Uthappa,1,1,na,na
2nd innings,10.3,RV Uthappa,M Muralitharan,Yuvraj Singh,1,1,na,na
2nd innings,10.4,Yuvraj Singh,M Muralitharan,RV Uthappa,1,1,na,na
2nd innings,10.5,RV Uthappa,M Muralitharan,Yuvraj Singh,2,2,na,na
2nd innings,10.6,RV Uthappa,M Muralitharan,Yuvraj Singh,1,1,na,na
2nd innings,11.1,RV Uthappa,BJ Hodge,Yuvraj Singh,2,2,na,na
2nd innings,11.2,RV Uthappa,BJ Hodge,Yuvraj Singh,0,0,na,"{'fielders': ['PA Patel'], 'kind': 'caught', 'player_out': 'Yuvraj Singh'}"
2nd innings,11.3,RV Uthappa,BJ Hodge,MD Mishra,1,1,na,na
2nd innings,11.4,MD Mishra,BJ Hodge,RV Uthappa,0,0,na,na
2nd innings,11.5,MD Mishra,BJ Hodge,RV Uthappa,4,4,na,na
2nd innings,11.6,MD Mishra,BJ Hodge,RV Uthappa,1,0,{'wides': 1},na
2nd innings,11.7,MD Mishra,BJ Hodge,RV Uthappa,4,4,na,na
2nd innings,12.1,RV Uthappa,RA Jadeja,MD Mishra,1,1,na,na
2nd innings,12.2,MD Mishra,RA Jadeja,RV Uthappa,1,1,na,na
2nd innings,12.3,RV Uthappa,RA Jadeja,MD Mishra,0,0,na,na
2nd innings,12.4,RV Uthappa,RA Jadeja,MD Mishra,4,4,na,na
2nd innings,12.5,RV Uthappa,RA Jadeja,MD Mishra,2,2,na,na
2nd innings,12.6,RV Uthappa,RA Jadeja,MD Mishra,1,1,na,na
2nd innings,13.1,RV Uthappa,RP Singh,MD Mishra,1,1,na,na
2nd innings,13.2,MD Mishra,RP Singh,RV Uthappa,6,6,na,na
2nd innings,13.3,MD Mishra,RP Singh,RV Uthappa,2,2,na,na
2nd innings,13.4,MD Mishra,RP Singh,RV Uthappa,1,1,na,na
2nd innings,13.5,RV Uthappa,RP Singh,MD Mishra,2,2,na,na
2nd innings,13.6,RV Uthappa,RP Singh,MD Mishra,2,2,na,na
2nd innings,14.1,MD Mishra,M Muralitharan,RV Uthappa,6,6,na,na
2nd innings,14.2,MD Mishra,M Muralitharan,RV Uthappa,1,1,na,na
2nd innings,14.3,RV Uthappa,M Muralitharan,MD Mishra,1,1,na,na
2nd innings,14.4,MD Mishra,M Muralitharan,RV Uthappa,1,0,{'wides': 1},na
2nd innings,14.5,MD Mishra,M Muralitharan,RV Uthappa,0,0,na,"{'kind': 'bowled', 'player_out': 'RV Uthappa'}"
2nd innings,14.6,MD Mishra,M Muralitharan,WD Parnell,0,0,na,na
2nd innings,14.7,MD Mishra,M Muralitharan,WD Parnell,0,0,na,na
2nd innings,15.1,WD Parnell,RA Jadeja,MD Mishra,1,1,na,na
2nd innings,15.2,MD Mishra,RA Jadeja,WD Parnell,1,0,{'wides': 1},na
2nd innings,15.3,MD Mishra,RA Jadeja,WD Parnell,0,0,na,na
2nd innings,15.4,MD Mishra,RA Jadeja,WD Parnell,0,0,na,na
2nd innings,15.5,MD Mishra,RA Jadeja,WD Parnell,1,1,na,"{'fielders': ['RV Gomez', 'RA Jadeja'], 'kind': 'run out', 'player_out': 'WD Parnell'}"
2nd innings,15.6,R Sharma,RA Jadeja,MD Mishra,1,1,na,na
2nd innings,15.7,MD Mishra,RA Jadeja,R Sharma,0,0,na,na
2nd innings,16.1,R Sharma,R Vinay Kumar,MD Mishra,1,1,na,na
2nd innings,16.2,MD Mishra,R Vinay Kumar,R Sharma,0,0,na,na
2nd innings,16.3,MD Mishra,R Vinay Kumar,R Sharma,1,0,{'wides': 1},na
2nd innings,16.4,MD Mishra,R Vinay Kumar,R Sharma,1,0,{'wides': 1},na
2nd innings,16.5,MD Mishra,R Vinay Kumar,R Sharma,0,0,na,na
2nd innings,16.6,MD Mishra,R Vinay Kumar,R Sharma,1,1,na,na
2nd innings,16.7,R Sharma,R Vinay Kumar,MD Mishra,1,1,na,na
2nd innings,16.8,MD Mishra,R Vinay Kumar,R Sharma,0,0,na,na
2nd innings,17.1,R Sharma,RA Jadeja,MD Mishra,1,1,na,na
2nd innings,17.2,MD Mishra,RA Jadeja,R Sharma,2,2,na,na
2nd innings,17.3,MD Mishra,RA Jadeja,R Sharma,1,1,na,na
2nd innings,17.4,R Sharma,RA Jadeja,MD Mishra,1,1,na,na
2nd innings,17.5,MD Mishra,RA Jadeja,R Sharma,0,0,na,na
2nd innings,17.6,MD Mishra,RA Jadeja,R Sharma,6,6,na,na
2nd innings,18.1,R Sharma,M Muralitharan,MD Mishra,0,0,na,na
2nd innings,18.2,R Sharma,M Muralitharan,MD Mishra,4,4,na,na
2nd innings,18.3,R Sharma,M Muralitharan,MD Mishra,6,6,na,na
2nd innings,18.4,R Sharma,M Muralitharan,MD Mishra,0,0,na,na
2nd innings,18.5,R Sharma,M Muralitharan,MD Mishra,6,6,na,na
