innings,deliveries,non_striker,bowler,batsman,total_runs,batsman_runs,extras,wickets
1st innings,0.1,R Dravid,Z Khan,SR Watson,0,0,na,na
1st innings,0.2,R Dravid,Z Khan,SR Watson,1,0,{'wides': 1},na
1st innings,0.3,R Dravid,Z Khan,SR Watson,0,0,na,na
1st innings,0.4,R Dravid,Z Khan,SR Watson,0,0,na,na
1st innings,0.5,R Dravid,Z Khan,SR Watson,2,2,na,na
1st innings,0.6,R Dravid,Z Khan,SR Watson,1,1,na,na
1st innings,0.7,SR Watson,Z Khan,R Dravid,0,0,na,na
1st innings,1.1,R Dravid,S Aravind,SR Watson,0,0,na,na
1st innings,1.2,R Dravid,S Aravind,SR Watson,0,0,na,na
1st innings,1.3,R Dravid,S Aravind,SR Watson,4,4,na,na
1st innings,1.4,R Dravid,S Aravind,SR Watson,2,2,na,na
1st innings,1.5,R Dravid,S Aravind,SR Watson,4,4,na,na
1st innings,1.6,R Dravid,S Aravind,SR Watson,0,0,na,na
1st innings,2.1,SR Watson,Z Khan,R Dravid,0,0,na,na
1st innings,2.2,SR Watson,Z Khan,R Dravid,4,4,na,na
1st innings,2.3,SR Watson,Z Khan,R Dravid,4,4,na,na
1st innings,2.4,SR Watson,Z Khan,R Dravid,0,0,na,na
1st innings,2.5,SR Watson,Z Khan,R Dravid,0,0,na,na
1st innings,2.6,SR Watson,Z Khan,R Dravid,1,1,na,na
1st innings,3.1,SR Watson,CK Langeveldt,R Dravid,1,0,{'noballs': 1},na
1st innings,3.2,SR Watson,CK Langeveldt,R Dravid,0,0,na,na
1st innings,3.3,SR Watson,CK Langeveldt,R Dravid,0,0,na,na
1st innings,3.4,SR Watson,CK Langeveldt,R Dravid,0,0,na,na
1st innings,3.5,SR Watson,CK Langeveldt,R Dravid,1,1,na,na
1st innings,3.6,R Dravid,CK Langeveldt,SR Watson,0,0,na,na
1st innings,3.7,R Dravid,CK Langeveldt,SR Watson,0,0,na,na
1st innings,4.1,SR Watson,Z Khan,R Dravid,1,1,na,na
1st innings,4.2,R Dravid,Z Khan,SR Watson,0,0,na,na
1st innings,4.3,R Dravid,Z Khan,SR Watson,1,1,na,na
1st innings,4.4,SR Watson,Z Khan,R Dravid,4,4,na,na
1st innings,4.5,SR Watson,Z Khan,R Dravid,1,1,na,na
1st innings,4.6,R Dravid,Z Khan,SR Watson,0,0,na,na
1st innings,5.1,SR Watson,CK Langeveldt,R Dravid,4,4,na,na
1st innings,5.2,SR Watson,CK Langeveldt,R Dravid,0,0,na,na
1st innings,5.3,SR Watson,CK Langeveldt,R Dravid,1,1,na,na
1st innings,5.4,R Dravid,CK Langeveldt,SR Watson,0,0,na,na
1st innings,5.5,R Dravid,CK Langeveldt,SR Watson,0,0,na,na
1st innings,5.6,R Dravid,CK Langeveldt,SR Watson,6,6,na,na
1st innings,6.1,SR Watson,CH Gayle,R Dravid,4,4,na,na
1st innings,6.2,SR Watson,CH Gayle,R Dravid,2,2,na,na
1st innings,6.3,SR Watson,CH Gayle,R Dravid,0,0,na,na
1st innings,6.4,SR Watson,CH Gayle,R Dravid,0,0,na,na
1st innings,6.5,SR Watson,CH Gayle,R Dravid,1,1,na,na
1st innings,6.6,R Dravid,CH Gayle,SR Watson,0,0,na,na
1st innings,7.1,SR Watson,S Aravind,R Dravid,1,1,na,na
1st innings,7.2,R Dravid,S Aravind,SR Watson,0,0,na,na
1st innings,7.3,R Dravid,S Aravind,SR Watson,4,4,na,na
1st innings,7.4,R Dravid,S Aravind,SR Watson,6,6,na,na
1st innings,7.5,R Dravid,S Aravind,SR Watson,1,1,na,na
1st innings,7.6,SR Watson,S Aravind,R Dravid,1,1,na,na
1st innings,8.1,SR Watson,CH Gayle,R Dravid,1,1,na,na
1st innings,8.2,R Dravid,CH Gayle,SR Watson,1,1,na,na
1st innings,8.3,SR Watson,CH Gayle,R Dravid,1,1,na,na
1st innings,8.4,R Dravid,CH Gayle,SR Watson,0,0,na,na
1st innings,8.5,R Dravid,CH Gayle,SR Watson,0,0,na,na
1st innings,8.6,R Dravid,CH Gayle,SR Watson,2,2,na,na
1st innings,9.1,SR Watson,S Aravind,R Dravid,4,4,na,na
1st innings,9.2,SR Watson,S Aravind,R Dravid,1,1,na,na
1st innings,9.3,R Dravid,S Aravind,SR Watson,0,0,na,"{'fielders': ['AB de Villiers'], 'kind': 'caught', 'player_out': 'SR Watson'}"
1st innings,9.4,AM Rahane,S Aravind,R Dravid,0,0,na,na
1st innings,9.5,AM Rahane,S Aravind,R Dravid,0,0,na,"{'kind': 'caught and bowled', 'player_out': 'R Dravid'}"
1st innings,9.6,AM Rahane,S Aravind,J Botha,1,1,na,na
1st innings,10.1,AM Rahane,V Kohli,J Botha,0,0,na,na
1st innings,10.2,AM Rahane,V Kohli,J Botha,0,0,na,na
1st innings,10.3,AM Rahane,V Kohli,J Botha,1,1,na,na
1st innings,10.4,J Botha,V Kohli,AM Rahane,0,0,na,na
1st innings,10.5,J Botha,V Kohli,AM Rahane,1,1,na,na
1st innings,10.6,AM Rahane,V Kohli,J Botha,1,1,na,na
1st innings,11.1,AM Rahane,AA Kazi,J Botha,1,1,na,na
1st innings,11.2,J Botha,AA Kazi,AM Rahane,2,2,na,na
1st innings,11.3,J Botha,AA Kazi,AM Rahane,1,1,na,na
1st innings,11.4,AM Rahane,AA Kazi,J Botha,4,4,na,na
1st innings,11.5,AM Rahane,AA Kazi,J Botha,0,0,na,na
1st innings,11.6,AM Rahane,AA Kazi,J Botha,1,1,na,na
1st innings,12.1,AM Rahane,V Kohli,J Botha,1,1,na,na
1st innings,12.2,J Botha,V Kohli,AM Rahane,0,0,na,na
1st innings,12.3,J Botha,V Kohli,AM Rahane,4,4,na,na
1st innings,12.4,J Botha,V Kohli,AM Rahane,1,1,na,na
1st innings,12.5,AM Rahane,V Kohli,J Botha,1,1,na,na
1st innings,12.6,J Botha,V Kohli,AM Rahane,1,1,na,na
1st innings,13.1,J Botha,AA Kazi,AM Rahane,6,6,na,na
1st innings,13.2,J Botha,AA Kazi,AM Rahane,1,1,na,na
1st innings,13.3,AM Rahane,AA Kazi,J Botha,1,0,{'wides': 1},na
1st innings,13.4,AM Rahane,AA Kazi,J Botha,0,0,na,"{'fielders': ['AB de Villiers', 'KB Arun Karthik'], 'kind': 'run out', 'player_out': 'AM Rahane'}"
1st innings,13.5,J Botha,AA Kazi,LRPL Taylor,1,1,na,na
1st innings,13.6,LRPL Taylor,AA Kazi,J Botha,1,1,na,na
1st innings,13.7,J Botha,AA Kazi,LRPL Taylor,2,2,na,na
1st innings,14.1,LRPL Taylor,V Kohli,J Botha,0,0,na,na
1st innings,14.2,LRPL Taylor,V Kohli,J Botha,1,1,na,na
1st innings,14.3,J Botha,V Kohli,LRPL Taylor,0,0,na,na
1st innings,14.4,J Botha,V Kohli,LRPL Taylor,1,1,na,na
1st innings,14.5,LRPL Taylor,V Kohli,J Botha,2,2,na,na
1st innings,14.6,LRPL Taylor,V Kohli,J Botha,2,2,na,na
1st innings,15.1,J Botha,CK Langeveldt,LRPL Taylor,2,2,na,na
1st innings,15.2,J Botha,CK Langeveldt,LRPL Taylor,1,1,na,na
1st innings,15.3,LRPL Taylor,CK Langeveldt,J Botha,1,1,na,na
1st innings,15.4,J Botha,CK Langeveldt,LRPL Taylor,1,1,na,na
1st innings,15.5,LRPL Taylor,CK Langeveldt,J Botha,1,1,na,na
1st innings,15.6,J Botha,CK Langeveldt,LRPL Taylor,1,1,na,na
1st innings,16.1,J Botha,S Aravind,LRPL Taylor,2,2,na,na
1st innings,16.2,J Botha,S Aravind,LRPL Taylor,1,1,na,na
1st innings,16.3,LRPL Taylor,S Aravind,J Botha,0,0,na,"{'fielders': ['KB Arun Karthik'], 'kind': 'caught', 'player_out': 'J Botha'}"
1st innings,16.4,LRPL Taylor,S Aravind,AL Menaria,0,0,na,na
1st innings,16.5,LRPL Taylor,S Aravind,AL Menaria,1,1,na,na
1st innings,16.6,AL Menaria,S Aravind,LRPL Taylor,1,1,na,na
1st innings,17.1,AL Menaria,CK Langeveldt,LRPL Taylor,0,0,na,na
1st innings,17.2,AL Menaria,CK Langeveldt,LRPL Taylor,0,0,na,"{'fielders': ['M Kaif'], 'kind': 'caught', 'player_out': 'LRPL Taylor'}"
1st innings,17.3,AS Raut,CK Langeveldt,AL Menaria,1,1,na,na
1st innings,17.4,AL Menaria,CK Langeveldt,AS Raut,0,0,na,na
1st innings,17.5,AL Menaria,CK Langeveldt,AS Raut,1,1,na,na
1st innings,17.6,AS Raut,CK Langeveldt,AL Menaria,4,4,na,na
1st innings,18.1,AL Menaria,CH Gayle,AS Raut,1,1,na,na
1st innings,18.2,AS Raut,CH Gayle,AL Menaria,2,2,na,na
1st innings,18.3,AS Raut,CH Gayle,AL Menaria,0,0,na,"{'fielders': ['M Kaif'], 'kind': 'caught', 'player_out': 'AL Menaria'}"
1st innings,18.4,DH Yagnik,CH Gayle,AS Raut,1,1,na,na
1st innings,18.5,AS Raut,CH Gayle,DH Yagnik,2,1,{'noballs': 1},na
1st innings,18.6,DH Yagnik,CH Gayle,AS Raut,5,0,{'wides': 5},na
1st innings,18.7,DH Yagnik,CH Gayle,AS Raut,0,0,na,na
1st innings,18.8,DH Yagnik,CH Gayle,AS Raut,0,0,na,na
1st innings,19.1,AS Raut,Z Khan,DH Yagnik,1,0,{'legbyes': 1},na
1st innings,19.2,DH Yagnik,Z Khan,AS Raut,1,1,na,na
1st innings,19.3,AS Raut,Z Khan,DH Yagnik,1,1,na,na
1st innings,19.4,DH Yagnik,Z Khan,AS Raut,1,1,na,na
1st innings,19.5,AS Raut,Z Khan,DH Yagnik,0,0,na,na
1st innings,19.6,AS Raut,Z Khan,DH Yagnik,1,0,{'byes': 1},na
2nd innings,0.1,TM Dilshan,SR Watson,CH Gayle,1,1,na,na
2nd innings,0.2,CH Gayle,SR Watson,TM Dilshan,1,0,{'wides': 1},na
2nd innings,0.3,CH Gayle,SR Watson,TM Dilshan,4,4,na,na
2nd innings,0.4,CH Gayle,SR Watson,TM Dilshan,0,0,na,na
2nd innings,0.5,CH Gayle,SR Watson,TM Dilshan,0,0,na,na
2nd innings,0.6,CH Gayle,SR Watson,TM Dilshan,0,0,na,na
2nd innings,0.7,CH Gayle,SR Watson,TM Dilshan,4,4,na,na
2nd innings,1.1,TM Dilshan,J Botha,CH Gayle,0,0,na,na
2nd innings,1.2,TM Dilshan,J Botha,CH Gayle,1,1,na,na
2nd innings,1.3,CH Gayle,J Botha,TM Dilshan,0,0,na,na
2nd innings,1.4,CH Gayle,J Botha,TM Dilshan,4,4,na,na
2nd innings,1.5,CH Gayle,J Botha,TM Dilshan,1,1,na,na
2nd innings,1.6,TM Dilshan,J Botha,CH Gayle,4,4,na,na
2nd innings,2.1,CH Gayle,Pankaj Singh,TM Dilshan,1,1,na,na
2nd innings,2.2,TM Dilshan,Pankaj Singh,CH Gayle,2,2,na,na
2nd innings,2.3,TM Dilshan,Pankaj Singh,CH Gayle,0,0,na,na
2nd innings,2.4,TM Dilshan,Pankaj Singh,CH Gayle,4,4,na,na
2nd innings,2.5,TM Dilshan,Pankaj Singh,CH Gayle,1,0,{'byes': 1},na
2nd innings,2.6,CH Gayle,Pankaj Singh,TM Dilshan,4,4,na,na
2nd innings,3.1,TM Dilshan,J Botha,CH Gayle,0,0,na,na
2nd innings,3.2,TM Dilshan,J Botha,CH Gayle,1,1,na,na
2nd innings,3.3,CH Gayle,J Botha,TM Dilshan,4,4,na,na
2nd innings,3.4,CH Gayle,J Botha,TM Dilshan,1,1,na,na
2nd innings,3.5,TM Dilshan,J Botha,CH Gayle,0,0,na,na
2nd innings,3.6,TM Dilshan,J Botha,CH Gayle,4,4,na,na
2nd innings,4.1,CH Gayle,SK Trivedi,TM Dilshan,0,0,na,na
2nd innings,4.2,CH Gayle,SK Trivedi,TM Dilshan,0,0,na,na
2nd innings,4.3,CH Gayle,SK Trivedi,TM Dilshan,4,4,na,na
2nd innings,4.4,CH Gayle,SK Trivedi,TM Dilshan,4,4,na,na
2nd innings,4.5,CH Gayle,SK Trivedi,TM Dilshan,0,0,na,na
2nd innings,4.6,CH Gayle,SK Trivedi,TM Dilshan,0,0,na,na
2nd innings,5.1,TM Dilshan,J Botha,CH Gayle,4,4,na,na
2nd innings,5.2,TM Dilshan,J Botha,CH Gayle,6,6,na,na
2nd innings,5.3,TM Dilshan,J Botha,CH Gayle,0,0,na,na
2nd innings,5.4,TM Dilshan,J Botha,CH Gayle,1,0,{'legbyes': 1},na
2nd innings,5.5,CH Gayle,J Botha,TM Dilshan,4,4,na,na
2nd innings,5.6,CH Gayle,J Botha,TM Dilshan,1,1,na,na
2nd innings,6.1,CH Gayle,SK Warne,TM Dilshan,0,0,na,na
2nd innings,6.2,CH Gayle,SK Warne,TM Dilshan,2,2,na,na
2nd innings,6.3,CH Gayle,SK Warne,TM Dilshan,0,0,na,na
2nd innings,6.4,CH Gayle,SK Warne,TM Dilshan,0,0,na,"{'fielders': ['LRPL Taylor'], 'kind': 'caught', 'player_out': 'TM Dilshan'}"
2nd innings,6.5,CH Gayle,SK Warne,V Kohli,1,1,na,na
2nd innings,6.6,V Kohli,SK Warne,CH Gayle,0,0,na,na
2nd innings,7.1,CH Gayle,SR Watson,V Kohli,1,1,na,na
2nd innings,7.2,V Kohli,SR Watson,CH Gayle,1,1,na,na
2nd innings,7.3,CH Gayle,SR Watson,V Kohli,1,0,{'wides': 1},na
2nd innings,7.4,CH Gayle,SR Watson,V Kohli,1,1,na,na
2nd innings,7.5,V Kohli,SR Watson,CH Gayle,4,4,na,na
2nd innings,7.6,V Kohli,SR Watson,CH Gayle,1,1,na,na
2nd innings,7.7,CH Gayle,SR Watson,V Kohli,0,0,na,na
2nd innings,8.1,V Kohli,SK Warne,CH Gayle,4,4,na,na
2nd innings,8.2,V Kohli,SK Warne,CH Gayle,1,1,na,na
2nd innings,8.3,CH Gayle,SK Warne,V Kohli,1,1,na,na
2nd innings,8.4,V Kohli,SK Warne,CH Gayle,0,0,na,na
2nd innings,8.5,V Kohli,SK Warne,CH Gayle,1,1,na,na
2nd innings,8.6,CH Gayle,SK Warne,V Kohli,1,1,na,na
2nd innings,9.1,CH Gayle,SK Trivedi,V Kohli,0,0,na,na
2nd innings,9.2,CH Gayle,SK Trivedi,V Kohli,1,1,na,na
2nd innings,9.3,V Kohli,SK Trivedi,CH Gayle,0,0,na,na
2nd innings,9.4,V Kohli,SK Trivedi,CH Gayle,1,1,na,na
2nd innings,9.5,CH Gayle,SK Trivedi,V Kohli,1,1,na,na
2nd innings,9.6,V Kohli,SK Trivedi,CH Gayle,1,1,na,na
2nd innings,10.1,V Kohli,SK Warne,CH Gayle,1,1,na,na
2nd innings,10.2,CH Gayle,SK Warne,V Kohli,0,0,na,na
2nd innings,10.3,CH Gayle,SK Warne,V Kohli,1,1,na,na
2nd innings,10.4,V Kohli,SK Warne,CH Gayle,1,1,na,na
2nd innings,10.5,CH Gayle,SK Warne,V Kohli,0,0,na,na
2nd innings,10.6,CH Gayle,SK Warne,V Kohli,1,1,na,na
2nd innings,11.1,CH Gayle,J Botha,V Kohli,4,4,na,na
2nd innings,11.2,CH Gayle,J Botha,V Kohli,1,1,na,na
2nd innings,11.3,V Kohli,J Botha,CH Gayle,1,1,na,na
2nd innings,11.4,CH Gayle,J Botha,V Kohli,0,0,na,na
2nd innings,11.5,CH Gayle,J Botha,V Kohli,1,1,na,na
2nd innings,11.6,V Kohli,J Botha,CH Gayle,0,0,na,na
2nd innings,12.1,CH Gayle,LRPL Taylor,V Kohli,1,1,na,na
2nd innings,12.2,V Kohli,LRPL Taylor,CH Gayle,1,1,na,na
2nd innings,12.3,CH Gayle,LRPL Taylor,V Kohli,1,1,na,na
2nd innings,12.4,V Kohli,LRPL Taylor,CH Gayle,6,6,na,na
2nd innings,12.5,V Kohli,LRPL Taylor,CH Gayle,1,1,na,na
2nd innings,12.6,CH Gayle,LRPL Taylor,V Kohli,1,1,na,na
2nd innings,13.1,CH Gayle,AL Menaria,V Kohli,0,0,na,na
2nd innings,13.2,CH Gayle,AL Menaria,V Kohli,0,0,na,na
2nd innings,13.3,CH Gayle,AL Menaria,V Kohli,1,1,na,na
2nd innings,13.4,V Kohli,AL Menaria,CH Gayle,0,0,na,na
2nd innings,13.5,V Kohli,AL Menaria,CH Gayle,1,1,na,na
2nd innings,13.6,CH Gayle,AL Menaria,V Kohli,1,1,na,na
2nd innings,14.1,CH Gayle,SK Warne,V Kohli,0,0,na,na
2nd innings,14.2,CH Gayle,SK Warne,V Kohli,1,1,na,na
2nd innings,14.3,V Kohli,SK Warne,CH Gayle,0,0,na,na
2nd innings,14.4,V Kohli,SK Warne,CH Gayle,0,0,na,na
2nd innings,14.5,V Kohli,SK Warne,CH Gayle,6,6,na,na
2nd innings,14.6,V Kohli,SK Warne,CH Gayle,4,4,na,na
2nd innings,15.1,CH Gayle,AL Menaria,V Kohli,2,2,na,na
2nd innings,15.2,CH Gayle,AL Menaria,V Kohli,0,0,na,na
2nd innings,15.3,CH Gayle,AL Menaria,V Kohli,4,4,na,na
2nd innings,15.4,CH Gayle,AL Menaria,V Kohli,1,1,na,na
2nd innings,15.5,V Kohli,AL Menaria,CH Gayle,0,0,na,na
2nd innings,15.6,V Kohli,AL Menaria,CH Gayle,6,6,na,na
2nd innings,16.1,CH Gayle,Pankaj Singh,V Kohli,1,1,na,na
2nd innings,16.2,V Kohli,Pankaj Singh,CH Gayle,0,0,na,na
2nd innings,16.3,V Kohli,Pankaj Singh,CH Gayle,1,1,na,na
2nd innings,16.4,CH Gayle,Pankaj Singh,V Kohli,4,4,na,na
2nd innings,16.5,CH Gayle,Pankaj Singh,V Kohli,0,0,na,na
2nd innings,16.6,CH Gayle,Pankaj Singh,V Kohli,6,6,na,na
