innings,deliveries,non_striker,bowler,batsman,total_runs,batsman_runs,extras,wickets
1st innings,0.1,SP Goswami,AN Ahmed,JH Kallis,0,0,na,na
1st innings,0.2,SP Goswami,AN Ahmed,JH Kallis,0,0,na,na
1st innings,0.3,SP Goswami,AN Ahmed,JH Kallis,0,0,na,na
1st innings,0.4,SP Goswami,AN Ahmed,JH Kallis,0,0,na,na
1st innings,0.5,SP Goswami,AN Ahmed,JH Kallis,1,1,na,na
1st innings,0.6,JH Kallis,AN Ahmed,SP Goswami,0,0,na,na
1st innings,1.1,SP Goswami,SL Malinga,JH Kallis,1,0,{'byes': 1},na
1st innings,1.2,JH Kallis,SL Malinga,SP Goswami,0,0,na,na
1st innings,1.3,JH Kallis,SL Malinga,SP Goswami,1,0,{'wides': 1},na
1st innings,1.4,JH Kallis,SL Malinga,SP Goswami,1,1,na,na
1st innings,1.5,SP Goswami,SL Malinga,JH Kallis,0,0,na,"{'fielders': ['TL Suman', 'AT Rayudu'], 'kind': 'run out', 'player_out': 'SP Goswami'}"
1st innings,1.6,JH Kallis,SL Malinga,G Gambhir,1,1,na,na
1st innings,1.7,G Gambhir,SL Malinga,JH Kallis,4,4,na,na
1st innings,2.1,JH Kallis,Harbhajan Singh,G Gambhir,0,0,na,na
1st innings,2.2,JH Kallis,Harbhajan Singh,G Gambhir,0,0,na,na
1st innings,2.3,JH Kallis,Harbhajan Singh,G Gambhir,2,0,{'legbyes': 2},na
1st innings,2.4,JH Kallis,Harbhajan Singh,G Gambhir,1,1,na,na
1st innings,2.5,G Gambhir,Harbhajan Singh,JH Kallis,0,0,na,na
1st innings,2.6,G Gambhir,Harbhajan Singh,JH Kallis,4,4,na,na
1st innings,3.1,JH Kallis,AN Ahmed,G Gambhir,6,6,na,na
1st innings,3.2,JH Kallis,AN Ahmed,G Gambhir,0,0,na,"{'kind': 'bowled', 'player_out': 'G Gambhir'}"
1st innings,3.3,JH Kallis,AN Ahmed,MK Tiwary,4,4,na,na
1st innings,3.4,JH Kallis,AN Ahmed,MK Tiwary,0,0,na,na
1st innings,3.5,JH Kallis,AN Ahmed,MK Tiwary,4,4,na,na
1st innings,3.6,JH Kallis,AN Ahmed,MK Tiwary,0,0,na,na
1st innings,4.1,MK Tiwary,RW Price,JH Kallis,1,1,na,na
1st innings,4.2,JH Kallis,RW Price,MK Tiwary,4,4,na,na
1st innings,4.3,JH Kallis,RW Price,MK Tiwary,1,1,na,na
1st innings,4.4,MK Tiwary,RW Price,JH Kallis,1,1,na,na
1st innings,4.5,JH Kallis,RW Price,MK Tiwary,6,6,na,na
1st innings,4.6,JH Kallis,RW Price,MK Tiwary,1,1,na,na
1st innings,5.1,JH Kallis,SL Malinga,MK Tiwary,0,0,na,na
1st innings,5.2,JH Kallis,SL Malinga,MK Tiwary,0,0,na,na
1st innings,5.3,JH Kallis,SL Malinga,MK Tiwary,0,0,na,na
1st innings,5.4,JH Kallis,SL Malinga,MK Tiwary,1,1,na,na
1st innings,5.5,MK Tiwary,SL Malinga,JH Kallis,0,0,na,na
1st innings,5.6,MK Tiwary,SL Malinga,JH Kallis,1,1,na,na
1st innings,6.1,MK Tiwary,RW Price,JH Kallis,1,1,na,na
1st innings,6.2,JH Kallis,RW Price,MK Tiwary,1,1,na,na
1st innings,6.3,MK Tiwary,RW Price,JH Kallis,1,1,na,na
1st innings,6.4,JH Kallis,RW Price,MK Tiwary,1,1,na,na
1st innings,6.5,MK Tiwary,RW Price,JH Kallis,1,1,na,na
1st innings,6.6,JH Kallis,RW Price,MK Tiwary,1,1,na,na
1st innings,7.1,JH Kallis,Harbhajan Singh,MK Tiwary,1,1,na,na
1st innings,7.2,MK Tiwary,Harbhajan Singh,JH Kallis,1,1,na,na
1st innings,7.3,JH Kallis,Harbhajan Singh,MK Tiwary,0,0,na,na
1st innings,7.4,JH Kallis,Harbhajan Singh,MK Tiwary,4,4,na,na
1st innings,7.5,JH Kallis,Harbhajan Singh,MK Tiwary,1,1,na,na
1st innings,7.6,MK Tiwary,Harbhajan Singh,JH Kallis,1,1,na,na
1st innings,8.1,MK Tiwary,KA Pollard,JH Kallis,1,1,na,na
1st innings,8.2,JH Kallis,KA Pollard,MK Tiwary,4,4,na,na
1st innings,8.3,JH Kallis,KA Pollard,MK Tiwary,1,1,na,na
1st innings,8.4,MK Tiwary,KA Pollard,JH Kallis,1,1,na,na
1st innings,8.5,JH Kallis,KA Pollard,MK Tiwary,0,0,na,"{'fielders': ['Harbhajan Singh'], 'kind': 'run out', 'player_out': 'MK Tiwary'}"
1st innings,8.6,JH Kallis,KA Pollard,YK Pathan,1,1,na,na
1st innings,9.1,JH Kallis,RW Price,YK Pathan,0,0,na,na
1st innings,9.2,JH Kallis,RW Price,YK Pathan,1,1,na,na
1st innings,9.3,YK Pathan,RW Price,JH Kallis,1,1,na,na
1st innings,9.4,JH Kallis,RW Price,YK Pathan,6,6,na,na
1st innings,9.5,JH Kallis,RW Price,YK Pathan,1,1,na,na
1st innings,9.6,YK Pathan,RW Price,JH Kallis,4,4,na,na
1st innings,10.1,JH Kallis,KA Pollard,YK Pathan,4,4,na,na
1st innings,10.2,JH Kallis,KA Pollard,YK Pathan,4,4,na,na
1st innings,10.3,JH Kallis,KA Pollard,YK Pathan,1,1,na,na
1st innings,10.4,YK Pathan,KA Pollard,JH Kallis,1,1,na,na
1st innings,10.5,JH Kallis,KA Pollard,YK Pathan,1,1,na,na
1st innings,10.6,YK Pathan,KA Pollard,JH Kallis,4,4,na,na
1st innings,11.1,JH Kallis,JEC Franklin,YK Pathan,1,1,na,na
1st innings,11.2,YK Pathan,JEC Franklin,JH Kallis,1,1,na,na
1st innings,11.3,JH Kallis,JEC Franklin,YK Pathan,0,0,na,na
1st innings,11.4,JH Kallis,JEC Franklin,YK Pathan,0,0,na,na
1st innings,11.5,JH Kallis,JEC Franklin,YK Pathan,1,1,na,na
1st innings,11.6,YK Pathan,JEC Franklin,JH Kallis,1,1,na,na
1st innings,12.1,YK Pathan,SL Malinga,JH Kallis,1,1,na,na
1st innings,12.2,JH Kallis,SL Malinga,YK Pathan,1,1,na,na
1st innings,12.3,YK Pathan,SL Malinga,JH Kallis,0,0,na,na
1st innings,12.4,YK Pathan,SL Malinga,JH Kallis,0,0,na,na
1st innings,12.5,YK Pathan,SL Malinga,JH Kallis,1,1,na,na
1st innings,12.6,JH Kallis,SL Malinga,YK Pathan,1,1,na,na
1st innings,13.1,JH Kallis,JEC Franklin,YK Pathan,0,0,na,na
1st innings,13.2,JH Kallis,JEC Franklin,YK Pathan,4,4,na,na
1st innings,13.3,JH Kallis,JEC Franklin,YK Pathan,1,1,na,na
1st innings,13.4,YK Pathan,JEC Franklin,JH Kallis,2,2,na,na
1st innings,13.5,YK Pathan,JEC Franklin,JH Kallis,1,1,na,na
1st innings,13.6,JH Kallis,JEC Franklin,YK Pathan,1,1,na,na
1st innings,14.1,JH Kallis,AN Ahmed,YK Pathan,1,1,na,na
1st innings,14.2,YK Pathan,AN Ahmed,JH Kallis,1,1,na,na
1st innings,14.3,JH Kallis,AN Ahmed,YK Pathan,0,0,na,na
1st innings,14.4,JH Kallis,AN Ahmed,YK Pathan,4,4,na,na
1st innings,14.5,JH Kallis,AN Ahmed,YK Pathan,1,1,na,na
1st innings,14.6,YK Pathan,AN Ahmed,JH Kallis,1,1,na,na
1st innings,15.1,YK Pathan,JEC Franklin,JH Kallis,1,1,na,na
1st innings,15.2,JH Kallis,JEC Franklin,YK Pathan,0,0,na,na
1st innings,15.3,JH Kallis,JEC Franklin,YK Pathan,1,1,na,na
1st innings,15.4,YK Pathan,JEC Franklin,JH Kallis,1,1,na,na
1st innings,15.5,JH Kallis,JEC Franklin,YK Pathan,0,0,na,na
1st innings,15.6,JH Kallis,JEC Franklin,YK Pathan,0,0,na,"{'fielders': ['AN Ahmed'], 'kind': 'caught', 'player_out': 'YK Pathan'}"
1st innings,16.1,JH Kallis,Harbhajan Singh,RN ten Doeschate,1,1,na,na
1st innings,16.2,RN ten Doeschate,Harbhajan Singh,JH Kallis,6,6,na,na
1st innings,16.3,RN ten Doeschate,Harbhajan Singh,JH Kallis,1,1,na,na
1st innings,16.4,JH Kallis,Harbhajan Singh,RN ten Doeschate,2,2,na,na
1st innings,16.5,JH Kallis,Harbhajan Singh,RN ten Doeschate,1,1,na,na
1st innings,16.6,RN ten Doeschate,Harbhajan Singh,JH Kallis,2,0,{'wides': 2},na
1st innings,16.7,JH Kallis,Harbhajan Singh,RN ten Doeschate,0,0,na,na
1st innings,17.1,RN ten Doeschate,JEC Franklin,JH Kallis,6,6,na,na
1st innings,17.2,RN ten Doeschate,JEC Franklin,JH Kallis,6,6,na,na
1st innings,17.3,RN ten Doeschate,JEC Franklin,JH Kallis,0,0,na,"{'fielders': ['TL Suman'], 'kind': 'caught', 'player_out': 'JH Kallis'}"
1st innings,17.4,RN ten Doeschate,JEC Franklin,R Bhatia,1,1,na,na
1st innings,17.5,R Bhatia,JEC Franklin,RN ten Doeschate,4,4,na,na
1st innings,17.6,R Bhatia,JEC Franklin,RN ten Doeschate,2,2,na,na
1st innings,18.1,RN ten Doeschate,SL Malinga,R Bhatia,1,1,na,na
1st innings,18.2,R Bhatia,SL Malinga,RN ten Doeschate,0,0,na,na
1st innings,18.3,R Bhatia,SL Malinga,RN ten Doeschate,1,1,na,na
1st innings,18.4,RN ten Doeschate,SL Malinga,R Bhatia,1,1,na,na
1st innings,18.5,R Bhatia,SL Malinga,RN ten Doeschate,6,6,na,na
1st innings,18.6,R Bhatia,SL Malinga,RN ten Doeschate,1,1,na,na
1st innings,19.1,R Bhatia,AN Ahmed,RN ten Doeschate,0,0,na,na
1st innings,19.2,R Bhatia,AN Ahmed,RN ten Doeschate,0,0,na,"{'kind': 'lbw', 'player_out': 'RN ten Doeschate'}"
1st innings,19.3,R Bhatia,AN Ahmed,Shakib Al Hasan,1,1,na,na
1st innings,19.4,Shakib Al Hasan,AN Ahmed,R Bhatia,4,4,na,na
1st innings,19.5,Shakib Al Hasan,AN Ahmed,R Bhatia,4,4,na,na
1st innings,19.6,Shakib Al Hasan,AN Ahmed,R Bhatia,0,0,na,"{'fielders': ['AT Rayudu'], 'kind': 'run out', 'player_out': 'R Bhatia'}"
2nd innings,0.1,SR Tendulkar,B Lee,TL Suman,4,4,na,na
2nd innings,0.2,SR Tendulkar,B Lee,TL Suman,0,0,na,na
2nd innings,0.3,SR Tendulkar,B Lee,TL Suman,1,0,{'legbyes': 1},na
2nd innings,0.4,TL Suman,B Lee,SR Tendulkar,0,0,na,na
2nd innings,0.5,TL Suman,B Lee,SR Tendulkar,4,4,na,na
2nd innings,0.6,TL Suman,B Lee,SR Tendulkar,4,4,na,na
2nd innings,1.1,SR Tendulkar,Iqbal Abdulla,TL Suman,0,0,na,"{'fielders': ['YK Pathan'], 'kind': 'caught', 'player_out': 'TL Suman'}"
2nd innings,1.2,SR Tendulkar,Iqbal Abdulla,Harbhajan Singh,0,0,na,na
2nd innings,1.3,SR Tendulkar,Iqbal Abdulla,Harbhajan Singh,0,0,na,na
2nd innings,1.4,SR Tendulkar,Iqbal Abdulla,Harbhajan Singh,0,0,na,na
2nd innings,1.5,SR Tendulkar,Iqbal Abdulla,Harbhajan Singh,1,1,na,na
2nd innings,1.6,Harbhajan Singh,Iqbal Abdulla,SR Tendulkar,0,0,na,na
2nd innings,2.1,SR Tendulkar,B Lee,Harbhajan Singh,4,4,na,na
2nd innings,2.2,SR Tendulkar,B Lee,Harbhajan Singh,4,4,na,na
2nd innings,2.3,SR Tendulkar,B Lee,Harbhajan Singh,1,1,na,na
2nd innings,2.4,Harbhajan Singh,B Lee,SR Tendulkar,1,0,{'legbyes': 1},na
2nd innings,2.5,SR Tendulkar,B Lee,Harbhajan Singh,0,0,na,na
2nd innings,2.6,SR Tendulkar,B Lee,Harbhajan Singh,0,0,na,na
2nd innings,3.1,Harbhajan Singh,Iqbal Abdulla,SR Tendulkar,4,4,na,na
2nd innings,3.2,Harbhajan Singh,Iqbal Abdulla,SR Tendulkar,1,1,na,na
2nd innings,3.3,SR Tendulkar,Iqbal Abdulla,Harbhajan Singh,0,0,na,na
2nd innings,3.4,SR Tendulkar,Iqbal Abdulla,Harbhajan Singh,0,0,na,na
2nd innings,3.5,SR Tendulkar,Iqbal Abdulla,Harbhajan Singh,0,0,na,na
2nd innings,3.6,SR Tendulkar,Iqbal Abdulla,Harbhajan Singh,4,4,na,na
2nd innings,4.1,Harbhajan Singh,Shakib Al Hasan,SR Tendulkar,1,1,na,na
2nd innings,4.2,SR Tendulkar,Shakib Al Hasan,Harbhajan Singh,0,0,na,na
2nd innings,4.3,SR Tendulkar,Shakib Al Hasan,Harbhajan Singh,0,0,na,na
2nd innings,4.4,SR Tendulkar,Shakib Al Hasan,Harbhajan Singh,1,1,na,na
2nd innings,4.5,Harbhajan Singh,Shakib Al Hasan,SR Tendulkar,1,1,na,na
2nd innings,4.6,SR Tendulkar,Shakib Al Hasan,Harbhajan Singh,0,0,na,na
2nd innings,5.1,Harbhajan Singh,L Balaji,SR Tendulkar,1,1,na,na
2nd innings,5.2,SR Tendulkar,L Balaji,Harbhajan Singh,1,0,{'wides': 1},na
2nd innings,5.3,SR Tendulkar,L Balaji,Harbhajan Singh,4,4,na,na
2nd innings,5.4,SR Tendulkar,L Balaji,Harbhajan Singh,2,2,na,na
2nd innings,5.5,SR Tendulkar,L Balaji,Harbhajan Singh,4,4,na,na
2nd innings,5.6,SR Tendulkar,L Balaji,Harbhajan Singh,4,0,{'legbyes': 4},na
2nd innings,5.7,SR Tendulkar,L Balaji,Harbhajan Singh,2,2,na,na
2nd innings,6.1,Harbhajan Singh,Shakib Al Hasan,SR Tendulkar,1,1,na,na
2nd innings,6.2,SR Tendulkar,Shakib Al Hasan,Harbhajan Singh,1,1,na,na
2nd innings,6.3,Harbhajan Singh,Shakib Al Hasan,SR Tendulkar,1,1,na,na
2nd innings,6.4,SR Tendulkar,Shakib Al Hasan,Harbhajan Singh,0,0,na,na
2nd innings,6.5,SR Tendulkar,Shakib Al Hasan,Harbhajan Singh,0,0,na,na
2nd innings,6.6,SR Tendulkar,Shakib Al Hasan,Harbhajan Singh,2,0,{'wides': 2},na
2nd innings,6.7,Harbhajan Singh,Shakib Al Hasan,SR Tendulkar,4,4,na,na
2nd innings,7.1,SR Tendulkar,YK Pathan,Harbhajan Singh,0,0,na,na
2nd innings,7.2,SR Tendulkar,YK Pathan,Harbhajan Singh,1,1,na,na
2nd innings,7.3,Harbhajan Singh,YK Pathan,SR Tendulkar,4,4,na,na
2nd innings,7.4,Harbhajan Singh,YK Pathan,SR Tendulkar,1,1,na,na
2nd innings,7.5,SR Tendulkar,YK Pathan,Harbhajan Singh,1,1,na,na
2nd innings,7.6,Harbhajan Singh,YK Pathan,SR Tendulkar,0,0,na,na
2nd innings,8.1,SR Tendulkar,R Bhatia,Harbhajan Singh,0,0,na,"{'fielders': ['MK Tiwary'], 'kind': 'caught', 'player_out': 'Harbhajan Singh'}"
2nd innings,8.2,SR Tendulkar,R Bhatia,RG Sharma,1,1,na,na
2nd innings,8.3,RG Sharma,R Bhatia,SR Tendulkar,1,1,na,na
2nd innings,8.4,SR Tendulkar,R Bhatia,RG Sharma,1,1,na,na
2nd innings,8.5,RG Sharma,R Bhatia,SR Tendulkar,1,1,na,na
2nd innings,8.6,SR Tendulkar,R Bhatia,RG Sharma,1,1,na,na
2nd innings,9.1,SR Tendulkar,Shakib Al Hasan,RG Sharma,0,0,na,na
2nd innings,9.2,SR Tendulkar,Shakib Al Hasan,RG Sharma,4,4,na,na
2nd innings,9.3,SR Tendulkar,Shakib Al Hasan,RG Sharma,0,0,na,na
2nd innings,9.4,SR Tendulkar,Shakib Al Hasan,RG Sharma,2,2,na,na
2nd innings,9.5,SR Tendulkar,Shakib Al Hasan,RG Sharma,1,1,na,na
2nd innings,9.6,RG Sharma,Shakib Al Hasan,SR Tendulkar,1,0,{'wides': 1},na
2nd innings,9.7,RG Sharma,Shakib Al Hasan,SR Tendulkar,1,1,na,na
2nd innings,10.1,RG Sharma,R Bhatia,SR Tendulkar,1,1,na,na
2nd innings,10.2,SR Tendulkar,R Bhatia,RG Sharma,0,0,na,"{'fielders': ['SP Goswami'], 'kind': 'caught', 'player_out': 'RG Sharma'}"
2nd innings,10.3,SR Tendulkar,R Bhatia,KA Pollard,1,1,na,na
2nd innings,10.4,KA Pollard,R Bhatia,SR Tendulkar,0,0,na,na
2nd innings,10.5,KA Pollard,R Bhatia,SR Tendulkar,4,4,na,na
2nd innings,10.6,KA Pollard,R Bhatia,SR Tendulkar,1,0,{'legbyes': 1},na
2nd innings,11.1,KA Pollard,Iqbal Abdulla,SR Tendulkar,1,1,na,na
2nd innings,11.2,SR Tendulkar,Iqbal Abdulla,KA Pollard,0,0,na,na
2nd innings,11.3,SR Tendulkar,Iqbal Abdulla,KA Pollard,0,0,na,na
2nd innings,11.4,SR Tendulkar,Iqbal Abdulla,KA Pollard,0,0,na,na
2nd innings,11.5,SR Tendulkar,Iqbal Abdulla,KA Pollard,1,1,na,na
2nd innings,11.6,KA Pollard,Iqbal Abdulla,SR Tendulkar,1,1,na,na
2nd innings,12.1,KA Pollard,R Bhatia,SR Tendulkar,1,1,na,na
2nd innings,12.2,SR Tendulkar,R Bhatia,KA Pollard,1,1,na,na
2nd innings,12.3,KA Pollard,R Bhatia,SR Tendulkar,0,0,na,"{'fielders': ['G Gambhir'], 'kind': 'caught', 'player_out': 'SR Tendulkar'}"
2nd innings,12.4,JEC Franklin,R Bhatia,KA Pollard,0,0,na,na
2nd innings,12.5,JEC Franklin,R Bhatia,KA Pollard,1,1,na,na
2nd innings,12.6,KA Pollard,R Bhatia,JEC Franklin,0,0,na,na
2nd innings,13.1,JEC Franklin,Shakib Al Hasan,KA Pollard,0,0,na,na
2nd innings,13.2,JEC Franklin,Shakib Al Hasan,KA Pollard,1,1,na,na
2nd innings,13.3,KA Pollard,Shakib Al Hasan,JEC Franklin,2,2,na,na
2nd innings,13.4,KA Pollard,Shakib Al Hasan,JEC Franklin,1,1,na,na
2nd innings,13.5,JEC Franklin,Shakib Al Hasan,KA Pollard,0,0,na,na
2nd innings,13.6,JEC Franklin,Shakib Al Hasan,KA Pollard,1,1,na,na
2nd innings,14.1,JEC Franklin,R Bhatia,KA Pollard,1,1,na,na
2nd innings,14.2,KA Pollard,R Bhatia,JEC Franklin,1,1,na,na
2nd innings,14.3,JEC Franklin,R Bhatia,KA Pollard,4,4,na,na
2nd innings,14.4,JEC Franklin,R Bhatia,KA Pollard,1,1,na,na
2nd innings,14.5,KA Pollard,R Bhatia,JEC Franklin,1,1,na,na
2nd innings,14.6,JEC Franklin,R Bhatia,KA Pollard,0,0,na,na
2nd innings,15.1,KA Pollard,Iqbal Abdulla,JEC Franklin,1,1,na,na
2nd innings,15.2,JEC Franklin,Iqbal Abdulla,KA Pollard,1,1,na,na
2nd innings,15.3,KA Pollard,Iqbal Abdulla,JEC Franklin,6,6,na,na
2nd innings,15.4,KA Pollard,Iqbal Abdulla,JEC Franklin,1,1,na,na
2nd innings,15.5,JEC Franklin,Iqbal Abdulla,KA Pollard,0,0,na,na
2nd innings,15.6,JEC Franklin,Iqbal Abdulla,KA Pollard,4,4,na,na
2nd innings,16.1,KA Pollard,B Lee,JEC Franklin,2,2,na,na
2nd innings,16.2,KA Pollard,B Lee,JEC Franklin,2,2,na,na
2nd innings,16.3,KA Pollard,B Lee,JEC Franklin,1,0,{'wides': 1},na
2nd innings,16.4,KA Pollard,B Lee,JEC Franklin,1,1,na,na
2nd innings,16.5,JEC Franklin,B Lee,KA Pollard,1,0,{'wides': 1},na
2nd innings,16.6,JEC Franklin,B Lee,KA Pollard,0,0,na,na
2nd innings,16.7,JEC Franklin,B Lee,KA Pollard,1,1,na,na
2nd innings,16.8,KA Pollard,B Lee,JEC Franklin,1,1,na,na
2nd innings,17.1,KA Pollard,L Balaji,JEC Franklin,4,4,na,na
2nd innings,17.2,KA Pollard,L Balaji,JEC Franklin,1,1,na,na
2nd innings,17.3,JEC Franklin,L Balaji,KA Pollard,0,0,na,"{'kind': 'bowled', 'player_out': 'KA Pollard'}"
2nd innings,17.4,JEC Franklin,L Balaji,AT Rayudu,1,1,na,na
2nd innings,17.5,AT Rayudu,L Balaji,JEC Franklin,1,1,na,na
2nd innings,17.6,JEC Franklin,L Balaji,AT Rayudu,1,0,{'wides': 1},na
2nd innings,17.7,JEC Franklin,L Balaji,AT Rayudu,6,6,na,na
2nd innings,18.1,AT Rayudu,B Lee,JEC Franklin,0,0,na,na
2nd innings,18.2,AT Rayudu,B Lee,JEC Franklin,2,2,na,na
2nd innings,18.3,AT Rayudu,B Lee,JEC Franklin,1,1,na,na
2nd innings,18.4,JEC Franklin,B Lee,AT Rayudu,2,2,na,na
2nd innings,18.5,JEC Franklin,B Lee,AT Rayudu,2,2,na,na
2nd innings,18.6,JEC Franklin,B Lee,AT Rayudu,2,0,{'legbyes': 2},na
2nd innings,19.1,AT Rayudu,L Balaji,JEC Franklin,4,4,na,na
2nd innings,19.2,AT Rayudu,L Balaji,JEC Franklin,4,4,na,na
2nd innings,19.3,AT Rayudu,L Balaji,JEC Franklin,4,4,na,na
2nd innings,19.4,AT Rayudu,L Balaji,JEC Franklin,4,4,na,na
2nd innings,19.5,AT Rayudu,L Balaji,JEC Franklin,1,1,na,na
2nd innings,19.6,JEC Franklin,L Balaji,AT Rayudu,6,6,na,na
