innings,deliveries,non_striker,bowler,batsman,total_runs,batsman_runs,extras,wickets
1st innings,0.1,TM Dilshan,MM Patel,CH Gayle,0,0,na,na
1st innings,0.2,TM Dilshan,MM Patel,CH Gayle,0,0,na,na
1st innings,0.3,TM Dilshan,MM Patel,CH Gayle,0,0,na,na
1st innings,0.4,TM Dilshan,MM Patel,CH Gayle,0,0,na,na
1st innings,0.5,TM Dilshan,MM Patel,CH Gayle,0,0,na,na
1st innings,0.6,TM Dilshan,MM Patel,CH Gayle,6,6,na,na
1st innings,1.1,CH Gayle,RP Singh,TM Dilshan,0,0,na,na
1st innings,1.2,CH Gayle,RP Singh,TM Dilshan,0,0,na,na
1st innings,1.3,CH Gayle,RP Singh,TM Dilshan,0,0,na,na
1st innings,1.4,CH Gayle,RP Singh,TM Dilshan,0,0,na,na
1st innings,1.5,CH Gayle,RP Singh,TM Dilshan,1,1,na,na
1st innings,1.6,TM Dilshan,RP Singh,CH Gayle,0,0,na,na
1st innings,2.1,CH Gayle,MM Patel,TM Dilshan,1,1,na,na
1st innings,2.2,TM Dilshan,MM Patel,CH Gayle,0,0,na,"{'kind': 'bowled', 'player_out': 'CH Gayle'}"
1st innings,2.3,TM Dilshan,MM Patel,V Kohli,3,3,na,na
1st innings,2.4,V Kohli,MM Patel,TM Dilshan,0,0,na,"{'fielders': ['HH Gibbs'], 'kind': 'run out', 'player_out': 'V Kohli'}"
1st innings,2.5,SS Tiwary,MM Patel,TM Dilshan,0,0,na,na
1st innings,2.6,SS Tiwary,MM Patel,TM Dilshan,0,0,na,na
1st innings,3.1,TM Dilshan,RP Singh,SS Tiwary,0,0,na,na
1st innings,3.2,TM Dilshan,RP Singh,SS Tiwary,0,0,na,na
1st innings,3.3,TM Dilshan,RP Singh,SS Tiwary,1,1,na,na
1st innings,3.4,SS Tiwary,RP Singh,TM Dilshan,1,1,na,na
1st innings,3.5,TM Dilshan,RP Singh,SS Tiwary,0,0,na,na
1st innings,3.6,TM Dilshan,RP Singh,SS Tiwary,0,0,na,na
1st innings,4.1,SS Tiwary,MM Patel,TM Dilshan,1,0,{'legbyes': 1},na
1st innings,4.2,TM Dilshan,MM Patel,SS Tiwary,0,0,na,na
1st innings,4.3,TM Dilshan,MM Patel,SS Tiwary,4,4,na,na
1st innings,4.4,TM Dilshan,MM Patel,SS Tiwary,1,0,{'noballs': 1},na
1st innings,4.5,TM Dilshan,MM Patel,SS Tiwary,2,1,{'noballs': 1},na
1st innings,4.6,SS Tiwary,MM Patel,TM Dilshan,1,0,{'wides': 1},na
1st innings,4.7,SS Tiwary,MM Patel,TM Dilshan,5,4,{'noballs': 1},na
1st innings,4.8,SS Tiwary,MM Patel,TM Dilshan,0,0,na,na
1st innings,4.9,SS Tiwary,MM Patel,TM Dilshan,1,1,na,na
1st innings,4.1,TM Dilshan,MM Patel,SS Tiwary,6,6,na,na
1st innings,5.1,SS Tiwary,SL Malinga,TM Dilshan,1,1,na,na
1st innings,5.2,TM Dilshan,SL Malinga,SS Tiwary,1,1,na,na
1st innings,5.3,SS Tiwary,SL Malinga,TM Dilshan,1,1,na,na
1st innings,5.4,TM Dilshan,SL Malinga,SS Tiwary,2,2,na,na
1st innings,5.5,TM Dilshan,SL Malinga,SS Tiwary,1,0,{'wides': 1},na
1st innings,5.6,TM Dilshan,SL Malinga,SS Tiwary,0,0,na,na
1st innings,5.7,TM Dilshan,SL Malinga,SS Tiwary,0,0,na,na
1st innings,6.1,SS Tiwary,Harbhajan Singh,TM Dilshan,1,1,na,na
1st innings,6.2,TM Dilshan,Harbhajan Singh,SS Tiwary,6,6,na,na
1st innings,6.3,TM Dilshan,Harbhajan Singh,SS Tiwary,0,0,na,"{'kind': 'hit wicket', 'player_out': 'SS Tiwary'}"
1st innings,6.4,TM Dilshan,Harbhajan Singh,AB de Villiers,1,1,na,na
1st innings,6.5,AB de Villiers,Harbhajan Singh,TM Dilshan,0,0,na,na
1st innings,6.6,AB de Villiers,Harbhajan Singh,TM Dilshan,0,0,na,na
1st innings,7.1,TM Dilshan,SL Malinga,AB de Villiers,0,0,na,na
1st innings,7.2,TM Dilshan,SL Malinga,AB de Villiers,0,0,na,na
1st innings,7.3,TM Dilshan,SL Malinga,AB de Villiers,1,1,na,na
1st innings,7.4,AB de Villiers,SL Malinga,TM Dilshan,0,0,na,na
1st innings,7.5,AB de Villiers,SL Malinga,TM Dilshan,1,1,na,na
1st innings,7.6,TM Dilshan,SL Malinga,AB de Villiers,2,2,na,na
1st innings,8.1,AB de Villiers,Harbhajan Singh,TM Dilshan,0,0,na,na
1st innings,8.2,AB de Villiers,Harbhajan Singh,TM Dilshan,1,1,na,na
1st innings,8.3,TM Dilshan,Harbhajan Singh,AB de Villiers,1,1,na,na
1st innings,8.4,AB de Villiers,Harbhajan Singh,TM Dilshan,2,2,na,na
1st innings,8.5,AB de Villiers,Harbhajan Singh,TM Dilshan,4,4,na,na
1st innings,8.6,AB de Villiers,Harbhajan Singh,TM Dilshan,1,1,na,na
1st innings,9.1,AB de Villiers,KA Pollard,TM Dilshan,0,0,na,na
1st innings,9.2,AB de Villiers,KA Pollard,TM Dilshan,0,0,na,na
1st innings,9.3,AB de Villiers,KA Pollard,TM Dilshan,2,2,na,na
1st innings,9.4,AB de Villiers,KA Pollard,TM Dilshan,4,4,na,na
1st innings,9.5,AB de Villiers,KA Pollard,TM Dilshan,1,1,na,na
1st innings,9.6,TM Dilshan,KA Pollard,AB de Villiers,1,1,na,na
1st innings,10.1,TM Dilshan,Harbhajan Singh,AB de Villiers,1,1,na,na
1st innings,10.2,AB de Villiers,Harbhajan Singh,TM Dilshan,1,1,na,na
1st innings,10.3,TM Dilshan,Harbhajan Singh,AB de Villiers,4,4,na,na
1st innings,10.4,TM Dilshan,Harbhajan Singh,AB de Villiers,1,1,na,na
1st innings,10.5,AB de Villiers,Harbhajan Singh,TM Dilshan,6,6,na,na
1st innings,10.6,AB de Villiers,Harbhajan Singh,TM Dilshan,2,0,{'wides': 2},na
1st innings,10.7,TM Dilshan,Harbhajan Singh,AB de Villiers,1,1,na,na
1st innings,11.1,TM Dilshan,KA Pollard,AB de Villiers,1,1,na,na
1st innings,11.2,AB de Villiers,KA Pollard,TM Dilshan,1,1,na,na
1st innings,11.3,TM Dilshan,KA Pollard,AB de Villiers,0,0,na,"{'fielders': ['SL Malinga'], 'kind': 'caught', 'player_out': 'AB de Villiers'}"
1st innings,11.4,TM Dilshan,KA Pollard,MA Agarwal,1,1,na,na
1st innings,11.5,MA Agarwal,KA Pollard,TM Dilshan,0,0,na,na
1st innings,11.6,MA Agarwal,KA Pollard,TM Dilshan,0,0,na,na
1st innings,12.1,TM Dilshan,DR Smith,MA Agarwal,0,0,na,na
1st innings,12.2,TM Dilshan,DR Smith,MA Agarwal,0,0,na,na
1st innings,12.3,TM Dilshan,DR Smith,MA Agarwal,1,1,na,na
1st innings,12.4,MA Agarwal,DR Smith,TM Dilshan,1,1,na,na
1st innings,12.5,TM Dilshan,DR Smith,MA Agarwal,0,0,na,na
1st innings,12.6,TM Dilshan,DR Smith,MA Agarwal,0,0,na,na
1st innings,13.1,MA Agarwal,KA Pollard,TM Dilshan,1,0,{'wides': 1},na
1st innings,13.2,MA Agarwal,KA Pollard,TM Dilshan,0,0,na,na
1st innings,13.3,MA Agarwal,KA Pollard,TM Dilshan,1,1,na,na
1st innings,13.4,TM Dilshan,KA Pollard,MA Agarwal,1,0,{'wides': 1},na
1st innings,13.5,TM Dilshan,KA Pollard,MA Agarwal,0,0,na,na
1st innings,13.6,TM Dilshan,KA Pollard,MA Agarwal,1,0,{'wides': 1},na
1st innings,13.7,TM Dilshan,KA Pollard,MA Agarwal,0,0,na,na
1st innings,13.8,TM Dilshan,KA Pollard,MA Agarwal,4,4,na,na
1st innings,13.9,TM Dilshan,KA Pollard,MA Agarwal,1,1,na,na
1st innings,14.1,TM Dilshan,DR Smith,MA Agarwal,1,1,na,na
1st innings,14.2,MA Agarwal,DR Smith,TM Dilshan,0,0,na,na
1st innings,14.3,MA Agarwal,DR Smith,TM Dilshan,4,4,na,na
1st innings,14.4,MA Agarwal,DR Smith,TM Dilshan,1,1,na,na
1st innings,14.5,TM Dilshan,DR Smith,MA Agarwal,1,1,na,na
1st innings,14.6,MA Agarwal,DR Smith,TM Dilshan,1,1,na,na
1st innings,15.1,MA Agarwal,RP Singh,TM Dilshan,1,0,{'wides': 1},na
1st innings,15.2,MA Agarwal,RP Singh,TM Dilshan,1,1,na,na
1st innings,15.3,TM Dilshan,RP Singh,MA Agarwal,4,4,na,na
1st innings,15.4,TM Dilshan,RP Singh,MA Agarwal,1,1,na,na
1st innings,15.5,MA Agarwal,RP Singh,TM Dilshan,1,0,{'legbyes': 1},na
1st innings,15.6,TM Dilshan,RP Singh,MA Agarwal,6,6,na,na
1st innings,15.7,TM Dilshan,RP Singh,MA Agarwal,1,1,na,na
1st innings,16.1,TM Dilshan,SL Malinga,MA Agarwal,1,1,na,na
1st innings,16.2,MA Agarwal,SL Malinga,TM Dilshan,0,0,na,na
1st innings,16.3,MA Agarwal,SL Malinga,TM Dilshan,1,0,{'wides': 1},na
1st innings,16.4,MA Agarwal,SL Malinga,TM Dilshan,1,1,na,na
1st innings,16.5,TM Dilshan,SL Malinga,MA Agarwal,1,1,na,na
1st innings,16.6,MA Agarwal,SL Malinga,TM Dilshan,2,2,na,na
1st innings,16.7,MA Agarwal,SL Malinga,TM Dilshan,0,0,na,na
1st innings,17.1,TM Dilshan,RP Singh,MA Agarwal,4,4,na,na
1st innings,17.2,TM Dilshan,RP Singh,MA Agarwal,1,1,na,na
1st innings,17.3,MA Agarwal,RP Singh,TM Dilshan,0,0,na,"{'kind': 'bowled', 'player_out': 'TM Dilshan'}"
1st innings,17.4,MA Agarwal,RP Singh,R Vinay Kumar,0,0,na,na
1st innings,17.5,MA Agarwal,RP Singh,R Vinay Kumar,1,1,na,"{'fielders': ['DR Smith', 'KD Karthik'], 'kind': 'run out', 'player_out': 'R Vinay Kumar'}"
1st innings,17.6,MA Agarwal,RP Singh,Z Khan,0,0,na,na
1st innings,18.1,Z Khan,SL Malinga,MA Agarwal,1,1,na,na
1st innings,18.2,MA Agarwal,SL Malinga,Z Khan,0,0,na,na
1st innings,18.3,MA Agarwal,SL Malinga,Z Khan,1,1,na,na
1st innings,18.4,Z Khan,SL Malinga,MA Agarwal,4,4,na,na
1st innings,18.5,Z Khan,SL Malinga,MA Agarwal,6,6,na,na
1st innings,18.6,Z Khan,SL Malinga,MA Agarwal,1,1,na,na
1st innings,19.1,Z Khan,MM Patel,MA Agarwal,6,6,na,na
1st innings,19.2,Z Khan,MM Patel,MA Agarwal,4,4,na,na
1st innings,19.3,Z Khan,MM Patel,MA Agarwal,4,4,na,na
1st innings,19.4,Z Khan,MM Patel,MA Agarwal,2,2,na,na
1st innings,19.5,Z Khan,MM Patel,MA Agarwal,6,6,na,na
1st innings,19.6,Z Khan,MM Patel,MA Agarwal,2,2,na,na
2nd innings,0.1,SR Tendulkar,Z Khan,HH Gibbs,0,0,na,na
2nd innings,0.2,SR Tendulkar,Z Khan,HH Gibbs,1,0,{'wides': 1},na
2nd innings,0.3,SR Tendulkar,Z Khan,HH Gibbs,0,0,na,na
2nd innings,0.4,SR Tendulkar,Z Khan,HH Gibbs,0,0,na,na
2nd innings,0.5,SR Tendulkar,Z Khan,HH Gibbs,1,0,{'legbyes': 1},na
2nd innings,0.6,HH Gibbs,Z Khan,SR Tendulkar,0,0,na,"{'fielders': ['V Kohli'], 'kind': 'caught', 'player_out': 'SR Tendulkar'}"
2nd innings,0.7,HH Gibbs,Z Khan,RG Sharma,0,0,na,na
2nd innings,1.1,RG Sharma,R Vinay Kumar,HH Gibbs,0,0,na,na
2nd innings,1.2,RG Sharma,R Vinay Kumar,HH Gibbs,2,2,na,"{'fielders': ['KP Appanna', 'SS Tiwary'], 'kind': 'run out', 'player_out': 'HH Gibbs'}"
2nd innings,1.3,KD Karthik,R Vinay Kumar,RG Sharma,0,0,na,na
2nd innings,1.4,KD Karthik,R Vinay Kumar,RG Sharma,1,1,na,na
2nd innings,1.5,RG Sharma,R Vinay Kumar,KD Karthik,1,0,{'wides': 1},na
2nd innings,1.6,RG Sharma,R Vinay Kumar,KD Karthik,0,0,na,na
2nd innings,1.7,RG Sharma,R Vinay Kumar,KD Karthik,1,1,na,na
2nd innings,2.1,RG Sharma,Z Khan,KD Karthik,0,0,na,na
2nd innings,2.2,RG Sharma,Z Khan,KD Karthik,0,0,na,na
2nd innings,2.3,RG Sharma,Z Khan,KD Karthik,0,0,na,na
2nd innings,2.4,RG Sharma,Z Khan,KD Karthik,4,4,na,na
2nd innings,2.5,RG Sharma,Z Khan,KD Karthik,4,4,na,na
2nd innings,2.6,RG Sharma,Z Khan,KD Karthik,0,0,na,na
2nd innings,3.1,KD Karthik,R Vinay Kumar,RG Sharma,0,0,na,na
2nd innings,3.2,KD Karthik,R Vinay Kumar,RG Sharma,4,4,na,na
2nd innings,3.3,KD Karthik,R Vinay Kumar,RG Sharma,0,0,na,na
2nd innings,3.4,KD Karthik,R Vinay Kumar,RG Sharma,0,0,na,"{'kind': 'caught and bowled', 'player_out': 'RG Sharma'}"
2nd innings,3.5,KD Karthik,R Vinay Kumar,AT Rayudu,1,1,na,na
2nd innings,3.6,AT Rayudu,R Vinay Kumar,KD Karthik,4,4,na,na
2nd innings,4.1,KD Karthik,HV Patel,AT Rayudu,0,0,na,na
2nd innings,4.2,KD Karthik,HV Patel,AT Rayudu,0,0,na,na
2nd innings,4.3,KD Karthik,HV Patel,AT Rayudu,1,0,{'wides': 1},na
2nd innings,4.4,KD Karthik,HV Patel,AT Rayudu,0,0,na,na
2nd innings,4.5,KD Karthik,HV Patel,AT Rayudu,2,2,na,na
2nd innings,4.6,KD Karthik,HV Patel,AT Rayudu,0,0,na,na
2nd innings,4.7,KD Karthik,HV Patel,AT Rayudu,1,1,na,na
2nd innings,5.1,KD Karthik,R Vinay Kumar,AT Rayudu,0,0,na,na
2nd innings,5.2,KD Karthik,R Vinay Kumar,AT Rayudu,1,0,{'wides': 1},na
2nd innings,5.3,KD Karthik,R Vinay Kumar,AT Rayudu,1,1,na,na
2nd innings,5.4,AT Rayudu,R Vinay Kumar,KD Karthik,0,0,na,na
2nd innings,5.5,AT Rayudu,R Vinay Kumar,KD Karthik,1,1,na,na
2nd innings,5.6,KD Karthik,R Vinay Kumar,AT Rayudu,0,0,na,na
2nd innings,5.7,KD Karthik,R Vinay Kumar,AT Rayudu,1,1,na,na
2nd innings,6.1,KD Karthik,HV Patel,AT Rayudu,0,0,na,na
2nd innings,6.2,KD Karthik,HV Patel,AT Rayudu,0,0,na,na
2nd innings,6.3,KD Karthik,HV Patel,AT Rayudu,0,0,na,na
2nd innings,6.4,KD Karthik,HV Patel,AT Rayudu,4,4,na,na
2nd innings,6.5,KD Karthik,HV Patel,AT Rayudu,2,2,na,na
2nd innings,6.6,KD Karthik,HV Patel,AT Rayudu,2,2,na,na
2nd innings,7.1,AT Rayudu,M Muralitharan,KD Karthik,1,1,na,na
2nd innings,7.2,KD Karthik,M Muralitharan,AT Rayudu,1,1,na,na
2nd innings,7.3,AT Rayudu,M Muralitharan,KD Karthik,1,1,na,na
2nd innings,7.4,KD Karthik,M Muralitharan,AT Rayudu,1,1,na,na
2nd innings,7.5,AT Rayudu,M Muralitharan,KD Karthik,0,0,na,"{'fielders': ['HV Patel'], 'kind': 'caught', 'player_out': 'KD Karthik'}"
2nd innings,7.6,AT Rayudu,M Muralitharan,DR Smith,1,1,na,na
2nd innings,8.1,AT Rayudu,HV Patel,DR Smith,0,0,na,na
2nd innings,8.2,AT Rayudu,HV Patel,DR Smith,1,1,na,na
2nd innings,8.3,DR Smith,HV Patel,AT Rayudu,1,1,na,na
2nd innings,8.4,AT Rayudu,HV Patel,DR Smith,4,4,na,na
2nd innings,8.5,AT Rayudu,HV Patel,DR Smith,0,0,na,"{'fielders': ['TM Dilshan'], 'kind': 'caught', 'player_out': 'DR Smith'}"
2nd innings,8.6,AT Rayudu,HV Patel,KA Pollard,0,0,na,na
2nd innings,9.1,KA Pollard,M Muralitharan,AT Rayudu,0,0,na,na
2nd innings,9.2,KA Pollard,M Muralitharan,AT Rayudu,0,0,na,na
2nd innings,9.3,KA Pollard,M Muralitharan,AT Rayudu,1,1,na,na
2nd innings,9.4,AT Rayudu,M Muralitharan,KA Pollard,1,1,na,na
2nd innings,9.5,KA Pollard,M Muralitharan,AT Rayudu,2,2,na,na
2nd innings,9.6,KA Pollard,M Muralitharan,AT Rayudu,1,1,na,na
2nd innings,10.1,KA Pollard,KP Appanna,AT Rayudu,1,1,na,na
2nd innings,10.2,AT Rayudu,KP Appanna,KA Pollard,1,1,na,na
2nd innings,10.3,KA Pollard,KP Appanna,AT Rayudu,4,4,na,na
2nd innings,10.4,KA Pollard,KP Appanna,AT Rayudu,1,1,na,na
2nd innings,10.5,AT Rayudu,KP Appanna,KA Pollard,6,6,na,na
2nd innings,10.6,AT Rayudu,KP Appanna,KA Pollard,6,6,na,na
2nd innings,11.1,KA Pollard,M Muralitharan,AT Rayudu,0,0,na,na
2nd innings,11.2,KA Pollard,M Muralitharan,AT Rayudu,1,1,na,na
2nd innings,11.3,AT Rayudu,M Muralitharan,KA Pollard,0,0,na,na
2nd innings,11.4,AT Rayudu,M Muralitharan,KA Pollard,0,0,na,na
2nd innings,11.5,AT Rayudu,M Muralitharan,KA Pollard,1,0,{'wides': 1},na
2nd innings,11.6,AT Rayudu,M Muralitharan,KA Pollard,0,0,na,na
2nd innings,11.7,AT Rayudu,M Muralitharan,KA Pollard,0,0,na,na
2nd innings,12.1,KA Pollard,CH Gayle,AT Rayudu,1,0,{'wides': 1},na
2nd innings,12.2,KA Pollard,CH Gayle,AT Rayudu,1,1,na,na
2nd innings,12.3,AT Rayudu,CH Gayle,KA Pollard,1,1,na,na
2nd innings,12.4,KA Pollard,CH Gayle,AT Rayudu,0,0,na,na
2nd innings,12.5,KA Pollard,CH Gayle,AT Rayudu,4,4,na,na
2nd innings,12.6,KA Pollard,CH Gayle,AT Rayudu,6,6,na,na
2nd innings,12.7,KA Pollard,CH Gayle,AT Rayudu,1,1,na,na
2nd innings,13.1,KA Pollard,M Muralitharan,AT Rayudu,1,1,na,na
2nd innings,13.2,AT Rayudu,M Muralitharan,KA Pollard,1,1,na,na
2nd innings,13.3,KA Pollard,M Muralitharan,AT Rayudu,0,0,na,na
2nd innings,13.4,KA Pollard,M Muralitharan,AT Rayudu,1,1,na,na
2nd innings,13.5,AT Rayudu,M Muralitharan,KA Pollard,0,0,na,na
2nd innings,13.6,AT Rayudu,M Muralitharan,KA Pollard,1,1,na,na
2nd innings,14.1,AT Rayudu,CH Gayle,KA Pollard,1,1,na,na
2nd innings,14.2,KA Pollard,CH Gayle,AT Rayudu,4,4,na,na
2nd innings,14.3,KA Pollard,CH Gayle,AT Rayudu,1,1,na,na
2nd innings,14.4,AT Rayudu,CH Gayle,KA Pollard,1,1,na,na
2nd innings,14.5,KA Pollard,CH Gayle,AT Rayudu,4,4,na,na
2nd innings,14.6,KA Pollard,CH Gayle,AT Rayudu,0,0,na,na
2nd innings,15.1,AT Rayudu,HV Patel,KA Pollard,0,0,na,na
2nd innings,15.2,AT Rayudu,HV Patel,KA Pollard,1,0,{'legbyes': 1},na
2nd innings,15.3,KA Pollard,HV Patel,AT Rayudu,1,1,na,na
2nd innings,15.4,AT Rayudu,HV Patel,KA Pollard,2,2,na,na
2nd innings,15.5,AT Rayudu,HV Patel,KA Pollard,4,4,na,na
2nd innings,15.6,AT Rayudu,HV Patel,KA Pollard,1,0,{'legbyes': 1},na
2nd innings,16.1,AT Rayudu,Z Khan,KA Pollard,1,1,na,na
2nd innings,16.2,KA Pollard,Z Khan,AT Rayudu,6,6,na,na
2nd innings,16.3,KA Pollard,Z Khan,AT Rayudu,1,1,na,na
2nd innings,16.4,AT Rayudu,Z Khan,KA Pollard,4,4,na,na
2nd innings,16.5,AT Rayudu,Z Khan,KA Pollard,1,1,na,na
2nd innings,16.6,KA Pollard,Z Khan,AT Rayudu,1,0,{'wides': 1},na
2nd innings,16.7,KA Pollard,Z Khan,AT Rayudu,2,2,na,na
2nd innings,17.1,AT Rayudu,R Vinay Kumar,KA Pollard,1,1,na,na
2nd innings,17.2,KA Pollard,R Vinay Kumar,AT Rayudu,6,6,na,na
2nd innings,17.3,KA Pollard,R Vinay Kumar,AT Rayudu,4,4,na,na
2nd innings,17.4,KA Pollard,R Vinay Kumar,AT Rayudu,6,6,na,na
2nd innings,17.5,KA Pollard,R Vinay Kumar,AT Rayudu,1,1,na,na
2nd innings,17.6,AT Rayudu,R Vinay Kumar,KA Pollard,0,0,na,na
2nd innings,18.1,KA Pollard,Z Khan,AT Rayudu,1,1,na,na
2nd innings,18.2,AT Rayudu,Z Khan,KA Pollard,4,4,na,na
2nd innings,18.3,AT Rayudu,Z Khan,KA Pollard,1,1,na,na
2nd innings,18.4,KA Pollard,Z Khan,AT Rayudu,1,1,na,na
2nd innings,18.5,AT Rayudu,Z Khan,KA Pollard,1,1,na,na
2nd innings,18.6,KA Pollard,Z Khan,AT Rayudu,1,1,na,na
2nd innings,19.1,KA Pollard,CH Gayle,AT Rayudu,1,0,{'legbyes': 1},na
2nd innings,19.2,AT Rayudu,CH Gayle,KA Pollard,6,6,na,na
2nd innings,19.3,AT Rayudu,CH Gayle,KA Pollard,4,4,na,na
2nd innings,19.4,AT Rayudu,CH Gayle,KA Pollard,4,4,na,na
