innings,deliveries,non_striker,bowler,batsman,total_runs,batsman_runs,extras,wickets
1st innings,0.1,SE Marsh,AA Jhunjhunwala,Mandeep Singh,1,1,na,na
1st innings,0.2,Mandeep Singh,AA Jhunjhunwala,SE Marsh,0,0,na,na
1st innings,0.3,Mandeep Singh,AA Jhunjhunwala,SE Marsh,1,1,na,na
1st innings,0.4,SE Marsh,AA Jhunjhunwala,Mandeep Singh,2,2,na,na
1st innings,0.5,SE Marsh,AA Jhunjhunwala,Mandeep Singh,1,1,na,na
1st innings,0.6,Mandeep Singh,AA Jhunjhunwala,SE Marsh,0,0,na,na
1st innings,1.1,SE Marsh,V Pratap Singh,Mandeep Singh,4,4,na,na
1st innings,1.2,SE Marsh,V Pratap Singh,Mandeep Singh,6,6,na,na
1st innings,1.3,SE Marsh,V Pratap Singh,Mandeep Singh,1,0,{'wides': 1},na
1st innings,1.4,SE Marsh,V Pratap Singh,Mandeep Singh,1,0,{'wides': 1},na
1st innings,1.5,SE Marsh,V Pratap Singh,Mandeep Singh,2,2,na,na
1st innings,1.6,SE Marsh,V Pratap Singh,Mandeep Singh,4,4,na,na
1st innings,1.7,SE Marsh,V Pratap Singh,Mandeep Singh,0,0,na,na
1st innings,1.8,SE Marsh,V Pratap Singh,Mandeep Singh,0,0,na,na
1st innings,2.1,Mandeep Singh,AA Jhunjhunwala,SE Marsh,1,1,na,na
1st innings,2.2,SE Marsh,AA Jhunjhunwala,Mandeep Singh,1,1,na,na
1st innings,2.3,Mandeep Singh,AA Jhunjhunwala,SE Marsh,0,0,na,na
1st innings,2.4,Mandeep Singh,AA Jhunjhunwala,SE Marsh,1,1,na,na
1st innings,2.5,SE Marsh,AA Jhunjhunwala,Mandeep Singh,4,4,na,na
1st innings,2.6,SE Marsh,AA Jhunjhunwala,Mandeep Singh,0,0,na,na
1st innings,3.1,Mandeep Singh,J Theron,SE Marsh,4,4,na,na
1st innings,3.2,Mandeep Singh,J Theron,SE Marsh,1,1,na,na
1st innings,3.3,SE Marsh,J Theron,Mandeep Singh,0,0,na,na
1st innings,3.4,SE Marsh,J Theron,Mandeep Singh,2,2,na,na
1st innings,3.5,SE Marsh,J Theron,Mandeep Singh,1,1,na,na
1st innings,3.6,Mandeep Singh,J Theron,SE Marsh,0,0,na,na
1st innings,4.1,SE Marsh,S Dhawan,Mandeep Singh,1,1,na,na
1st innings,4.2,Mandeep Singh,S Dhawan,SE Marsh,0,0,na,na
1st innings,4.3,Mandeep Singh,S Dhawan,SE Marsh,1,1,na,na
1st innings,4.4,SE Marsh,S Dhawan,Mandeep Singh,1,0,{'legbyes': 1},na
1st innings,4.5,Mandeep Singh,S Dhawan,SE Marsh,1,1,na,na
1st innings,4.6,SE Marsh,S Dhawan,Mandeep Singh,0,0,na,na
1st innings,5.1,Mandeep Singh,J Theron,SE Marsh,0,0,na,na
1st innings,5.2,Mandeep Singh,J Theron,SE Marsh,4,4,na,na
1st innings,5.3,Mandeep Singh,J Theron,SE Marsh,4,4,na,na
1st innings,5.4,Mandeep Singh,J Theron,SE Marsh,1,1,na,na
1st innings,5.5,SE Marsh,J Theron,Mandeep Singh,0,0,na,na
1st innings,5.6,SE Marsh,J Theron,Mandeep Singh,0,0,na,na
1st innings,6.1,Mandeep Singh,S Dhawan,SE Marsh,0,0,na,na
1st innings,6.2,Mandeep Singh,S Dhawan,SE Marsh,2,2,na,na
1st innings,6.3,Mandeep Singh,S Dhawan,SE Marsh,1,1,na,na
1st innings,6.4,SE Marsh,S Dhawan,Mandeep Singh,1,1,na,na
1st innings,6.5,Mandeep Singh,S Dhawan,SE Marsh,0,0,na,"{'kind': 'bowled', 'player_out': 'SE Marsh'}"
1st innings,6.6,Mandeep Singh,S Dhawan,N Saini,1,1,na,na
1st innings,7.1,Mandeep Singh,A Ashish Reddy,N Saini,1,1,na,na
1st innings,7.2,N Saini,A Ashish Reddy,Mandeep Singh,1,1,na,na
1st innings,7.3,Mandeep Singh,A Ashish Reddy,N Saini,0,0,na,na
1st innings,7.4,Mandeep Singh,A Ashish Reddy,N Saini,0,0,na,"{'kind': 'lbw', 'player_out': 'N Saini'}"
1st innings,7.5,Mandeep Singh,A Ashish Reddy,DJ Hussey,3,0,{'wides': 3},na
1st innings,7.6,Mandeep Singh,A Ashish Reddy,DJ Hussey,1,1,na,na
1st innings,7.7,DJ Hussey,A Ashish Reddy,Mandeep Singh,6,6,na,na
1st innings,8.1,Mandeep Singh,A Mishra,DJ Hussey,6,6,na,na
1st innings,8.2,Mandeep Singh,A Mishra,DJ Hussey,0,0,na,na
1st innings,8.3,Mandeep Singh,A Mishra,DJ Hussey,1,1,na,na
1st innings,8.4,DJ Hussey,A Mishra,Mandeep Singh,0,0,na,na
1st innings,8.5,DJ Hussey,A Mishra,Mandeep Singh,2,2,na,na
1st innings,8.6,DJ Hussey,A Mishra,Mandeep Singh,0,0,na,na
1st innings,9.1,Mandeep Singh,V Pratap Singh,DJ Hussey,1,1,na,na
1st innings,9.2,DJ Hussey,V Pratap Singh,Mandeep Singh,1,1,na,na
1st innings,9.3,Mandeep Singh,V Pratap Singh,DJ Hussey,1,1,na,na
1st innings,9.4,DJ Hussey,V Pratap Singh,Mandeep Singh,4,4,na,na
1st innings,9.5,DJ Hussey,V Pratap Singh,Mandeep Singh,0,0,na,na
1st innings,9.6,DJ Hussey,V Pratap Singh,Mandeep Singh,2,2,na,na
1st innings,10.1,Mandeep Singh,DJ Harris,DJ Hussey,0,0,na,na
1st innings,10.2,Mandeep Singh,DJ Harris,DJ Hussey,0,0,na,na
1st innings,10.3,Mandeep Singh,DJ Harris,DJ Hussey,0,0,na,na
1st innings,10.4,Mandeep Singh,DJ Harris,DJ Hussey,0,0,na,na
1st innings,10.5,Mandeep Singh,DJ Harris,DJ Hussey,1,1,na,na
1st innings,10.6,DJ Hussey,DJ Harris,Mandeep Singh,4,4,na,na
1st innings,11.1,Mandeep Singh,V Pratap Singh,DJ Hussey,4,4,na,na
1st innings,11.2,Mandeep Singh,V Pratap Singh,DJ Hussey,0,0,na,na
1st innings,11.3,Mandeep Singh,V Pratap Singh,DJ Hussey,0,0,na,na
1st innings,11.4,Mandeep Singh,V Pratap Singh,DJ Hussey,1,1,na,na
1st innings,11.5,DJ Hussey,V Pratap Singh,Mandeep Singh,1,1,na,na
1st innings,11.6,Mandeep Singh,V Pratap Singh,DJ Hussey,0,0,na,"{'fielders': ['DJ Harris'], 'kind': 'caught', 'player_out': 'DJ Hussey'}"
1st innings,12.1,Azhar Mahmood,A Mishra,Mandeep Singh,4,4,na,na
1st innings,12.2,Azhar Mahmood,A Mishra,Mandeep Singh,4,4,na,na
1st innings,12.3,Azhar Mahmood,A Mishra,Mandeep Singh,2,2,na,na
1st innings,12.4,Azhar Mahmood,A Mishra,Mandeep Singh,0,0,na,na
1st innings,12.5,Azhar Mahmood,A Mishra,Mandeep Singh,0,0,na,na
1st innings,12.6,Azhar Mahmood,A Mishra,Mandeep Singh,1,1,na,na
1st innings,13.1,Azhar Mahmood,A Ashish Reddy,Mandeep Singh,1,1,na,na
1st innings,13.2,Mandeep Singh,A Ashish Reddy,Azhar Mahmood,2,2,na,na
1st innings,13.3,Mandeep Singh,A Ashish Reddy,Azhar Mahmood,1,1,na,na
1st innings,13.4,Azhar Mahmood,A Ashish Reddy,Mandeep Singh,0,0,na,na
1st innings,13.5,Azhar Mahmood,A Ashish Reddy,Mandeep Singh,1,1,na,na
1st innings,13.6,Mandeep Singh,A Ashish Reddy,Azhar Mahmood,4,4,na,na
1st innings,14.1,Azhar Mahmood,V Pratap Singh,Mandeep Singh,1,1,na,na
1st innings,14.2,Mandeep Singh,V Pratap Singh,Azhar Mahmood,1,1,na,na
1st innings,14.3,Azhar Mahmood,V Pratap Singh,Mandeep Singh,0,0,na,na
1st innings,14.4,Azhar Mahmood,V Pratap Singh,Mandeep Singh,6,6,na,na
1st innings,14.5,Azhar Mahmood,V Pratap Singh,Mandeep Singh,0,0,na,na
1st innings,14.6,Azhar Mahmood,V Pratap Singh,Mandeep Singh,4,4,na,na
1st innings,15.1,Mandeep Singh,A Ashish Reddy,Azhar Mahmood,1,1,na,na
1st innings,15.2,Azhar Mahmood,A Ashish Reddy,Mandeep Singh,0,0,na,na
1st innings,15.3,Azhar Mahmood,A Ashish Reddy,Mandeep Singh,0,0,na,"{'kind': 'bowled', 'player_out': 'Mandeep Singh'}"
1st innings,15.4,Azhar Mahmood,A Ashish Reddy,DA Miller,1,1,na,na
1st innings,15.5,DA Miller,A Ashish Reddy,Azhar Mahmood,0,0,na,na
1st innings,15.6,DA Miller,A Ashish Reddy,Azhar Mahmood,4,4,na,na
1st innings,16.1,Azhar Mahmood,J Theron,DA Miller,0,0,na,na
1st innings,16.2,Azhar Mahmood,J Theron,DA Miller,0,0,na,na
1st innings,16.3,Azhar Mahmood,J Theron,DA Miller,1,1,na,na
1st innings,16.4,DA Miller,J Theron,Azhar Mahmood,1,1,na,na
1st innings,16.5,Azhar Mahmood,J Theron,DA Miller,1,1,na,na
1st innings,16.6,DA Miller,J Theron,Azhar Mahmood,0,0,na,"{'fielders': ['A Ashish Reddy', 'J Theron'], 'kind': 'run out', 'player_out': 'Azhar Mahmood'}"
1st innings,17.1,DA Miller,DJ Harris,SD Chitnis,1,1,na,na
1st innings,17.2,SD Chitnis,DJ Harris,DA Miller,4,4,na,na
1st innings,17.3,SD Chitnis,DJ Harris,DA Miller,1,1,na,na
1st innings,17.4,DA Miller,DJ Harris,SD Chitnis,1,1,na,na
1st innings,17.5,SD Chitnis,DJ Harris,DA Miller,2,2,na,na
1st innings,17.6,SD Chitnis,DJ Harris,DA Miller,1,1,na,na
1st innings,18.1,SD Chitnis,J Theron,DA Miller,4,4,na,na
1st innings,18.2,SD Chitnis,J Theron,DA Miller,1,1,na,na
1st innings,18.3,DA Miller,J Theron,SD Chitnis,2,2,na,na
1st innings,18.4,DA Miller,J Theron,SD Chitnis,1,1,na,na
1st innings,18.5,SD Chitnis,J Theron,DA Miller,0,0,na,na
1st innings,18.6,SD Chitnis,J Theron,DA Miller,1,1,na,na
1st innings,19.1,SD Chitnis,A Ashish Reddy,DA Miller,0,0,na,na
1st innings,19.2,SD Chitnis,A Ashish Reddy,DA Miller,4,4,na,na
1st innings,19.3,SD Chitnis,A Ashish Reddy,DA Miller,6,6,na,na
1st innings,19.4,SD Chitnis,A Ashish Reddy,DA Miller,1,0,{'byes': 1},na
1st innings,19.5,DA Miller,A Ashish Reddy,SD Chitnis,1,1,na,na
1st innings,19.6,SD Chitnis,A Ashish Reddy,DA Miller,1,1,na,na
2nd innings,0.1,S Dhawan,RR Powar,DJ Harris,0,0,na,na
2nd innings,0.2,S Dhawan,RR Powar,DJ Harris,1,1,na,na
2nd innings,0.3,DJ Harris,RR Powar,S Dhawan,0,0,na,na
2nd innings,0.4,DJ Harris,RR Powar,S Dhawan,0,0,na,na
2nd innings,0.5,DJ Harris,RR Powar,S Dhawan,4,4,na,na
2nd innings,0.6,DJ Harris,RR Powar,S Dhawan,3,3,na,na
2nd innings,1.1,DJ Harris,P Kumar,S Dhawan,1,1,na,na
2nd innings,1.2,S Dhawan,P Kumar,DJ Harris,0,0,na,na
2nd innings,1.3,S Dhawan,P Kumar,DJ Harris,0,0,na,na
2nd innings,1.4,S Dhawan,P Kumar,DJ Harris,1,1,na,na
2nd innings,1.5,DJ Harris,P Kumar,S Dhawan,0,0,na,"{'fielders': ['Azhar Mahmood'], 'kind': 'caught', 'player_out': 'S Dhawan'}"
2nd innings,1.6,DJ Harris,P Kumar,PA Patel,0,0,na,na
2nd innings,2.1,PA Patel,PP Chawla,DJ Harris,1,1,na,na
2nd innings,2.2,DJ Harris,PP Chawla,PA Patel,1,1,na,na
2nd innings,2.3,PA Patel,PP Chawla,DJ Harris,0,0,na,na
2nd innings,2.4,PA Patel,PP Chawla,DJ Harris,1,1,na,na
2nd innings,2.5,DJ Harris,PP Chawla,PA Patel,2,2,na,na
2nd innings,2.6,DJ Harris,PP Chawla,PA Patel,1,1,na,na
2nd innings,3.1,DJ Harris,P Kumar,PA Patel,1,1,na,na
2nd innings,3.2,PA Patel,P Kumar,DJ Harris,0,0,na,na
2nd innings,3.3,PA Patel,P Kumar,DJ Harris,1,1,na,na
2nd innings,3.4,DJ Harris,P Kumar,PA Patel,1,1,na,na
2nd innings,3.5,PA Patel,P Kumar,DJ Harris,1,0,{'legbyes': 1},na
2nd innings,3.6,DJ Harris,P Kumar,PA Patel,1,1,na,na
2nd innings,4.1,DJ Harris,P Awana,PA Patel,4,4,na,na
2nd innings,4.2,DJ Harris,P Awana,PA Patel,0,0,na,na
2nd innings,4.3,DJ Harris,P Awana,PA Patel,0,0,na,na
2nd innings,4.4,DJ Harris,P Awana,PA Patel,0,0,na,na
2nd innings,4.5,DJ Harris,P Awana,PA Patel,6,6,na,na
2nd innings,4.6,DJ Harris,P Awana,PA Patel,0,0,na,"{'kind': 'bowled', 'player_out': 'PA Patel'}"
2nd innings,5.1,CL White,Azhar Mahmood,DJ Harris,5,0,{'wides': 5},na
2nd innings,5.2,CL White,Azhar Mahmood,DJ Harris,0,0,na,na
2nd innings,5.3,CL White,Azhar Mahmood,DJ Harris,1,1,na,na
2nd innings,5.4,DJ Harris,Azhar Mahmood,CL White,1,0,{'wides': 1},na
2nd innings,5.5,DJ Harris,Azhar Mahmood,CL White,0,0,na,na
2nd innings,5.6,DJ Harris,Azhar Mahmood,CL White,1,1,na,na
2nd innings,5.7,CL White,Azhar Mahmood,DJ Harris,1,1,na,na
2nd innings,5.8,DJ Harris,Azhar Mahmood,CL White,0,0,na,na
2nd innings,6.1,CL White,PP Chawla,DJ Harris,6,6,na,na
2nd innings,6.2,CL White,PP Chawla,DJ Harris,0,0,na,na
2nd innings,6.3,CL White,PP Chawla,DJ Harris,0,0,na,na
2nd innings,6.4,CL White,PP Chawla,DJ Harris,1,1,na,na
2nd innings,6.5,DJ Harris,PP Chawla,CL White,0,0,na,na
2nd innings,6.6,DJ Harris,PP Chawla,CL White,4,4,na,na
2nd innings,7.1,CL White,RR Powar,DJ Harris,4,4,na,na
2nd innings,7.2,CL White,RR Powar,DJ Harris,2,2,na,na
2nd innings,7.3,CL White,RR Powar,DJ Harris,4,4,na,na
2nd innings,7.4,CL White,RR Powar,DJ Harris,1,1,na,na
2nd innings,7.5,DJ Harris,RR Powar,CL White,1,1,na,na
2nd innings,7.6,CL White,RR Powar,DJ Harris,1,1,na,na
2nd innings,8.1,CL White,P Awana,DJ Harris,0,0,na,na
2nd innings,8.2,CL White,P Awana,DJ Harris,2,2,na,na
2nd innings,8.3,CL White,P Awana,DJ Harris,1,1,na,na
2nd innings,8.4,DJ Harris,P Awana,CL White,0,0,na,na
2nd innings,8.5,DJ Harris,P Awana,CL White,1,1,na,na
2nd innings,8.6,CL White,P Awana,DJ Harris,0,0,na,na
2nd innings,9.1,DJ Harris,Azhar Mahmood,CL White,0,0,na,na
2nd innings,9.2,DJ Harris,Azhar Mahmood,CL White,0,0,na,na
2nd innings,9.3,DJ Harris,Azhar Mahmood,CL White,1,1,na,na
2nd innings,9.4,CL White,Azhar Mahmood,DJ Harris,1,1,na,na
2nd innings,9.5,DJ Harris,Azhar Mahmood,CL White,0,0,na,na
2nd innings,9.6,DJ Harris,Azhar Mahmood,CL White,0,0,na,na
2nd innings,10.1,CL White,DJ Hussey,DJ Harris,0,0,na,"{'fielders': ['P Awana'], 'kind': 'caught', 'player_out': 'DJ Harris'}"
2nd innings,10.2,CL White,DJ Hussey,KC Sangakkara,0,0,na,na
2nd innings,10.3,CL White,DJ Hussey,KC Sangakkara,1,1,na,na
2nd innings,10.4,KC Sangakkara,DJ Hussey,CL White,0,0,na,"{'fielders': ['SE Marsh'], 'kind': 'caught', 'player_out': 'CL White'}"
2nd innings,10.5,PA Reddy,DJ Hussey,KC Sangakkara,0,0,na,na
2nd innings,10.6,PA Reddy,DJ Hussey,KC Sangakkara,1,1,na,na
2nd innings,11.1,PA Reddy,P Kumar,KC Sangakkara,2,2,na,na
2nd innings,11.2,PA Reddy,P Kumar,KC Sangakkara,0,0,na,"{'fielders': ['N Saini'], 'kind': 'caught', 'player_out': 'KC Sangakkara'}"
2nd innings,11.3,PA Reddy,P Kumar,AA Jhunjhunwala,0,0,na,na
2nd innings,11.4,PA Reddy,P Kumar,AA Jhunjhunwala,0,0,na,na
2nd innings,11.5,PA Reddy,P Kumar,AA Jhunjhunwala,0,0,na,na
2nd innings,11.6,PA Reddy,P Kumar,AA Jhunjhunwala,1,1,na,na
2nd innings,12.1,PA Reddy,PP Chawla,AA Jhunjhunwala,1,1,na,na
2nd innings,12.2,AA Jhunjhunwala,PP Chawla,PA Reddy,1,1,na,na
2nd innings,12.3,PA Reddy,PP Chawla,AA Jhunjhunwala,0,0,na,na
2nd innings,12.4,PA Reddy,PP Chawla,AA Jhunjhunwala,3,3,na,na
2nd innings,12.5,AA Jhunjhunwala,PP Chawla,PA Reddy,1,1,na,na
2nd innings,12.6,PA Reddy,PP Chawla,AA Jhunjhunwala,0,0,na,na
2nd innings,13.1,AA Jhunjhunwala,RR Powar,PA Reddy,1,1,na,na
2nd innings,13.2,PA Reddy,RR Powar,AA Jhunjhunwala,1,1,na,na
2nd innings,13.3,AA Jhunjhunwala,RR Powar,PA Reddy,1,1,na,na
2nd innings,13.4,PA Reddy,RR Powar,AA Jhunjhunwala,1,1,na,na
2nd innings,13.5,AA Jhunjhunwala,RR Powar,PA Reddy,1,1,na,na
2nd innings,13.6,PA Reddy,RR Powar,AA Jhunjhunwala,6,6,na,na
2nd innings,14.1,AA Jhunjhunwala,P Awana,PA Reddy,1,0,{'wides': 1},na
2nd innings,14.2,AA Jhunjhunwala,P Awana,PA Reddy,2,2,na,na
2nd innings,14.3,AA Jhunjhunwala,P Awana,PA Reddy,1,1,na,na
2nd innings,14.4,PA Reddy,P Awana,AA Jhunjhunwala,1,1,na,na
2nd innings,14.5,AA Jhunjhunwala,P Awana,PA Reddy,1,1,na,na
2nd innings,14.6,PA Reddy,P Awana,AA Jhunjhunwala,0,0,na,na
2nd innings,14.7,PA Reddy,P Awana,AA Jhunjhunwala,1,1,na,na
2nd innings,15.1,PA Reddy,Azhar Mahmood,AA Jhunjhunwala,0,0,na,na
2nd innings,15.2,PA Reddy,Azhar Mahmood,AA Jhunjhunwala,1,1,na,na
2nd innings,15.3,AA Jhunjhunwala,Azhar Mahmood,PA Reddy,4,4,na,na
2nd innings,15.4,AA Jhunjhunwala,Azhar Mahmood,PA Reddy,1,1,na,na
2nd innings,15.5,PA Reddy,Azhar Mahmood,AA Jhunjhunwala,1,1,na,na
2nd innings,15.6,AA Jhunjhunwala,Azhar Mahmood,PA Reddy,4,4,na,na
2nd innings,16.1,PA Reddy,PP Chawla,AA Jhunjhunwala,1,1,na,na
2nd innings,16.2,AA Jhunjhunwala,PP Chawla,PA Reddy,6,6,na,na
2nd innings,16.3,AA Jhunjhunwala,PP Chawla,PA Reddy,0,0,na,"{'fielders': ['N Saini'], 'kind': 'stumped', 'player_out': 'PA Reddy'}"
2nd innings,16.4,AA Jhunjhunwala,PP Chawla,A Ashish Reddy,1,1,na,na
2nd innings,16.5,A Ashish Reddy,PP Chawla,AA Jhunjhunwala,1,1,na,na
2nd innings,16.6,AA Jhunjhunwala,PP Chawla,A Ashish Reddy,1,1,na,na
2nd innings,17.1,AA Jhunjhunwala,P Kumar,A Ashish Reddy,1,1,na,na
2nd innings,17.2,A Ashish Reddy,P Kumar,AA Jhunjhunwala,0,0,na,"{'fielders': ['SE Marsh'], 'kind': 'run out', 'player_out': 'AA Jhunjhunwala'}"
2nd innings,17.3,J Theron,P Kumar,A Ashish Reddy,0,0,na,na
2nd innings,17.4,J Theron,P Kumar,A Ashish Reddy,4,4,na,na
2nd innings,17.5,J Theron,P Kumar,A Ashish Reddy,1,1,na,na
2nd innings,17.6,A Ashish Reddy,P Kumar,J Theron,0,0,na,na
2nd innings,18.1,J Theron,P Awana,A Ashish Reddy,4,0,{'byes': 4},na
2nd innings,18.2,J Theron,P Awana,A Ashish Reddy,0,0,na,"{'fielders': ['SE Marsh'], 'kind': 'caught', 'player_out': 'A Ashish Reddy'}"
2nd innings,18.3,A Mishra,P Awana,J Theron,0,0,na,na
2nd innings,18.4,A Mishra,P Awana,J Theron,1,1,na,na
2nd innings,18.5,J Theron,P Awana,A Mishra,1,1,na,na
2nd innings,18.6,A Mishra,P Awana,J Theron,4,4,na,na
2nd innings,19.1,J Theron,Azhar Mahmood,A Mishra,1,1,na,na
2nd innings,19.2,A Mishra,Azhar Mahmood,J Theron,1,1,na,na
2nd innings,19.3,J Theron,Azhar Mahmood,A Mishra,1,1,na,na
2nd innings,19.4,A Mishra,Azhar Mahmood,J Theron,1,1,na,na
2nd innings,19.5,J Theron,Azhar Mahmood,A Mishra,4,4,na,na
2nd innings,19.6,J Theron,Azhar Mahmood,A Mishra,1,1,na,na
