innings,deliveries,non_striker,bowler,batsman,total_runs,batsman_runs,extras,wickets
1st innings,0.1,S Dhawan,MN Samuels,PA Patel,0,0,na,"{'kind': 'bowled', 'player_out': 'PA Patel'}"
1st innings,0.2,S Dhawan,MN Samuels,CL White,2,2,na,na
1st innings,0.3,S Dhawan,MN Samuels,CL White,0,0,na,na
1st innings,0.4,S Dhawan,MN Samuels,CL White,1,1,na,na
1st innings,0.5,CL White,MN Samuels,S Dhawan,0,0,na,na
1st innings,0.6,CL White,MN Samuels,S Dhawan,1,1,na,na
1st innings,1.1,CL White,WD Parnell,S Dhawan,0,0,na,na
1st innings,1.2,CL White,WD Parnell,S Dhawan,0,0,na,na
1st innings,1.3,CL White,WD Parnell,S Dhawan,0,0,na,na
1st innings,1.4,CL White,WD Parnell,S Dhawan,0,0,na,na
1st innings,1.5,CL White,WD Parnell,S Dhawan,0,0,na,na
1st innings,1.6,CL White,WD Parnell,S Dhawan,0,0,na,na
1st innings,2.1,S Dhawan,MN Samuels,CL White,1,1,na,na
1st innings,2.2,CL White,MN Samuels,S Dhawan,0,0,na,na
1st innings,2.3,CL White,MN Samuels,S Dhawan,4,4,na,na
1st innings,2.4,CL White,MN Samuels,S Dhawan,0,0,na,na
1st innings,2.5,CL White,MN Samuels,S Dhawan,4,4,na,na
1st innings,2.6,CL White,MN Samuels,S Dhawan,1,1,na,na
1st innings,3.1,CL White,A Nehra,S Dhawan,1,1,na,na
1st innings,3.2,S Dhawan,A Nehra,CL White,4,4,na,na
1st innings,3.3,S Dhawan,A Nehra,CL White,1,0,{'legbyes': 1},na
1st innings,3.4,CL White,A Nehra,S Dhawan,1,1,na,na
1st innings,3.5,S Dhawan,A Nehra,CL White,0,0,na,na
1st innings,3.6,S Dhawan,A Nehra,CL White,0,0,na,na
1st innings,4.1,CL White,B Kumar,S Dhawan,0,0,na,na
1st innings,4.2,CL White,B Kumar,S Dhawan,1,1,na,na
1st innings,4.3,S Dhawan,B Kumar,CL White,1,1,na,na
1st innings,4.4,CL White,B Kumar,S Dhawan,0,0,na,"{'kind': 'bowled', 'player_out': 'S Dhawan'}"
1st innings,4.5,CL White,B Kumar,KC Sangakkara,1,1,na,na
1st innings,4.6,KC Sangakkara,B Kumar,CL White,2,2,na,na
1st innings,5.1,CL White,WD Parnell,KC Sangakkara,0,0,na,na
1st innings,5.2,CL White,WD Parnell,KC Sangakkara,0,0,na,na
1st innings,5.3,CL White,WD Parnell,KC Sangakkara,2,2,na,na
1st innings,5.4,CL White,WD Parnell,KC Sangakkara,0,0,na,na
1st innings,5.5,CL White,WD Parnell,KC Sangakkara,1,1,na,na
1st innings,5.6,KC Sangakkara,WD Parnell,CL White,4,4,na,na
1st innings,6.1,CL White,B Kumar,KC Sangakkara,0,0,na,na
1st innings,6.2,CL White,B Kumar,KC Sangakkara,1,1,na,na
1st innings,6.3,KC Sangakkara,B Kumar,CL White,1,1,na,na
1st innings,6.4,CL White,B Kumar,KC Sangakkara,0,0,na,na
1st innings,6.5,CL White,B Kumar,KC Sangakkara,1,1,na,na
1st innings,6.6,KC Sangakkara,B Kumar,CL White,0,0,na,na
1st innings,7.1,CL White,M Kartik,KC Sangakkara,0,0,na,na
1st innings,7.2,CL White,M Kartik,KC Sangakkara,0,0,na,na
1st innings,7.3,CL White,M Kartik,KC Sangakkara,1,1,na,na
1st innings,7.4,KC Sangakkara,M Kartik,CL White,1,1,na,na
1st innings,7.5,CL White,M Kartik,KC Sangakkara,0,0,na,na
1st innings,7.6,CL White,M Kartik,KC Sangakkara,4,4,na,na
1st innings,8.1,KC Sangakkara,A Nehra,CL White,1,1,na,na
1st innings,8.2,CL White,A Nehra,KC Sangakkara,1,0,{'legbyes': 1},na
1st innings,8.3,KC Sangakkara,A Nehra,CL White,1,1,na,na
1st innings,8.4,CL White,A Nehra,KC Sangakkara,1,1,na,na
1st innings,8.5,KC Sangakkara,A Nehra,CL White,1,1,na,na
1st innings,8.6,CL White,A Nehra,KC Sangakkara,1,0,{'legbyes': 1},na
1st innings,9.1,CL White,M Kartik,KC Sangakkara,1,1,na,na
1st innings,9.2,KC Sangakkara,M Kartik,CL White,0,0,na,na
1st innings,9.3,KC Sangakkara,M Kartik,CL White,6,6,na,na
1st innings,9.4,KC Sangakkara,M Kartik,CL White,1,1,na,na
1st innings,9.5,CL White,M Kartik,KC Sangakkara,1,1,na,na
1st innings,9.6,KC Sangakkara,M Kartik,CL White,1,1,na,na
1st innings,10.1,KC Sangakkara,SC Ganguly,CL White,1,1,na,na
1st innings,10.2,CL White,SC Ganguly,KC Sangakkara,1,1,na,na
1st innings,10.3,KC Sangakkara,SC Ganguly,CL White,0,0,na,na
1st innings,10.4,KC Sangakkara,SC Ganguly,CL White,1,1,na,na
1st innings,10.5,CL White,SC Ganguly,KC Sangakkara,1,1,na,na
1st innings,10.6,KC Sangakkara,SC Ganguly,CL White,1,1,na,na
1st innings,11.1,KC Sangakkara,B Kumar,CL White,2,2,na,na
1st innings,11.2,KC Sangakkara,B Kumar,CL White,2,2,na,na
1st innings,11.3,KC Sangakkara,B Kumar,CL White,1,1,na,na
1st innings,11.4,CL White,B Kumar,KC Sangakkara,1,1,na,na
1st innings,11.5,KC Sangakkara,B Kumar,CL White,4,4,na,na
1st innings,11.6,KC Sangakkara,B Kumar,CL White,2,2,na,na
1st innings,12.1,CL White,SC Ganguly,KC Sangakkara,1,1,na,na
1st innings,12.2,KC Sangakkara,SC Ganguly,CL White,1,1,na,na
1st innings,12.3,CL White,SC Ganguly,KC Sangakkara,2,2,na,na
1st innings,12.4,CL White,SC Ganguly,KC Sangakkara,1,1,na,na
1st innings,12.5,KC Sangakkara,SC Ganguly,CL White,1,1,na,na
1st innings,12.6,CL White,SC Ganguly,KC Sangakkara,4,4,na,na
1st innings,13.1,KC Sangakkara,A Nehra,CL White,1,1,na,na
1st innings,13.2,CL White,A Nehra,KC Sangakkara,1,1,na,na
1st innings,13.3,KC Sangakkara,A Nehra,CL White,1,1,na,na
1st innings,13.4,CL White,A Nehra,KC Sangakkara,1,1,na,na
1st innings,13.5,KC Sangakkara,A Nehra,CL White,1,1,na,na
1st innings,13.6,CL White,A Nehra,KC Sangakkara,1,1,na,na
1st innings,14.1,CL White,MN Samuels,KC Sangakkara,4,4,na,na
1st innings,14.2,CL White,MN Samuels,KC Sangakkara,4,4,na,na
1st innings,14.3,CL White,MN Samuels,KC Sangakkara,2,2,na,na
1st innings,14.4,CL White,MN Samuels,KC Sangakkara,4,4,na,na
1st innings,14.5,CL White,MN Samuels,KC Sangakkara,4,4,na,na
1st innings,14.6,CL White,MN Samuels,KC Sangakkara,1,1,na,na
1st innings,15.1,CL White,WD Parnell,KC Sangakkara,2,2,na,na
1st innings,15.2,CL White,WD Parnell,KC Sangakkara,4,4,na,na
1st innings,15.3,CL White,WD Parnell,KC Sangakkara,4,4,na,na
1st innings,15.4,CL White,WD Parnell,KC Sangakkara,0,0,na,na
1st innings,15.5,CL White,WD Parnell,KC Sangakkara,1,1,na,na
1st innings,15.6,KC Sangakkara,WD Parnell,CL White,1,1,na,na
1st innings,16.1,KC Sangakkara,B Kumar,CL White,1,1,na,na
1st innings,16.2,CL White,B Kumar,KC Sangakkara,4,0,{'legbyes': 4},na
1st innings,16.3,CL White,B Kumar,KC Sangakkara,1,0,{'byes': 1},na
1st innings,16.4,KC Sangakkara,B Kumar,CL White,1,1,na,na
1st innings,16.5,CL White,B Kumar,KC Sangakkara,1,0,{'legbyes': 1},na
1st innings,16.6,KC Sangakkara,B Kumar,CL White,0,0,na,na
1st innings,17.1,CL White,SC Ganguly,KC Sangakkara,1,0,{'byes': 1},na
1st innings,17.2,KC Sangakkara,SC Ganguly,CL White,2,2,na,na
1st innings,17.3,KC Sangakkara,SC Ganguly,CL White,6,6,na,na
1st innings,17.4,KC Sangakkara,SC Ganguly,CL White,6,6,na,na
1st innings,17.5,KC Sangakkara,SC Ganguly,CL White,6,6,na,na
1st innings,17.6,KC Sangakkara,SC Ganguly,CL White,4,4,na,na
1st innings,18.1,CL White,A Nehra,KC Sangakkara,4,4,na,na
1st innings,18.2,CL White,A Nehra,KC Sangakkara,2,2,na,na
1st innings,18.3,CL White,A Nehra,KC Sangakkara,2,2,na,na
1st innings,18.4,CL White,A Nehra,KC Sangakkara,6,6,na,na
1st innings,18.5,CL White,A Nehra,KC Sangakkara,4,4,na,na
1st innings,18.6,CL White,A Nehra,KC Sangakkara,7,6,{'noballs': 1},na
1st innings,18.7,CL White,A Nehra,KC Sangakkara,0,0,na,"{'kind': 'bowled', 'player_out': 'KC Sangakkara'}"
1st innings,19.1,JP Duminy,WD Parnell,CL White,0,0,na,"{'fielders': ['SPD Smith'], 'kind': 'caught', 'player_out': 'CL White'}"
1st innings,19.2,BB Samantray,WD Parnell,JP Duminy,1,1,na,na
1st innings,19.3,JP Duminy,WD Parnell,BB Samantray,1,1,na,na
1st innings,19.4,BB Samantray,WD Parnell,JP Duminy,1,1,na,na
1st innings,19.5,JP Duminy,WD Parnell,BB Samantray,1,1,na,na
1st innings,19.6,BB Samantray,WD Parnell,JP Duminy,2,2,na,na
2nd innings,0.1,MJ Clarke,Ankit Sharma,MK Pandey,0,0,na,"{'fielders': ['KC Sangakkara'], 'kind': 'caught', 'player_out': 'MK Pandey'}"
2nd innings,0.2,MJ Clarke,Ankit Sharma,SC Ganguly,0,0,na,na
2nd innings,0.3,MJ Clarke,Ankit Sharma,SC Ganguly,1,1,na,na
2nd innings,0.4,SC Ganguly,Ankit Sharma,MJ Clarke,1,1,na,na
2nd innings,0.5,MJ Clarke,Ankit Sharma,SC Ganguly,1,1,na,na
2nd innings,0.6,SC Ganguly,Ankit Sharma,MJ Clarke,0,0,na,na
2nd innings,1.1,MJ Clarke,JP Duminy,SC Ganguly,0,0,na,na
2nd innings,1.2,MJ Clarke,JP Duminy,SC Ganguly,1,1,na,na
2nd innings,1.3,SC Ganguly,JP Duminy,MJ Clarke,4,4,na,na
2nd innings,1.4,SC Ganguly,JP Duminy,MJ Clarke,1,1,na,na
2nd innings,1.5,MJ Clarke,JP Duminy,SC Ganguly,0,0,na,na
2nd innings,1.6,MJ Clarke,JP Duminy,SC Ganguly,2,2,na,na
2nd innings,2.1,SC Ganguly,V Pratap Singh,MJ Clarke,4,4,na,na
2nd innings,2.2,SC Ganguly,V Pratap Singh,MJ Clarke,0,0,na,na
2nd innings,2.3,SC Ganguly,V Pratap Singh,MJ Clarke,2,2,na,na
2nd innings,2.4,SC Ganguly,V Pratap Singh,MJ Clarke,4,4,na,na
2nd innings,2.5,SC Ganguly,V Pratap Singh,MJ Clarke,0,0,na,na
2nd innings,2.6,SC Ganguly,V Pratap Singh,MJ Clarke,0,0,na,na
2nd innings,3.1,MJ Clarke,DW Steyn,SC Ganguly,0,0,na,na
2nd innings,3.2,MJ Clarke,DW Steyn,SC Ganguly,0,0,na,na
2nd innings,3.3,MJ Clarke,DW Steyn,SC Ganguly,0,0,na,na
2nd innings,3.4,MJ Clarke,DW Steyn,SC Ganguly,4,4,na,na
2nd innings,3.5,MJ Clarke,DW Steyn,SC Ganguly,4,4,na,na
2nd innings,3.6,MJ Clarke,DW Steyn,SC Ganguly,0,0,na,na
2nd innings,4.1,SC Ganguly,V Pratap Singh,MJ Clarke,0,0,na,na
2nd innings,4.2,SC Ganguly,V Pratap Singh,MJ Clarke,0,0,na,na
2nd innings,4.3,SC Ganguly,V Pratap Singh,MJ Clarke,1,0,{'legbyes': 1},na
2nd innings,4.4,MJ Clarke,V Pratap Singh,SC Ganguly,0,0,na,na
2nd innings,4.5,MJ Clarke,V Pratap Singh,SC Ganguly,0,0,na,na
2nd innings,4.6,MJ Clarke,V Pratap Singh,SC Ganguly,1,1,na,na
2nd innings,5.1,MJ Clarke,DW Steyn,SC Ganguly,4,4,na,na
2nd innings,5.2,MJ Clarke,DW Steyn,SC Ganguly,1,1,na,na
2nd innings,5.3,SC Ganguly,DW Steyn,MJ Clarke,0,0,na,na
2nd innings,5.4,SC Ganguly,DW Steyn,MJ Clarke,4,4,na,na
2nd innings,5.5,SC Ganguly,DW Steyn,MJ Clarke,4,4,na,na
2nd innings,5.6,SC Ganguly,DW Steyn,MJ Clarke,4,4,na,na
2nd innings,6.1,MJ Clarke,JP Duminy,SC Ganguly,1,0,{'wides': 1},na
2nd innings,6.2,MJ Clarke,JP Duminy,SC Ganguly,1,1,na,na
2nd innings,6.3,SC Ganguly,JP Duminy,MJ Clarke,0,0,na,na
2nd innings,6.4,SC Ganguly,JP Duminy,MJ Clarke,1,1,na,na
2nd innings,6.5,MJ Clarke,JP Duminy,SC Ganguly,1,0,{'wides': 1},na
2nd innings,6.6,MJ Clarke,JP Duminy,SC Ganguly,0,0,na,na
2nd innings,6.7,MJ Clarke,JP Duminy,SC Ganguly,1,1,na,na
2nd innings,6.8,SC Ganguly,JP Duminy,MJ Clarke,1,1,na,na
2nd innings,7.1,SC Ganguly,A Mishra,MJ Clarke,1,1,na,na
2nd innings,7.2,MJ Clarke,A Mishra,SC Ganguly,0,0,na,na
2nd innings,7.3,MJ Clarke,A Mishra,SC Ganguly,0,0,na,na
2nd innings,7.4,MJ Clarke,A Mishra,SC Ganguly,1,1,na,na
2nd innings,7.5,SC Ganguly,A Mishra,MJ Clarke,1,1,na,na
2nd innings,7.6,MJ Clarke,A Mishra,SC Ganguly,1,1,na,na
2nd innings,8.1,MJ Clarke,JP Duminy,SC Ganguly,1,0,{'wides': 1},na
2nd innings,8.2,MJ Clarke,JP Duminy,SC Ganguly,1,1,na,na
2nd innings,8.3,SC Ganguly,JP Duminy,MJ Clarke,1,1,na,na
2nd innings,8.4,MJ Clarke,JP Duminy,SC Ganguly,0,0,na,na
2nd innings,8.5,MJ Clarke,JP Duminy,SC Ganguly,1,1,na,na
2nd innings,8.6,SC Ganguly,JP Duminy,MJ Clarke,1,1,na,na
2nd innings,8.7,MJ Clarke,JP Duminy,SC Ganguly,6,6,na,na
2nd innings,9.1,SC Ganguly,A Mishra,MJ Clarke,1,1,na,na
2nd innings,9.2,MJ Clarke,A Mishra,SC Ganguly,4,4,na,na
2nd innings,9.3,MJ Clarke,A Mishra,SC Ganguly,0,0,na,na
2nd innings,9.4,MJ Clarke,A Mishra,SC Ganguly,1,1,na,na
2nd innings,9.5,SC Ganguly,A Mishra,MJ Clarke,0,0,na,na
2nd innings,9.6,SC Ganguly,A Mishra,MJ Clarke,0,0,na,na
2nd innings,10.1,MJ Clarke,A Ashish Reddy,SC Ganguly,0,0,na,na
2nd innings,10.2,MJ Clarke,A Ashish Reddy,SC Ganguly,2,2,na,na
2nd innings,10.3,MJ Clarke,A Ashish Reddy,SC Ganguly,1,1,na,na
2nd innings,10.4,SC Ganguly,A Ashish Reddy,MJ Clarke,1,1,na,na
2nd innings,10.5,MJ Clarke,A Ashish Reddy,SC Ganguly,1,1,na,na
2nd innings,10.6,SC Ganguly,A Ashish Reddy,MJ Clarke,0,0,na,na
2nd innings,11.1,MJ Clarke,V Pratap Singh,SC Ganguly,4,4,na,na
2nd innings,11.2,MJ Clarke,V Pratap Singh,SC Ganguly,1,1,na,na
2nd innings,11.3,SC Ganguly,V Pratap Singh,MJ Clarke,4,4,na,na
2nd innings,11.4,SC Ganguly,V Pratap Singh,MJ Clarke,1,1,na,"{'fielders': ['A Mishra', 'PA Patel'], 'kind': 'run out', 'player_out': 'MJ Clarke'}"
2nd innings,11.5,SC Ganguly,V Pratap Singh,SPD Smith,0,0,na,na
2nd innings,11.6,SC Ganguly,V Pratap Singh,SPD Smith,1,1,na,na
2nd innings,12.1,SC Ganguly,S Dhawan,SPD Smith,4,4,na,na
2nd innings,12.2,SC Ganguly,S Dhawan,SPD Smith,1,1,na,na
2nd innings,12.3,SPD Smith,S Dhawan,SC Ganguly,0,0,na,na
2nd innings,12.4,SPD Smith,S Dhawan,SC Ganguly,0,0,na,"{'fielders': ['CL White'], 'kind': 'caught', 'player_out': 'SC Ganguly'}"
2nd innings,12.5,SPD Smith,S Dhawan,RV Uthappa,4,4,na,na
2nd innings,12.6,SPD Smith,S Dhawan,RV Uthappa,0,0,na,na
2nd innings,13.1,RV Uthappa,A Mishra,SPD Smith,0,0,na,na
2nd innings,13.2,RV Uthappa,A Mishra,SPD Smith,2,2,na,na
2nd innings,13.3,RV Uthappa,A Mishra,SPD Smith,6,6,na,na
2nd innings,13.4,RV Uthappa,A Mishra,SPD Smith,1,1,na,na
2nd innings,13.5,SPD Smith,A Mishra,RV Uthappa,1,1,na,na
2nd innings,13.6,RV Uthappa,A Mishra,SPD Smith,0,0,na,na
2nd innings,14.1,SPD Smith,Ankit Sharma,RV Uthappa,1,1,na,na
2nd innings,14.2,RV Uthappa,Ankit Sharma,SPD Smith,2,2,na,na
2nd innings,14.3,RV Uthappa,Ankit Sharma,SPD Smith,0,0,na,na
2nd innings,14.4,RV Uthappa,Ankit Sharma,SPD Smith,1,1,na,na
2nd innings,14.5,SPD Smith,Ankit Sharma,RV Uthappa,0,0,na,na
2nd innings,14.6,SPD Smith,Ankit Sharma,RV Uthappa,2,2,na,na
2nd innings,15.1,RV Uthappa,DW Steyn,SPD Smith,2,2,na,na
2nd innings,15.2,RV Uthappa,DW Steyn,SPD Smith,1,1,na,na
2nd innings,15.3,SPD Smith,DW Steyn,RV Uthappa,0,0,na,na
2nd innings,15.4,SPD Smith,DW Steyn,RV Uthappa,1,1,na,na
2nd innings,15.5,RV Uthappa,DW Steyn,SPD Smith,4,4,na,na
2nd innings,15.6,RV Uthappa,DW Steyn,SPD Smith,1,1,na,na
2nd innings,16.1,RV Uthappa,A Ashish Reddy,SPD Smith,2,2,na,na
2nd innings,16.2,RV Uthappa,A Ashish Reddy,SPD Smith,1,1,na,na
2nd innings,16.3,SPD Smith,A Ashish Reddy,RV Uthappa,2,2,na,na
2nd innings,16.4,SPD Smith,A Ashish Reddy,RV Uthappa,2,1,{'noballs': 1},na
2nd innings,16.5,RV Uthappa,A Ashish Reddy,SPD Smith,1,1,na,na
2nd innings,16.6,SPD Smith,A Ashish Reddy,RV Uthappa,1,1,na,na
2nd innings,16.7,RV Uthappa,A Ashish Reddy,SPD Smith,1,1,na,na
2nd innings,17.1,RV Uthappa,DW Steyn,SPD Smith,5,4,{'noballs': 1},na
2nd innings,17.2,RV Uthappa,DW Steyn,SPD Smith,1,1,na,na
2nd innings,17.3,SPD Smith,DW Steyn,RV Uthappa,1,1,na,na
2nd innings,17.4,RV Uthappa,DW Steyn,SPD Smith,2,2,na,na
2nd innings,17.5,RV Uthappa,DW Steyn,SPD Smith,1,1,na,na
2nd innings,17.6,SPD Smith,DW Steyn,RV Uthappa,2,2,na,na
2nd innings,17.7,SPD Smith,DW Steyn,RV Uthappa,0,0,na,na
2nd innings,18.1,RV Uthappa,A Ashish Reddy,SPD Smith,1,1,na,na
2nd innings,18.2,SPD Smith,A Ashish Reddy,RV Uthappa,2,2,na,na
2nd innings,18.3,SPD Smith,A Ashish Reddy,RV Uthappa,6,6,na,na
2nd innings,18.4,SPD Smith,A Ashish Reddy,RV Uthappa,2,2,na,na
2nd innings,18.5,SPD Smith,A Ashish Reddy,RV Uthappa,0,0,na,"{'fielders': ['DJ Harris (sub)'], 'kind': 'caught', 'player_out': 'RV Uthappa'}"
2nd innings,18.6,M Manhas,A Ashish Reddy,SPD Smith,6,6,na,na
2nd innings,19.1,SPD Smith,V Pratap Singh,M Manhas,0,0,na,na
2nd innings,19.2,SPD Smith,V Pratap Singh,M Manhas,6,6,na,na
2nd innings,19.3,SPD Smith,V Pratap Singh,M Manhas,1,1,na,na
2nd innings,19.4,M Manhas,V Pratap Singh,SPD Smith,1,1,na,na
2nd innings,19.5,SPD Smith,V Pratap Singh,M Manhas,0,0,na,"{'fielders': ['KC Sangakkara'], 'kind': 'caught', 'player_out': 'M Manhas'}"
2nd innings,19.6,SPD Smith,V Pratap Singh,MN Samuels,1,1,na,na
