innings,deliveries,non_striker,bowler,batsman,total_runs,batsman_runs,extras,wickets
1st innings,0.1,SE Marsh,KMDN Kulasekara,Mandeep Singh,1,0,{'wides': 1},na
1st innings,0.2,SE Marsh,KMDN Kulasekara,Mandeep Singh,1,0,{'wides': 1},na
1st innings,0.3,SE Marsh,KMDN Kulasekara,Mandeep Singh,0,0,na,na
1st innings,0.4,SE Marsh,KMDN Kulasekara,Mandeep Singh,4,4,na,na
1st innings,0.5,SE Marsh,KMDN Kulasekara,Mandeep Singh,0,0,na,na
1st innings,0.6,SE Marsh,KMDN Kulasekara,Mandeep Singh,1,1,na,na
1st innings,0.7,Mandeep Singh,KMDN Kulasekara,SE Marsh,1,0,{'wides': 1},na
1st innings,0.8,Mandeep Singh,KMDN Kulasekara,SE Marsh,0,0,na,na
1st innings,0.9,Mandeep Singh,KMDN Kulasekara,SE Marsh,1,1,na,na
1st innings,1.1,Mandeep Singh,JA Morkel,SE Marsh,4,4,na,na
1st innings,1.2,Mandeep Singh,JA Morkel,SE Marsh,0,0,na,na
1st innings,1.3,Mandeep Singh,JA Morkel,SE Marsh,1,1,na,na
1st innings,1.4,SE Marsh,JA Morkel,Mandeep Singh,4,4,na,na
1st innings,1.5,SE Marsh,JA Morkel,Mandeep Singh,2,2,na,na
1st innings,1.6,SE Marsh,JA Morkel,Mandeep Singh,0,0,na,na
1st innings,2.1,Mandeep Singh,R Ashwin,SE Marsh,2,2,na,na
1st innings,2.2,Mandeep Singh,R Ashwin,SE Marsh,0,0,na,na
1st innings,2.3,Mandeep Singh,R Ashwin,SE Marsh,1,1,na,na
1st innings,2.4,SE Marsh,R Ashwin,Mandeep Singh,1,0,{'wides': 1},na
1st innings,2.5,SE Marsh,R Ashwin,Mandeep Singh,0,0,na,na
1st innings,2.6,SE Marsh,R Ashwin,Mandeep Singh,1,1,na,na
1st innings,2.7,Mandeep Singh,R Ashwin,SE Marsh,0,0,na,na
1st innings,3.1,SE Marsh,KMDN Kulasekara,Mandeep Singh,4,4,na,na
1st innings,3.2,SE Marsh,KMDN Kulasekara,Mandeep Singh,0,0,na,na
1st innings,3.3,SE Marsh,KMDN Kulasekara,Mandeep Singh,0,0,na,na
1st innings,3.4,SE Marsh,KMDN Kulasekara,Mandeep Singh,1,1,na,na
1st innings,3.5,Mandeep Singh,KMDN Kulasekara,SE Marsh,0,0,na,na
1st innings,3.6,Mandeep Singh,KMDN Kulasekara,SE Marsh,0,0,na,na
1st innings,4.1,SE Marsh,R Ashwin,Mandeep Singh,1,1,na,na
1st innings,4.2,Mandeep Singh,R Ashwin,SE Marsh,1,1,na,na
1st innings,4.3,SE Marsh,R Ashwin,Mandeep Singh,0,0,na,na
1st innings,4.4,SE Marsh,R Ashwin,Mandeep Singh,6,6,na,na
1st innings,4.5,SE Marsh,R Ashwin,Mandeep Singh,0,0,na,na
1st innings,4.6,SE Marsh,R Ashwin,Mandeep Singh,0,0,na,na
1st innings,5.1,Mandeep Singh,SB Jakati,SE Marsh,0,0,na,na
1st innings,5.2,Mandeep Singh,SB Jakati,SE Marsh,0,0,na,na
1st innings,5.3,Mandeep Singh,SB Jakati,SE Marsh,1,1,na,na
1st innings,5.4,SE Marsh,SB Jakati,Mandeep Singh,4,4,na,na
1st innings,5.5,SE Marsh,SB Jakati,Mandeep Singh,0,0,na,na
1st innings,5.6,SE Marsh,SB Jakati,Mandeep Singh,0,0,na,na
1st innings,6.1,Mandeep Singh,SK Raina,SE Marsh,4,4,na,na
1st innings,6.2,Mandeep Singh,SK Raina,SE Marsh,1,1,na,na
1st innings,6.3,SE Marsh,SK Raina,Mandeep Singh,1,1,na,na
1st innings,6.4,Mandeep Singh,SK Raina,SE Marsh,1,1,na,na
1st innings,6.5,SE Marsh,SK Raina,Mandeep Singh,0,0,na,na
1st innings,6.6,SE Marsh,SK Raina,Mandeep Singh,1,1,na,na
1st innings,7.1,SE Marsh,SB Jakati,Mandeep Singh,1,1,na,na
1st innings,7.2,Mandeep Singh,SB Jakati,SE Marsh,6,6,na,na
1st innings,7.3,Mandeep Singh,SB Jakati,SE Marsh,4,4,na,na
1st innings,7.4,Mandeep Singh,SB Jakati,SE Marsh,4,4,na,na
1st innings,7.5,Mandeep Singh,SB Jakati,SE Marsh,1,1,na,na
1st innings,7.6,SE Marsh,SB Jakati,Mandeep Singh,1,1,na,na
1st innings,8.1,SE Marsh,R Ashwin,Mandeep Singh,0,0,na,"{'fielders': ['R Ashwin'], 'kind': 'run out', 'player_out': 'SE Marsh'}"
1st innings,8.2,Azhar Mahmood,R Ashwin,Mandeep Singh,1,1,na,na
1st innings,8.3,Mandeep Singh,R Ashwin,Azhar Mahmood,1,1,na,na
1st innings,8.4,Azhar Mahmood,R Ashwin,Mandeep Singh,1,1,na,na
1st innings,8.5,Mandeep Singh,R Ashwin,Azhar Mahmood,0,0,na,na
1st innings,8.6,Mandeep Singh,R Ashwin,Azhar Mahmood,1,1,na,na
1st innings,9.1,Mandeep Singh,DJ Bravo,Azhar Mahmood,1,1,na,na
1st innings,9.2,Azhar Mahmood,DJ Bravo,Mandeep Singh,0,0,na,na
1st innings,9.3,Azhar Mahmood,DJ Bravo,Mandeep Singh,1,1,na,na
1st innings,9.4,Mandeep Singh,DJ Bravo,Azhar Mahmood,1,1,na,na
1st innings,9.5,Azhar Mahmood,DJ Bravo,Mandeep Singh,1,1,na,na
1st innings,9.6,Mandeep Singh,DJ Bravo,Azhar Mahmood,1,0,{'wides': 1},na
1st innings,9.7,Mandeep Singh,DJ Bravo,Azhar Mahmood,0,0,na,na
1st innings,10.1,Azhar Mahmood,RA Jadeja,Mandeep Singh,1,1,na,na
1st innings,10.2,Mandeep Singh,RA Jadeja,Azhar Mahmood,6,6,na,na
1st innings,10.3,Mandeep Singh,RA Jadeja,Azhar Mahmood,6,6,na,na
1st innings,10.4,Mandeep Singh,RA Jadeja,Azhar Mahmood,1,1,na,na
1st innings,10.5,Azhar Mahmood,RA Jadeja,Mandeep Singh,1,1,na,na
1st innings,10.6,Mandeep Singh,RA Jadeja,Azhar Mahmood,0,0,na,na
1st innings,11.1,Azhar Mahmood,DJ Bravo,Mandeep Singh,2,2,na,na
1st innings,11.2,Azhar Mahmood,DJ Bravo,Mandeep Singh,0,0,na,na
1st innings,11.3,Azhar Mahmood,DJ Bravo,Mandeep Singh,1,1,na,na
1st innings,11.4,Mandeep Singh,DJ Bravo,Azhar Mahmood,1,1,na,na
1st innings,11.5,Azhar Mahmood,DJ Bravo,Mandeep Singh,1,1,na,na
1st innings,11.6,Mandeep Singh,DJ Bravo,Azhar Mahmood,0,0,na,"{'kind': 'lbw', 'player_out': 'Azhar Mahmood'}"
1st innings,12.1,DA Miller,JA Morkel,Mandeep Singh,1,1,na,na
1st innings,12.2,Mandeep Singh,JA Morkel,DA Miller,0,0,na,na
1st innings,12.3,Mandeep Singh,JA Morkel,DA Miller,2,2,na,na
1st innings,12.4,Mandeep Singh,JA Morkel,DA Miller,0,0,na,na
1st innings,12.5,Mandeep Singh,JA Morkel,DA Miller,1,1,na,na
1st innings,12.6,DA Miller,JA Morkel,Mandeep Singh,4,4,na,na
1st innings,13.1,Mandeep Singh,KMDN Kulasekara,DA Miller,1,1,na,na
1st innings,13.2,DA Miller,KMDN Kulasekara,Mandeep Singh,0,0,na,na
1st innings,13.3,DA Miller,KMDN Kulasekara,Mandeep Singh,1,1,na,na
1st innings,13.4,Mandeep Singh,KMDN Kulasekara,DA Miller,4,4,na,na
1st innings,13.5,Mandeep Singh,KMDN Kulasekara,DA Miller,1,1,na,na
1st innings,13.6,DA Miller,KMDN Kulasekara,Mandeep Singh,1,1,na,na
1st innings,14.1,DA Miller,R Ashwin,Mandeep Singh,1,1,na,na
1st innings,14.2,Mandeep Singh,R Ashwin,DA Miller,1,1,na,na
1st innings,14.3,DA Miller,R Ashwin,Mandeep Singh,1,1,na,na
1st innings,14.4,Mandeep Singh,R Ashwin,DA Miller,2,2,na,na
1st innings,14.5,Mandeep Singh,R Ashwin,DA Miller,1,1,na,na
1st innings,14.6,DA Miller,R Ashwin,Mandeep Singh,2,2,na,na
1st innings,15.1,Mandeep Singh,JA Morkel,DA Miller,2,2,na,na
1st innings,15.2,Mandeep Singh,JA Morkel,DA Miller,4,4,na,na
1st innings,15.3,Mandeep Singh,JA Morkel,DA Miller,0,0,na,na
1st innings,15.4,Mandeep Singh,JA Morkel,DA Miller,0,0,na,na
1st innings,15.5,Mandeep Singh,JA Morkel,DA Miller,0,0,na,"{'fielders': ['MS Dhoni'], 'kind': 'caught', 'player_out': 'DA Miller'}"
1st innings,15.6,Mandeep Singh,JA Morkel,DJ Hussey,2,2,na,na
1st innings,16.1,DJ Hussey,DJ Bravo,Mandeep Singh,0,0,na,na
1st innings,16.2,DJ Hussey,DJ Bravo,Mandeep Singh,1,1,na,na
1st innings,16.3,Mandeep Singh,DJ Bravo,DJ Hussey,1,1,na,na
1st innings,16.4,DJ Hussey,DJ Bravo,Mandeep Singh,2,2,na,na
1st innings,16.5,DJ Hussey,DJ Bravo,Mandeep Singh,0,0,na,"{'fielders': ['SK Raina'], 'kind': 'caught', 'player_out': 'Mandeep Singh'}"
1st innings,16.6,Bipul Sharma,DJ Bravo,DJ Hussey,4,4,na,na
1st innings,17.1,DJ Hussey,JA Morkel,Bipul Sharma,1,1,na,na
1st innings,17.2,Bipul Sharma,JA Morkel,DJ Hussey,0,0,na,"{'fielders': ['SB Jakati'], 'kind': 'caught', 'player_out': 'DJ Hussey'}"
1st innings,17.3,Bipul Sharma,JA Morkel,PP Chawla,0,0,na,na
1st innings,17.4,Bipul Sharma,JA Morkel,PP Chawla,0,0,na,"{'fielders': ['DJ Bravo'], 'kind': 'caught', 'player_out': 'PP Chawla'}"
1st innings,17.5,N Saini,JA Morkel,Bipul Sharma,0,0,na,na
1st innings,17.6,N Saini,JA Morkel,Bipul Sharma,1,1,na,na
1st innings,18.1,N Saini,DJ Bravo,Bipul Sharma,4,4,na,na
1st innings,18.2,N Saini,DJ Bravo,Bipul Sharma,1,1,na,na
1st innings,18.3,Bipul Sharma,DJ Bravo,N Saini,4,4,na,na
1st innings,18.4,Bipul Sharma,DJ Bravo,N Saini,0,0,na,"{'fielders': ['MS Dhoni'], 'kind': 'run out', 'player_out': 'Bipul Sharma'}"
1st innings,18.5,N Saini,DJ Bravo,P Kumar,0,0,na,na
1st innings,18.6,N Saini,DJ Bravo,P Kumar,1,1,na,na
1st innings,19.1,N Saini,KMDN Kulasekara,P Kumar,2,2,na,na
1st innings,19.2,N Saini,KMDN Kulasekara,P Kumar,0,0,na,na
1st innings,19.3,N Saini,KMDN Kulasekara,P Kumar,1,1,na,na
1st innings,19.4,P Kumar,KMDN Kulasekara,N Saini,2,2,na,na
1st innings,19.5,P Kumar,KMDN Kulasekara,N Saini,0,0,na,"{'kind': 'caught and bowled', 'player_out': 'N Saini'}"
1st innings,19.6,P Awana,KMDN Kulasekara,P Kumar,2,2,na,na
2nd innings,0.1,S Badrinath,P Kumar,F du Plessis,0,0,na,na
2nd innings,0.2,S Badrinath,P Kumar,F du Plessis,0,0,na,na
2nd innings,0.3,S Badrinath,P Kumar,F du Plessis,0,0,na,na
2nd innings,0.4,S Badrinath,P Kumar,F du Plessis,1,1,na,na
2nd innings,0.5,F du Plessis,P Kumar,S Badrinath,1,1,na,na
2nd innings,0.6,S Badrinath,P Kumar,F du Plessis,0,0,na,na
2nd innings,1.1,F du Plessis,BA Bhatt,S Badrinath,0,0,na,na
2nd innings,1.2,F du Plessis,BA Bhatt,S Badrinath,2,2,na,na
2nd innings,1.3,F du Plessis,BA Bhatt,S Badrinath,0,0,na,na
2nd innings,1.4,F du Plessis,BA Bhatt,S Badrinath,0,0,na,na
2nd innings,1.5,F du Plessis,BA Bhatt,S Badrinath,0,0,na,na
2nd innings,1.6,F du Plessis,BA Bhatt,S Badrinath,4,4,na,na
2nd innings,2.1,S Badrinath,P Kumar,F du Plessis,1,1,na,na
2nd innings,2.2,F du Plessis,P Kumar,S Badrinath,0,0,na,na
2nd innings,2.3,F du Plessis,P Kumar,S Badrinath,4,4,na,na
2nd innings,2.4,F du Plessis,P Kumar,S Badrinath,1,1,na,na
2nd innings,2.5,S Badrinath,P Kumar,F du Plessis,0,0,na,na
2nd innings,2.6,S Badrinath,P Kumar,F du Plessis,6,6,na,na
2nd innings,3.1,F du Plessis,Bipul Sharma,S Badrinath,1,1,na,na
2nd innings,3.2,S Badrinath,Bipul Sharma,F du Plessis,0,0,na,na
2nd innings,3.3,S Badrinath,Bipul Sharma,F du Plessis,0,0,na,na
2nd innings,3.4,S Badrinath,Bipul Sharma,F du Plessis,4,4,na,na
2nd innings,3.5,S Badrinath,Bipul Sharma,F du Plessis,6,6,na,na
2nd innings,3.6,S Badrinath,Bipul Sharma,F du Plessis,0,0,na,na
2nd innings,4.1,F du Plessis,P Awana,S Badrinath,4,4,na,na
2nd innings,4.2,F du Plessis,P Awana,S Badrinath,1,1,na,na
2nd innings,4.3,S Badrinath,P Awana,F du Plessis,4,4,na,na
2nd innings,4.4,S Badrinath,P Awana,F du Plessis,0,0,na,na
2nd innings,4.5,S Badrinath,P Awana,F du Plessis,4,4,na,na
2nd innings,4.6,S Badrinath,P Awana,F du Plessis,1,1,na,na
2nd innings,5.1,S Badrinath,Azhar Mahmood,F du Plessis,0,0,na,na
2nd innings,5.2,S Badrinath,Azhar Mahmood,F du Plessis,2,2,na,na
2nd innings,5.3,S Badrinath,Azhar Mahmood,F du Plessis,0,0,na,"{'kind': 'caught and bowled', 'player_out': 'F du Plessis'}"
2nd innings,5.4,S Badrinath,Azhar Mahmood,SK Raina,0,0,na,na
2nd innings,5.5,S Badrinath,Azhar Mahmood,SK Raina,1,1,na,na
2nd innings,5.6,SK Raina,Azhar Mahmood,S Badrinath,0,0,na,na
2nd innings,6.1,S Badrinath,PP Chawla,SK Raina,1,1,na,na
2nd innings,6.2,SK Raina,PP Chawla,S Badrinath,4,4,na,na
2nd innings,6.3,SK Raina,PP Chawla,S Badrinath,2,2,na,na
2nd innings,6.4,SK Raina,PP Chawla,S Badrinath,1,1,na,na
2nd innings,6.5,S Badrinath,PP Chawla,SK Raina,0,0,na,na
2nd innings,6.6,S Badrinath,PP Chawla,SK Raina,1,1,na,na
2nd innings,7.1,S Badrinath,Azhar Mahmood,SK Raina,0,0,na,na
2nd innings,7.2,S Badrinath,Azhar Mahmood,SK Raina,4,4,na,na
2nd innings,7.3,S Badrinath,Azhar Mahmood,SK Raina,1,1,na,na
2nd innings,7.4,SK Raina,Azhar Mahmood,S Badrinath,0,0,na,"{'fielders': ['P Dogra (sub)'], 'kind': 'caught', 'player_out': 'S Badrinath'}"
2nd innings,7.5,WP Saha,Azhar Mahmood,SK Raina,1,1,na,na
2nd innings,7.6,SK Raina,Azhar Mahmood,WP Saha,0,0,na,na
2nd innings,8.1,WP Saha,PP Chawla,SK Raina,1,1,na,na
2nd innings,8.2,SK Raina,PP Chawla,WP Saha,0,0,na,na
2nd innings,8.3,SK Raina,PP Chawla,WP Saha,0,0,na,na
2nd innings,8.4,SK Raina,PP Chawla,WP Saha,1,1,na,na
2nd innings,8.5,WP Saha,PP Chawla,SK Raina,1,1,na,na
2nd innings,8.6,SK Raina,PP Chawla,WP Saha,0,0,na,na
2nd innings,9.1,WP Saha,P Awana,SK Raina,1,1,na,na
2nd innings,9.2,SK Raina,P Awana,WP Saha,1,1,na,na
2nd innings,9.3,WP Saha,P Awana,SK Raina,0,0,na,na
2nd innings,9.4,WP Saha,P Awana,SK Raina,0,0,na,na
2nd innings,9.5,WP Saha,P Awana,SK Raina,1,1,na,na
2nd innings,9.6,SK Raina,P Awana,WP Saha,0,0,na,na
2nd innings,10.1,WP Saha,PP Chawla,SK Raina,2,2,na,na
2nd innings,10.2,WP Saha,PP Chawla,SK Raina,0,0,na,"{'fielders': ['N Saini'], 'kind': 'stumped', 'player_out': 'SK Raina'}"
2nd innings,10.3,WP Saha,PP Chawla,RA Jadeja,0,0,na,na
2nd innings,10.4,WP Saha,PP Chawla,RA Jadeja,1,1,na,na
2nd innings,10.5,RA Jadeja,PP Chawla,WP Saha,0,0,na,na
2nd innings,10.6,RA Jadeja,PP Chawla,WP Saha,1,1,na,na
2nd innings,11.1,RA Jadeja,P Awana,WP Saha,1,1,na,na
2nd innings,11.2,WP Saha,P Awana,RA Jadeja,4,4,na,na
2nd innings,11.3,WP Saha,P Awana,RA Jadeja,1,1,na,na
2nd innings,11.4,RA Jadeja,P Awana,WP Saha,1,1,na,na
2nd innings,11.5,WP Saha,P Awana,RA Jadeja,0,0,na,na
2nd innings,11.6,WP Saha,P Awana,RA Jadeja,1,0,{'wides': 1},na
2nd innings,11.7,WP Saha,P Awana,RA Jadeja,2,2,na,na
2nd innings,12.1,RA Jadeja,DJ Hussey,WP Saha,2,0,{'legbyes': 2},na
2nd innings,12.2,RA Jadeja,DJ Hussey,WP Saha,1,1,na,na
2nd innings,12.3,WP Saha,DJ Hussey,RA Jadeja,1,1,na,na
2nd innings,12.4,RA Jadeja,DJ Hussey,WP Saha,0,0,na,"{'kind': 'bowled', 'player_out': 'WP Saha'}"
2nd innings,12.5,RA Jadeja,DJ Hussey,MS Dhoni,0,0,na,na
2nd innings,12.6,RA Jadeja,DJ Hussey,MS Dhoni,1,1,na,na
2nd innings,13.1,RA Jadeja,BA Bhatt,MS Dhoni,0,0,na,na
2nd innings,13.2,RA Jadeja,BA Bhatt,MS Dhoni,0,0,na,"{'fielders': ['N Saini'], 'kind': 'run out', 'player_out': 'MS Dhoni'}"
2nd innings,13.3,RA Jadeja,BA Bhatt,DJ Bravo,0,0,na,na
2nd innings,13.4,RA Jadeja,BA Bhatt,DJ Bravo,1,1,na,na
2nd innings,13.5,DJ Bravo,BA Bhatt,RA Jadeja,0,0,na,na
2nd innings,13.6,DJ Bravo,BA Bhatt,RA Jadeja,6,6,na,na
2nd innings,14.1,RA Jadeja,PP Chawla,DJ Bravo,0,0,na,na
2nd innings,14.2,RA Jadeja,PP Chawla,DJ Bravo,1,1,na,na
2nd innings,14.3,DJ Bravo,PP Chawla,RA Jadeja,2,2,na,na
2nd innings,14.4,DJ Bravo,PP Chawla,RA Jadeja,0,0,na,"{'fielders': ['DJ Hussey'], 'kind': 'caught', 'player_out': 'RA Jadeja'}"
2nd innings,14.5,JA Morkel,PP Chawla,DJ Bravo,1,0,{'wides': 1},na
2nd innings,14.6,JA Morkel,PP Chawla,DJ Bravo,0,0,na,na
2nd innings,14.7,JA Morkel,PP Chawla,DJ Bravo,0,0,na,na
2nd innings,15.1,DJ Bravo,Azhar Mahmood,JA Morkel,1,1,na,na
2nd innings,15.2,JA Morkel,Azhar Mahmood,DJ Bravo,2,2,na,na
2nd innings,15.3,JA Morkel,Azhar Mahmood,DJ Bravo,1,1,na,na
2nd innings,15.4,DJ Bravo,Azhar Mahmood,JA Morkel,1,1,na,na
2nd innings,15.5,JA Morkel,Azhar Mahmood,DJ Bravo,2,2,na,na
2nd innings,15.6,JA Morkel,Azhar Mahmood,DJ Bravo,1,1,na,na
2nd innings,16.1,JA Morkel,P Kumar,DJ Bravo,1,1,na,na
2nd innings,16.2,DJ Bravo,P Kumar,JA Morkel,1,1,na,na
2nd innings,16.3,JA Morkel,P Kumar,DJ Bravo,1,0,{'wides': 1},na
2nd innings,16.4,JA Morkel,P Kumar,DJ Bravo,0,0,na,na
2nd innings,16.5,JA Morkel,P Kumar,DJ Bravo,6,6,na,na
2nd innings,16.6,JA Morkel,P Kumar,DJ Bravo,1,1,na,na
2nd innings,16.7,DJ Bravo,P Kumar,JA Morkel,1,1,na,na
2nd innings,17.1,DJ Bravo,P Awana,JA Morkel,1,1,na,na
2nd innings,17.2,JA Morkel,P Awana,DJ Bravo,2,2,na,na
2nd innings,17.3,JA Morkel,P Awana,DJ Bravo,1,1,na,na
2nd innings,17.4,DJ Bravo,P Awana,JA Morkel,1,1,na,na
2nd innings,17.5,JA Morkel,P Awana,DJ Bravo,1,1,na,na
2nd innings,17.6,DJ Bravo,P Awana,JA Morkel,1,1,na,na
2nd innings,18.1,DJ Bravo,P Kumar,JA Morkel,1,1,na,na
2nd innings,18.2,JA Morkel,P Kumar,DJ Bravo,6,6,na,na
2nd innings,18.3,JA Morkel,P Kumar,DJ Bravo,2,2,na,na
2nd innings,18.4,JA Morkel,P Kumar,DJ Bravo,2,2,na,na
2nd innings,18.5,JA Morkel,P Kumar,DJ Bravo,0,0,na,"{'fielders': ['PP Chawla'], 'kind': 'caught', 'player_out': 'DJ Bravo'}"
2nd innings,18.6,JA Morkel,P Kumar,KMDN Kulasekara,4,4,na,na
2nd innings,19.1,KMDN Kulasekara,Azhar Mahmood,JA Morkel,0,0,na,"{'fielders': ['SE Marsh'], 'kind': 'caught', 'player_out': 'JA Morkel'}"
2nd innings,19.2,R Ashwin,Azhar Mahmood,KMDN Kulasekara,1,1,na,na
2nd innings,19.3,KMDN Kulasekara,Azhar Mahmood,R Ashwin,4,4,na,na
2nd innings,19.4,KMDN Kulasekara,Azhar Mahmood,R Ashwin,1,1,na,na
2nd innings,19.5,R Ashwin,Azhar Mahmood,KMDN Kulasekara,1,0,{'byes': 1},na
2nd innings,19.6,KMDN Kulasekara,Azhar Mahmood,R Ashwin,2,2,na,na
