innings,deliveries,non_striker,bowler,batsman,total_runs,batsman_runs,extras,wickets
1st innings,0.1,TM Dilshan,K Upadhyay,CH Gayle,0,0,na,na
1st innings,0.2,TM Dilshan,K Upadhyay,CH Gayle,0,0,na,na
1st innings,0.3,TM Dilshan,K Upadhyay,CH Gayle,0,0,na,na
1st innings,0.4,TM Dilshan,K Upadhyay,CH Gayle,1,1,na,na
1st innings,0.5,CH Gayle,K Upadhyay,TM Dilshan,1,1,na,na
1st innings,0.6,TM Dilshan,K Upadhyay,CH Gayle,1,1,na,na
1st innings,1.1,TM Dilshan,AC Thomas,CH Gayle,2,1,{'noballs': 1},na
1st innings,1.2,CH Gayle,AC Thomas,TM Dilshan,4,4,na,na
1st innings,1.3,CH Gayle,AC Thomas,TM Dilshan,0,0,na,na
1st innings,1.4,CH Gayle,AC Thomas,TM Dilshan,0,0,na,na
1st innings,1.5,CH Gayle,AC Thomas,TM Dilshan,1,1,na,na
1st innings,1.6,TM Dilshan,AC Thomas,CH Gayle,0,0,na,na
1st innings,1.7,TM Dilshan,AC Thomas,CH Gayle,1,1,na,na
1st innings,2.1,TM Dilshan,K Upadhyay,CH Gayle,6,6,na,na
1st innings,2.2,TM Dilshan,K Upadhyay,CH Gayle,0,0,na,na
1st innings,2.3,TM Dilshan,K Upadhyay,CH Gayle,0,0,na,na
1st innings,2.4,TM Dilshan,K Upadhyay,CH Gayle,1,1,na,na
1st innings,2.5,CH Gayle,K Upadhyay,TM Dilshan,1,1,na,na
1st innings,2.6,TM Dilshan,K Upadhyay,CH Gayle,6,6,na,na
1st innings,3.1,CH Gayle,B Kumar,TM Dilshan,1,0,{'wides': 1},na
1st innings,3.2,CH Gayle,B Kumar,TM Dilshan,2,0,{'legbyes': 2},na
1st innings,3.3,CH Gayle,B Kumar,TM Dilshan,0,0,na,na
1st innings,3.4,CH Gayle,B Kumar,TM Dilshan,1,1,na,na
1st innings,3.5,TM Dilshan,B Kumar,CH Gayle,0,0,na,na
1st innings,3.6,TM Dilshan,B Kumar,CH Gayle,0,0,na,na
1st innings,3.7,TM Dilshan,B Kumar,CH Gayle,0,0,na,na
1st innings,4.1,CH Gayle,AC Thomas,TM Dilshan,0,0,na,na
1st innings,4.2,CH Gayle,AC Thomas,TM Dilshan,1,1,na,na
1st innings,4.3,TM Dilshan,AC Thomas,CH Gayle,1,1,na,na
1st innings,4.4,CH Gayle,AC Thomas,TM Dilshan,1,0,{'wides': 1},na
1st innings,4.5,CH Gayle,AC Thomas,TM Dilshan,1,1,na,na
1st innings,4.6,TM Dilshan,AC Thomas,CH Gayle,4,4,na,na
1st innings,4.7,TM Dilshan,AC Thomas,CH Gayle,4,4,na,na
1st innings,5.1,CH Gayle,B Kumar,TM Dilshan,1,1,na,na
1st innings,5.2,TM Dilshan,B Kumar,CH Gayle,6,6,na,na
1st innings,5.3,TM Dilshan,B Kumar,CH Gayle,0,0,na,na
1st innings,5.4,TM Dilshan,B Kumar,CH Gayle,6,6,na,na
1st innings,5.5,TM Dilshan,B Kumar,CH Gayle,6,6,na,na
1st innings,5.6,TM Dilshan,B Kumar,CH Gayle,6,6,na,na
1st innings,6.1,CH Gayle,AD Mathews,TM Dilshan,0,0,na,na
1st innings,6.2,CH Gayle,AD Mathews,TM Dilshan,1,1,na,na
1st innings,6.3,TM Dilshan,AD Mathews,CH Gayle,0,0,na,na
1st innings,6.4,TM Dilshan,AD Mathews,CH Gayle,1,0,{'wides': 1},na
1st innings,6.5,TM Dilshan,AD Mathews,CH Gayle,0,0,na,na
1st innings,6.6,TM Dilshan,AD Mathews,CH Gayle,1,1,na,na
1st innings,6.7,CH Gayle,AD Mathews,TM Dilshan,0,0,na,na
1st innings,7.1,TM Dilshan,R Sharma,CH Gayle,4,4,na,na
1st innings,7.2,TM Dilshan,R Sharma,CH Gayle,1,1,na,na
1st innings,7.3,CH Gayle,R Sharma,TM Dilshan,0,0,na,na
1st innings,7.4,CH Gayle,R Sharma,TM Dilshan,1,1,na,na
1st innings,7.5,TM Dilshan,R Sharma,CH Gayle,1,1,na,na
1st innings,7.6,CH Gayle,R Sharma,TM Dilshan,1,1,na,na
1st innings,8.1,CH Gayle,AD Mathews,TM Dilshan,2,2,na,na
1st innings,8.2,CH Gayle,AD Mathews,TM Dilshan,1,1,na,na
1st innings,8.3,TM Dilshan,AD Mathews,CH Gayle,0,0,na,"{'fielders': ['MK Pandey'], 'kind': 'caught', 'player_out': 'CH Gayle'}"
1st innings,8.4,TM Dilshan,AD Mathews,V Kohli,1,1,na,na
1st innings,8.5,V Kohli,AD Mathews,TM Dilshan,0,0,na,na
1st innings,8.6,V Kohli,AD Mathews,TM Dilshan,4,4,na,na
1st innings,9.1,TM Dilshan,R Sharma,V Kohli,1,1,na,na
1st innings,9.2,V Kohli,R Sharma,TM Dilshan,0,0,na,na
1st innings,9.3,V Kohli,R Sharma,TM Dilshan,0,0,na,na
1st innings,9.4,V Kohli,R Sharma,TM Dilshan,1,1,na,na
1st innings,9.5,TM Dilshan,R Sharma,V Kohli,0,0,na,na
1st innings,9.6,TM Dilshan,R Sharma,V Kohli,1,1,na,na
1st innings,10.1,TM Dilshan,MJ Clarke,V Kohli,0,0,na,na
1st innings,10.2,TM Dilshan,MJ Clarke,V Kohli,0,0,na,na
1st innings,10.3,TM Dilshan,MJ Clarke,V Kohli,4,4,na,na
1st innings,10.4,TM Dilshan,MJ Clarke,V Kohli,0,0,na,na
1st innings,10.5,TM Dilshan,MJ Clarke,V Kohli,0,0,na,na
1st innings,10.6,TM Dilshan,MJ Clarke,V Kohli,1,1,na,na
1st innings,11.1,TM Dilshan,R Sharma,V Kohli,1,1,na,na
1st innings,11.2,V Kohli,R Sharma,TM Dilshan,1,1,na,na
1st innings,11.3,TM Dilshan,R Sharma,V Kohli,0,0,na,"{'fielders': ['SPD Smith'], 'kind': 'caught', 'player_out': 'V Kohli'}"
1st innings,11.4,TM Dilshan,R Sharma,SS Tiwary,0,0,na,na
1st innings,11.5,TM Dilshan,R Sharma,SS Tiwary,1,1,na,na
1st innings,11.6,SS Tiwary,R Sharma,TM Dilshan,1,0,{'wides': 1},na
1st innings,11.7,SS Tiwary,R Sharma,TM Dilshan,0,0,na,na
1st innings,12.1,TM Dilshan,K Upadhyay,SS Tiwary,0,0,na,na
1st innings,12.2,TM Dilshan,K Upadhyay,SS Tiwary,0,0,na,na
1st innings,12.3,TM Dilshan,K Upadhyay,SS Tiwary,0,0,na,na
1st innings,12.4,TM Dilshan,K Upadhyay,SS Tiwary,0,0,na,na
1st innings,12.5,TM Dilshan,K Upadhyay,SS Tiwary,1,1,na,na
1st innings,12.6,SS Tiwary,K Upadhyay,TM Dilshan,1,1,na,na
1st innings,13.1,SS Tiwary,R Sharma,TM Dilshan,4,4,na,na
1st innings,13.2,SS Tiwary,R Sharma,TM Dilshan,1,1,na,na
1st innings,13.3,TM Dilshan,R Sharma,SS Tiwary,4,4,na,na
1st innings,13.4,TM Dilshan,R Sharma,SS Tiwary,0,0,na,na
1st innings,13.5,TM Dilshan,R Sharma,SS Tiwary,1,1,na,na
1st innings,13.6,SS Tiwary,R Sharma,TM Dilshan,6,6,na,na
1st innings,14.1,TM Dilshan,K Upadhyay,SS Tiwary,1,1,na,na
1st innings,14.2,SS Tiwary,K Upadhyay,TM Dilshan,4,4,na,na
1st innings,14.3,SS Tiwary,K Upadhyay,TM Dilshan,4,4,na,na
1st innings,14.4,SS Tiwary,K Upadhyay,TM Dilshan,4,4,na,na
1st innings,14.5,SS Tiwary,K Upadhyay,TM Dilshan,1,1,na,na
1st innings,14.6,TM Dilshan,K Upadhyay,SS Tiwary,0,0,na,na
1st innings,15.1,SS Tiwary,AD Mathews,TM Dilshan,0,0,na,na
1st innings,15.2,SS Tiwary,AD Mathews,TM Dilshan,0,0,na,na
1st innings,15.3,SS Tiwary,AD Mathews,TM Dilshan,1,1,na,na
1st innings,15.4,TM Dilshan,AD Mathews,SS Tiwary,0,0,na,na
1st innings,15.5,TM Dilshan,AD Mathews,SS Tiwary,1,1,na,na
1st innings,15.6,SS Tiwary,AD Mathews,TM Dilshan,1,1,na,na
1st innings,16.1,SS Tiwary,B Kumar,TM Dilshan,1,0,{'legbyes': 1},na
1st innings,16.2,TM Dilshan,B Kumar,SS Tiwary,1,1,na,na
1st innings,16.3,SS Tiwary,B Kumar,TM Dilshan,2,2,na,na
1st innings,16.4,SS Tiwary,B Kumar,TM Dilshan,1,1,na,na
1st innings,16.5,TM Dilshan,B Kumar,SS Tiwary,1,1,na,na
1st innings,16.6,SS Tiwary,B Kumar,TM Dilshan,0,0,na,na
1st innings,17.1,TM Dilshan,AC Thomas,SS Tiwary,0,0,na,na
1st innings,17.2,TM Dilshan,AC Thomas,SS Tiwary,0,0,na,"{'fielders': ['AC Thomas'], 'kind': 'run out', 'player_out': 'TM Dilshan'}"
1st innings,17.3,AB de Villiers,AC Thomas,SS Tiwary,6,6,na,na
1st innings,17.4,AB de Villiers,AC Thomas,SS Tiwary,2,2,na,na
1st innings,17.5,AB de Villiers,AC Thomas,SS Tiwary,1,1,na,na
1st innings,17.6,SS Tiwary,AC Thomas,AB de Villiers,2,2,na,na
1st innings,18.1,AB de Villiers,B Kumar,SS Tiwary,4,4,na,na
1st innings,18.2,AB de Villiers,B Kumar,SS Tiwary,0,0,na,na
1st innings,18.3,AB de Villiers,B Kumar,SS Tiwary,1,1,na,na
1st innings,18.4,SS Tiwary,B Kumar,AB de Villiers,1,0,{'legbyes': 1},na
1st innings,18.5,AB de Villiers,B Kumar,SS Tiwary,2,2,na,na
1st innings,18.6,AB de Villiers,B Kumar,SS Tiwary,1,1,na,na
1st innings,19.1,AB de Villiers,AC Thomas,SS Tiwary,4,4,na,na
1st innings,19.2,AB de Villiers,AC Thomas,SS Tiwary,1,1,na,na
1st innings,19.3,SS Tiwary,AC Thomas,AB de Villiers,1,1,na,na
1st innings,19.4,AB de Villiers,AC Thomas,SS Tiwary,2,2,na,na
1st innings,19.5,AB de Villiers,AC Thomas,SS Tiwary,1,1,na,na
1st innings,19.6,SS Tiwary,AC Thomas,AB de Villiers,6,6,na,na
2nd innings,0.1,MJ Clarke,Z Khan,MD Mishra,0,0,na,na
2nd innings,0.2,MJ Clarke,Z Khan,MD Mishra,0,0,na,na
2nd innings,0.3,MJ Clarke,Z Khan,MD Mishra,4,4,na,na
2nd innings,0.4,MJ Clarke,Z Khan,MD Mishra,0,0,na,"{'kind': 'lbw', 'player_out': 'MD Mishra'}"
2nd innings,0.5,MJ Clarke,Z Khan,MK Pandey,0,0,na,na
2nd innings,0.6,MJ Clarke,Z Khan,MK Pandey,0,0,na,"{'kind': 'bowled', 'player_out': 'MK Pandey'}"
2nd innings,1.1,RV Uthappa,R Vinay Kumar,MJ Clarke,1,1,na,na
2nd innings,1.2,MJ Clarke,R Vinay Kumar,RV Uthappa,0,0,na,na
2nd innings,1.3,MJ Clarke,R Vinay Kumar,RV Uthappa,1,1,na,na
2nd innings,1.4,RV Uthappa,R Vinay Kumar,MJ Clarke,4,4,na,na
2nd innings,1.5,RV Uthappa,R Vinay Kumar,MJ Clarke,0,0,na,na
2nd innings,1.6,RV Uthappa,R Vinay Kumar,MJ Clarke,0,0,na,na
2nd innings,2.1,MJ Clarke,Z Khan,RV Uthappa,0,0,na,na
2nd innings,2.2,MJ Clarke,Z Khan,RV Uthappa,0,0,na,na
2nd innings,2.3,MJ Clarke,Z Khan,RV Uthappa,3,3,na,na
2nd innings,2.4,RV Uthappa,Z Khan,MJ Clarke,0,0,na,na
2nd innings,2.5,RV Uthappa,Z Khan,MJ Clarke,1,1,na,na
2nd innings,2.6,MJ Clarke,Z Khan,RV Uthappa,0,0,na,na
2nd innings,3.1,RV Uthappa,R Vinay Kumar,MJ Clarke,2,2,na,na
2nd innings,3.2,RV Uthappa,R Vinay Kumar,MJ Clarke,4,4,na,na
2nd innings,3.3,RV Uthappa,R Vinay Kumar,MJ Clarke,1,1,na,na
2nd innings,3.4,MJ Clarke,R Vinay Kumar,RV Uthappa,1,1,na,na
2nd innings,3.5,RV Uthappa,R Vinay Kumar,MJ Clarke,0,0,na,"{'fielders': ['SS Tiwary'], 'kind': 'caught', 'player_out': 'MJ Clarke'}"
2nd innings,3.6,AP Majumdar,R Vinay Kumar,RV Uthappa,4,4,na,na
2nd innings,4.1,RV Uthappa,HV Patel,AP Majumdar,0,0,na,na
2nd innings,4.2,RV Uthappa,HV Patel,AP Majumdar,1,1,na,na
2nd innings,4.3,RV Uthappa,HV Patel,AP Majumdar,1,1,na,na
2nd innings,4.4,AP Majumdar,HV Patel,RV Uthappa,4,4,na,na
2nd innings,4.5,AP Majumdar,HV Patel,RV Uthappa,2,2,na,na
2nd innings,4.6,AP Majumdar,HV Patel,RV Uthappa,4,4,na,na
2nd innings,5.1,RV Uthappa,KP Appanna,AP Majumdar,1,0,{'legbyes': 1},na
2nd innings,5.2,AP Majumdar,KP Appanna,RV Uthappa,0,0,na,na
2nd innings,5.3,AP Majumdar,KP Appanna,RV Uthappa,1,1,na,na
2nd innings,5.4,RV Uthappa,KP Appanna,AP Majumdar,4,4,na,na
2nd innings,5.5,RV Uthappa,KP Appanna,AP Majumdar,2,2,na,na
2nd innings,5.6,RV Uthappa,KP Appanna,AP Majumdar,4,4,na,na
2nd innings,6.1,AP Majumdar,M Muralitharan,RV Uthappa,0,0,na,na
2nd innings,6.2,AP Majumdar,M Muralitharan,RV Uthappa,0,0,na,na
2nd innings,6.3,AP Majumdar,M Muralitharan,RV Uthappa,4,4,na,na
2nd innings,6.4,AP Majumdar,M Muralitharan,RV Uthappa,1,1,na,na
2nd innings,6.5,RV Uthappa,M Muralitharan,AP Majumdar,1,1,na,na
2nd innings,6.6,AP Majumdar,M Muralitharan,RV Uthappa,0,0,na,na
2nd innings,7.1,RV Uthappa,HV Patel,AP Majumdar,1,1,na,na
2nd innings,7.2,AP Majumdar,HV Patel,RV Uthappa,4,4,na,na
2nd innings,7.3,AP Majumdar,HV Patel,RV Uthappa,6,6,na,na
2nd innings,7.4,AP Majumdar,HV Patel,RV Uthappa,2,2,na,na
2nd innings,7.5,AP Majumdar,HV Patel,RV Uthappa,1,1,na,na
2nd innings,7.6,RV Uthappa,HV Patel,AP Majumdar,1,1,na,na
2nd innings,8.1,RV Uthappa,M Muralitharan,AP Majumdar,0,0,na,na
2nd innings,8.2,RV Uthappa,M Muralitharan,AP Majumdar,1,1,na,na
2nd innings,8.3,AP Majumdar,M Muralitharan,RV Uthappa,0,0,na,"{'fielders': ['AB de Villiers'], 'kind': 'stumped', 'player_out': 'RV Uthappa'}"
2nd innings,8.4,AP Majumdar,M Muralitharan,AD Mathews,0,0,na,na
2nd innings,8.5,AP Majumdar,M Muralitharan,AD Mathews,0,0,na,na
2nd innings,8.6,AP Majumdar,M Muralitharan,AD Mathews,1,1,na,na
2nd innings,9.1,AP Majumdar,KP Appanna,AD Mathews,0,0,na,na
2nd innings,9.2,AP Majumdar,KP Appanna,AD Mathews,0,0,na,na
2nd innings,9.3,AP Majumdar,KP Appanna,AD Mathews,1,1,na,na
2nd innings,9.4,AD Mathews,KP Appanna,AP Majumdar,1,0,{'wides': 1},na
2nd innings,9.5,AD Mathews,KP Appanna,AP Majumdar,4,4,na,na
2nd innings,9.6,AD Mathews,KP Appanna,AP Majumdar,0,0,na,na
2nd innings,9.7,AD Mathews,KP Appanna,AP Majumdar,1,1,na,na
2nd innings,10.1,AD Mathews,M Muralitharan,AP Majumdar,1,1,na,na
2nd innings,10.2,AP Majumdar,M Muralitharan,AD Mathews,1,1,na,na
2nd innings,10.3,AD Mathews,M Muralitharan,AP Majumdar,0,0,na,na
2nd innings,10.4,AD Mathews,M Muralitharan,AP Majumdar,1,1,na,na
2nd innings,10.5,AP Majumdar,M Muralitharan,AD Mathews,0,0,na,na
2nd innings,10.6,AP Majumdar,M Muralitharan,AD Mathews,1,1,na,na
2nd innings,11.1,AP Majumdar,KP Appanna,AD Mathews,0,0,na,"{'fielders': ['AB de Villiers'], 'kind': 'stumped', 'player_out': 'AD Mathews'}"
2nd innings,11.2,AP Majumdar,KP Appanna,SPD Smith,2,2,na,na
2nd innings,11.3,AP Majumdar,KP Appanna,SPD Smith,0,0,na,na
2nd innings,11.4,AP Majumdar,KP Appanna,SPD Smith,0,0,na,na
2nd innings,11.5,AP Majumdar,KP Appanna,SPD Smith,1,1,na,na
2nd innings,11.6,SPD Smith,KP Appanna,AP Majumdar,1,1,na,na
2nd innings,12.1,SPD Smith,HV Patel,AP Majumdar,0,0,na,na
2nd innings,12.2,SPD Smith,HV Patel,AP Majumdar,4,4,na,na
2nd innings,12.3,SPD Smith,HV Patel,AP Majumdar,0,0,na,na
2nd innings,12.4,SPD Smith,HV Patel,AP Majumdar,1,1,na,na
2nd innings,12.5,AP Majumdar,HV Patel,SPD Smith,0,0,na,na
2nd innings,12.6,AP Majumdar,HV Patel,SPD Smith,1,1,na,na
2nd innings,13.1,AP Majumdar,KP Appanna,SPD Smith,1,1,na,na
2nd innings,13.2,SPD Smith,KP Appanna,AP Majumdar,1,1,na,na
2nd innings,13.3,AP Majumdar,KP Appanna,SPD Smith,1,1,na,na
2nd innings,13.4,SPD Smith,KP Appanna,AP Majumdar,1,1,na,na
2nd innings,13.5,AP Majumdar,KP Appanna,SPD Smith,4,4,na,na
2nd innings,13.6,AP Majumdar,KP Appanna,SPD Smith,0,0,na,na
2nd innings,14.1,SPD Smith,HV Patel,AP Majumdar,0,0,na,"{'fielders': ['Z Khan'], 'kind': 'caught', 'player_out': 'AP Majumdar'}"
2nd innings,14.2,B Kumar,HV Patel,SPD Smith,1,1,na,na
2nd innings,14.3,SPD Smith,HV Patel,B Kumar,1,1,na,na
2nd innings,14.4,B Kumar,HV Patel,SPD Smith,0,0,na,na
2nd innings,14.5,B Kumar,HV Patel,SPD Smith,1,1,na,na
2nd innings,14.6,SPD Smith,HV Patel,B Kumar,0,0,na,na
2nd innings,15.1,B Kumar,M Muralitharan,SPD Smith,1,1,na,na
2nd innings,15.2,SPD Smith,M Muralitharan,B Kumar,1,1,na,na
2nd innings,15.3,B Kumar,M Muralitharan,SPD Smith,0,0,na,na
2nd innings,15.4,B Kumar,M Muralitharan,SPD Smith,1,1,na,na
2nd innings,15.5,SPD Smith,M Muralitharan,B Kumar,0,0,na,"{'kind': 'bowled', 'player_out': 'B Kumar'}"
2nd innings,15.6,SPD Smith,M Muralitharan,AC Thomas,1,1,na,na
2nd innings,16.1,SPD Smith,Z Khan,AC Thomas,1,1,na,na
2nd innings,16.2,AC Thomas,Z Khan,SPD Smith,1,1,na,na
2nd innings,16.3,SPD Smith,Z Khan,AC Thomas,1,1,na,na
2nd innings,16.4,AC Thomas,Z Khan,SPD Smith,1,0,{'legbyes': 1},na
2nd innings,16.5,SPD Smith,Z Khan,AC Thomas,0,0,na,na
2nd innings,16.6,SPD Smith,Z Khan,AC Thomas,4,4,na,na
2nd innings,17.1,AC Thomas,R Vinay Kumar,SPD Smith,1,1,na,na
2nd innings,17.2,SPD Smith,R Vinay Kumar,AC Thomas,0,0,na,"{'kind': 'bowled', 'player_out': 'AC Thomas'}"
2nd innings,17.3,SPD Smith,R Vinay Kumar,R Sharma,1,0,{'legbyes': 1},na
2nd innings,17.4,R Sharma,R Vinay Kumar,SPD Smith,2,2,na,na
2nd innings,17.5,R Sharma,R Vinay Kumar,SPD Smith,1,1,na,na
2nd innings,17.6,SPD Smith,R Vinay Kumar,R Sharma,0,0,na,"{'kind': 'bowled', 'player_out': 'R Sharma'}"
2nd innings,18.1,K Upadhyay,Z Khan,SPD Smith,1,1,na,na
2nd innings,18.2,SPD Smith,Z Khan,K Upadhyay,2,2,na,na
2nd innings,18.3,SPD Smith,Z Khan,K Upadhyay,0,0,na,na
2nd innings,18.4,SPD Smith,Z Khan,K Upadhyay,1,1,na,na
2nd innings,18.5,K Upadhyay,Z Khan,SPD Smith,1,1,na,na
2nd innings,18.6,SPD Smith,Z Khan,K Upadhyay,1,1,na,na
2nd innings,19.1,SPD Smith,R Vinay Kumar,K Upadhyay,6,6,na,na
2nd innings,19.2,SPD Smith,R Vinay Kumar,K Upadhyay,0,0,na,na
2nd innings,19.3,SPD Smith,R Vinay Kumar,K Upadhyay,0,0,na,na
2nd innings,19.4,SPD Smith,R Vinay Kumar,K Upadhyay,1,1,na,na
2nd innings,19.5,K Upadhyay,R Vinay Kumar,SPD Smith,2,2,na,na
2nd innings,19.6,K Upadhyay,R Vinay Kumar,SPD Smith,1,1,na,na
