innings,deliveries,non_striker,bowler,batsman,total_runs,batsman_runs,extras,wickets
1st innings,0.1,MEK Hussey,Sunny Gupta,M Vijay,4,4,na,na
1st innings,0.2,MEK Hussey,Sunny Gupta,M Vijay,4,4,na,na
1st innings,0.3,MEK Hussey,Sunny Gupta,M Vijay,1,1,na,na
1st innings,0.4,M Vijay,Sunny Gupta,MEK Hussey,1,1,na,na
1st innings,0.5,MEK Hussey,Sunny Gupta,M Vijay,1,1,na,na
1st innings,0.6,M Vijay,Sunny Gupta,MEK Hussey,1,1,na,na
1st innings,1.1,M Vijay,UT Yadav,MEK Hussey,0,0,na,na
1st innings,1.2,M Vijay,UT Yadav,MEK Hussey,4,4,na,na
1st innings,1.3,M Vijay,UT Yadav,MEK Hussey,0,0,na,na
1st innings,1.4,M Vijay,UT Yadav,MEK Hussey,1,1,na,na
1st innings,1.5,MEK Hussey,UT Yadav,M Vijay,1,1,na,na
1st innings,1.6,M Vijay,UT Yadav,MEK Hussey,1,1,na,na
1st innings,2.1,M Vijay,AD Russell,MEK Hussey,0,0,na,na
1st innings,2.2,M Vijay,AD Russell,MEK Hussey,0,0,na,na
1st innings,2.3,M Vijay,AD Russell,MEK Hussey,0,0,na,na
1st innings,2.4,M Vijay,AD Russell,MEK Hussey,1,1,na,na
1st innings,2.5,MEK Hussey,AD Russell,M Vijay,4,4,na,na
1st innings,2.6,MEK Hussey,AD Russell,M Vijay,1,1,na,na
1st innings,3.1,MEK Hussey,UT Yadav,M Vijay,4,4,na,na
1st innings,3.2,MEK Hussey,UT Yadav,M Vijay,1,1,na,na
1st innings,3.3,M Vijay,UT Yadav,MEK Hussey,0,0,na,na
1st innings,3.4,M Vijay,UT Yadav,MEK Hussey,0,0,na,na
1st innings,3.5,M Vijay,UT Yadav,MEK Hussey,0,0,na,na
1st innings,3.6,M Vijay,UT Yadav,MEK Hussey,1,1,na,na
1st innings,4.1,M Vijay,AD Russell,MEK Hussey,3,3,na,na
1st innings,4.2,MEK Hussey,AD Russell,M Vijay,0,0,na,na
1st innings,4.3,MEK Hussey,AD Russell,M Vijay,4,4,na,na
1st innings,4.4,MEK Hussey,AD Russell,M Vijay,0,0,na,na
1st innings,4.5,MEK Hussey,AD Russell,M Vijay,1,1,na,na
1st innings,4.6,M Vijay,AD Russell,MEK Hussey,0,0,na,na
1st innings,5.1,MEK Hussey,VR Aaron,M Vijay,0,0,na,na
1st innings,5.2,MEK Hussey,VR Aaron,M Vijay,4,4,na,na
1st innings,5.3,MEK Hussey,VR Aaron,M Vijay,1,0,{'wides': 1},na
1st innings,5.4,MEK Hussey,VR Aaron,M Vijay,0,0,na,na
1st innings,5.5,MEK Hussey,VR Aaron,M Vijay,0,0,na,na
1st innings,5.6,MEK Hussey,VR Aaron,M Vijay,4,4,na,na
1st innings,5.7,MEK Hussey,VR Aaron,M Vijay,4,4,na,na
1st innings,6.1,M Vijay,Sunny Gupta,MEK Hussey,1,1,na,na
1st innings,6.2,MEK Hussey,Sunny Gupta,M Vijay,4,4,na,na
1st innings,6.3,MEK Hussey,Sunny Gupta,M Vijay,1,1,na,na
1st innings,6.4,M Vijay,Sunny Gupta,MEK Hussey,4,4,na,na
1st innings,6.5,M Vijay,Sunny Gupta,MEK Hussey,1,1,na,na
1st innings,6.6,MEK Hussey,Sunny Gupta,M Vijay,1,1,na,na
1st innings,7.1,MEK Hussey,P Negi,M Vijay,0,0,na,na
1st innings,7.2,MEK Hussey,P Negi,M Vijay,0,0,na,na
1st innings,7.3,MEK Hussey,P Negi,M Vijay,2,2,na,na
1st innings,7.4,MEK Hussey,P Negi,M Vijay,0,0,na,na
1st innings,7.5,MEK Hussey,P Negi,M Vijay,1,1,na,na
1st innings,7.6,M Vijay,P Negi,MEK Hussey,1,1,na,na
1st innings,8.1,M Vijay,VR Aaron,MEK Hussey,0,0,na,"{'fielders': ['NV Ojha'], 'kind': 'caught', 'player_out': 'MEK Hussey'}"
1st innings,8.2,M Vijay,VR Aaron,SK Raina,0,0,na,na
1st innings,8.3,M Vijay,VR Aaron,SK Raina,0,0,na,na
1st innings,8.4,M Vijay,VR Aaron,SK Raina,4,4,na,na
1st innings,8.5,M Vijay,VR Aaron,SK Raina,1,1,na,na
1st innings,8.6,SK Raina,VR Aaron,M Vijay,4,4,na,na
1st innings,9.1,M Vijay,P Negi,SK Raina,1,1,na,na
1st innings,9.2,SK Raina,P Negi,M Vijay,1,1,na,na
1st innings,9.3,M Vijay,P Negi,SK Raina,1,1,na,na
1st innings,9.4,SK Raina,P Negi,M Vijay,1,1,na,na
1st innings,9.5,M Vijay,P Negi,SK Raina,1,1,na,na
1st innings,9.6,SK Raina,P Negi,M Vijay,1,1,na,na
1st innings,10.1,SK Raina,V Sehwag,M Vijay,6,6,na,na
1st innings,10.2,SK Raina,V Sehwag,M Vijay,0,0,na,na
1st innings,10.3,SK Raina,V Sehwag,M Vijay,4,4,na,na
1st innings,10.4,SK Raina,V Sehwag,M Vijay,4,4,na,na
1st innings,10.5,SK Raina,V Sehwag,M Vijay,6,6,na,na
1st innings,10.6,SK Raina,V Sehwag,M Vijay,1,1,na,na
1st innings,11.1,SK Raina,P Negi,M Vijay,6,6,na,na
1st innings,11.2,SK Raina,P Negi,M Vijay,1,1,na,na
1st innings,11.3,M Vijay,P Negi,SK Raina,2,2,na,na
1st innings,11.4,M Vijay,P Negi,SK Raina,0,0,na,na
1st innings,11.5,M Vijay,P Negi,SK Raina,1,1,na,na
1st innings,11.6,SK Raina,P Negi,M Vijay,1,1,na,na
1st innings,12.1,SK Raina,AD Russell,M Vijay,1,1,na,na
1st innings,12.2,M Vijay,AD Russell,SK Raina,4,4,na,na
1st innings,12.3,M Vijay,AD Russell,SK Raina,1,1,na,na
1st innings,12.4,SK Raina,AD Russell,M Vijay,4,4,na,na
1st innings,12.5,SK Raina,AD Russell,M Vijay,1,1,na,na
1st innings,12.6,M Vijay,AD Russell,SK Raina,1,1,na,na
1st innings,13.1,M Vijay,P Negi,SK Raina,4,4,na,na
1st innings,13.2,M Vijay,P Negi,SK Raina,0,0,na,na
1st innings,13.3,M Vijay,P Negi,SK Raina,6,6,na,na
1st innings,13.4,M Vijay,P Negi,SK Raina,0,0,na,"{'kind': 'caught and bowled', 'player_out': 'SK Raina'}"
1st innings,13.5,M Vijay,P Negi,MS Dhoni,1,1,na,na
1st innings,13.6,MS Dhoni,P Negi,M Vijay,1,1,na,na
1st innings,14.1,MS Dhoni,Sunny Gupta,M Vijay,6,6,na,na
1st innings,14.2,MS Dhoni,Sunny Gupta,M Vijay,1,1,na,na
1st innings,14.3,M Vijay,Sunny Gupta,MS Dhoni,6,6,na,na
1st innings,14.4,M Vijay,Sunny Gupta,MS Dhoni,6,6,na,na
1st innings,14.5,M Vijay,Sunny Gupta,MS Dhoni,1,1,na,na
1st innings,14.6,MS Dhoni,Sunny Gupta,M Vijay,2,0,{'wides': 2},na
1st innings,14.7,M Vijay,Sunny Gupta,MS Dhoni,1,1,na,na
1st innings,15.1,M Vijay,AD Russell,MS Dhoni,1,1,na,na
1st innings,15.2,MS Dhoni,AD Russell,M Vijay,0,0,na,na
1st innings,15.3,MS Dhoni,AD Russell,M Vijay,2,2,na,na
1st innings,15.4,MS Dhoni,AD Russell,M Vijay,0,0,na,na
1st innings,15.5,MS Dhoni,AD Russell,M Vijay,1,0,{'legbyes': 1},na
1st innings,15.6,M Vijay,AD Russell,MS Dhoni,1,1,na,na
1st innings,16.1,M Vijay,VR Aaron,MS Dhoni,2,2,na,na
1st innings,16.2,M Vijay,VR Aaron,MS Dhoni,4,4,na,na
1st innings,16.3,M Vijay,VR Aaron,MS Dhoni,0,0,na,"{'fielders': ['P Negi'], 'kind': 'caught', 'player_out': 'MS Dhoni'}"
1st innings,16.4,JA Morkel,VR Aaron,M Vijay,2,2,na,na
1st innings,16.5,JA Morkel,VR Aaron,M Vijay,4,4,na,na
1st innings,16.6,JA Morkel,VR Aaron,M Vijay,4,4,na,na
1st innings,17.1,M Vijay,UT Yadav,JA Morkel,0,0,na,"{'fielders': ['NV Ojha'], 'kind': 'caught', 'player_out': 'JA Morkel'}"
1st innings,17.2,M Vijay,UT Yadav,DJ Bravo,1,1,na,na
1st innings,17.3,DJ Bravo,UT Yadav,M Vijay,0,0,na,na
1st innings,17.4,DJ Bravo,UT Yadav,M Vijay,1,1,na,na
1st innings,17.5,M Vijay,UT Yadav,DJ Bravo,4,4,na,na
1st innings,17.6,M Vijay,UT Yadav,DJ Bravo,1,1,na,na
1st innings,18.1,M Vijay,VR Aaron,DJ Bravo,1,1,na,na
1st innings,18.2,DJ Bravo,VR Aaron,M Vijay,2,0,{'wides': 2},na
1st innings,18.3,M Vijay,VR Aaron,DJ Bravo,2,2,na,na
1st innings,18.4,M Vijay,VR Aaron,DJ Bravo,4,4,na,na
1st innings,18.5,M Vijay,VR Aaron,DJ Bravo,4,4,na,na
1st innings,18.6,M Vijay,VR Aaron,DJ Bravo,6,6,na,na
1st innings,18.7,M Vijay,VR Aaron,DJ Bravo,6,6,na,na
1st innings,19.1,DJ Bravo,UT Yadav,M Vijay,1,1,na,na
1st innings,19.2,M Vijay,UT Yadav,DJ Bravo,2,2,na,na
1st innings,19.3,M Vijay,UT Yadav,DJ Bravo,1,1,na,na
1st innings,19.4,DJ Bravo,UT Yadav,M Vijay,1,1,na,na
1st innings,19.5,M Vijay,UT Yadav,DJ Bravo,1,1,na,na
1st innings,19.6,DJ Bravo,UT Yadav,M Vijay,1,1,na,"{'fielders': ['DA Warner', 'NV Ojha'], 'kind': 'run out', 'player_out': 'M Vijay'}"
2nd innings,0.1,DA Warner,BW Hilfenhaus,DPMD Jayawardene,0,0,na,na
2nd innings,0.2,DA Warner,BW Hilfenhaus,DPMD Jayawardene,1,1,na,na
2nd innings,0.3,DPMD Jayawardene,BW Hilfenhaus,DA Warner,0,0,na,na
2nd innings,0.4,DPMD Jayawardene,BW Hilfenhaus,DA Warner,0,0,na,na
2nd innings,0.5,DPMD Jayawardene,BW Hilfenhaus,DA Warner,1,1,na,na
2nd innings,0.6,DA Warner,BW Hilfenhaus,DPMD Jayawardene,4,4,na,na
2nd innings,1.1,DPMD Jayawardene,JA Morkel,DA Warner,1,1,na,na
2nd innings,1.2,DA Warner,JA Morkel,DPMD Jayawardene,4,4,na,na
2nd innings,1.3,DA Warner,JA Morkel,DPMD Jayawardene,4,4,na,na
2nd innings,1.4,DA Warner,JA Morkel,DPMD Jayawardene,0,0,na,na
2nd innings,1.5,DA Warner,JA Morkel,DPMD Jayawardene,1,1,na,na
2nd innings,1.6,DPMD Jayawardene,JA Morkel,DA Warner,1,1,na,na
2nd innings,2.1,DPMD Jayawardene,BW Hilfenhaus,DA Warner,0,0,na,na
2nd innings,2.2,DPMD Jayawardene,BW Hilfenhaus,DA Warner,0,0,na,"{'fielders': ['M Vijay'], 'kind': 'caught', 'player_out': 'DA Warner'}"
2nd innings,2.3,DPMD Jayawardene,BW Hilfenhaus,V Sehwag,0,0,na,na
2nd innings,2.4,DPMD Jayawardene,BW Hilfenhaus,V Sehwag,1,1,na,na
2nd innings,2.5,V Sehwag,BW Hilfenhaus,DPMD Jayawardene,1,1,na,na
2nd innings,2.6,DPMD Jayawardene,BW Hilfenhaus,V Sehwag,1,0,{'wides': 1},na
2nd innings,2.7,DPMD Jayawardene,BW Hilfenhaus,V Sehwag,1,0,{'wides': 1},na
2nd innings,2.8,DPMD Jayawardene,BW Hilfenhaus,V Sehwag,0,0,na,na
2nd innings,3.1,V Sehwag,JA Morkel,DPMD Jayawardene,1,1,na,na
2nd innings,3.2,DPMD Jayawardene,JA Morkel,V Sehwag,0,0,na,na
2nd innings,3.3,DPMD Jayawardene,JA Morkel,V Sehwag,0,0,na,na
2nd innings,3.4,DPMD Jayawardene,JA Morkel,V Sehwag,0,0,na,"{'fielders': ['MEK Hussey'], 'kind': 'caught', 'player_out': 'V Sehwag'}"
2nd innings,3.5,LRPL Taylor,JA Morkel,DPMD Jayawardene,1,1,na,na
2nd innings,3.6,DPMD Jayawardene,JA Morkel,LRPL Taylor,4,4,na,na
2nd innings,4.1,LRPL Taylor,BW Hilfenhaus,DPMD Jayawardene,1,0,{'legbyes': 1},na
2nd innings,4.2,DPMD Jayawardene,BW Hilfenhaus,LRPL Taylor,1,1,na,na
2nd innings,4.3,LRPL Taylor,BW Hilfenhaus,DPMD Jayawardene,0,0,na,na
2nd innings,4.4,LRPL Taylor,BW Hilfenhaus,DPMD Jayawardene,1,1,na,na
2nd innings,4.5,DPMD Jayawardene,BW Hilfenhaus,LRPL Taylor,1,1,na,na
2nd innings,4.6,LRPL Taylor,BW Hilfenhaus,DPMD Jayawardene,4,4,na,na
2nd innings,5.1,DPMD Jayawardene,JA Morkel,LRPL Taylor,1,1,na,na
2nd innings,5.2,LRPL Taylor,JA Morkel,DPMD Jayawardene,6,6,na,na
2nd innings,5.3,LRPL Taylor,JA Morkel,DPMD Jayawardene,1,1,na,na
2nd innings,5.4,DPMD Jayawardene,JA Morkel,LRPL Taylor,1,1,na,na
2nd innings,5.5,LRPL Taylor,JA Morkel,DPMD Jayawardene,1,1,na,na
2nd innings,5.6,DPMD Jayawardene,JA Morkel,LRPL Taylor,1,1,na,na
2nd innings,6.1,DPMD Jayawardene,SB Jakati,LRPL Taylor,1,1,na,na
2nd innings,6.2,LRPL Taylor,SB Jakati,DPMD Jayawardene,1,1,na,na
2nd innings,6.3,DPMD Jayawardene,SB Jakati,LRPL Taylor,2,2,na,na
2nd innings,6.4,DPMD Jayawardene,SB Jakati,LRPL Taylor,6,6,na,na
2nd innings,6.5,DPMD Jayawardene,SB Jakati,LRPL Taylor,0,0,na,na
2nd innings,6.6,DPMD Jayawardene,SB Jakati,LRPL Taylor,6,6,na,na
2nd innings,7.1,LRPL Taylor,R Ashwin,DPMD Jayawardene,2,2,na,na
2nd innings,7.2,LRPL Taylor,R Ashwin,DPMD Jayawardene,2,2,na,na
2nd innings,7.3,LRPL Taylor,R Ashwin,DPMD Jayawardene,2,2,na,na
2nd innings,7.4,LRPL Taylor,R Ashwin,DPMD Jayawardene,1,0,{'wides': 1},na
2nd innings,7.5,LRPL Taylor,R Ashwin,DPMD Jayawardene,1,1,na,na
2nd innings,7.6,DPMD Jayawardene,R Ashwin,LRPL Taylor,0,0,na,na
2nd innings,7.7,DPMD Jayawardene,R Ashwin,LRPL Taylor,0,0,na,na
2nd innings,8.1,LRPL Taylor,DJ Bravo,DPMD Jayawardene,3,0,{'wides': 3},na
2nd innings,8.2,LRPL Taylor,DJ Bravo,DPMD Jayawardene,1,1,na,na
2nd innings,8.3,DPMD Jayawardene,DJ Bravo,LRPL Taylor,0,0,na,"{'fielders': ['SK Raina'], 'kind': 'caught', 'player_out': 'LRPL Taylor'}"
2nd innings,8.4,DPMD Jayawardene,DJ Bravo,AD Russell,4,4,na,na
2nd innings,8.5,DPMD Jayawardene,DJ Bravo,AD Russell,1,1,na,na
2nd innings,8.6,AD Russell,DJ Bravo,DPMD Jayawardene,1,1,na,na
2nd innings,8.7,DPMD Jayawardene,DJ Bravo,AD Russell,2,2,na,na
2nd innings,9.1,AD Russell,SB Jakati,DPMD Jayawardene,1,1,na,na
2nd innings,9.2,DPMD Jayawardene,SB Jakati,AD Russell,1,1,na,na
2nd innings,9.3,AD Russell,SB Jakati,DPMD Jayawardene,1,1,na,na
2nd innings,9.4,DPMD Jayawardene,SB Jakati,AD Russell,1,1,na,na
2nd innings,9.5,AD Russell,SB Jakati,DPMD Jayawardene,1,1,na,na
2nd innings,9.6,DPMD Jayawardene,SB Jakati,AD Russell,2,2,na,na
2nd innings,10.1,AD Russell,DJ Bravo,DPMD Jayawardene,1,0,{'wides': 1},na
2nd innings,10.2,AD Russell,DJ Bravo,DPMD Jayawardene,0,0,na,na
2nd innings,10.3,AD Russell,DJ Bravo,DPMD Jayawardene,2,2,na,na
2nd innings,10.4,AD Russell,DJ Bravo,DPMD Jayawardene,1,1,na,na
2nd innings,10.5,DPMD Jayawardene,DJ Bravo,AD Russell,0,0,na,na
2nd innings,10.6,DPMD Jayawardene,DJ Bravo,AD Russell,4,4,na,na
2nd innings,10.7,DPMD Jayawardene,DJ Bravo,AD Russell,1,1,na,na
2nd innings,11.1,DPMD Jayawardene,R Ashwin,AD Russell,1,0,{'legbyes': 1},na
2nd innings,11.2,AD Russell,R Ashwin,DPMD Jayawardene,6,6,na,na
2nd innings,11.3,AD Russell,R Ashwin,DPMD Jayawardene,1,1,na,na
2nd innings,11.4,DPMD Jayawardene,R Ashwin,AD Russell,0,0,na,"{'fielders': ['DJ Bravo'], 'kind': 'caught', 'player_out': 'AD Russell'}"
2nd innings,11.5,NV Ojha,R Ashwin,DPMD Jayawardene,1,0,{'byes': 1},na
2nd innings,11.6,DPMD Jayawardene,R Ashwin,NV Ojha,0,0,na,na
2nd innings,12.1,NV Ojha,DJ Bravo,DPMD Jayawardene,0,0,na,na
2nd innings,12.2,NV Ojha,DJ Bravo,DPMD Jayawardene,1,1,na,na
2nd innings,12.3,DPMD Jayawardene,DJ Bravo,NV Ojha,1,1,na,na
2nd innings,12.4,NV Ojha,DJ Bravo,DPMD Jayawardene,1,1,na,na
2nd innings,12.5,DPMD Jayawardene,DJ Bravo,NV Ojha,1,0,{'legbyes': 1},na
2nd innings,12.6,NV Ojha,DJ Bravo,DPMD Jayawardene,0,0,na,na
2nd innings,13.1,DPMD Jayawardene,SB Jakati,NV Ojha,6,6,na,na
2nd innings,13.2,DPMD Jayawardene,SB Jakati,NV Ojha,0,0,na,"{'fielders': ['M Vijay'], 'kind': 'caught', 'player_out': 'NV Ojha'}"
2nd innings,13.3,DPMD Jayawardene,SB Jakati,Y Venugopal Rao,0,0,na,na
2nd innings,13.4,DPMD Jayawardene,SB Jakati,Y Venugopal Rao,2,2,na,na
2nd innings,13.5,DPMD Jayawardene,SB Jakati,Y Venugopal Rao,0,0,na,na
2nd innings,13.6,DPMD Jayawardene,SB Jakati,Y Venugopal Rao,1,1,na,na
2nd innings,14.1,DPMD Jayawardene,R Ashwin,Y Venugopal Rao,6,6,na,na
2nd innings,14.2,DPMD Jayawardene,R Ashwin,Y Venugopal Rao,0,0,na,na
2nd innings,14.3,DPMD Jayawardene,R Ashwin,Y Venugopal Rao,1,1,na,na
2nd innings,14.4,Y Venugopal Rao,R Ashwin,DPMD Jayawardene,0,0,na,"{'kind': 'bowled', 'player_out': 'DPMD Jayawardene'}"
2nd innings,14.5,Y Venugopal Rao,R Ashwin,P Negi,0,0,na,"{'fielders': ['DJ Bravo', 'R Ashwin'], 'kind': 'run out', 'player_out': 'Y Venugopal Rao'}"
2nd innings,14.6,Sunny Gupta,R Ashwin,P Negi,1,1,na,na
2nd innings,15.1,Sunny Gupta,SB Jakati,P Negi,0,0,na,na
2nd innings,15.2,Sunny Gupta,SB Jakati,P Negi,6,6,na,na
2nd innings,15.3,Sunny Gupta,SB Jakati,P Negi,0,0,na,na
2nd innings,15.4,Sunny Gupta,SB Jakati,P Negi,1,1,na,na
2nd innings,15.5,P Negi,SB Jakati,Sunny Gupta,0,0,na,"{'fielders': ['MS Dhoni'], 'kind': 'stumped', 'player_out': 'Sunny Gupta'}"
2nd innings,15.6,P Negi,SB Jakati,UT Yadav,1,1,na,na
2nd innings,16.1,P Negi,R Ashwin,UT Yadav,0,0,na,na
2nd innings,16.2,P Negi,R Ashwin,UT Yadav,0,0,na,na
2nd innings,16.3,P Negi,R Ashwin,UT Yadav,0,0,na,"{'kind': 'bowled', 'player_out': 'UT Yadav'}"
2nd innings,16.4,P Negi,R Ashwin,VR Aaron,0,0,na,na
2nd innings,16.5,P Negi,R Ashwin,VR Aaron,0,0,na,"{'fielders': ['MS Dhoni'], 'kind': 'run out', 'player_out': 'VR Aaron'}"
