innings,deliveries,non_striker,bowler,batsman,total_runs,batsman_runs,extras,wickets
1st innings,0.1,AM Rahane,P Kumar,R Dravid,0,0,na,na
1st innings,0.2,AM Rahane,P Kumar,R Dravid,1,1,na,na
1st innings,0.3,R Dravid,P Kumar,AM Rahane,1,0,{'wides': 1},na
1st innings,0.4,R Dravid,P Kumar,AM Rahane,0,0,na,na
1st innings,0.5,R Dravid,P Kumar,AM Rahane,0,0,na,na
1st innings,0.6,R Dravid,P Kumar,AM Rahane,0,0,na,na
1st innings,0.7,R Dravid,P Kumar,AM Rahane,1,1,na,na
1st innings,1.1,R Dravid,RJ Harris,AM Rahane,4,4,na,na
1st innings,1.2,R Dravid,RJ Harris,AM Rahane,0,0,na,"{'fielders': ['N Saini'], 'kind': 'caught', 'player_out': 'AM Rahane'}"
1st innings,1.3,R Dravid,RJ Harris,SR Watson,0,0,na,na
1st innings,1.4,R Dravid,RJ Harris,SR Watson,0,0,na,na
1st innings,1.5,R Dravid,RJ Harris,SR Watson,1,1,na,na
1st innings,1.6,SR Watson,RJ Harris,R Dravid,0,0,na,na
1st innings,2.1,R Dravid,P Kumar,SR Watson,1,1,na,na
1st innings,2.2,SR Watson,P Kumar,R Dravid,0,0,na,na
1st innings,2.3,SR Watson,P Kumar,R Dravid,1,1,na,na
1st innings,2.4,R Dravid,P Kumar,SR Watson,4,4,na,na
1st innings,2.5,R Dravid,P Kumar,SR Watson,1,1,na,na
1st innings,2.6,SR Watson,P Kumar,R Dravid,0,0,na,na
1st innings,3.1,R Dravid,RJ Harris,SR Watson,1,1,na,na
1st innings,3.2,SR Watson,RJ Harris,R Dravid,2,2,na,na
1st innings,3.3,SR Watson,RJ Harris,R Dravid,0,0,na,na
1st innings,3.4,SR Watson,RJ Harris,R Dravid,4,4,na,na
1st innings,3.5,SR Watson,RJ Harris,R Dravid,4,4,na,na
1st innings,3.6,SR Watson,RJ Harris,R Dravid,4,4,na,na
1st innings,4.1,R Dravid,P Kumar,SR Watson,4,4,na,na
1st innings,4.2,R Dravid,P Kumar,SR Watson,1,1,na,na
1st innings,4.3,SR Watson,P Kumar,R Dravid,1,0,{'legbyes': 1},na
1st innings,4.4,R Dravid,P Kumar,SR Watson,1,1,na,na
1st innings,4.5,SR Watson,P Kumar,R Dravid,4,4,na,na
1st innings,4.6,SR Watson,P Kumar,R Dravid,4,4,na,na
1st innings,5.1,R Dravid,P Awana,SR Watson,1,1,na,na
1st innings,5.2,SR Watson,P Awana,R Dravid,2,2,na,na
1st innings,5.3,SR Watson,P Awana,R Dravid,1,1,na,na
1st innings,5.4,R Dravid,P Awana,SR Watson,1,0,{'wides': 1},na
1st innings,5.5,R Dravid,P Awana,SR Watson,4,4,na,na
1st innings,5.6,R Dravid,P Awana,SR Watson,6,6,na,na
1st innings,5.7,R Dravid,P Awana,SR Watson,4,4,na,na
1st innings,6.1,SR Watson,Azhar Mahmood,R Dravid,0,0,na,na
1st innings,6.2,SR Watson,Azhar Mahmood,R Dravid,0,0,na,na
1st innings,6.3,SR Watson,Azhar Mahmood,R Dravid,4,4,na,na
1st innings,6.4,SR Watson,Azhar Mahmood,R Dravid,0,0,na,na
1st innings,6.5,SR Watson,Azhar Mahmood,R Dravid,0,0,na,na
1st innings,6.6,SR Watson,Azhar Mahmood,R Dravid,0,0,na,na
1st innings,7.1,R Dravid,PP Chawla,SR Watson,1,1,na,na
1st innings,7.2,SR Watson,PP Chawla,R Dravid,0,0,na,na
1st innings,7.3,SR Watson,PP Chawla,R Dravid,1,1,na,na
1st innings,7.4,R Dravid,PP Chawla,SR Watson,6,6,na,na
1st innings,7.5,R Dravid,PP Chawla,SR Watson,0,0,na,"{'fielders': ['RJ Harris'], 'kind': 'caught', 'player_out': 'SR Watson'}"
1st innings,7.6,AL Menaria,PP Chawla,R Dravid,2,2,na,na
1st innings,8.1,R Dravid,Azhar Mahmood,AL Menaria,4,4,na,na
1st innings,8.2,R Dravid,Azhar Mahmood,AL Menaria,1,1,na,na
1st innings,8.3,AL Menaria,Azhar Mahmood,R Dravid,0,0,na,na
1st innings,8.4,AL Menaria,Azhar Mahmood,R Dravid,4,4,na,na
1st innings,8.5,AL Menaria,Azhar Mahmood,R Dravid,0,0,na,na
1st innings,8.6,AL Menaria,Azhar Mahmood,R Dravid,0,0,na,na
1st innings,9.1,R Dravid,PP Chawla,AL Menaria,1,1,na,na
1st innings,9.2,AL Menaria,PP Chawla,R Dravid,1,1,na,na
1st innings,9.3,R Dravid,PP Chawla,AL Menaria,1,1,na,na
1st innings,9.4,AL Menaria,PP Chawla,R Dravid,0,0,na,na
1st innings,9.5,AL Menaria,PP Chawla,R Dravid,4,4,na,na
1st innings,9.6,AL Menaria,PP Chawla,R Dravid,0,0,na,na
1st innings,10.1,R Dravid,P Awana,AL Menaria,0,0,na,na
1st innings,10.2,R Dravid,P Awana,AL Menaria,0,0,na,na
1st innings,10.3,R Dravid,P Awana,AL Menaria,0,0,na,na
1st innings,10.4,R Dravid,P Awana,AL Menaria,0,0,na,na
1st innings,10.5,R Dravid,P Awana,AL Menaria,1,1,na,na
1st innings,10.6,AL Menaria,P Awana,R Dravid,1,1,na,na
1st innings,11.1,AL Menaria,PP Chawla,R Dravid,0,0,na,na
1st innings,11.2,AL Menaria,PP Chawla,R Dravid,1,1,na,na
1st innings,11.3,R Dravid,PP Chawla,AL Menaria,6,6,na,na
1st innings,11.4,R Dravid,PP Chawla,AL Menaria,6,6,na,na
1st innings,11.5,R Dravid,PP Chawla,AL Menaria,1,1,na,na
1st innings,11.6,AL Menaria,PP Chawla,R Dravid,0,0,na,na
1st innings,12.1,R Dravid,P Awana,AL Menaria,1,1,na,na
1st innings,12.2,AL Menaria,P Awana,R Dravid,1,1,na,na
1st innings,12.3,R Dravid,P Awana,AL Menaria,2,2,na,na
1st innings,12.4,R Dravid,P Awana,AL Menaria,0,0,na,na
1st innings,12.5,R Dravid,P Awana,AL Menaria,0,0,na,na
1st innings,12.6,R Dravid,P Awana,AL Menaria,1,0,{'wides': 1},na
1st innings,12.7,R Dravid,P Awana,AL Menaria,1,1,na,na
1st innings,13.1,R Dravid,RJ Harris,AL Menaria,1,1,na,na
1st innings,13.2,AL Menaria,RJ Harris,R Dravid,0,0,na,"{'fielders': ['P Awana'], 'kind': 'caught', 'player_out': 'R Dravid'}"
1st innings,13.3,BJ Hodge,RJ Harris,AL Menaria,1,1,na,na
1st innings,13.4,AL Menaria,RJ Harris,BJ Hodge,1,1,na,na
1st innings,13.5,BJ Hodge,RJ Harris,AL Menaria,0,0,na,na
1st innings,13.6,BJ Hodge,RJ Harris,AL Menaria,0,0,na,na
1st innings,14.1,AL Menaria,P Awana,BJ Hodge,1,1,na,na
1st innings,14.2,BJ Hodge,P Awana,AL Menaria,1,1,na,na
1st innings,14.3,AL Menaria,P Awana,BJ Hodge,1,1,na,na
1st innings,14.4,BJ Hodge,P Awana,AL Menaria,1,1,na,na
1st innings,14.5,AL Menaria,P Awana,BJ Hodge,1,1,na,na
1st innings,14.6,BJ Hodge,P Awana,AL Menaria,2,2,na,na
1st innings,15.1,AL Menaria,PP Chawla,BJ Hodge,0,0,na,na
1st innings,15.2,AL Menaria,PP Chawla,BJ Hodge,3,3,na,na
1st innings,15.3,BJ Hodge,PP Chawla,AL Menaria,1,1,na,na
1st innings,15.4,AL Menaria,PP Chawla,BJ Hodge,1,1,na,na
1st innings,15.5,BJ Hodge,PP Chawla,AL Menaria,2,2,na,na
1st innings,15.6,BJ Hodge,PP Chawla,AL Menaria,0,0,na,"{'fielders': ['Gurkeerat Singh'], 'kind': 'caught', 'player_out': 'AL Menaria'}"
1st innings,16.1,BJ Hodge,Azhar Mahmood,J Botha,1,1,na,na
1st innings,16.2,J Botha,Azhar Mahmood,BJ Hodge,1,1,na,na
1st innings,16.3,BJ Hodge,Azhar Mahmood,J Botha,1,1,na,na
1st innings,16.4,J Botha,Azhar Mahmood,BJ Hodge,1,1,na,na
1st innings,16.5,BJ Hodge,Azhar Mahmood,J Botha,0,0,na,na
1st innings,16.6,BJ Hodge,Azhar Mahmood,J Botha,4,4,na,na
1st innings,17.1,J Botha,P Kumar,BJ Hodge,0,0,na,na
1st innings,17.2,J Botha,P Kumar,BJ Hodge,4,4,na,na
1st innings,17.3,J Botha,P Kumar,BJ Hodge,1,0,{'legbyes': 1},na
1st innings,17.4,BJ Hodge,P Kumar,J Botha,2,2,na,na
1st innings,17.5,BJ Hodge,P Kumar,J Botha,1,1,na,na
1st innings,17.6,J Botha,P Kumar,BJ Hodge,1,1,na,na
1st innings,18.1,J Botha,Azhar Mahmood,BJ Hodge,1,0,{'noballs': 1},na
1st innings,18.2,J Botha,Azhar Mahmood,BJ Hodge,6,6,na,na
1st innings,18.3,J Botha,Azhar Mahmood,BJ Hodge,2,2,na,na
1st innings,18.4,J Botha,Azhar Mahmood,BJ Hodge,0,0,na,na
1st innings,18.5,J Botha,Azhar Mahmood,BJ Hodge,2,2,na,na
1st innings,18.6,J Botha,Azhar Mahmood,BJ Hodge,1,1,na,na
1st innings,18.7,BJ Hodge,Azhar Mahmood,J Botha,4,4,na,na
1st innings,19.1,J Botha,RJ Harris,BJ Hodge,0,0,na,na
1st innings,19.2,J Botha,RJ Harris,BJ Hodge,6,6,na,na
1st innings,19.3,J Botha,RJ Harris,BJ Hodge,4,4,na,na
1st innings,19.4,J Botha,RJ Harris,BJ Hodge,0,0,na,"{'fielders': ['SE Marsh'], 'kind': 'caught', 'player_out': 'BJ Hodge'}"
1st innings,19.5,STR Binny,RJ Harris,J Botha,1,1,na,na
1st innings,19.6,J Botha,RJ Harris,STR Binny,0,0,na,"{'fielders': ['SE Marsh'], 'kind': 'caught', 'player_out': 'STR Binny'}"
2nd innings,0.1,Mandeep Singh,AA Chavan,SE Marsh,0,0,na,na
2nd innings,0.2,Mandeep Singh,AA Chavan,SE Marsh,1,1,na,na
2nd innings,0.3,SE Marsh,AA Chavan,Mandeep Singh,0,0,na,na
2nd innings,0.4,SE Marsh,AA Chavan,Mandeep Singh,6,6,na,na
2nd innings,0.5,SE Marsh,AA Chavan,Mandeep Singh,1,1,na,na
2nd innings,0.6,Mandeep Singh,AA Chavan,SE Marsh,0,0,na,na
2nd innings,1.1,SE Marsh,SR Watson,Mandeep Singh,0,0,na,na
2nd innings,1.2,SE Marsh,SR Watson,Mandeep Singh,0,0,na,na
2nd innings,1.3,SE Marsh,SR Watson,Mandeep Singh,0,0,na,"{'fielders': ['SK Trivedi'], 'kind': 'caught', 'player_out': 'Mandeep Singh'}"
2nd innings,1.4,SE Marsh,SR Watson,N Saini,0,0,na,na
2nd innings,1.5,SE Marsh,SR Watson,N Saini,0,0,na,na
2nd innings,1.6,SE Marsh,SR Watson,N Saini,0,0,na,na
2nd innings,2.1,N Saini,SW Tait,SE Marsh,0,0,na,na
2nd innings,2.2,N Saini,SW Tait,SE Marsh,1,0,{'wides': 1},na
2nd innings,2.3,N Saini,SW Tait,SE Marsh,1,0,{'wides': 1},na
2nd innings,2.4,N Saini,SW Tait,SE Marsh,1,1,na,na
2nd innings,2.5,SE Marsh,SW Tait,N Saini,1,1,na,na
2nd innings,2.6,N Saini,SW Tait,SE Marsh,0,0,na,na
2nd innings,2.7,N Saini,SW Tait,SE Marsh,0,0,na,na
2nd innings,2.8,N Saini,SW Tait,SE Marsh,1,1,na,na
2nd innings,3.1,N Saini,SR Watson,SE Marsh,0,0,na,na
2nd innings,3.2,N Saini,SR Watson,SE Marsh,4,4,na,na
2nd innings,3.3,N Saini,SR Watson,SE Marsh,0,0,na,na
2nd innings,3.4,N Saini,SR Watson,SE Marsh,4,4,na,na
2nd innings,3.5,N Saini,SR Watson,SE Marsh,1,0,{'legbyes': 1},na
2nd innings,3.6,SE Marsh,SR Watson,N Saini,0,0,na,na
2nd innings,4.1,N Saini,J Botha,SE Marsh,1,1,na,na
2nd innings,4.2,SE Marsh,J Botha,N Saini,1,0,{'legbyes': 1},na
2nd innings,4.3,N Saini,J Botha,SE Marsh,1,1,na,na
2nd innings,4.4,SE Marsh,J Botha,N Saini,1,1,na,na
2nd innings,4.5,N Saini,J Botha,SE Marsh,1,1,na,na
2nd innings,4.6,SE Marsh,J Botha,N Saini,0,0,na,na
2nd innings,5.1,N Saini,SW Tait,SE Marsh,0,0,na,na
2nd innings,5.2,N Saini,SW Tait,SE Marsh,1,1,na,na
2nd innings,5.3,SE Marsh,SW Tait,N Saini,1,0,{'wides': 1},na
2nd innings,5.4,SE Marsh,SW Tait,N Saini,0,0,na,"{'kind': 'caught and bowled', 'player_out': 'N Saini'}"
2nd innings,5.5,SE Marsh,SW Tait,DJ Hussey,4,4,na,na
2nd innings,5.6,SE Marsh,SW Tait,DJ Hussey,0,0,na,na
2nd innings,5.7,SE Marsh,SW Tait,DJ Hussey,0,0,na,na
2nd innings,6.1,DJ Hussey,AA Chavan,SE Marsh,0,0,na,na
2nd innings,6.2,DJ Hussey,AA Chavan,SE Marsh,4,4,na,na
2nd innings,6.3,DJ Hussey,AA Chavan,SE Marsh,0,0,na,na
2nd innings,6.4,DJ Hussey,AA Chavan,SE Marsh,6,6,na,na
2nd innings,6.5,DJ Hussey,AA Chavan,SE Marsh,4,4,na,na
2nd innings,6.6,DJ Hussey,AA Chavan,SE Marsh,4,4,na,na
2nd innings,7.1,SE Marsh,SK Trivedi,DJ Hussey,4,4,na,na
2nd innings,7.2,SE Marsh,SK Trivedi,DJ Hussey,0,0,na,na
2nd innings,7.3,SE Marsh,SK Trivedi,DJ Hussey,0,0,na,"{'fielders': ['BJ Hodge'], 'kind': 'caught', 'player_out': 'DJ Hussey'}"
2nd innings,7.4,Azhar Mahmood,SK Trivedi,SE Marsh,1,1,na,na
2nd innings,7.5,SE Marsh,SK Trivedi,Azhar Mahmood,1,1,na,na
2nd innings,7.6,Azhar Mahmood,SK Trivedi,SE Marsh,0,0,na,na
2nd innings,8.1,SE Marsh,J Botha,Azhar Mahmood,1,0,{'wides': 1},na
2nd innings,8.2,SE Marsh,J Botha,Azhar Mahmood,0,0,na,na
2nd innings,8.3,SE Marsh,J Botha,Azhar Mahmood,1,0,{'legbyes': 1},na
2nd innings,8.4,Azhar Mahmood,J Botha,SE Marsh,0,0,na,"{'kind': 'bowled', 'player_out': 'SE Marsh'}"
2nd innings,8.5,Azhar Mahmood,J Botha,Gurkeerat Singh,1,1,na,na
2nd innings,8.6,Gurkeerat Singh,J Botha,Azhar Mahmood,0,0,na,na
2nd innings,8.7,Gurkeerat Singh,J Botha,Azhar Mahmood,0,0,na,na
2nd innings,9.1,Azhar Mahmood,SK Trivedi,Gurkeerat Singh,0,0,na,na
2nd innings,9.2,Azhar Mahmood,SK Trivedi,Gurkeerat Singh,1,1,na,na
2nd innings,9.3,Gurkeerat Singh,SK Trivedi,Azhar Mahmood,4,4,na,na
2nd innings,9.4,Gurkeerat Singh,SK Trivedi,Azhar Mahmood,0,0,na,na
2nd innings,9.5,Gurkeerat Singh,SK Trivedi,Azhar Mahmood,0,0,na,na
2nd innings,9.6,Gurkeerat Singh,SK Trivedi,Azhar Mahmood,0,0,na,na
2nd innings,10.1,Azhar Mahmood,J Botha,Gurkeerat Singh,0,0,na,na
2nd innings,10.2,Azhar Mahmood,J Botha,Gurkeerat Singh,0,0,na,na
2nd innings,10.3,Azhar Mahmood,J Botha,Gurkeerat Singh,0,0,na,na
2nd innings,10.4,Azhar Mahmood,J Botha,Gurkeerat Singh,1,1,na,na
2nd innings,10.5,Gurkeerat Singh,J Botha,Azhar Mahmood,1,1,na,na
2nd innings,10.6,Azhar Mahmood,J Botha,Gurkeerat Singh,1,1,na,na
2nd innings,11.1,Azhar Mahmood,SK Trivedi,Gurkeerat Singh,0,0,na,na
2nd innings,11.2,Azhar Mahmood,SK Trivedi,Gurkeerat Singh,1,1,na,na
2nd innings,11.3,Gurkeerat Singh,SK Trivedi,Azhar Mahmood,1,1,na,na
2nd innings,11.4,Azhar Mahmood,SK Trivedi,Gurkeerat Singh,1,1,na,na
2nd innings,11.5,Gurkeerat Singh,SK Trivedi,Azhar Mahmood,6,6,na,na
2nd innings,11.6,Gurkeerat Singh,SK Trivedi,Azhar Mahmood,1,1,na,na
2nd innings,12.1,Gurkeerat Singh,SW Tait,Azhar Mahmood,0,0,na,na
2nd innings,12.2,Gurkeerat Singh,SW Tait,Azhar Mahmood,0,0,na,na
2nd innings,12.3,Gurkeerat Singh,SW Tait,Azhar Mahmood,1,1,na,na
2nd innings,12.4,Azhar Mahmood,SW Tait,Gurkeerat Singh,1,0,{'wides': 1},na
2nd innings,12.5,Azhar Mahmood,SW Tait,Gurkeerat Singh,0,0,na,na
2nd innings,12.6,Azhar Mahmood,SW Tait,Gurkeerat Singh,1,0,{'legbyes': 1},na
2nd innings,12.7,Gurkeerat Singh,SW Tait,Azhar Mahmood,1,1,na,na
2nd innings,13.1,Gurkeerat Singh,AA Chavan,Azhar Mahmood,2,2,na,na
2nd innings,13.2,Gurkeerat Singh,AA Chavan,Azhar Mahmood,1,1,na,na
2nd innings,13.3,Azhar Mahmood,AA Chavan,Gurkeerat Singh,2,2,na,na
2nd innings,13.4,Azhar Mahmood,AA Chavan,Gurkeerat Singh,1,1,na,na
2nd innings,13.5,Gurkeerat Singh,AA Chavan,Azhar Mahmood,0,0,na,na
2nd innings,13.6,Gurkeerat Singh,AA Chavan,Azhar Mahmood,1,0,{'legbyes': 1},na
2nd innings,14.1,Gurkeerat Singh,STR Binny,Azhar Mahmood,4,4,na,na
2nd innings,14.2,Gurkeerat Singh,STR Binny,Azhar Mahmood,1,1,na,na
2nd innings,14.3,Azhar Mahmood,STR Binny,Gurkeerat Singh,0,0,na,na
2nd innings,14.4,Azhar Mahmood,STR Binny,Gurkeerat Singh,1,1,na,na
2nd innings,14.5,Gurkeerat Singh,STR Binny,Azhar Mahmood,0,0,na,"{'kind': 'bowled', 'player_out': 'Azhar Mahmood'}"
2nd innings,14.6,Gurkeerat Singh,STR Binny,AM Nayar,2,2,na,na
2nd innings,15.1,AM Nayar,SK Trivedi,Gurkeerat Singh,2,2,na,na
2nd innings,15.2,AM Nayar,SK Trivedi,Gurkeerat Singh,1,1,na,na
2nd innings,15.3,Gurkeerat Singh,SK Trivedi,AM Nayar,1,1,na,na
2nd innings,15.4,AM Nayar,SK Trivedi,Gurkeerat Singh,1,1,na,na
2nd innings,15.5,Gurkeerat Singh,SK Trivedi,AM Nayar,1,1,na,na
2nd innings,15.6,AM Nayar,SK Trivedi,Gurkeerat Singh,1,1,na,na
2nd innings,16.1,AM Nayar,J Botha,Gurkeerat Singh,4,4,na,na
2nd innings,16.2,AM Nayar,J Botha,Gurkeerat Singh,4,4,na,na
2nd innings,16.3,AM Nayar,J Botha,Gurkeerat Singh,0,0,na,"{'kind': 'caught and bowled', 'player_out': 'Gurkeerat Singh'}"
2nd innings,16.4,PP Chawla,J Botha,AM Nayar,2,2,na,na
2nd innings,16.5,PP Chawla,J Botha,AM Nayar,1,1,na,na
2nd innings,16.6,AM Nayar,J Botha,PP Chawla,1,1,na,na
2nd innings,17.1,AM Nayar,SR Watson,PP Chawla,0,0,na,na
2nd innings,17.2,AM Nayar,SR Watson,PP Chawla,4,4,na,na
2nd innings,17.3,AM Nayar,SR Watson,PP Chawla,0,0,na,"{'kind': 'bowled', 'player_out': 'PP Chawla'}"
2nd innings,17.4,AM Nayar,SR Watson,RJ Harris,0,0,na,na
2nd innings,17.5,AM Nayar,SR Watson,RJ Harris,0,0,na,na
2nd innings,17.6,AM Nayar,SR Watson,RJ Harris,1,1,na,na
2nd innings,18.1,AM Nayar,SW Tait,RJ Harris,2,2,na,na
2nd innings,18.2,AM Nayar,SW Tait,RJ Harris,0,0,na,"{'fielders': ['J Botha'], 'kind': 'caught', 'player_out': 'RJ Harris'}"
2nd innings,18.3,P Kumar,SW Tait,AM Nayar,1,1,na,na
2nd innings,18.4,AM Nayar,SW Tait,P Kumar,0,0,na,na
2nd innings,18.5,AM Nayar,SW Tait,P Kumar,1,1,na,na
2nd innings,18.6,P Kumar,SW Tait,AM Nayar,0,0,na,na
2nd innings,19.1,AM Nayar,SR Watson,P Kumar,0,0,na,na
2nd innings,19.2,AM Nayar,SR Watson,P Kumar,1,1,na,na
2nd innings,19.3,P Kumar,SR Watson,AM Nayar,1,1,na,na
2nd innings,19.4,AM Nayar,SR Watson,P Kumar,1,0,{'noballs': 1},na
2nd innings,19.5,AM Nayar,SR Watson,P Kumar,4,4,na,na
2nd innings,19.6,AM Nayar,SR Watson,P Kumar,1,0,{'wides': 1},na
2nd innings,19.7,AM Nayar,SR Watson,P Kumar,0,0,na,na
2nd innings,19.8,AM Nayar,SR Watson,P Kumar,1,1,na,na
