innings,deliveries,non_striker,bowler,batsman,total_runs,batsman_runs,extras,wickets
1st innings,0.1,V Sehwag,DW Steyn,DA Warner,0,0,na,na
1st innings,0.2,V Sehwag,DW Steyn,DA Warner,0,0,na,na
1st innings,0.3,V Sehwag,DW Steyn,DA Warner,0,0,na,na
1st innings,0.4,V Sehwag,DW Steyn,DA Warner,0,0,na,"{'fielders': ['Anand Rajan'], 'kind': 'caught', 'player_out': 'DA Warner'}"
1st innings,0.5,V Sehwag,DW Steyn,DPMD Jayawardene,0,0,na,na
1st innings,0.6,V Sehwag,DW Steyn,DPMD Jayawardene,0,0,na,na
1st innings,1.1,DPMD Jayawardene,I Sharma,V Sehwag,1,1,na,na
1st innings,1.2,V Sehwag,I Sharma,DPMD Jayawardene,0,0,na,na
1st innings,1.3,V Sehwag,I Sharma,DPMD Jayawardene,0,0,na,na
1st innings,1.4,V Sehwag,I Sharma,DPMD Jayawardene,6,6,na,na
1st innings,1.5,V Sehwag,I Sharma,DPMD Jayawardene,1,1,na,na
1st innings,1.6,DPMD Jayawardene,I Sharma,V Sehwag,4,4,na,na
1st innings,2.1,V Sehwag,DW Steyn,DPMD Jayawardene,0,0,na,na
1st innings,2.2,V Sehwag,DW Steyn,DPMD Jayawardene,1,0,{'legbyes': 1},na
1st innings,2.3,DPMD Jayawardene,DW Steyn,V Sehwag,1,0,{'legbyes': 1},na
1st innings,2.4,V Sehwag,DW Steyn,DPMD Jayawardene,0,0,na,na
1st innings,2.5,V Sehwag,DW Steyn,DPMD Jayawardene,1,1,na,na
1st innings,2.6,DPMD Jayawardene,DW Steyn,V Sehwag,1,1,na,na
1st innings,3.1,DPMD Jayawardene,NLTC Perera,V Sehwag,4,4,na,na
1st innings,3.2,DPMD Jayawardene,NLTC Perera,V Sehwag,0,0,na,na
1st innings,3.3,DPMD Jayawardene,NLTC Perera,V Sehwag,1,1,na,na
1st innings,3.4,V Sehwag,NLTC Perera,DPMD Jayawardene,0,0,na,na
1st innings,3.5,V Sehwag,NLTC Perera,DPMD Jayawardene,0,0,na,na
1st innings,3.6,V Sehwag,NLTC Perera,DPMD Jayawardene,4,4,na,na
1st innings,4.1,DPMD Jayawardene,I Sharma,V Sehwag,0,0,na,na
1st innings,4.2,DPMD Jayawardene,I Sharma,V Sehwag,1,1,na,na
1st innings,4.3,V Sehwag,I Sharma,DPMD Jayawardene,0,0,na,"{'fielders': ['DW Steyn'], 'kind': 'caught', 'player_out': 'DPMD Jayawardene'}"
1st innings,4.4,MC Juneja,I Sharma,V Sehwag,0,0,na,"{'fielders': ['CL White'], 'kind': 'caught', 'player_out': 'V Sehwag'}"
1st innings,4.5,MC Juneja,I Sharma,J Botha,0,0,na,na
1st innings,4.6,MC Juneja,I Sharma,J Botha,2,2,na,na
1st innings,5.1,J Botha,Anand Rajan,MC Juneja,0,0,na,na
1st innings,5.2,J Botha,Anand Rajan,MC Juneja,1,1,na,na
1st innings,5.3,MC Juneja,Anand Rajan,J Botha,0,0,na,na
1st innings,5.4,MC Juneja,Anand Rajan,J Botha,0,0,na,na
1st innings,5.5,MC Juneja,Anand Rajan,J Botha,0,0,na,na
1st innings,5.6,MC Juneja,Anand Rajan,J Botha,0,0,na,na
1st innings,6.1,J Botha,I Sharma,MC Juneja,0,0,na,na
1st innings,6.2,J Botha,I Sharma,MC Juneja,0,0,na,na
1st innings,6.3,J Botha,I Sharma,MC Juneja,2,2,na,na
1st innings,6.4,J Botha,I Sharma,MC Juneja,1,1,na,na
1st innings,6.5,MC Juneja,I Sharma,J Botha,0,0,na,na
1st innings,6.6,MC Juneja,I Sharma,J Botha,0,0,na,na
1st innings,7.1,J Botha,A Mishra,MC Juneja,0,0,na,na
1st innings,7.2,J Botha,A Mishra,MC Juneja,1,1,na,na
1st innings,7.3,MC Juneja,A Mishra,J Botha,0,0,na,na
1st innings,7.4,MC Juneja,A Mishra,J Botha,1,1,na,na
1st innings,7.5,J Botha,A Mishra,MC Juneja,1,1,na,na
1st innings,7.6,MC Juneja,A Mishra,J Botha,0,0,na,na
1st innings,8.1,J Botha,Anand Rajan,MC Juneja,2,2,na,na
1st innings,8.2,J Botha,Anand Rajan,MC Juneja,0,0,na,na
1st innings,8.3,J Botha,Anand Rajan,MC Juneja,1,1,na,na
1st innings,8.4,MC Juneja,Anand Rajan,J Botha,2,2,na,na
1st innings,8.5,MC Juneja,Anand Rajan,J Botha,4,4,na,na
1st innings,8.6,MC Juneja,Anand Rajan,J Botha,0,0,na,"{'fielders': ['PA Reddy'], 'kind': 'caught', 'player_out': 'J Botha'}"
1st innings,9.1,IK Pathan,A Mishra,MC Juneja,1,1,na,na
1st innings,9.2,MC Juneja,A Mishra,IK Pathan,0,0,na,na
1st innings,9.3,MC Juneja,A Mishra,IK Pathan,1,1,na,na
1st innings,9.4,IK Pathan,A Mishra,MC Juneja,0,0,na,na
1st innings,9.5,IK Pathan,A Mishra,MC Juneja,0,0,na,na
1st innings,9.6,IK Pathan,A Mishra,MC Juneja,0,0,na,na
1st innings,10.1,MC Juneja,DW Steyn,IK Pathan,0,0,na,na
1st innings,10.2,MC Juneja,DW Steyn,IK Pathan,0,0,na,na
1st innings,10.3,MC Juneja,DW Steyn,IK Pathan,0,0,na,na
1st innings,10.4,MC Juneja,DW Steyn,IK Pathan,0,0,na,na
1st innings,10.5,MC Juneja,DW Steyn,IK Pathan,4,4,na,na
1st innings,10.6,MC Juneja,DW Steyn,IK Pathan,1,1,na,na
1st innings,11.1,MC Juneja,A Mishra,IK Pathan,1,1,na,na
1st innings,11.2,IK Pathan,A Mishra,MC Juneja,1,1,na,na
1st innings,11.3,MC Juneja,A Mishra,IK Pathan,1,1,na,na
1st innings,11.4,IK Pathan,A Mishra,MC Juneja,1,1,na,na
1st innings,11.5,MC Juneja,A Mishra,IK Pathan,2,2,na,na
1st innings,11.6,MC Juneja,A Mishra,IK Pathan,1,1,na,na
1st innings,12.1,MC Juneja,Anand Rajan,IK Pathan,0,0,na,na
1st innings,12.2,MC Juneja,Anand Rajan,IK Pathan,1,1,na,na
1st innings,12.3,IK Pathan,Anand Rajan,MC Juneja,1,1,na,na
1st innings,12.4,MC Juneja,Anand Rajan,IK Pathan,1,0,{'wides': 1},na
1st innings,12.5,MC Juneja,Anand Rajan,IK Pathan,0,0,na,na
1st innings,12.6,MC Juneja,Anand Rajan,IK Pathan,1,1,na,na
1st innings,12.7,IK Pathan,Anand Rajan,MC Juneja,2,2,na,na
1st innings,13.1,MC Juneja,A Mishra,IK Pathan,1,1,na,na
1st innings,13.2,IK Pathan,A Mishra,MC Juneja,0,0,na,na
1st innings,13.3,IK Pathan,A Mishra,MC Juneja,0,0,na,"{'fielders': ['CL White'], 'kind': 'caught', 'player_out': 'MC Juneja'}"
1st innings,13.4,IK Pathan,A Mishra,KM Jadhav,1,1,na,na
1st innings,13.5,KM Jadhav,A Mishra,IK Pathan,0,0,na,na
1st innings,13.6,KM Jadhav,A Mishra,IK Pathan,1,1,na,na
1st innings,14.1,KM Jadhav,NLTC Perera,IK Pathan,1,1,na,na
1st innings,14.2,IK Pathan,NLTC Perera,KM Jadhav,1,1,na,na
1st innings,14.3,KM Jadhav,NLTC Perera,IK Pathan,1,1,na,na
1st innings,14.4,IK Pathan,NLTC Perera,KM Jadhav,0,0,na,na
1st innings,14.5,IK Pathan,NLTC Perera,KM Jadhav,1,1,na,na
1st innings,14.6,KM Jadhav,NLTC Perera,IK Pathan,1,1,na,na
1st innings,15.1,KM Jadhav,Anand Rajan,IK Pathan,0,0,na,na
1st innings,15.2,KM Jadhav,Anand Rajan,IK Pathan,1,1,na,na
1st innings,15.3,IK Pathan,Anand Rajan,KM Jadhav,1,1,na,na
1st innings,15.4,KM Jadhav,Anand Rajan,IK Pathan,1,1,na,na
1st innings,15.5,IK Pathan,Anand Rajan,KM Jadhav,1,1,na,na
1st innings,15.6,KM Jadhav,Anand Rajan,IK Pathan,0,0,na,na
1st innings,16.1,IK Pathan,I Sharma,KM Jadhav,5,4,{'noballs': 1},na
1st innings,16.2,IK Pathan,I Sharma,KM Jadhav,6,6,na,na
1st innings,16.3,IK Pathan,I Sharma,KM Jadhav,0,0,na,na
1st innings,16.4,IK Pathan,I Sharma,KM Jadhav,1,1,na,na
1st innings,16.5,KM Jadhav,I Sharma,IK Pathan,1,1,na,na
1st innings,16.6,IK Pathan,I Sharma,KM Jadhav,1,1,na,na
1st innings,16.7,KM Jadhav,I Sharma,IK Pathan,1,0,{'wides': 1},na
1st innings,16.8,KM Jadhav,I Sharma,IK Pathan,1,0,{'wides': 1},na
1st innings,16.9,KM Jadhav,I Sharma,IK Pathan,1,1,na,na
1st innings,17.1,KM Jadhav,NLTC Perera,IK Pathan,1,1,na,na
1st innings,17.2,IK Pathan,NLTC Perera,KM Jadhav,1,1,na,na
1st innings,17.3,KM Jadhav,NLTC Perera,IK Pathan,0,0,na,"{'fielders': ['GH Vihari'], 'kind': 'caught', 'player_out': 'IK Pathan'}"
1st innings,17.4,M Morkel,NLTC Perera,KM Jadhav,1,1,na,na
1st innings,17.5,KM Jadhav,NLTC Perera,M Morkel,0,0,na,"{'fielders': ['A Ashish Reddy'], 'kind': 'caught', 'player_out': 'M Morkel'}"
1st innings,17.6,S Nadeem,NLTC Perera,KM Jadhav,1,1,na,na
1st innings,18.1,S Nadeem,DW Steyn,KM Jadhav,1,1,na,na
1st innings,18.2,KM Jadhav,DW Steyn,S Nadeem,0,0,na,"{'kind': 'bowled', 'player_out': 'S Nadeem'}"
1st innings,18.3,KM Jadhav,DW Steyn,UT Yadav,0,0,na,na
1st innings,18.4,KM Jadhav,DW Steyn,UT Yadav,0,0,na,na
1st innings,18.5,KM Jadhav,DW Steyn,UT Yadav,1,0,{'wides': 1},na
1st innings,18.6,KM Jadhav,DW Steyn,UT Yadav,1,1,na,na
1st innings,18.7,UT Yadav,DW Steyn,KM Jadhav,1,1,na,na
1st innings,19.1,UT Yadav,NLTC Perera,KM Jadhav,1,1,na,na
1st innings,19.2,KM Jadhav,NLTC Perera,UT Yadav,1,1,na,na
1st innings,19.3,UT Yadav,NLTC Perera,KM Jadhav,0,0,na,na
1st innings,19.4,UT Yadav,NLTC Perera,KM Jadhav,6,6,na,na
1st innings,19.5,UT Yadav,NLTC Perera,KM Jadhav,1,1,na,na
1st innings,19.6,KM Jadhav,NLTC Perera,UT Yadav,4,4,na,na
2nd innings,0.1,PA Patel,IK Pathan,PA Reddy,0,0,na,na
2nd innings,0.2,PA Patel,IK Pathan,PA Reddy,0,0,na,na
2nd innings,0.3,PA Patel,IK Pathan,PA Reddy,0,0,na,na
2nd innings,0.4,PA Patel,IK Pathan,PA Reddy,0,0,na,na
2nd innings,0.5,PA Patel,IK Pathan,PA Reddy,0,0,na,na
2nd innings,0.6,PA Patel,IK Pathan,PA Reddy,1,0,{'wides': 1},na
2nd innings,0.7,PA Patel,IK Pathan,PA Reddy,1,1,na,na
2nd innings,1.1,PA Patel,S Kaul,PA Reddy,0,0,na,na
2nd innings,1.2,PA Patel,S Kaul,PA Reddy,0,0,na,"{'fielders': ['S Nadeem'], 'kind': 'run out', 'player_out': 'PA Reddy'}"
2nd innings,1.3,KC Sangakkara,S Kaul,PA Patel,0,0,na,na
2nd innings,1.4,KC Sangakkara,S Kaul,PA Patel,0,0,na,na
2nd innings,1.5,KC Sangakkara,S Kaul,PA Patel,0,0,na,na
2nd innings,1.6,KC Sangakkara,S Kaul,PA Patel,0,0,na,na
2nd innings,2.1,PA Patel,IK Pathan,KC Sangakkara,0,0,na,na
2nd innings,2.2,PA Patel,IK Pathan,KC Sangakkara,1,1,na,na
2nd innings,2.3,KC Sangakkara,IK Pathan,PA Patel,0,0,na,na
2nd innings,2.4,KC Sangakkara,IK Pathan,PA Patel,4,4,na,na
2nd innings,2.5,KC Sangakkara,IK Pathan,PA Patel,0,0,na,na
2nd innings,2.6,KC Sangakkara,IK Pathan,PA Patel,0,0,na,na
2nd innings,3.1,PA Patel,S Kaul,KC Sangakkara,0,0,na,na
2nd innings,3.2,PA Patel,S Kaul,KC Sangakkara,0,0,na,na
2nd innings,3.3,PA Patel,S Kaul,KC Sangakkara,4,4,na,na
2nd innings,3.4,PA Patel,S Kaul,KC Sangakkara,0,0,na,na
2nd innings,3.5,PA Patel,S Kaul,KC Sangakkara,4,4,na,na
2nd innings,3.6,PA Patel,S Kaul,KC Sangakkara,0,0,na,na
2nd innings,4.1,KC Sangakkara,M Morkel,PA Patel,1,1,na,na
2nd innings,4.2,PA Patel,M Morkel,KC Sangakkara,1,1,na,na
2nd innings,4.3,KC Sangakkara,M Morkel,PA Patel,1,1,na,na
2nd innings,4.4,PA Patel,M Morkel,KC Sangakkara,3,3,na,na
2nd innings,4.5,KC Sangakkara,M Morkel,PA Patel,4,4,na,na
2nd innings,4.6,KC Sangakkara,M Morkel,PA Patel,0,0,na,na
2nd innings,5.1,PA Patel,UT Yadav,KC Sangakkara,4,4,na,na
2nd innings,5.2,PA Patel,UT Yadav,KC Sangakkara,0,0,na,na
2nd innings,5.3,PA Patel,UT Yadav,KC Sangakkara,1,1,na,na
2nd innings,5.4,KC Sangakkara,UT Yadav,PA Patel,0,0,na,na
2nd innings,5.5,KC Sangakkara,UT Yadav,PA Patel,4,4,na,na
2nd innings,5.6,KC Sangakkara,UT Yadav,PA Patel,4,4,na,na
2nd innings,6.1,PA Patel,J Botha,KC Sangakkara,0,0,na,na
2nd innings,6.2,PA Patel,J Botha,KC Sangakkara,4,4,na,na
2nd innings,6.3,PA Patel,J Botha,KC Sangakkara,0,0,na,na
2nd innings,6.4,PA Patel,J Botha,KC Sangakkara,1,1,na,na
2nd innings,6.5,KC Sangakkara,J Botha,PA Patel,0,0,na,na
2nd innings,6.6,KC Sangakkara,J Botha,PA Patel,0,0,na,na
2nd innings,7.1,PA Patel,S Nadeem,KC Sangakkara,1,1,na,na
2nd innings,7.2,KC Sangakkara,S Nadeem,PA Patel,1,1,na,na
2nd innings,7.3,PA Patel,S Nadeem,KC Sangakkara,1,1,na,na
2nd innings,7.4,KC Sangakkara,S Nadeem,PA Patel,0,0,na,"{'kind': 'caught and bowled', 'player_out': 'PA Patel'}"
2nd innings,7.5,KC Sangakkara,S Nadeem,GH Vihari,0,0,na,na
2nd innings,7.6,KC Sangakkara,S Nadeem,GH Vihari,0,0,na,na
2nd innings,8.1,GH Vihari,J Botha,KC Sangakkara,0,0,na,na
2nd innings,8.2,GH Vihari,J Botha,KC Sangakkara,1,1,na,na
2nd innings,8.3,KC Sangakkara,J Botha,GH Vihari,0,0,na,na
2nd innings,8.4,KC Sangakkara,J Botha,GH Vihari,1,1,na,na
2nd innings,8.5,GH Vihari,J Botha,KC Sangakkara,1,1,na,na
2nd innings,8.6,KC Sangakkara,J Botha,GH Vihari,0,0,na,na
2nd innings,9.1,GH Vihari,S Nadeem,KC Sangakkara,0,0,na,na
2nd innings,9.2,GH Vihari,S Nadeem,KC Sangakkara,1,0,{'legbyes': 1},na
2nd innings,9.3,KC Sangakkara,S Nadeem,GH Vihari,0,0,na,na
2nd innings,9.4,KC Sangakkara,S Nadeem,GH Vihari,0,0,na,na
2nd innings,9.5,KC Sangakkara,S Nadeem,GH Vihari,0,0,na,na
2nd innings,9.6,KC Sangakkara,S Nadeem,GH Vihari,1,1,na,na
2nd innings,10.1,KC Sangakkara,J Botha,GH Vihari,1,1,na,na
2nd innings,10.2,GH Vihari,J Botha,KC Sangakkara,1,1,na,na
2nd innings,10.3,KC Sangakkara,J Botha,GH Vihari,1,1,na,na
2nd innings,10.4,GH Vihari,J Botha,KC Sangakkara,0,0,na,na
2nd innings,10.5,GH Vihari,J Botha,KC Sangakkara,0,0,na,na
2nd innings,10.6,GH Vihari,J Botha,KC Sangakkara,0,0,na,"{'fielders': ['V Sehwag'], 'kind': 'caught', 'player_out': 'KC Sangakkara'}"
2nd innings,11.1,CL White,S Nadeem,GH Vihari,1,1,na,na
2nd innings,11.2,GH Vihari,S Nadeem,CL White,0,0,na,na
2nd innings,11.3,GH Vihari,S Nadeem,CL White,1,1,na,na
2nd innings,11.4,CL White,S Nadeem,GH Vihari,6,6,na,na
2nd innings,11.5,CL White,S Nadeem,GH Vihari,0,0,na,na
2nd innings,11.6,CL White,S Nadeem,GH Vihari,1,1,na,na
2nd innings,12.1,CL White,M Morkel,GH Vihari,0,0,na,na
2nd innings,12.2,CL White,M Morkel,GH Vihari,0,0,na,na
2nd innings,12.3,CL White,M Morkel,GH Vihari,1,1,na,na
2nd innings,12.4,GH Vihari,M Morkel,CL White,0,0,na,na
2nd innings,12.5,GH Vihari,M Morkel,CL White,1,1,na,na
2nd innings,12.6,CL White,M Morkel,GH Vihari,0,0,na,na
2nd innings,13.1,GH Vihari,S Nadeem,CL White,1,1,na,na
2nd innings,13.2,CL White,S Nadeem,GH Vihari,1,1,na,na
2nd innings,13.3,GH Vihari,S Nadeem,CL White,1,1,na,na
2nd innings,13.4,CL White,S Nadeem,GH Vihari,1,1,na,na
2nd innings,13.5,GH Vihari,S Nadeem,CL White,0,0,na,na
2nd innings,13.6,GH Vihari,S Nadeem,CL White,0,0,na,"{'fielders': ['KM Jadhav'], 'kind': 'stumped', 'player_out': 'CL White'}"
2nd innings,14.1,NLTC Perera,M Morkel,GH Vihari,2,2,na,na
2nd innings,14.2,NLTC Perera,M Morkel,GH Vihari,0,0,na,"{'fielders': ['J Botha'], 'kind': 'caught', 'player_out': 'GH Vihari'}"
2nd innings,14.3,NLTC Perera,M Morkel,A Ashish Reddy,1,1,na,na
2nd innings,14.4,A Ashish Reddy,M Morkel,NLTC Perera,1,1,na,na
2nd innings,14.5,NLTC Perera,M Morkel,A Ashish Reddy,2,2,na,na
2nd innings,14.6,NLTC Perera,M Morkel,A Ashish Reddy,1,1,na,na
2nd innings,15.1,NLTC Perera,UT Yadav,A Ashish Reddy,2,2,na,na
2nd innings,15.2,NLTC Perera,UT Yadav,A Ashish Reddy,1,1,na,na
2nd innings,15.3,A Ashish Reddy,UT Yadav,NLTC Perera,1,1,na,na
2nd innings,15.4,NLTC Perera,UT Yadav,A Ashish Reddy,4,4,na,na
2nd innings,15.5,NLTC Perera,UT Yadav,A Ashish Reddy,4,4,na,na
2nd innings,15.6,NLTC Perera,UT Yadav,A Ashish Reddy,1,1,na,na
2nd innings,16.1,NLTC Perera,M Morkel,A Ashish Reddy,0,0,na,"{'kind': 'bowled', 'player_out': 'A Ashish Reddy'}"
2nd innings,16.2,NLTC Perera,M Morkel,A Mishra,0,0,na,na
2nd innings,16.3,NLTC Perera,M Morkel,A Mishra,1,0,{'noballs': 1},na
2nd innings,16.4,NLTC Perera,M Morkel,A Mishra,0,0,na,na
2nd innings,16.5,NLTC Perera,M Morkel,A Mishra,4,4,na,na
2nd innings,16.6,NLTC Perera,M Morkel,A Mishra,2,2,na,na
2nd innings,16.7,NLTC Perera,M Morkel,A Mishra,1,1,na,na
2nd innings,17.1,NLTC Perera,IK Pathan,A Mishra,2,2,na,na
2nd innings,17.2,NLTC Perera,IK Pathan,A Mishra,0,0,na,na
2nd innings,17.3,NLTC Perera,IK Pathan,A Mishra,1,1,na,na
2nd innings,17.4,A Mishra,IK Pathan,NLTC Perera,0,0,na,"{'fielders': ['J Botha'], 'kind': 'caught', 'player_out': 'NLTC Perera'}"
2nd innings,17.5,DW Steyn,IK Pathan,A Mishra,1,1,na,na
2nd innings,17.6,A Mishra,IK Pathan,DW Steyn,2,2,na,na
2nd innings,18.1,DW Steyn,UT Yadav,A Mishra,4,4,na,na
2nd innings,18.2,DW Steyn,UT Yadav,A Mishra,1,1,na,na
2nd innings,18.3,A Mishra,UT Yadav,DW Steyn,0,0,na,na
2nd innings,18.4,A Mishra,UT Yadav,DW Steyn,1,1,na,na
2nd innings,18.5,DW Steyn,UT Yadav,A Mishra,0,0,na,na
2nd innings,18.6,DW Steyn,UT Yadav,A Mishra,0,0,na,na
2nd innings,19.1,A Mishra,IK Pathan,DW Steyn,2,2,na,na
2nd innings,19.2,A Mishra,IK Pathan,DW Steyn,4,4,na,na
