innings,deliveries,non_striker,bowler,batsman,total_runs,batsman_runs,extras,wickets
1st innings,0.1,AJ Finch,IK Pathan,RV Uthappa,0,0,na,na
1st innings,0.2,AJ Finch,IK Pathan,RV Uthappa,2,2,na,na
1st innings,0.3,AJ Finch,IK Pathan,RV Uthappa,4,4,na,na
1st innings,0.4,AJ Finch,IK Pathan,RV Uthappa,0,0,na,na
1st innings,0.5,AJ Finch,IK Pathan,RV Uthappa,1,1,na,na
1st innings,0.6,RV Uthappa,IK Pathan,AJ Finch,4,4,na,na
1st innings,1.1,AJ Finch,M Morkel,RV Uthappa,0,0,na,na
1st innings,1.2,AJ Finch,M Morkel,RV Uthappa,3,3,na,na
1st innings,1.3,RV Uthappa,M Morkel,AJ Finch,1,1,na,na
1st innings,1.4,AJ Finch,M Morkel,RV Uthappa,1,1,na,na
1st innings,1.5,RV Uthappa,M Morkel,AJ Finch,0,0,na,na
1st innings,1.6,RV Uthappa,M Morkel,AJ Finch,0,0,na,na
1st innings,2.1,AJ Finch,S Kaul,RV Uthappa,1,1,na,na
1st innings,2.2,RV Uthappa,S Kaul,AJ Finch,0,0,na,na
1st innings,2.3,RV Uthappa,S Kaul,AJ Finch,1,1,na,na
1st innings,2.4,AJ Finch,S Kaul,RV Uthappa,1,1,na,na
1st innings,2.5,RV Uthappa,S Kaul,AJ Finch,6,6,na,na
1st innings,2.6,RV Uthappa,S Kaul,AJ Finch,0,0,na,na
1st innings,3.1,AJ Finch,M Morkel,RV Uthappa,4,4,na,na
1st innings,3.2,AJ Finch,M Morkel,RV Uthappa,1,1,na,na
1st innings,3.3,RV Uthappa,M Morkel,AJ Finch,0,0,na,na
1st innings,3.4,RV Uthappa,M Morkel,AJ Finch,0,0,na,na
1st innings,3.5,RV Uthappa,M Morkel,AJ Finch,1,1,na,na
1st innings,3.6,AJ Finch,M Morkel,RV Uthappa,1,1,na,na
1st innings,4.1,AJ Finch,S Kaul,RV Uthappa,0,0,na,na
1st innings,4.2,AJ Finch,S Kaul,RV Uthappa,0,0,na,na
1st innings,4.3,AJ Finch,S Kaul,RV Uthappa,0,0,na,na
1st innings,4.4,AJ Finch,S Kaul,RV Uthappa,0,0,na,na
1st innings,4.5,AJ Finch,S Kaul,RV Uthappa,4,4,na,na
1st innings,4.6,AJ Finch,S Kaul,RV Uthappa,1,1,na,na
1st innings,5.1,AJ Finch,UT Yadav,RV Uthappa,1,0,{'wides': 1},na
1st innings,5.2,AJ Finch,UT Yadav,RV Uthappa,0,0,na,"{'fielders': ['DA Warner'], 'kind': 'caught', 'player_out': 'RV Uthappa'}"
1st innings,5.3,AJ Finch,UT Yadav,MK Pandey,0,0,na,na
1st innings,5.4,AJ Finch,UT Yadav,MK Pandey,1,1,na,na
1st innings,5.5,MK Pandey,UT Yadav,AJ Finch,1,0,{'legbyes': 1},na
1st innings,5.6,AJ Finch,UT Yadav,MK Pandey,0,0,na,na
1st innings,5.7,AJ Finch,UT Yadav,MK Pandey,0,0,na,na
1st innings,6.1,MK Pandey,IK Pathan,AJ Finch,1,1,na,na
1st innings,6.2,AJ Finch,IK Pathan,MK Pandey,0,0,na,na
1st innings,6.3,AJ Finch,IK Pathan,MK Pandey,0,0,na,na
1st innings,6.4,AJ Finch,IK Pathan,MK Pandey,0,0,na,na
1st innings,6.5,AJ Finch,IK Pathan,MK Pandey,6,6,na,na
1st innings,6.6,AJ Finch,IK Pathan,MK Pandey,1,0,{'legbyes': 1},na
1st innings,7.1,AJ Finch,S Nadeem,MK Pandey,1,1,na,na
1st innings,7.2,MK Pandey,S Nadeem,AJ Finch,0,0,na,na
1st innings,7.3,MK Pandey,S Nadeem,AJ Finch,2,2,na,na
1st innings,7.4,MK Pandey,S Nadeem,AJ Finch,1,1,na,na
1st innings,7.5,AJ Finch,S Nadeem,MK Pandey,1,1,na,na
1st innings,7.6,MK Pandey,S Nadeem,AJ Finch,1,1,na,na
1st innings,8.1,MK Pandey,UT Yadav,AJ Finch,6,6,na,na
1st innings,8.2,MK Pandey,UT Yadav,AJ Finch,0,0,na,na
1st innings,8.3,MK Pandey,UT Yadav,AJ Finch,6,6,na,na
1st innings,8.4,MK Pandey,UT Yadav,AJ Finch,4,4,na,na
1st innings,8.5,MK Pandey,UT Yadav,AJ Finch,1,1,na,na
1st innings,8.6,AJ Finch,UT Yadav,MK Pandey,0,0,na,na
1st innings,9.1,MK Pandey,S Nadeem,AJ Finch,1,1,na,na
1st innings,9.2,AJ Finch,S Nadeem,MK Pandey,1,1,na,na
1st innings,9.3,MK Pandey,S Nadeem,AJ Finch,1,1,na,na
1st innings,9.4,AJ Finch,S Nadeem,MK Pandey,0,0,na,"{'kind': 'bowled', 'player_out': 'MK Pandey'}"
1st innings,9.5,AJ Finch,S Nadeem,Yuvraj Singh,0,0,na,na
1st innings,9.6,AJ Finch,S Nadeem,Yuvraj Singh,0,0,na,na
1st innings,10.1,Yuvraj Singh,IK Pathan,AJ Finch,0,0,na,na
1st innings,10.2,Yuvraj Singh,IK Pathan,AJ Finch,6,6,na,na
1st innings,10.3,Yuvraj Singh,IK Pathan,AJ Finch,0,0,na,na
1st innings,10.4,Yuvraj Singh,IK Pathan,AJ Finch,0,0,na,na
1st innings,10.5,Yuvraj Singh,IK Pathan,AJ Finch,2,2,na,na
1st innings,10.6,Yuvraj Singh,IK Pathan,AJ Finch,4,4,na,na
1st innings,11.1,AJ Finch,S Kaul,Yuvraj Singh,1,1,na,na
1st innings,11.2,Yuvraj Singh,S Kaul,AJ Finch,1,1,na,na
1st innings,11.3,AJ Finch,S Kaul,Yuvraj Singh,1,1,na,na
1st innings,11.4,Yuvraj Singh,S Kaul,AJ Finch,2,2,na,na
1st innings,11.5,Yuvraj Singh,S Kaul,AJ Finch,0,0,na,na
1st innings,11.6,Yuvraj Singh,S Kaul,AJ Finch,0,0,na,"{'fielders': ['V Sehwag'], 'kind': 'caught', 'player_out': 'AJ Finch'}"
1st innings,12.1,AD Mathews,S Nadeem,Yuvraj Singh,1,1,na,na
1st innings,12.2,Yuvraj Singh,S Nadeem,AD Mathews,0,0,na,na
1st innings,12.3,Yuvraj Singh,S Nadeem,AD Mathews,0,0,na,na
1st innings,12.4,Yuvraj Singh,S Nadeem,AD Mathews,0,0,na,na
1st innings,12.5,Yuvraj Singh,S Nadeem,AD Mathews,1,1,na,na
1st innings,12.6,AD Mathews,S Nadeem,Yuvraj Singh,0,0,na,na
1st innings,13.1,Yuvraj Singh,IK Pathan,AD Mathews,2,2,na,na
1st innings,13.2,Yuvraj Singh,IK Pathan,AD Mathews,1,1,na,na
1st innings,13.3,AD Mathews,IK Pathan,Yuvraj Singh,0,0,na,"{'fielders': ['V Sehwag'], 'kind': 'caught', 'player_out': 'Yuvraj Singh'}"
1st innings,13.4,LJ Wright,IK Pathan,AD Mathews,1,1,na,na
1st innings,13.5,AD Mathews,IK Pathan,LJ Wright,0,0,na,na
1st innings,13.6,AD Mathews,IK Pathan,LJ Wright,0,0,na,na
1st innings,14.1,LJ Wright,S Nadeem,AD Mathews,1,1,na,na
1st innings,14.2,AD Mathews,S Nadeem,LJ Wright,4,4,na,na
1st innings,14.3,AD Mathews,S Nadeem,LJ Wright,1,1,na,na
1st innings,14.4,LJ Wright,S Nadeem,AD Mathews,1,1,na,na
1st innings,14.5,AD Mathews,S Nadeem,LJ Wright,1,0,{'wides': 1},na
1st innings,14.6,AD Mathews,S Nadeem,LJ Wright,1,1,na,na
1st innings,14.7,LJ Wright,S Nadeem,AD Mathews,1,1,na,na
1st innings,15.1,LJ Wright,M Morkel,AD Mathews,6,6,na,na
1st innings,15.2,LJ Wright,M Morkel,AD Mathews,1,1,na,na
1st innings,15.3,AD Mathews,M Morkel,LJ Wright,1,1,na,na
1st innings,15.4,LJ Wright,M Morkel,AD Mathews,1,1,na,na
1st innings,15.5,AD Mathews,M Morkel,LJ Wright,4,4,na,na
1st innings,15.6,AD Mathews,M Morkel,LJ Wright,1,1,na,na
1st innings,16.1,AD Mathews,UT Yadav,LJ Wright,1,1,na,na
1st innings,16.2,LJ Wright,UT Yadav,AD Mathews,1,1,na,na
1st innings,16.3,AD Mathews,UT Yadav,LJ Wright,1,1,na,na
1st innings,16.4,LJ Wright,UT Yadav,AD Mathews,1,1,na,na
1st innings,16.5,AD Mathews,UT Yadav,LJ Wright,4,4,na,na
1st innings,16.6,AD Mathews,UT Yadav,LJ Wright,1,1,na,na
1st innings,17.1,AD Mathews,M Morkel,LJ Wright,1,1,na,na
1st innings,17.2,LJ Wright,M Morkel,AD Mathews,1,1,na,na
1st innings,17.3,AD Mathews,M Morkel,LJ Wright,0,0,na,na
1st innings,17.4,AD Mathews,M Morkel,LJ Wright,0,0,na,na
1st innings,17.5,AD Mathews,M Morkel,LJ Wright,4,4,na,na
1st innings,17.6,AD Mathews,M Morkel,LJ Wright,4,4,na,na
1st innings,18.1,LJ Wright,UT Yadav,AD Mathews,6,6,na,na
1st innings,18.2,LJ Wright,UT Yadav,AD Mathews,1,1,na,na
1st innings,18.3,AD Mathews,UT Yadav,LJ Wright,6,6,na,na
1st innings,18.4,AD Mathews,UT Yadav,LJ Wright,5,4,{'noballs': 1},na
1st innings,18.5,AD Mathews,UT Yadav,LJ Wright,4,4,na,na
1st innings,18.6,AD Mathews,UT Yadav,LJ Wright,1,1,na,na
1st innings,18.7,LJ Wright,UT Yadav,AD Mathews,1,1,na,na
1st innings,19.1,LJ Wright,S Kaul,AD Mathews,1,1,na,na
1st innings,19.2,AD Mathews,S Kaul,LJ Wright,1,1,na,na
1st innings,19.3,LJ Wright,S Kaul,AD Mathews,1,1,na,na
1st innings,19.4,AD Mathews,S Kaul,LJ Wright,0,0,na,"{'fielders': ['V Sehwag'], 'kind': 'caught', 'player_out': 'LJ Wright'}"
1st innings,19.5,RV Gomez,S Kaul,AD Mathews,1,1,na,na
1st innings,19.6,AD Mathews,S Kaul,RV Gomez,4,4,na,na
2nd innings,0.1,DA Warner,WD Parnell,DPMD Jayawardene,5,0,{'wides': 5},na
2nd innings,0.2,DA Warner,WD Parnell,DPMD Jayawardene,1,1,na,na
2nd innings,0.3,DPMD Jayawardene,WD Parnell,DA Warner,1,0,{'wides': 1},na
2nd innings,0.4,DPMD Jayawardene,WD Parnell,DA Warner,1,1,na,na
2nd innings,0.5,DA Warner,WD Parnell,DPMD Jayawardene,4,4,na,na
2nd innings,0.6,DA Warner,WD Parnell,DPMD Jayawardene,0,0,na,na
2nd innings,0.7,DA Warner,WD Parnell,DPMD Jayawardene,0,0,na,na
2nd innings,0.8,DA Warner,WD Parnell,DPMD Jayawardene,0,0,na,na
2nd innings,1.1,DPMD Jayawardene,B Kumar,DA Warner,0,0,na,na
2nd innings,1.2,DPMD Jayawardene,B Kumar,DA Warner,0,0,na,na
2nd innings,1.3,DPMD Jayawardene,B Kumar,DA Warner,1,1,na,na
2nd innings,1.4,DA Warner,B Kumar,DPMD Jayawardene,0,0,na,na
2nd innings,1.5,DA Warner,B Kumar,DPMD Jayawardene,4,4,na,na
2nd innings,1.6,DA Warner,B Kumar,DPMD Jayawardene,0,0,na,na
2nd innings,2.1,DPMD Jayawardene,WD Parnell,DA Warner,0,0,na,"{'fielders': ['RV Uthappa'], 'kind': 'caught', 'player_out': 'DA Warner'}"
2nd innings,2.2,DPMD Jayawardene,WD Parnell,B Chipli,1,0,{'noballs': 1},na
2nd innings,2.3,DPMD Jayawardene,WD Parnell,B Chipli,6,6,na,na
2nd innings,2.4,DPMD Jayawardene,WD Parnell,B Chipli,4,0,{'legbyes': 4},na
2nd innings,2.5,DPMD Jayawardene,WD Parnell,B Chipli,1,1,na,na
2nd innings,2.6,B Chipli,WD Parnell,DPMD Jayawardene,4,4,na,na
2nd innings,2.7,B Chipli,WD Parnell,DPMD Jayawardene,0,0,na,na
2nd innings,3.1,DPMD Jayawardene,AB Dinda,B Chipli,0,0,na,na
2nd innings,3.2,DPMD Jayawardene,AB Dinda,B Chipli,0,0,na,na
2nd innings,3.3,DPMD Jayawardene,AB Dinda,B Chipli,4,4,na,na
2nd innings,3.4,DPMD Jayawardene,AB Dinda,B Chipli,0,0,na,na
2nd innings,3.5,DPMD Jayawardene,AB Dinda,B Chipli,0,0,na,na
2nd innings,3.6,DPMD Jayawardene,AB Dinda,B Chipli,0,0,na,na
2nd innings,4.1,B Chipli,AG Murtaza,DPMD Jayawardene,1,1,na,na
2nd innings,4.2,DPMD Jayawardene,AG Murtaza,B Chipli,0,0,na,na
2nd innings,4.3,DPMD Jayawardene,AG Murtaza,B Chipli,1,0,{'wides': 1},na
2nd innings,4.4,DPMD Jayawardene,AG Murtaza,B Chipli,1,1,na,na
2nd innings,4.5,B Chipli,AG Murtaza,DPMD Jayawardene,0,0,na,na
2nd innings,4.6,B Chipli,AG Murtaza,DPMD Jayawardene,0,0,na,"{'fielders': ['LJ Wright'], 'kind': 'caught', 'player_out': 'DPMD Jayawardene'}"
2nd innings,4.7,B Chipli,AG Murtaza,V Sehwag,0,0,na,na
2nd innings,5.1,V Sehwag,B Kumar,B Chipli,1,1,na,na
2nd innings,5.2,B Chipli,B Kumar,V Sehwag,4,4,na,na
2nd innings,5.3,B Chipli,B Kumar,V Sehwag,0,0,na,na
2nd innings,5.4,B Chipli,B Kumar,V Sehwag,1,1,na,na
2nd innings,5.5,V Sehwag,B Kumar,B Chipli,1,1,na,na
2nd innings,5.6,B Chipli,B Kumar,V Sehwag,0,0,na,na
2nd innings,6.1,V Sehwag,Yuvraj Singh,B Chipli,1,1,na,na
2nd innings,6.2,B Chipli,Yuvraj Singh,V Sehwag,4,4,na,na
2nd innings,6.3,B Chipli,Yuvraj Singh,V Sehwag,1,1,na,na
2nd innings,6.4,V Sehwag,Yuvraj Singh,B Chipli,0,0,na,na
2nd innings,6.5,V Sehwag,Yuvraj Singh,B Chipli,1,1,na,na
2nd innings,6.6,B Chipli,Yuvraj Singh,V Sehwag,1,1,na,na
2nd innings,7.1,B Chipli,AG Murtaza,V Sehwag,0,0,na,na
2nd innings,7.2,B Chipli,AG Murtaza,V Sehwag,0,0,na,"{'fielders': ['RV Gomez'], 'kind': 'caught', 'player_out': 'V Sehwag'}"
2nd innings,7.3,BJ Rohrer,AG Murtaza,B Chipli,0,0,na,"{'kind': 'lbw', 'player_out': 'B Chipli'}"
2nd innings,7.4,BJ Rohrer,AG Murtaza,IK Pathan,1,1,na,na
2nd innings,7.5,IK Pathan,AG Murtaza,BJ Rohrer,1,1,na,na
2nd innings,7.6,BJ Rohrer,AG Murtaza,IK Pathan,0,0,na,na
2nd innings,8.1,IK Pathan,AD Mathews,BJ Rohrer,0,0,na,na
2nd innings,8.2,IK Pathan,AD Mathews,BJ Rohrer,0,0,na,na
2nd innings,8.3,IK Pathan,AD Mathews,BJ Rohrer,4,4,na,na
2nd innings,8.4,IK Pathan,AD Mathews,BJ Rohrer,0,0,na,na
2nd innings,8.5,IK Pathan,AD Mathews,BJ Rohrer,1,1,na,na
2nd innings,8.6,BJ Rohrer,AD Mathews,IK Pathan,0,0,na,na
2nd innings,9.1,IK Pathan,AB Dinda,BJ Rohrer,1,1,na,na
2nd innings,9.2,BJ Rohrer,AB Dinda,IK Pathan,1,1,na,na
2nd innings,9.3,IK Pathan,AB Dinda,BJ Rohrer,0,0,na,na
2nd innings,9.4,IK Pathan,AB Dinda,BJ Rohrer,0,0,na,"{'kind': 'bowled', 'player_out': 'BJ Rohrer'}"
2nd innings,9.5,IK Pathan,AB Dinda,CM Gautam,0,0,na,na
2nd innings,9.6,IK Pathan,AB Dinda,CM Gautam,1,1,na,na
2nd innings,10.1,IK Pathan,AG Murtaza,CM Gautam,1,1,na,na
2nd innings,10.2,CM Gautam,AG Murtaza,IK Pathan,4,4,na,na
2nd innings,10.3,CM Gautam,AG Murtaza,IK Pathan,1,1,na,na
2nd innings,10.4,IK Pathan,AG Murtaza,CM Gautam,1,1,na,na
2nd innings,10.5,CM Gautam,AG Murtaza,IK Pathan,0,0,na,na
2nd innings,10.6,CM Gautam,AG Murtaza,IK Pathan,0,0,na,na
2nd innings,11.1,IK Pathan,B Kumar,CM Gautam,0,0,na,na
2nd innings,11.2,IK Pathan,B Kumar,CM Gautam,0,0,na,na
2nd innings,11.3,IK Pathan,B Kumar,CM Gautam,1,1,na,na
2nd innings,11.4,CM Gautam,B Kumar,IK Pathan,1,1,na,na
2nd innings,11.5,IK Pathan,B Kumar,CM Gautam,2,2,na,na
2nd innings,11.6,IK Pathan,B Kumar,CM Gautam,1,0,{'wides': 1},na
2nd innings,11.7,IK Pathan,B Kumar,CM Gautam,6,6,na,na
2nd innings,12.1,CM Gautam,Yuvraj Singh,IK Pathan,1,1,na,na
2nd innings,12.2,IK Pathan,Yuvraj Singh,CM Gautam,1,1,na,na
2nd innings,12.3,CM Gautam,Yuvraj Singh,IK Pathan,1,1,na,na
2nd innings,12.4,IK Pathan,Yuvraj Singh,CM Gautam,3,3,na,na
2nd innings,12.5,CM Gautam,Yuvraj Singh,IK Pathan,2,2,na,na
2nd innings,12.6,CM Gautam,Yuvraj Singh,IK Pathan,1,1,na,na
2nd innings,13.1,CM Gautam,AB Dinda,IK Pathan,1,1,na,na
2nd innings,13.2,IK Pathan,AB Dinda,CM Gautam,0,0,na,na
2nd innings,13.3,IK Pathan,AB Dinda,CM Gautam,0,0,na,na
2nd innings,13.4,IK Pathan,AB Dinda,CM Gautam,4,4,na,na
2nd innings,13.5,IK Pathan,AB Dinda,CM Gautam,1,0,{'wides': 1},na
2nd innings,13.6,IK Pathan,AB Dinda,CM Gautam,1,1,na,na
2nd innings,13.7,CM Gautam,AB Dinda,IK Pathan,1,1,na,na
2nd innings,14.1,CM Gautam,AG Murtaza,IK Pathan,1,1,na,na
2nd innings,14.2,IK Pathan,AG Murtaza,CM Gautam,1,1,na,na
2nd innings,14.3,CM Gautam,AG Murtaza,IK Pathan,1,0,{'legbyes': 1},na
2nd innings,14.4,IK Pathan,AG Murtaza,CM Gautam,1,1,na,na
2nd innings,14.5,CM Gautam,AG Murtaza,IK Pathan,0,0,na,na
2nd innings,14.6,CM Gautam,AG Murtaza,IK Pathan,0,0,na,na
2nd innings,15.1,IK Pathan,WD Parnell,CM Gautam,1,0,{'wides': 1},na
2nd innings,15.2,IK Pathan,WD Parnell,CM Gautam,1,1,na,na
2nd innings,15.3,CM Gautam,WD Parnell,IK Pathan,1,1,na,na
2nd innings,15.4,IK Pathan,WD Parnell,CM Gautam,4,4,na,na
2nd innings,15.5,IK Pathan,WD Parnell,CM Gautam,1,1,na,na
2nd innings,15.6,CM Gautam,WD Parnell,IK Pathan,4,4,na,na
2nd innings,15.7,CM Gautam,WD Parnell,IK Pathan,0,0,na,na
2nd innings,16.1,IK Pathan,AD Mathews,CM Gautam,0,0,na,na
2nd innings,16.2,IK Pathan,AD Mathews,CM Gautam,1,1,na,na
2nd innings,16.3,CM Gautam,AD Mathews,IK Pathan,1,1,na,na
2nd innings,16.4,IK Pathan,AD Mathews,CM Gautam,0,0,na,"{'fielders': ['RV Gomez'], 'kind': 'caught', 'player_out': 'CM Gautam'}"
2nd innings,16.5,M Morkel,AD Mathews,IK Pathan,1,1,na,na
2nd innings,16.6,IK Pathan,AD Mathews,M Morkel,0,0,na,"{'fielders': ['WD Parnell'], 'kind': 'caught', 'player_out': 'M Morkel'}"
2nd innings,17.1,IK Pathan,B Kumar,UT Yadav,0,0,na,na
2nd innings,17.2,IK Pathan,B Kumar,UT Yadav,1,1,na,na
2nd innings,17.3,UT Yadav,B Kumar,IK Pathan,0,0,na,na
2nd innings,17.4,UT Yadav,B Kumar,IK Pathan,0,0,na,na
2nd innings,17.5,UT Yadav,B Kumar,IK Pathan,1,1,na,na
2nd innings,17.6,IK Pathan,B Kumar,UT Yadav,1,1,na,na
2nd innings,18.1,IK Pathan,AD Mathews,UT Yadav,2,2,na,na
2nd innings,18.2,IK Pathan,AD Mathews,UT Yadav,1,1,na,na
2nd innings,18.3,UT Yadav,AD Mathews,IK Pathan,0,0,na,"{'fielders': ['MK Pandey'], 'kind': 'caught', 'player_out': 'IK Pathan'}"
2nd innings,18.4,S Nadeem,AD Mathews,UT Yadav,1,1,na,na
2nd innings,18.5,UT Yadav,AD Mathews,S Nadeem,2,2,na,na
2nd innings,18.6,UT Yadav,AD Mathews,S Nadeem,0,0,na,na
2nd innings,19.1,S Nadeem,AB Dinda,UT Yadav,0,0,na,na
2nd innings,19.2,S Nadeem,AB Dinda,UT Yadav,1,1,na,na
2nd innings,19.3,UT Yadav,AB Dinda,S Nadeem,4,4,na,na
2nd innings,19.4,UT Yadav,AB Dinda,S Nadeem,0,0,na,na
2nd innings,19.5,UT Yadav,AB Dinda,S Nadeem,0,0,na,"{'fielders': ['AD Mathews'], 'kind': 'caught', 'player_out': 'S Nadeem'}"
2nd innings,19.6,S Kaul,AB Dinda,UT Yadav,1,1,na,na
