innings,deliveries,non_striker,bowler,batsman,total_runs,batsman_runs,extras,wickets
1st innings,0.1,V Sehwag,DW Steyn,DPMD Jayawardene,0,0,na,na
1st innings,0.2,V Sehwag,DW Steyn,DPMD Jayawardene,0,0,na,na
1st innings,0.3,V Sehwag,DW Steyn,DPMD Jayawardene,0,0,na,na
1st innings,0.4,V Sehwag,DW Steyn,DPMD Jayawardene,0,0,na,na
1st innings,0.5,V Sehwag,DW Steyn,DPMD Jayawardene,0,0,na,na
1st innings,0.6,V Sehwag,DW Steyn,DPMD Jayawardene,4,4,na,na
1st innings,1.1,DPMD Jayawardene,I Sharma,V Sehwag,0,0,na,na
1st innings,1.2,DPMD Jayawardene,I Sharma,V Sehwag,0,0,na,na
1st innings,1.3,DPMD Jayawardene,I Sharma,V Sehwag,0,0,na,na
1st innings,1.4,DPMD Jayawardene,I Sharma,V Sehwag,0,0,na,na
1st innings,1.5,DPMD Jayawardene,I Sharma,V Sehwag,0,0,na,na
1st innings,1.6,DPMD Jayawardene,I Sharma,V Sehwag,0,0,na,na
1st innings,2.1,V Sehwag,DW Steyn,DPMD Jayawardene,6,6,na,na
1st innings,2.2,V Sehwag,DW Steyn,DPMD Jayawardene,0,0,na,na
1st innings,2.3,V Sehwag,DW Steyn,DPMD Jayawardene,1,1,na,na
1st innings,2.4,DPMD Jayawardene,DW Steyn,V Sehwag,0,0,na,na
1st innings,2.5,DPMD Jayawardene,DW Steyn,V Sehwag,0,0,na,na
1st innings,2.6,DPMD Jayawardene,DW Steyn,V Sehwag,1,1,na,na
1st innings,3.1,DPMD Jayawardene,I Sharma,V Sehwag,1,1,na,na
1st innings,3.2,V Sehwag,I Sharma,DPMD Jayawardene,0,0,na,na
1st innings,3.3,V Sehwag,I Sharma,DPMD Jayawardene,0,0,na,na
1st innings,3.4,V Sehwag,I Sharma,DPMD Jayawardene,0,0,na,"{'kind': 'lbw', 'player_out': 'DPMD Jayawardene'}"
1st innings,3.5,V Sehwag,I Sharma,UBT Chand,3,0,{'wides': 3},na
1st innings,3.6,V Sehwag,I Sharma,UBT Chand,0,0,na,na
1st innings,3.7,V Sehwag,I Sharma,UBT Chand,4,4,na,na
1st innings,4.1,UBT Chand,NLTC Perera,V Sehwag,2,2,na,na
1st innings,4.2,UBT Chand,NLTC Perera,V Sehwag,1,1,na,na
1st innings,4.3,V Sehwag,NLTC Perera,UBT Chand,0,0,na,na
1st innings,4.4,V Sehwag,NLTC Perera,UBT Chand,0,0,na,na
1st innings,4.5,V Sehwag,NLTC Perera,UBT Chand,0,0,na,na
1st innings,4.6,V Sehwag,NLTC Perera,UBT Chand,0,0,na,na
1st innings,5.1,UBT Chand,I Sharma,V Sehwag,1,1,na,na
1st innings,5.2,V Sehwag,I Sharma,UBT Chand,0,0,na,na
1st innings,5.3,V Sehwag,I Sharma,UBT Chand,0,0,na,na
1st innings,5.4,V Sehwag,I Sharma,UBT Chand,1,1,na,na
1st innings,5.5,UBT Chand,I Sharma,V Sehwag,1,1,na,na
1st innings,5.6,V Sehwag,I Sharma,UBT Chand,0,0,na,na
1st innings,6.1,UBT Chand,NLTC Perera,V Sehwag,0,0,na,na
1st innings,6.2,UBT Chand,NLTC Perera,V Sehwag,1,1,na,na
1st innings,6.3,V Sehwag,NLTC Perera,UBT Chand,0,0,na,na
1st innings,6.4,V Sehwag,NLTC Perera,UBT Chand,0,0,na,na
1st innings,6.5,V Sehwag,NLTC Perera,UBT Chand,1,0,{'noballs': 1},na
1st innings,6.6,V Sehwag,NLTC Perera,UBT Chand,0,0,na,na
1st innings,6.7,V Sehwag,NLTC Perera,UBT Chand,4,4,na,na
1st innings,7.1,UBT Chand,DJG Sammy,V Sehwag,0,0,na,"{'kind': 'bowled', 'player_out': 'V Sehwag'}"
1st innings,7.2,UBT Chand,DJG Sammy,DA Warner,0,0,na,na
1st innings,7.3,UBT Chand,DJG Sammy,DA Warner,0,0,na,na
1st innings,7.4,UBT Chand,DJG Sammy,DA Warner,1,1,na,na
1st innings,7.5,DA Warner,DJG Sammy,UBT Chand,1,1,na,na
1st innings,7.6,UBT Chand,DJG Sammy,DA Warner,0,0,na,na
1st innings,8.1,DA Warner,KV Sharma,UBT Chand,0,0,na,na
1st innings,8.2,DA Warner,KV Sharma,UBT Chand,0,0,na,na
1st innings,8.3,DA Warner,KV Sharma,UBT Chand,1,1,na,na
1st innings,8.4,UBT Chand,KV Sharma,DA Warner,2,2,na,na
1st innings,8.5,UBT Chand,KV Sharma,DA Warner,0,0,na,na
1st innings,8.6,UBT Chand,KV Sharma,DA Warner,1,1,na,na
1st innings,9.1,UBT Chand,A Mishra,DA Warner,0,0,na,na
1st innings,9.2,UBT Chand,A Mishra,DA Warner,1,1,na,na
1st innings,9.3,DA Warner,A Mishra,UBT Chand,1,1,na,na
1st innings,9.4,UBT Chand,A Mishra,DA Warner,1,1,na,na
1st innings,9.5,DA Warner,A Mishra,UBT Chand,1,1,na,na
1st innings,9.6,UBT Chand,A Mishra,DA Warner,1,1,na,na
1st innings,10.1,UBT Chand,DW Steyn,DA Warner,1,0,{'byes': 1},na
1st innings,10.2,DA Warner,DW Steyn,UBT Chand,4,4,na,na
1st innings,10.3,DA Warner,DW Steyn,UBT Chand,1,0,{'legbyes': 1},na
1st innings,10.4,UBT Chand,DW Steyn,DA Warner,1,1,na,na
1st innings,10.5,DA Warner,DW Steyn,UBT Chand,0,0,na,"{'kind': 'bowled', 'player_out': 'UBT Chand'}"
1st innings,10.6,DA Warner,DW Steyn,BMAJ Mendis,2,2,na,na
1st innings,11.1,BMAJ Mendis,A Mishra,DA Warner,0,0,na,na
1st innings,11.2,BMAJ Mendis,A Mishra,DA Warner,0,0,na,"{'fielders': ['PA Patel'], 'kind': 'stumped', 'player_out': 'DA Warner'}"
1st innings,11.3,BMAJ Mendis,A Mishra,KM Jadhav,2,2,na,na
1st innings,11.4,BMAJ Mendis,A Mishra,KM Jadhav,0,0,na,na
1st innings,11.5,BMAJ Mendis,A Mishra,KM Jadhav,1,1,na,na
1st innings,11.6,KM Jadhav,A Mishra,BMAJ Mendis,1,1,na,na
1st innings,12.1,KM Jadhav,KV Sharma,BMAJ Mendis,1,1,na,na
1st innings,12.2,BMAJ Mendis,KV Sharma,KM Jadhav,0,0,na,"{'kind': 'caught and bowled', 'player_out': 'KM Jadhav'}"
1st innings,12.3,BMAJ Mendis,KV Sharma,IK Pathan,1,1,na,na
1st innings,12.4,IK Pathan,KV Sharma,BMAJ Mendis,1,1,na,na
1st innings,12.5,BMAJ Mendis,KV Sharma,IK Pathan,2,2,na,na
1st innings,12.6,BMAJ Mendis,KV Sharma,IK Pathan,0,0,na,na
1st innings,13.1,IK Pathan,A Mishra,BMAJ Mendis,2,2,na,na
1st innings,13.2,IK Pathan,A Mishra,BMAJ Mendis,1,1,na,na
1st innings,13.3,BMAJ Mendis,A Mishra,IK Pathan,0,0,na,na
1st innings,13.4,BMAJ Mendis,A Mishra,IK Pathan,0,0,na,na
1st innings,13.5,BMAJ Mendis,A Mishra,IK Pathan,0,0,na,na
1st innings,13.6,BMAJ Mendis,A Mishra,IK Pathan,2,2,na,na
1st innings,14.1,IK Pathan,DJG Sammy,BMAJ Mendis,1,1,na,na
1st innings,14.2,BMAJ Mendis,DJG Sammy,IK Pathan,0,0,na,na
1st innings,14.3,BMAJ Mendis,DJG Sammy,IK Pathan,1,1,na,na
1st innings,14.4,IK Pathan,DJG Sammy,BMAJ Mendis,2,2,na,na
1st innings,14.5,IK Pathan,DJG Sammy,BMAJ Mendis,0,0,na,"{'fielders': ['I Sharma'], 'kind': 'caught', 'player_out': 'BMAJ Mendis'}"
1st innings,14.6,J Botha,DJG Sammy,IK Pathan,0,0,na,na
1st innings,15.1,IK Pathan,A Mishra,J Botha,0,0,na,na
1st innings,15.2,IK Pathan,A Mishra,J Botha,0,0,na,na
1st innings,15.3,IK Pathan,A Mishra,J Botha,0,0,na,na
1st innings,15.4,IK Pathan,A Mishra,J Botha,0,0,na,na
1st innings,15.5,IK Pathan,A Mishra,J Botha,1,1,na,na
1st innings,15.6,J Botha,A Mishra,IK Pathan,1,1,na,na
1st innings,16.1,J Botha,NLTC Perera,IK Pathan,0,0,na,na
1st innings,16.2,J Botha,NLTC Perera,IK Pathan,1,1,na,na
1st innings,16.3,IK Pathan,NLTC Perera,J Botha,0,0,na,na
1st innings,16.4,IK Pathan,NLTC Perera,J Botha,0,0,na,"{'fielders': ['PA Patel'], 'kind': 'caught', 'player_out': 'J Botha'}"
1st innings,16.5,S Nadeem,NLTC Perera,IK Pathan,1,1,na,na
1st innings,16.6,IK Pathan,NLTC Perera,S Nadeem,0,0,na,na
1st innings,17.1,S Nadeem,DJG Sammy,IK Pathan,0,0,na,na
1st innings,17.2,S Nadeem,DJG Sammy,IK Pathan,2,2,na,na
1st innings,17.3,S Nadeem,DJG Sammy,IK Pathan,1,1,na,na
1st innings,17.4,IK Pathan,DJG Sammy,S Nadeem,0,0,na,na
1st innings,17.5,IK Pathan,DJG Sammy,S Nadeem,0,0,na,"{'fielders': ['GH Vihari', 'DJG Sammy'], 'kind': 'run out', 'player_out': 'S Nadeem'}"
1st innings,17.6,A Nehra,DJG Sammy,IK Pathan,1,1,na,na
1st innings,18.1,A Nehra,DW Steyn,IK Pathan,0,0,na,"{'kind': 'bowled', 'player_out': 'IK Pathan'}"
1st innings,18.2,A Nehra,DW Steyn,UT Yadav,0,0,na,na
1st innings,18.3,A Nehra,DW Steyn,UT Yadav,0,0,na,na
1st innings,18.4,A Nehra,DW Steyn,UT Yadav,0,0,na,na
1st innings,18.5,A Nehra,DW Steyn,UT Yadav,0,0,na,na
1st innings,18.6,A Nehra,DW Steyn,UT Yadav,2,2,na,na
1st innings,19.1,UT Yadav,NLTC Perera,A Nehra,0,0,na,"{'kind': 'bowled', 'player_out': 'A Nehra'}"
2nd innings,0.1,S Dhawan,IK Pathan,PA Patel,1,1,na,na
2nd innings,0.2,PA Patel,IK Pathan,S Dhawan,0,0,na,na
2nd innings,0.3,PA Patel,IK Pathan,S Dhawan,0,0,na,na
2nd innings,0.4,PA Patel,IK Pathan,S Dhawan,4,4,na,na
2nd innings,0.5,PA Patel,IK Pathan,S Dhawan,1,1,na,na
2nd innings,0.6,S Dhawan,IK Pathan,PA Patel,0,0,na,na
2nd innings,1.1,PA Patel,UT Yadav,S Dhawan,2,2,na,na
2nd innings,1.2,PA Patel,UT Yadav,S Dhawan,4,4,na,na
2nd innings,1.3,PA Patel,UT Yadav,S Dhawan,1,1,na,na
2nd innings,1.4,S Dhawan,UT Yadav,PA Patel,4,4,na,na
2nd innings,1.5,S Dhawan,UT Yadav,PA Patel,0,0,na,na
2nd innings,1.6,S Dhawan,UT Yadav,PA Patel,0,0,na,na
2nd innings,2.1,PA Patel,A Nehra,S Dhawan,0,0,na,na
2nd innings,2.2,PA Patel,A Nehra,S Dhawan,1,1,na,na
2nd innings,2.3,S Dhawan,A Nehra,PA Patel,1,1,na,na
2nd innings,2.4,PA Patel,A Nehra,S Dhawan,0,0,na,na
2nd innings,2.5,PA Patel,A Nehra,S Dhawan,4,4,na,na
2nd innings,2.6,PA Patel,A Nehra,S Dhawan,0,0,na,na
2nd innings,3.1,S Dhawan,UT Yadav,PA Patel,1,1,na,na
2nd innings,3.2,PA Patel,UT Yadav,S Dhawan,1,1,na,na
2nd innings,3.3,S Dhawan,UT Yadav,PA Patel,0,0,na,na
2nd innings,3.4,S Dhawan,UT Yadav,PA Patel,1,1,na,na
2nd innings,3.5,PA Patel,UT Yadav,S Dhawan,0,0,na,na
2nd innings,3.6,PA Patel,UT Yadav,S Dhawan,4,4,na,na
2nd innings,4.1,S Dhawan,J Botha,PA Patel,0,0,na,na
2nd innings,4.2,S Dhawan,J Botha,PA Patel,2,2,na,na
2nd innings,4.3,S Dhawan,J Botha,PA Patel,1,1,na,na
2nd innings,4.4,PA Patel,J Botha,S Dhawan,0,0,na,"{'kind': 'lbw', 'player_out': 'S Dhawan'}"
2nd innings,4.5,PA Patel,J Botha,A Ashish Reddy,0,0,na,na
2nd innings,4.6,PA Patel,J Botha,A Ashish Reddy,0,0,na,na
2nd innings,5.1,A Ashish Reddy,A Nehra,PA Patel,1,1,na,na
2nd innings,5.2,PA Patel,A Nehra,A Ashish Reddy,4,4,na,na
2nd innings,5.3,PA Patel,A Nehra,A Ashish Reddy,0,0,na,na
2nd innings,5.4,PA Patel,A Nehra,A Ashish Reddy,1,0,{'wides': 1},na
2nd innings,5.5,PA Patel,A Nehra,A Ashish Reddy,1,1,na,na
2nd innings,5.6,A Ashish Reddy,A Nehra,PA Patel,1,1,na,na
2nd innings,5.7,PA Patel,A Nehra,A Ashish Reddy,0,0,na,"{'fielders': ['KM Jadhav'], 'kind': 'caught', 'player_out': 'A Ashish Reddy'}"
2nd innings,6.1,DJG Sammy,BMAJ Mendis,PA Patel,0,0,na,na
2nd innings,6.2,DJG Sammy,BMAJ Mendis,PA Patel,0,0,na,na
2nd innings,6.3,DJG Sammy,BMAJ Mendis,PA Patel,1,1,na,na
2nd innings,6.4,PA Patel,BMAJ Mendis,DJG Sammy,1,1,na,na
2nd innings,6.5,DJG Sammy,BMAJ Mendis,PA Patel,0,0,na,"{'fielders': ['KM Jadhav'], 'kind': 'stumped', 'player_out': 'PA Patel'}"
2nd innings,6.6,DJG Sammy,BMAJ Mendis,KC Sangakkara,0,0,na,na
2nd innings,7.1,KC Sangakkara,S Nadeem,DJG Sammy,0,0,na,na
2nd innings,7.2,KC Sangakkara,S Nadeem,DJG Sammy,1,1,na,na
2nd innings,7.3,DJG Sammy,S Nadeem,KC Sangakkara,1,1,na,na
2nd innings,7.4,KC Sangakkara,S Nadeem,DJG Sammy,0,0,na,na
2nd innings,7.5,KC Sangakkara,S Nadeem,DJG Sammy,1,1,na,na
2nd innings,7.6,DJG Sammy,S Nadeem,KC Sangakkara,0,0,na,na
2nd innings,8.1,KC Sangakkara,BMAJ Mendis,DJG Sammy,1,1,na,na
2nd innings,8.2,DJG Sammy,BMAJ Mendis,KC Sangakkara,1,1,na,na
2nd innings,8.3,KC Sangakkara,BMAJ Mendis,DJG Sammy,2,2,na,na
2nd innings,8.4,KC Sangakkara,BMAJ Mendis,DJG Sammy,1,1,na,na
2nd innings,8.5,DJG Sammy,BMAJ Mendis,KC Sangakkara,0,0,na,na
2nd innings,8.6,DJG Sammy,BMAJ Mendis,KC Sangakkara,1,1,na,na
2nd innings,9.1,DJG Sammy,J Botha,KC Sangakkara,0,0,na,na
2nd innings,9.2,DJG Sammy,J Botha,KC Sangakkara,1,1,na,na
2nd innings,9.3,KC Sangakkara,J Botha,DJG Sammy,0,0,na,na
2nd innings,9.4,KC Sangakkara,J Botha,DJG Sammy,1,1,na,na
2nd innings,9.5,DJG Sammy,J Botha,KC Sangakkara,1,1,na,na
2nd innings,9.6,KC Sangakkara,J Botha,DJG Sammy,0,0,na,na
2nd innings,10.1,DJG Sammy,S Nadeem,KC Sangakkara,0,0,na,na
2nd innings,10.2,DJG Sammy,S Nadeem,KC Sangakkara,1,1,na,na
2nd innings,10.3,KC Sangakkara,S Nadeem,DJG Sammy,0,0,na,na
2nd innings,10.4,KC Sangakkara,S Nadeem,DJG Sammy,1,1,na,na
2nd innings,10.5,DJG Sammy,S Nadeem,KC Sangakkara,2,2,na,na
2nd innings,10.6,DJG Sammy,S Nadeem,KC Sangakkara,0,0,na,na
2nd innings,11.1,KC Sangakkara,J Botha,DJG Sammy,1,1,na,na
2nd innings,11.2,DJG Sammy,J Botha,KC Sangakkara,0,0,na,"{'fielders': ['UT Yadav'], 'kind': 'caught', 'player_out': 'KC Sangakkara'}"
2nd innings,11.3,GH Vihari,J Botha,DJG Sammy,0,0,na,na
2nd innings,11.4,GH Vihari,J Botha,DJG Sammy,1,1,na,na
2nd innings,11.5,DJG Sammy,J Botha,GH Vihari,1,0,{'wides': 1},na
2nd innings,11.6,DJG Sammy,J Botha,GH Vihari,0,0,na,na
2nd innings,11.7,DJG Sammy,J Botha,GH Vihari,2,2,na,na
2nd innings,12.1,GH Vihari,BMAJ Mendis,DJG Sammy,1,1,na,na
2nd innings,12.2,DJG Sammy,BMAJ Mendis,GH Vihari,0,0,na,na
2nd innings,12.3,DJG Sammy,BMAJ Mendis,GH Vihari,1,1,na,na
2nd innings,12.4,GH Vihari,BMAJ Mendis,DJG Sammy,0,0,na,na
2nd innings,12.5,GH Vihari,BMAJ Mendis,DJG Sammy,6,6,na,na
2nd innings,12.6,GH Vihari,BMAJ Mendis,DJG Sammy,0,0,na,na
2nd innings,13.1,DJG Sammy,UT Yadav,GH Vihari,0,0,na,na
2nd innings,13.2,DJG Sammy,UT Yadav,GH Vihari,4,4,na,na
2nd innings,13.3,DJG Sammy,UT Yadav,GH Vihari,1,0,{'wides': 1},na
2nd innings,13.4,DJG Sammy,UT Yadav,GH Vihari,0,0,na,na
2nd innings,13.5,DJG Sammy,UT Yadav,GH Vihari,0,0,na,na
2nd innings,13.6,DJG Sammy,UT Yadav,GH Vihari,4,4,na,na
