innings,deliveries,non_striker,bowler,batsman,total_runs,batsman_runs,extras,wickets
1st innings,0.1,AM Rahane,B Lee,SR Watson,0,0,na,na
1st innings,0.2,AM Rahane,B Lee,SR Watson,0,0,na,na
1st innings,0.3,AM Rahane,B Lee,SR Watson,0,0,na,na
1st innings,0.4,AM Rahane,B Lee,SR Watson,1,0,{'wides': 1},na
1st innings,0.5,AM Rahane,B Lee,SR Watson,0,0,na,na
1st innings,0.6,AM Rahane,B Lee,SR Watson,0,0,na,na
1st innings,0.7,AM Rahane,B Lee,SR Watson,0,0,na,na
1st innings,1.1,SR Watson,Mohammed Shami,AM Rahane,0,0,na,na
1st innings,1.2,SR Watson,Mohammed Shami,AM Rahane,1,1,na,na
1st innings,1.3,AM Rahane,Mohammed Shami,SR Watson,1,1,na,na
1st innings,1.4,SR Watson,Mohammed Shami,AM Rahane,2,2,na,na
1st innings,1.5,SR Watson,Mohammed Shami,AM Rahane,1,1,na,na
1st innings,1.6,AM Rahane,Mohammed Shami,SR Watson,0,0,na,na
1st innings,2.1,SR Watson,B Lee,AM Rahane,1,0,{'legbyes': 1},na
1st innings,2.2,AM Rahane,B Lee,SR Watson,4,4,na,na
1st innings,2.3,AM Rahane,B Lee,SR Watson,0,0,na,"{'fielders': ['EJG Morgan'], 'kind': 'caught', 'player_out': 'SR Watson'}"
1st innings,2.4,AM Rahane,B Lee,R Dravid,0,0,na,na
1st innings,2.5,AM Rahane,B Lee,R Dravid,1,1,na,na
1st innings,2.6,R Dravid,B Lee,AM Rahane,1,1,na,na
1st innings,3.1,R Dravid,Mohammed Shami,AM Rahane,0,0,na,na
1st innings,3.2,R Dravid,Mohammed Shami,AM Rahane,4,4,na,na
1st innings,3.3,R Dravid,Mohammed Shami,AM Rahane,4,4,na,na
1st innings,3.4,R Dravid,Mohammed Shami,AM Rahane,0,0,na,na
1st innings,3.5,R Dravid,Mohammed Shami,AM Rahane,0,0,na,na
1st innings,3.6,R Dravid,Mohammed Shami,AM Rahane,0,0,na,na
1st innings,4.1,AM Rahane,B Lee,R Dravid,0,0,na,na
1st innings,4.2,AM Rahane,B Lee,R Dravid,0,0,na,na
1st innings,4.3,AM Rahane,B Lee,R Dravid,0,0,na,na
1st innings,4.4,AM Rahane,B Lee,R Dravid,2,2,na,na
1st innings,4.5,AM Rahane,B Lee,R Dravid,0,0,na,na
1st innings,4.6,AM Rahane,B Lee,R Dravid,4,4,na,na
1st innings,5.1,R Dravid,SP Narine,AM Rahane,1,1,na,na
1st innings,5.2,AM Rahane,SP Narine,R Dravid,0,0,na,na
1st innings,5.3,AM Rahane,SP Narine,R Dravid,2,2,na,na
1st innings,5.4,AM Rahane,SP Narine,R Dravid,0,0,na,na
1st innings,5.5,AM Rahane,SP Narine,R Dravid,1,1,na,na
1st innings,5.6,R Dravid,SP Narine,AM Rahane,4,4,na,na
1st innings,6.1,AM Rahane,JH Kallis,R Dravid,0,0,na,na
1st innings,6.2,AM Rahane,JH Kallis,R Dravid,0,0,na,na
1st innings,6.3,AM Rahane,JH Kallis,R Dravid,1,0,{'legbyes': 1},na
1st innings,6.4,R Dravid,JH Kallis,AM Rahane,1,1,na,na
1st innings,6.5,AM Rahane,JH Kallis,R Dravid,4,4,na,na
1st innings,6.6,AM Rahane,JH Kallis,R Dravid,1,1,na,na
1st innings,7.1,AM Rahane,R Bhatia,R Dravid,1,1,na,na
1st innings,7.2,R Dravid,R Bhatia,AM Rahane,1,1,na,na
1st innings,7.3,AM Rahane,R Bhatia,R Dravid,1,1,na,na
1st innings,7.4,R Dravid,R Bhatia,AM Rahane,1,1,na,na
1st innings,7.5,AM Rahane,R Bhatia,R Dravid,0,0,na,"{'kind': 'bowled', 'player_out': 'R Dravid'}"
1st innings,7.6,AM Rahane,R Bhatia,STR Binny,0,0,na,na
1st innings,8.1,STR Binny,JH Kallis,AM Rahane,1,1,na,na
1st innings,8.2,AM Rahane,JH Kallis,STR Binny,0,0,na,na
1st innings,8.3,AM Rahane,JH Kallis,STR Binny,1,1,na,na
1st innings,8.4,STR Binny,JH Kallis,AM Rahane,1,1,na,na
1st innings,8.5,AM Rahane,JH Kallis,STR Binny,0,0,na,na
1st innings,8.6,AM Rahane,JH Kallis,STR Binny,4,4,na,na
1st innings,9.1,STR Binny,R Bhatia,AM Rahane,1,1,na,na
1st innings,9.2,AM Rahane,R Bhatia,STR Binny,4,4,na,na
1st innings,9.3,AM Rahane,R Bhatia,STR Binny,0,0,na,na
1st innings,9.4,AM Rahane,R Bhatia,STR Binny,4,4,na,na
1st innings,9.5,AM Rahane,R Bhatia,STR Binny,0,0,na,na
1st innings,9.6,AM Rahane,R Bhatia,STR Binny,1,1,na,na
1st innings,10.1,AM Rahane,LR Shukla,STR Binny,0,0,na,"{'kind': 'lbw', 'player_out': 'STR Binny'}"
1st innings,10.2,AM Rahane,LR Shukla,BJ Hodge,4,4,na,na
1st innings,10.3,AM Rahane,LR Shukla,BJ Hodge,0,0,na,na
1st innings,10.4,AM Rahane,LR Shukla,BJ Hodge,0,0,na,na
1st innings,10.5,AM Rahane,LR Shukla,BJ Hodge,0,0,na,na
1st innings,10.6,AM Rahane,LR Shukla,BJ Hodge,0,0,na,na
1st innings,11.1,BJ Hodge,SP Narine,AM Rahane,1,1,na,na
1st innings,11.2,AM Rahane,SP Narine,BJ Hodge,0,0,na,na
1st innings,11.3,AM Rahane,SP Narine,BJ Hodge,1,1,na,na
1st innings,11.4,BJ Hodge,SP Narine,AM Rahane,0,0,na,na
1st innings,11.5,BJ Hodge,SP Narine,AM Rahane,0,0,na,na
1st innings,11.6,BJ Hodge,SP Narine,AM Rahane,0,0,na,na
1st innings,12.1,AM Rahane,LR Shukla,BJ Hodge,1,1,na,na
1st innings,12.2,BJ Hodge,LR Shukla,AM Rahane,1,1,na,na
1st innings,12.3,AM Rahane,LR Shukla,BJ Hodge,2,2,na,na
1st innings,12.4,AM Rahane,LR Shukla,BJ Hodge,4,4,na,na
1st innings,12.5,AM Rahane,LR Shukla,BJ Hodge,1,1,na,na
1st innings,12.6,BJ Hodge,LR Shukla,AM Rahane,1,1,na,na
1st innings,13.1,BJ Hodge,R Bhatia,AM Rahane,0,0,na,na
1st innings,13.2,BJ Hodge,R Bhatia,AM Rahane,1,1,na,na
1st innings,13.3,AM Rahane,R Bhatia,BJ Hodge,4,4,na,na
1st innings,13.4,AM Rahane,R Bhatia,BJ Hodge,1,1,na,na
1st innings,13.5,BJ Hodge,R Bhatia,AM Rahane,0,0,na,na
1st innings,13.6,BJ Hodge,R Bhatia,AM Rahane,1,1,na,na
1st innings,14.1,BJ Hodge,Mohammed Shami,AM Rahane,6,6,na,na
1st innings,14.2,BJ Hodge,Mohammed Shami,AM Rahane,1,0,{'legbyes': 1},na
1st innings,14.3,AM Rahane,Mohammed Shami,BJ Hodge,1,1,na,na
1st innings,14.4,BJ Hodge,Mohammed Shami,AM Rahane,1,1,na,na
1st innings,14.5,AM Rahane,Mohammed Shami,BJ Hodge,4,4,na,na
1st innings,14.6,AM Rahane,Mohammed Shami,BJ Hodge,1,1,na,na
1st innings,15.1,AM Rahane,SP Narine,BJ Hodge,1,1,na,na
1st innings,15.2,BJ Hodge,SP Narine,AM Rahane,0,0,na,"{'fielders': ['MS Bisla'], 'kind': 'caught', 'player_out': 'AM Rahane'}"
1st innings,15.3,BJ Hodge,SP Narine,KK Cooper,0,0,na,na
1st innings,15.4,BJ Hodge,SP Narine,KK Cooper,0,0,na,"{'fielders': ['MS Bisla'], 'kind': 'stumped', 'player_out': 'KK Cooper'}"
1st innings,15.5,BJ Hodge,SP Narine,DH Yagnik,0,0,na,na
1st innings,15.6,BJ Hodge,SP Narine,DH Yagnik,0,0,na,na
1st innings,16.1,DH Yagnik,JH Kallis,BJ Hodge,1,1,na,na
1st innings,16.2,BJ Hodge,JH Kallis,DH Yagnik,1,1,na,na
1st innings,16.3,DH Yagnik,JH Kallis,BJ Hodge,1,0,{'legbyes': 1},na
1st innings,16.4,BJ Hodge,JH Kallis,DH Yagnik,1,1,na,na
1st innings,16.5,DH Yagnik,JH Kallis,BJ Hodge,1,1,na,na
1st innings,16.6,BJ Hodge,JH Kallis,DH Yagnik,0,0,na,na
1st innings,17.1,DH Yagnik,B Lee,BJ Hodge,0,0,na,na
1st innings,17.2,DH Yagnik,B Lee,BJ Hodge,1,1,na,na
1st innings,17.3,BJ Hodge,B Lee,DH Yagnik,2,2,na,na
1st innings,17.4,BJ Hodge,B Lee,DH Yagnik,1,0,{'legbyes': 1},na
1st innings,17.5,DH Yagnik,B Lee,BJ Hodge,4,4,na,na
1st innings,17.6,DH Yagnik,B Lee,BJ Hodge,0,0,na,na
1st innings,18.1,BJ Hodge,SP Narine,DH Yagnik,2,2,na,na
1st innings,18.2,BJ Hodge,SP Narine,DH Yagnik,1,0,{'legbyes': 1},na
1st innings,18.3,DH Yagnik,SP Narine,BJ Hodge,4,4,na,na
1st innings,18.4,DH Yagnik,SP Narine,BJ Hodge,1,1,na,na
1st innings,18.5,BJ Hodge,SP Narine,DH Yagnik,6,6,na,na
1st innings,18.6,BJ Hodge,SP Narine,DH Yagnik,4,4,na,na
1st innings,19.1,DH Yagnik,JH Kallis,BJ Hodge,4,4,na,na
1st innings,19.2,DH Yagnik,JH Kallis,BJ Hodge,1,1,na,"{'fielders': ['Mohammed Shami', 'MS Bisla'], 'kind': 'run out', 'player_out': 'DH Yagnik'}"
1st innings,19.3,BJ Hodge,JH Kallis,S Sreesanth,1,0,{'byes': 1},na
1st innings,19.4,S Sreesanth,JH Kallis,BJ Hodge,2,1,{'noballs': 1},na
1st innings,19.5,BJ Hodge,JH Kallis,S Sreesanth,1,1,na,na
1st innings,19.6,S Sreesanth,JH Kallis,BJ Hodge,2,2,na,na
1st innings,19.7,S Sreesanth,JH Kallis,BJ Hodge,1,1,na,na
2nd innings,0.1,G Gambhir,S Sreesanth,MS Bisla,1,0,{'legbyes': 1},na
2nd innings,0.2,MS Bisla,S Sreesanth,G Gambhir,4,4,na,na
2nd innings,0.3,MS Bisla,S Sreesanth,G Gambhir,0,0,na,na
2nd innings,0.4,MS Bisla,S Sreesanth,G Gambhir,6,6,na,na
2nd innings,0.5,MS Bisla,S Sreesanth,G Gambhir,2,2,na,na
2nd innings,0.6,MS Bisla,S Sreesanth,G Gambhir,1,0,{'wides': 1},na
2nd innings,0.7,MS Bisla,S Sreesanth,G Gambhir,0,0,na,na
2nd innings,1.1,G Gambhir,SW Tait,MS Bisla,1,0,{'wides': 1},na
2nd innings,1.2,G Gambhir,SW Tait,MS Bisla,1,0,{'wides': 1},na
2nd innings,1.3,G Gambhir,SW Tait,MS Bisla,0,0,na,na
2nd innings,1.4,G Gambhir,SW Tait,MS Bisla,1,1,na,na
2nd innings,1.5,MS Bisla,SW Tait,G Gambhir,0,0,na,na
2nd innings,1.6,MS Bisla,SW Tait,G Gambhir,0,0,na,na
2nd innings,1.7,MS Bisla,SW Tait,G Gambhir,0,0,na,na
2nd innings,1.8,MS Bisla,SW Tait,G Gambhir,1,1,na,na
2nd innings,2.1,MS Bisla,R Shukla,G Gambhir,1,1,na,na
2nd innings,2.2,G Gambhir,R Shukla,MS Bisla,0,0,na,"{'kind': 'bowled', 'player_out': 'MS Bisla'}"
2nd innings,2.3,G Gambhir,R Shukla,JH Kallis,1,0,{'wides': 1},na
2nd innings,2.4,G Gambhir,R Shukla,JH Kallis,0,0,na,"{'fielders': ['DH Yagnik'], 'kind': 'caught', 'player_out': 'JH Kallis'}"
2nd innings,2.5,G Gambhir,R Shukla,MK Tiwary,3,3,na,na
2nd innings,2.6,MK Tiwary,R Shukla,G Gambhir,0,0,na,na
2nd innings,2.7,MK Tiwary,R Shukla,G Gambhir,0,0,na,na
2nd innings,3.1,G Gambhir,SW Tait,MK Tiwary,0,0,na,na
2nd innings,3.2,G Gambhir,SW Tait,MK Tiwary,1,1,na,na
2nd innings,3.3,MK Tiwary,SW Tait,G Gambhir,1,1,na,na
2nd innings,3.4,G Gambhir,SW Tait,MK Tiwary,0,0,na,na
2nd innings,3.5,G Gambhir,SW Tait,MK Tiwary,1,1,na,na
2nd innings,3.6,MK Tiwary,SW Tait,G Gambhir,0,0,na,na
2nd innings,4.1,G Gambhir,R Shukla,MK Tiwary,0,0,na,na
2nd innings,4.2,G Gambhir,R Shukla,MK Tiwary,2,2,na,na
2nd innings,4.3,G Gambhir,R Shukla,MK Tiwary,4,4,na,na
2nd innings,4.4,G Gambhir,R Shukla,MK Tiwary,1,1,na,na
2nd innings,4.5,MK Tiwary,R Shukla,G Gambhir,2,2,na,na
2nd innings,4.6,MK Tiwary,R Shukla,G Gambhir,1,1,na,na
2nd innings,5.1,MK Tiwary,KK Cooper,G Gambhir,0,0,na,na
2nd innings,5.2,MK Tiwary,KK Cooper,G Gambhir,1,1,na,na
2nd innings,5.3,G Gambhir,KK Cooper,MK Tiwary,0,0,na,na
2nd innings,5.4,G Gambhir,KK Cooper,MK Tiwary,1,1,na,na
2nd innings,5.5,MK Tiwary,KK Cooper,G Gambhir,1,1,na,na
2nd innings,5.6,G Gambhir,KK Cooper,MK Tiwary,1,1,na,na
2nd innings,6.1,G Gambhir,SK Trivedi,MK Tiwary,0,0,na,"{'kind': 'lbw', 'player_out': 'MK Tiwary'}"
2nd innings,6.2,G Gambhir,SK Trivedi,EJG Morgan,1,1,na,na
2nd innings,6.3,EJG Morgan,SK Trivedi,G Gambhir,0,0,na,na
2nd innings,6.4,EJG Morgan,SK Trivedi,G Gambhir,2,2,na,na
2nd innings,6.5,EJG Morgan,SK Trivedi,G Gambhir,0,0,na,"{'fielders': ['DH Yagnik'], 'kind': 'caught', 'player_out': 'G Gambhir'}"
2nd innings,6.6,EJG Morgan,SK Trivedi,YK Pathan,0,0,na,na
2nd innings,7.1,YK Pathan,KK Cooper,EJG Morgan,0,0,na,na
2nd innings,7.2,YK Pathan,KK Cooper,EJG Morgan,1,1,na,na
2nd innings,7.3,EJG Morgan,KK Cooper,YK Pathan,0,0,na,"{'fielders': ['DH Yagnik'], 'kind': 'caught', 'player_out': 'YK Pathan'}"
2nd innings,7.4,EJG Morgan,KK Cooper,LR Shukla,1,0,{'wides': 1},na
2nd innings,7.5,EJG Morgan,KK Cooper,LR Shukla,1,1,na,na
2nd innings,7.6,LR Shukla,KK Cooper,EJG Morgan,0,0,na,na
2nd innings,7.7,LR Shukla,KK Cooper,EJG Morgan,0,0,na,na
2nd innings,8.1,EJG Morgan,SK Trivedi,LR Shukla,0,0,na,na
2nd innings,8.2,EJG Morgan,SK Trivedi,LR Shukla,1,1,na,na
2nd innings,8.3,LR Shukla,SK Trivedi,EJG Morgan,2,2,na,na
2nd innings,8.4,LR Shukla,SK Trivedi,EJG Morgan,1,1,na,na
2nd innings,8.5,EJG Morgan,SK Trivedi,LR Shukla,0,0,na,na
2nd innings,8.6,EJG Morgan,SK Trivedi,LR Shukla,0,0,na,na
2nd innings,9.1,LR Shukla,S Sreesanth,EJG Morgan,0,0,na,na
2nd innings,9.2,LR Shukla,S Sreesanth,EJG Morgan,4,0,{'legbyes': 4},na
2nd innings,9.3,LR Shukla,S Sreesanth,EJG Morgan,0,0,na,na
2nd innings,9.4,LR Shukla,S Sreesanth,EJG Morgan,0,0,na,na
2nd innings,9.5,LR Shukla,S Sreesanth,EJG Morgan,1,1,na,na
2nd innings,9.6,EJG Morgan,S Sreesanth,LR Shukla,0,0,na,na
2nd innings,10.1,LR Shukla,SK Trivedi,EJG Morgan,0,0,na,na
2nd innings,10.2,LR Shukla,SK Trivedi,EJG Morgan,0,0,na,na
2nd innings,10.3,LR Shukla,SK Trivedi,EJG Morgan,1,1,na,na
2nd innings,10.4,EJG Morgan,SK Trivedi,LR Shukla,0,0,na,na
2nd innings,10.5,EJG Morgan,SK Trivedi,LR Shukla,0,0,na,na
2nd innings,10.6,EJG Morgan,SK Trivedi,LR Shukla,0,0,na,"{'fielders': ['R Shukla'], 'kind': 'caught', 'player_out': 'LR Shukla'}"
2nd innings,11.1,EJG Morgan,S Sreesanth,R Bhatia,0,0,na,na
2nd innings,11.2,EJG Morgan,S Sreesanth,R Bhatia,4,4,na,na
2nd innings,11.3,EJG Morgan,S Sreesanth,R Bhatia,1,1,na,na
2nd innings,11.4,R Bhatia,S Sreesanth,EJG Morgan,0,0,na,na
2nd innings,11.5,R Bhatia,S Sreesanth,EJG Morgan,0,0,na,na
2nd innings,11.6,R Bhatia,S Sreesanth,EJG Morgan,1,1,na,na
2nd innings,12.1,R Bhatia,SK Trivedi,EJG Morgan,6,6,na,na
2nd innings,12.2,R Bhatia,SK Trivedi,EJG Morgan,1,1,na,na
2nd innings,12.3,EJG Morgan,SK Trivedi,R Bhatia,1,1,na,na
2nd innings,12.4,R Bhatia,SK Trivedi,EJG Morgan,1,1,na,na
2nd innings,12.5,EJG Morgan,SK Trivedi,R Bhatia,4,4,na,na
2nd innings,12.6,EJG Morgan,SK Trivedi,R Bhatia,2,2,na,na
2nd innings,13.1,R Bhatia,R Shukla,EJG Morgan,4,4,na,na
2nd innings,13.2,R Bhatia,R Shukla,EJG Morgan,0,0,na,na
2nd innings,13.3,R Bhatia,R Shukla,EJG Morgan,2,2,na,na
2nd innings,13.4,R Bhatia,R Shukla,EJG Morgan,6,6,na,na
2nd innings,13.5,R Bhatia,R Shukla,EJG Morgan,1,0,{'wides': 1},na
2nd innings,13.6,R Bhatia,R Shukla,EJG Morgan,0,0,na,na
2nd innings,13.7,R Bhatia,R Shukla,EJG Morgan,0,0,na,na
2nd innings,14.1,EJG Morgan,SW Tait,R Bhatia,0,0,na,"{'fielders': ['STR Binny'], 'kind': 'caught', 'player_out': 'R Bhatia'}"
2nd innings,14.2,EJG Morgan,SW Tait,B Lee,0,0,na,na
2nd innings,14.3,EJG Morgan,SW Tait,B Lee,0,0,na,na
2nd innings,14.4,EJG Morgan,SW Tait,B Lee,1,1,na,na
2nd innings,14.5,B Lee,SW Tait,EJG Morgan,4,4,na,na
2nd innings,14.6,B Lee,SW Tait,EJG Morgan,4,4,na,na
2nd innings,15.1,EJG Morgan,S Sreesanth,B Lee,0,0,na,na
2nd innings,15.2,EJG Morgan,S Sreesanth,B Lee,4,4,na,na
2nd innings,15.3,EJG Morgan,S Sreesanth,B Lee,0,0,na,"{'fielders': ['R Shukla'], 'kind': 'caught', 'player_out': 'B Lee'}"
2nd innings,15.4,Mohammed Shami,S Sreesanth,EJG Morgan,1,1,na,na
2nd innings,15.5,EJG Morgan,S Sreesanth,Mohammed Shami,0,0,na,na
2nd innings,15.6,EJG Morgan,S Sreesanth,Mohammed Shami,0,0,na,na
2nd innings,16.1,Mohammed Shami,KK Cooper,EJG Morgan,2,2,na,na
2nd innings,16.2,Mohammed Shami,KK Cooper,EJG Morgan,1,1,na,na
2nd innings,16.3,EJG Morgan,KK Cooper,Mohammed Shami,1,1,na,na
2nd innings,16.4,Mohammed Shami,KK Cooper,EJG Morgan,1,1,na,na
2nd innings,16.5,EJG Morgan,KK Cooper,Mohammed Shami,0,0,na,na
2nd innings,16.6,EJG Morgan,KK Cooper,Mohammed Shami,0,0,na,na
2nd innings,17.1,Mohammed Shami,SW Tait,EJG Morgan,3,3,na,na
2nd innings,17.2,EJG Morgan,SW Tait,Mohammed Shami,1,1,na,na
2nd innings,17.3,Mohammed Shami,SW Tait,EJG Morgan,6,6,na,na
2nd innings,17.4,Mohammed Shami,SW Tait,EJG Morgan,0,0,na,na
2nd innings,17.5,Mohammed Shami,SW Tait,EJG Morgan,1,1,na,na
2nd innings,17.6,EJG Morgan,SW Tait,Mohammed Shami,2,2,na,na
2nd innings,18.1,Mohammed Shami,KK Cooper,EJG Morgan,0,0,na,"{'kind': 'bowled', 'player_out': 'EJG Morgan'}"
2nd innings,18.2,Mohammed Shami,KK Cooper,SP Narine,1,1,na,na
2nd innings,18.3,SP Narine,KK Cooper,Mohammed Shami,0,0,na,na
2nd innings,18.4,SP Narine,KK Cooper,Mohammed Shami,1,1,na,na
2nd innings,18.5,Mohammed Shami,KK Cooper,SP Narine,1,1,na,na
2nd innings,18.6,SP Narine,KK Cooper,Mohammed Shami,0,0,na,"{'fielders': ['AM Rahane'], 'kind': 'caught', 'player_out': 'Mohammed Shami'}"
