innings,deliveries,non_striker,bowler,batsman,total_runs,batsman_runs,extras,wickets
1st innings,0.1,Mandeep Singh,L Balaji,AC Gilchrist,1,0,{'wides': 1},na
1st innings,0.2,Mandeep Singh,L Balaji,AC Gilchrist,0,0,na,na
1st innings,0.3,Mandeep Singh,L Balaji,AC Gilchrist,0,0,na,na
1st innings,0.4,Mandeep Singh,L Balaji,AC Gilchrist,0,0,na,na
1st innings,0.5,Mandeep Singh,L Balaji,AC Gilchrist,0,0,na,na
1st innings,0.6,Mandeep Singh,L Balaji,AC Gilchrist,0,0,na,na
1st innings,0.7,Mandeep Singh,L Balaji,AC Gilchrist,0,0,na,na
1st innings,1.1,AC Gilchrist,JH Kallis,Mandeep Singh,0,0,na,na
1st innings,1.2,AC Gilchrist,JH Kallis,Mandeep Singh,0,0,na,na
1st innings,1.3,AC Gilchrist,JH Kallis,Mandeep Singh,4,4,na,na
1st innings,1.4,AC Gilchrist,JH Kallis,Mandeep Singh,1,1,na,na
1st innings,1.5,Mandeep Singh,JH Kallis,AC Gilchrist,1,1,na,na
1st innings,1.6,AC Gilchrist,JH Kallis,Mandeep Singh,0,0,na,na
1st innings,2.1,Mandeep Singh,L Balaji,AC Gilchrist,0,0,na,na
1st innings,2.2,Mandeep Singh,L Balaji,AC Gilchrist,4,4,na,na
1st innings,2.3,Mandeep Singh,L Balaji,AC Gilchrist,1,1,na,na
1st innings,2.4,AC Gilchrist,L Balaji,Mandeep Singh,4,4,na,na
1st innings,2.5,AC Gilchrist,L Balaji,Mandeep Singh,4,4,na,na
1st innings,2.6,AC Gilchrist,L Balaji,Mandeep Singh,1,1,na,na
1st innings,3.1,AC Gilchrist,SMSM Senanayake,Mandeep Singh,1,1,na,na
1st innings,3.2,Mandeep Singh,SMSM Senanayake,AC Gilchrist,1,1,na,na
1st innings,3.3,AC Gilchrist,SMSM Senanayake,Mandeep Singh,0,0,na,na
1st innings,3.4,AC Gilchrist,SMSM Senanayake,Mandeep Singh,1,1,na,na
1st innings,3.5,Mandeep Singh,SMSM Senanayake,AC Gilchrist,0,0,na,"{'kind': 'lbw', 'player_out': 'AC Gilchrist'}"
1st innings,3.6,Mandeep Singh,SMSM Senanayake,M Vohra,1,1,na,na
1st innings,4.1,Mandeep Singh,SP Narine,M Vohra,0,0,na,na
1st innings,4.2,Mandeep Singh,SP Narine,M Vohra,0,0,na,na
1st innings,4.3,Mandeep Singh,SP Narine,M Vohra,0,0,na,na
1st innings,4.4,Mandeep Singh,SP Narine,M Vohra,4,4,na,na
1st innings,4.5,Mandeep Singh,SP Narine,M Vohra,0,0,na,na
1st innings,4.6,Mandeep Singh,SP Narine,M Vohra,0,0,na,na
1st innings,5.1,M Vohra,SMSM Senanayake,Mandeep Singh,4,4,na,na
1st innings,5.2,M Vohra,SMSM Senanayake,Mandeep Singh,0,0,na,na
1st innings,5.3,M Vohra,SMSM Senanayake,Mandeep Singh,0,0,na,na
1st innings,5.4,M Vohra,SMSM Senanayake,Mandeep Singh,0,0,na,na
1st innings,5.5,M Vohra,SMSM Senanayake,Mandeep Singh,1,1,na,na
1st innings,5.6,Mandeep Singh,SMSM Senanayake,M Vohra,1,1,na,na
1st innings,6.1,Mandeep Singh,JH Kallis,M Vohra,1,1,na,na
1st innings,6.2,M Vohra,JH Kallis,Mandeep Singh,1,1,na,na
1st innings,6.3,Mandeep Singh,JH Kallis,M Vohra,4,4,na,na
1st innings,6.4,Mandeep Singh,JH Kallis,M Vohra,1,1,na,na
1st innings,6.5,M Vohra,JH Kallis,Mandeep Singh,1,1,na,na
1st innings,6.6,Mandeep Singh,JH Kallis,M Vohra,1,1,na,na
1st innings,7.1,Mandeep Singh,R Bhatia,M Vohra,1,1,na,na
1st innings,7.2,M Vohra,R Bhatia,Mandeep Singh,1,0,{'legbyes': 1},na
1st innings,7.3,Mandeep Singh,R Bhatia,M Vohra,1,1,na,na
1st innings,7.4,M Vohra,R Bhatia,Mandeep Singh,4,4,na,na
1st innings,7.5,M Vohra,R Bhatia,Mandeep Singh,1,1,na,na
1st innings,7.6,Mandeep Singh,R Bhatia,M Vohra,2,2,na,na
1st innings,8.1,M Vohra,L Balaji,Mandeep Singh,4,4,na,na
1st innings,8.2,M Vohra,L Balaji,Mandeep Singh,2,2,na,na
1st innings,8.3,M Vohra,L Balaji,Mandeep Singh,1,1,na,na
1st innings,8.4,Mandeep Singh,L Balaji,M Vohra,0,0,na,"{'kind': 'caught and bowled', 'player_out': 'M Vohra'}"
1st innings,8.5,Mandeep Singh,L Balaji,DJ Hussey,1,1,na,na
1st innings,8.6,DJ Hussey,L Balaji,Mandeep Singh,1,1,na,na
1st innings,9.1,DJ Hussey,R Bhatia,Mandeep Singh,1,1,na,na
1st innings,9.2,Mandeep Singh,R Bhatia,DJ Hussey,1,1,na,na
1st innings,9.3,DJ Hussey,R Bhatia,Mandeep Singh,2,2,na,na
1st innings,9.4,DJ Hussey,R Bhatia,Mandeep Singh,1,1,na,na
1st innings,9.5,Mandeep Singh,R Bhatia,DJ Hussey,1,1,na,na
1st innings,9.6,DJ Hussey,R Bhatia,Mandeep Singh,1,1,na,na
1st innings,10.1,DJ Hussey,JH Kallis,Mandeep Singh,0,0,na,"{'fielders': ['MS Bisla'], 'kind': 'caught', 'player_out': 'Mandeep Singh'}"
1st innings,10.2,DJ Hussey,JH Kallis,DA Miller,0,0,na,na
1st innings,10.3,DJ Hussey,JH Kallis,DA Miller,1,1,na,na
1st innings,10.4,DA Miller,JH Kallis,DJ Hussey,0,0,na,na
1st innings,10.5,DA Miller,JH Kallis,DJ Hussey,1,1,na,na
1st innings,10.6,DJ Hussey,JH Kallis,DA Miller,1,1,na,na
1st innings,11.1,DJ Hussey,R Bhatia,DA Miller,1,1,na,na
1st innings,11.2,DA Miller,R Bhatia,DJ Hussey,1,1,na,na
1st innings,11.3,DJ Hussey,R Bhatia,DA Miller,1,1,na,na
1st innings,11.4,DA Miller,R Bhatia,DJ Hussey,0,0,na,na
1st innings,11.5,DA Miller,R Bhatia,DJ Hussey,1,1,na,na
1st innings,11.6,DJ Hussey,R Bhatia,DA Miller,1,1,na,na
1st innings,12.1,DJ Hussey,SMSM Senanayake,DA Miller,2,2,na,na
1st innings,12.2,DJ Hussey,SMSM Senanayake,DA Miller,1,1,na,na
1st innings,12.3,DA Miller,SMSM Senanayake,DJ Hussey,2,2,na,na
1st innings,12.4,DA Miller,SMSM Senanayake,DJ Hussey,1,1,na,na
1st innings,12.5,DJ Hussey,SMSM Senanayake,DA Miller,0,0,na,na
1st innings,12.6,DJ Hussey,SMSM Senanayake,DA Miller,2,2,na,na
1st innings,13.1,DA Miller,R Bhatia,DJ Hussey,1,0,{'legbyes': 1},na
1st innings,13.2,DJ Hussey,R Bhatia,DA Miller,4,4,na,na
1st innings,13.3,DJ Hussey,R Bhatia,DA Miller,1,1,na,na
1st innings,13.4,DA Miller,R Bhatia,DJ Hussey,2,2,na,na
1st innings,13.5,DA Miller,R Bhatia,DJ Hussey,1,1,na,na
1st innings,13.6,DJ Hussey,R Bhatia,DA Miller,1,1,na,na
1st innings,14.1,DJ Hussey,SP Narine,DA Miller,2,2,na,na
1st innings,14.2,DJ Hussey,SP Narine,DA Miller,1,1,na,na
1st innings,14.3,DA Miller,SP Narine,DJ Hussey,0,0,na,na
1st innings,14.4,DA Miller,SP Narine,DJ Hussey,0,0,na,"{'fielders': ['MS Bisla'], 'kind': 'caught', 'player_out': 'DJ Hussey'}"
1st innings,14.5,DA Miller,SP Narine,Azhar Mahmood,0,0,na,"{'kind': 'caught and bowled', 'player_out': 'Azhar Mahmood'}"
1st innings,14.6,DA Miller,SP Narine,Gurkeerat Singh,0,0,na,"{'kind': 'bowled', 'player_out': 'Gurkeerat Singh'}"
1st innings,15.1,MS Gony,SMSM Senanayake,DA Miller,1,1,na,na
1st innings,15.2,DA Miller,SMSM Senanayake,MS Gony,4,4,na,na
1st innings,15.3,DA Miller,SMSM Senanayake,MS Gony,0,0,na,na
1st innings,15.4,DA Miller,SMSM Senanayake,MS Gony,4,4,na,na
1st innings,15.5,DA Miller,SMSM Senanayake,MS Gony,1,1,na,na
1st innings,15.6,MS Gony,SMSM Senanayake,DA Miller,0,0,na,"{'kind': 'bowled', 'player_out': 'DA Miller'}"
1st innings,16.1,PP Chawla,SP Narine,MS Gony,1,1,na,na
1st innings,16.2,MS Gony,SP Narine,PP Chawla,0,0,na,na
1st innings,16.3,MS Gony,SP Narine,PP Chawla,1,1,na,na
1st innings,16.4,PP Chawla,SP Narine,MS Gony,0,0,na,na
1st innings,16.5,PP Chawla,SP Narine,MS Gony,1,1,na,na
1st innings,16.6,MS Gony,SP Narine,PP Chawla,0,0,na,na
1st innings,17.1,PP Chawla,L Balaji,MS Gony,6,6,na,na
1st innings,17.2,PP Chawla,L Balaji,MS Gony,2,2,na,na
1st innings,17.3,PP Chawla,L Balaji,MS Gony,0,0,na,na
1st innings,17.4,PP Chawla,L Balaji,MS Gony,4,4,na,na
1st innings,17.5,PP Chawla,L Balaji,MS Gony,0,0,na,na
1st innings,17.6,PP Chawla,L Balaji,MS Gony,1,0,{'wides': 1},na
1st innings,17.7,PP Chawla,L Balaji,MS Gony,2,2,na,na
1st innings,18.1,MS Gony,SP Narine,PP Chawla,4,4,na,na
1st innings,18.2,MS Gony,SP Narine,PP Chawla,1,0,{'wides': 1},na
1st innings,18.3,MS Gony,SP Narine,PP Chawla,1,1,na,na
1st innings,18.4,PP Chawla,SP Narine,MS Gony,6,6,na,na
1st innings,18.5,PP Chawla,SP Narine,MS Gony,4,4,na,na
1st innings,18.6,PP Chawla,SP Narine,MS Gony,6,6,na,na
1st innings,18.7,PP Chawla,SP Narine,MS Gony,1,1,na,na
1st innings,19.1,PP Chawla,JH Kallis,MS Gony,0,0,na,"{'kind': 'bowled', 'player_out': 'MS Gony'}"
1st innings,19.2,PP Chawla,JH Kallis,P Kumar,1,1,na,na
1st innings,19.3,P Kumar,JH Kallis,PP Chawla,1,1,na,na
1st innings,19.4,PP Chawla,JH Kallis,P Kumar,0,0,na,"{'fielders': ['YK Pathan'], 'kind': 'caught', 'player_out': 'P Kumar'}"
1st innings,19.5,P Awana,JH Kallis,PP Chawla,4,4,na,na
1st innings,19.6,P Awana,JH Kallis,PP Chawla,1,0,{'byes': 1},na
2nd innings,0.1,G Gambhir,P Kumar,MS Bisla,0,0,na,"{'fielders': ['AC Gilchrist'], 'kind': 'caught', 'player_out': 'MS Bisla'}"
2nd innings,0.2,G Gambhir,P Kumar,JH Kallis,0,0,na,na
2nd innings,0.3,G Gambhir,P Kumar,JH Kallis,0,0,na,na
2nd innings,0.4,G Gambhir,P Kumar,JH Kallis,0,0,na,na
2nd innings,0.5,G Gambhir,P Kumar,JH Kallis,1,1,na,na
2nd innings,0.6,JH Kallis,P Kumar,G Gambhir,0,0,na,na
2nd innings,1.1,G Gambhir,Azhar Mahmood,JH Kallis,0,0,na,na
2nd innings,1.2,G Gambhir,Azhar Mahmood,JH Kallis,0,0,na,"{'fielders': ['Mandeep Singh'], 'kind': 'caught', 'player_out': 'JH Kallis'}"
2nd innings,1.3,G Gambhir,Azhar Mahmood,EJG Morgan,0,0,na,na
2nd innings,1.4,G Gambhir,Azhar Mahmood,EJG Morgan,1,0,{'legbyes': 1},na
2nd innings,1.5,EJG Morgan,Azhar Mahmood,G Gambhir,0,0,na,na
2nd innings,1.6,EJG Morgan,Azhar Mahmood,G Gambhir,4,4,na,na
2nd innings,2.1,G Gambhir,P Kumar,EJG Morgan,1,1,na,na
2nd innings,2.2,EJG Morgan,P Kumar,G Gambhir,4,4,na,na
2nd innings,2.3,EJG Morgan,P Kumar,G Gambhir,4,4,na,na
2nd innings,2.4,EJG Morgan,P Kumar,G Gambhir,1,1,na,na
2nd innings,2.5,G Gambhir,P Kumar,EJG Morgan,0,0,na,na
2nd innings,2.6,G Gambhir,P Kumar,EJG Morgan,0,0,na,na
2nd innings,3.1,EJG Morgan,Azhar Mahmood,G Gambhir,1,1,na,na
2nd innings,3.2,G Gambhir,Azhar Mahmood,EJG Morgan,0,0,na,na
2nd innings,3.3,G Gambhir,Azhar Mahmood,EJG Morgan,2,2,na,na
2nd innings,3.4,G Gambhir,Azhar Mahmood,EJG Morgan,0,0,na,na
2nd innings,3.5,G Gambhir,Azhar Mahmood,EJG Morgan,0,0,na,na
2nd innings,3.6,G Gambhir,Azhar Mahmood,EJG Morgan,0,0,na,na
2nd innings,4.1,EJG Morgan,P Kumar,G Gambhir,4,4,na,na
2nd innings,4.2,EJG Morgan,P Kumar,G Gambhir,4,0,{'legbyes': 4},na
2nd innings,4.3,EJG Morgan,P Kumar,G Gambhir,1,1,na,na
2nd innings,4.4,G Gambhir,P Kumar,EJG Morgan,4,4,na,na
2nd innings,4.5,G Gambhir,P Kumar,EJG Morgan,0,0,na,na
2nd innings,4.6,G Gambhir,P Kumar,EJG Morgan,2,2,na,na
2nd innings,5.1,EJG Morgan,MS Gony,G Gambhir,1,1,na,na
2nd innings,5.2,G Gambhir,MS Gony,EJG Morgan,1,1,na,na
2nd innings,5.3,EJG Morgan,MS Gony,G Gambhir,4,4,na,na
2nd innings,5.4,EJG Morgan,MS Gony,G Gambhir,1,1,na,na
2nd innings,5.5,G Gambhir,MS Gony,EJG Morgan,0,0,na,na
2nd innings,5.6,G Gambhir,MS Gony,EJG Morgan,4,4,na,na
2nd innings,6.1,EJG Morgan,DJ Hussey,G Gambhir,0,0,na,na
2nd innings,6.2,EJG Morgan,DJ Hussey,G Gambhir,4,4,na,na
2nd innings,6.3,EJG Morgan,DJ Hussey,G Gambhir,4,4,na,na
2nd innings,6.4,EJG Morgan,DJ Hussey,G Gambhir,4,4,na,na
2nd innings,6.5,EJG Morgan,DJ Hussey,G Gambhir,1,1,na,na
2nd innings,6.6,G Gambhir,DJ Hussey,EJG Morgan,1,1,na,na
2nd innings,7.1,G Gambhir,P Awana,EJG Morgan,2,2,na,na
2nd innings,7.2,G Gambhir,P Awana,EJG Morgan,1,1,na,na
2nd innings,7.3,EJG Morgan,P Awana,G Gambhir,0,0,na,na
2nd innings,7.4,EJG Morgan,P Awana,G Gambhir,2,2,na,na
2nd innings,7.5,EJG Morgan,P Awana,G Gambhir,0,0,na,na
2nd innings,7.6,EJG Morgan,P Awana,G Gambhir,1,1,na,na
2nd innings,8.1,EJG Morgan,PP Chawla,G Gambhir,2,2,na,na
2nd innings,8.2,EJG Morgan,PP Chawla,G Gambhir,1,1,na,na
2nd innings,8.3,G Gambhir,PP Chawla,EJG Morgan,4,4,na,na
2nd innings,8.4,G Gambhir,PP Chawla,EJG Morgan,1,1,na,na
2nd innings,8.5,EJG Morgan,PP Chawla,G Gambhir,1,1,na,na
2nd innings,8.6,G Gambhir,PP Chawla,EJG Morgan,0,0,na,na
2nd innings,9.1,EJG Morgan,P Awana,G Gambhir,1,1,na,na
2nd innings,9.2,G Gambhir,P Awana,EJG Morgan,0,0,na,na
2nd innings,9.3,G Gambhir,P Awana,EJG Morgan,4,4,na,na
2nd innings,9.4,G Gambhir,P Awana,EJG Morgan,1,1,na,na
2nd innings,9.5,EJG Morgan,P Awana,G Gambhir,1,1,na,na
2nd innings,9.6,G Gambhir,P Awana,EJG Morgan,1,1,na,na
2nd innings,10.1,G Gambhir,PP Chawla,EJG Morgan,1,1,na,na
2nd innings,10.2,EJG Morgan,PP Chawla,G Gambhir,1,1,na,na
2nd innings,10.3,G Gambhir,PP Chawla,EJG Morgan,4,4,na,na
2nd innings,10.4,G Gambhir,PP Chawla,EJG Morgan,1,1,na,na
2nd innings,10.5,EJG Morgan,PP Chawla,G Gambhir,1,1,na,na
2nd innings,10.6,G Gambhir,PP Chawla,EJG Morgan,2,2,na,na
2nd innings,11.1,EJG Morgan,MS Gony,G Gambhir,0,0,na,na
2nd innings,11.2,EJG Morgan,MS Gony,G Gambhir,2,2,na,na
2nd innings,11.3,EJG Morgan,MS Gony,G Gambhir,1,1,na,na
2nd innings,11.4,G Gambhir,MS Gony,EJG Morgan,1,1,na,na
2nd innings,11.5,EJG Morgan,MS Gony,G Gambhir,0,0,na,na
2nd innings,11.6,EJG Morgan,MS Gony,G Gambhir,1,1,na,na
2nd innings,12.1,EJG Morgan,PP Chawla,G Gambhir,1,1,na,na
2nd innings,12.2,G Gambhir,PP Chawla,EJG Morgan,1,1,na,na
2nd innings,12.3,EJG Morgan,PP Chawla,G Gambhir,4,4,na,na
2nd innings,12.4,EJG Morgan,PP Chawla,G Gambhir,1,1,na,na
2nd innings,12.5,G Gambhir,PP Chawla,EJG Morgan,1,1,na,na
2nd innings,12.6,EJG Morgan,PP Chawla,G Gambhir,1,1,na,na
2nd innings,13.1,EJG Morgan,MS Gony,G Gambhir,0,0,na,"{'fielders': ['AC Gilchrist'], 'kind': 'caught', 'player_out': 'G Gambhir'}"
2nd innings,13.2,EJG Morgan,MS Gony,MK Tiwary,0,0,na,na
2nd innings,13.3,EJG Morgan,MS Gony,MK Tiwary,0,0,na,na
2nd innings,13.4,EJG Morgan,MS Gony,MK Tiwary,0,0,na,na
2nd innings,13.5,EJG Morgan,MS Gony,MK Tiwary,0,0,na,na
2nd innings,13.6,EJG Morgan,MS Gony,MK Tiwary,1,0,{'wides': 1},na
2nd innings,13.7,EJG Morgan,MS Gony,MK Tiwary,0,0,na,na
2nd innings,14.1,MK Tiwary,Azhar Mahmood,EJG Morgan,1,0,{'wides': 1},na
2nd innings,14.2,MK Tiwary,Azhar Mahmood,EJG Morgan,1,1,na,na
2nd innings,14.3,EJG Morgan,Azhar Mahmood,MK Tiwary,1,1,na,na
2nd innings,14.4,MK Tiwary,Azhar Mahmood,EJG Morgan,2,2,na,na
2nd innings,14.5,MK Tiwary,Azhar Mahmood,EJG Morgan,4,4,na,na
2nd innings,14.6,MK Tiwary,Azhar Mahmood,EJG Morgan,0,0,na,na
2nd innings,14.7,MK Tiwary,Azhar Mahmood,EJG Morgan,0,0,na,"{'fielders': ['DJ Hussey'], 'kind': 'caught', 'player_out': 'EJG Morgan'}"
2nd innings,15.1,MK Tiwary,MS Gony,YK Pathan,0,0,na,na
2nd innings,15.2,MK Tiwary,MS Gony,YK Pathan,0,0,na,na
2nd innings,15.3,MK Tiwary,MS Gony,YK Pathan,0,0,na,na
2nd innings,15.4,MK Tiwary,MS Gony,YK Pathan,1,0,{'wides': 1},na
2nd innings,15.5,MK Tiwary,MS Gony,YK Pathan,0,0,na,na
2nd innings,15.6,MK Tiwary,MS Gony,YK Pathan,0,0,na,na
2nd innings,15.7,MK Tiwary,MS Gony,YK Pathan,0,0,na,na
2nd innings,16.1,YK Pathan,P Awana,MK Tiwary,0,0,na,"{'kind': 'bowled', 'player_out': 'MK Tiwary'}"
2nd innings,16.2,YK Pathan,P Awana,DB Das,0,0,na,na
2nd innings,16.3,YK Pathan,P Awana,DB Das,1,1,na,na
2nd innings,16.4,DB Das,P Awana,YK Pathan,0,0,na,na
2nd innings,16.5,DB Das,P Awana,YK Pathan,4,4,na,na
2nd innings,16.6,DB Das,P Awana,YK Pathan,1,1,na,na
2nd innings,17.1,DB Das,Azhar Mahmood,YK Pathan,1,1,na,na
2nd innings,17.2,YK Pathan,Azhar Mahmood,DB Das,0,0,na,"{'kind': 'lbw', 'player_out': 'DB Das'}"
2nd innings,17.3,YK Pathan,Azhar Mahmood,R Bhatia,1,1,na,na
2nd innings,17.4,R Bhatia,Azhar Mahmood,YK Pathan,1,1,na,na
2nd innings,17.5,YK Pathan,Azhar Mahmood,R Bhatia,1,1,na,na
2nd innings,17.6,R Bhatia,Azhar Mahmood,YK Pathan,1,1,na,na
2nd innings,18.1,R Bhatia,P Awana,YK Pathan,4,4,na,na
2nd innings,18.2,R Bhatia,P Awana,YK Pathan,1,1,na,na
2nd innings,18.3,YK Pathan,P Awana,R Bhatia,6,6,na,na
2nd innings,18.4,YK Pathan,P Awana,R Bhatia,2,2,na,na
2nd innings,18.5,YK Pathan,P Awana,R Bhatia,6,6,na,na
2nd innings,18.6,YK Pathan,P Awana,R Bhatia,0,0,na,"{'kind': 'bowled', 'player_out': 'R Bhatia'}"
2nd innings,19.1,SMSM Senanayake,P Kumar,YK Pathan,1,0,{'wides': 1},na
2nd innings,19.2,SMSM Senanayake,P Kumar,YK Pathan,2,0,{'legbyes': 2},na
2nd innings,19.3,SMSM Senanayake,P Kumar,YK Pathan,0,0,na,"{'fielders': ['DA Miller'], 'kind': 'caught', 'player_out': 'YK Pathan'}"
2nd innings,19.4,SP Narine,P Kumar,SMSM Senanayake,1,1,na,na
2nd innings,19.5,SMSM Senanayake,P Kumar,SP Narine,1,1,na,na
2nd innings,19.6,SP Narine,P Kumar,SMSM Senanayake,0,0,na,"{'fielders': ['AC Gilchrist', 'P Kumar'], 'kind': 'run out', 'player_out': 'SMSM Senanayake'}"
2nd innings,19.7,L Balaji,P Kumar,SP Narine,1,0,{'wides': 1},na
2nd innings,19.8,L Balaji,P Kumar,SP Narine,0,0,na,na
