innings,deliveries,non_striker,bowler,batsman,total_runs,batsman_runs,extras,wickets
1st innings,0.1,SR Tendulkar,L Balaji,DR Smith,0,0,na,na
1st innings,0.2,SR Tendulkar,L Balaji,DR Smith,0,0,na,na
1st innings,0.3,SR Tendulkar,L Balaji,DR Smith,0,0,na,na
1st innings,0.4,SR Tendulkar,L Balaji,DR Smith,0,0,na,na
1st innings,0.5,SR Tendulkar,L Balaji,DR Smith,0,0,na,na
1st innings,0.6,SR Tendulkar,L Balaji,DR Smith,0,0,na,na
1st innings,1.1,DR Smith,R McLaren,SR Tendulkar,1,1,na,na
1st innings,1.2,SR Tendulkar,R McLaren,DR Smith,0,0,na,na
1st innings,1.3,SR Tendulkar,R McLaren,DR Smith,1,0,{'wides': 1},na
1st innings,1.4,SR Tendulkar,R McLaren,DR Smith,4,4,na,na
1st innings,1.5,SR Tendulkar,R McLaren,DR Smith,4,4,na,na
1st innings,1.6,SR Tendulkar,R McLaren,DR Smith,0,0,na,na
1st innings,1.7,SR Tendulkar,R McLaren,DR Smith,1,1,na,na
1st innings,2.1,SR Tendulkar,L Balaji,DR Smith,1,1,na,na
1st innings,2.2,DR Smith,L Balaji,SR Tendulkar,0,0,na,na
1st innings,2.3,DR Smith,L Balaji,SR Tendulkar,1,1,na,na
1st innings,2.4,SR Tendulkar,L Balaji,DR Smith,0,0,na,na
1st innings,2.5,SR Tendulkar,L Balaji,DR Smith,0,0,na,na
1st innings,2.6,SR Tendulkar,L Balaji,DR Smith,0,0,na,na
1st innings,3.1,DR Smith,R McLaren,SR Tendulkar,0,0,na,na
1st innings,3.2,DR Smith,R McLaren,SR Tendulkar,4,4,na,na
1st innings,3.3,DR Smith,R McLaren,SR Tendulkar,4,4,na,na
1st innings,3.4,DR Smith,R McLaren,SR Tendulkar,4,4,na,na
1st innings,3.5,DR Smith,R McLaren,SR Tendulkar,4,4,na,na
1st innings,3.6,DR Smith,R McLaren,SR Tendulkar,4,4,na,na
1st innings,4.1,SR Tendulkar,L Balaji,DR Smith,1,1,na,na
1st innings,4.2,DR Smith,L Balaji,SR Tendulkar,0,0,na,na
1st innings,4.3,DR Smith,L Balaji,SR Tendulkar,0,0,na,na
1st innings,4.4,DR Smith,L Balaji,SR Tendulkar,1,0,{'wides': 1},na
1st innings,4.5,DR Smith,L Balaji,SR Tendulkar,1,1,na,na
1st innings,4.6,SR Tendulkar,L Balaji,DR Smith,0,0,na,na
1st innings,4.7,SR Tendulkar,L Balaji,DR Smith,1,0,{'wides': 1},na
1st innings,4.8,SR Tendulkar,L Balaji,DR Smith,1,1,na,na
1st innings,5.1,SR Tendulkar,SP Narine,DR Smith,0,0,na,na
1st innings,5.2,SR Tendulkar,SP Narine,DR Smith,0,0,na,na
1st innings,5.3,SR Tendulkar,SP Narine,DR Smith,0,0,na,na
1st innings,5.4,SR Tendulkar,SP Narine,DR Smith,0,0,na,na
1st innings,5.5,SR Tendulkar,SP Narine,DR Smith,2,2,na,na
1st innings,5.6,SR Tendulkar,SP Narine,DR Smith,1,1,na,na
1st innings,6.1,SR Tendulkar,JH Kallis,DR Smith,0,0,na,na
1st innings,6.2,SR Tendulkar,JH Kallis,DR Smith,0,0,na,na
1st innings,6.3,SR Tendulkar,JH Kallis,DR Smith,1,0,{'wides': 1},na
1st innings,6.4,SR Tendulkar,JH Kallis,DR Smith,4,4,na,na
1st innings,6.5,SR Tendulkar,JH Kallis,DR Smith,1,1,na,na
1st innings,6.6,DR Smith,JH Kallis,SR Tendulkar,2,2,na,na
1st innings,6.7,DR Smith,JH Kallis,SR Tendulkar,1,1,na,na
1st innings,7.1,DR Smith,Iqbal Abdulla,SR Tendulkar,1,1,na,na
1st innings,7.2,SR Tendulkar,Iqbal Abdulla,DR Smith,0,0,na,na
1st innings,7.3,SR Tendulkar,Iqbal Abdulla,DR Smith,4,4,na,na
1st innings,7.4,SR Tendulkar,Iqbal Abdulla,DR Smith,4,4,na,na
1st innings,7.5,SR Tendulkar,Iqbal Abdulla,DR Smith,0,0,na,na
1st innings,7.6,SR Tendulkar,Iqbal Abdulla,DR Smith,0,0,na,na
1st innings,8.1,DR Smith,JH Kallis,SR Tendulkar,1,1,na,na
1st innings,8.2,SR Tendulkar,JH Kallis,DR Smith,1,1,na,na
1st innings,8.3,DR Smith,JH Kallis,SR Tendulkar,1,1,na,na
1st innings,8.4,SR Tendulkar,JH Kallis,DR Smith,0,0,na,na
1st innings,8.5,SR Tendulkar,JH Kallis,DR Smith,0,0,na,na
1st innings,8.6,SR Tendulkar,JH Kallis,DR Smith,1,1,na,na
1st innings,9.1,SR Tendulkar,Iqbal Abdulla,DR Smith,0,0,na,na
1st innings,9.2,SR Tendulkar,Iqbal Abdulla,DR Smith,1,1,na,na
1st innings,9.3,DR Smith,Iqbal Abdulla,SR Tendulkar,1,1,na,na
1st innings,9.4,SR Tendulkar,Iqbal Abdulla,DR Smith,0,0,na,na
1st innings,9.5,SR Tendulkar,Iqbal Abdulla,DR Smith,4,4,na,na
1st innings,9.6,SR Tendulkar,Iqbal Abdulla,DR Smith,0,0,na,na
1st innings,10.1,DR Smith,JH Kallis,SR Tendulkar,1,1,na,na
1st innings,10.2,SR Tendulkar,JH Kallis,DR Smith,1,1,na,na
1st innings,10.3,DR Smith,JH Kallis,SR Tendulkar,1,1,na,na
1st innings,10.4,SR Tendulkar,JH Kallis,DR Smith,0,0,na,na
1st innings,10.5,SR Tendulkar,JH Kallis,DR Smith,1,1,na,na
1st innings,10.6,DR Smith,JH Kallis,SR Tendulkar,4,4,na,na
1st innings,11.1,SR Tendulkar,Iqbal Abdulla,DR Smith,1,1,na,na
1st innings,11.2,DR Smith,Iqbal Abdulla,SR Tendulkar,1,1,na,na
1st innings,11.3,SR Tendulkar,Iqbal Abdulla,DR Smith,0,0,na,na
1st innings,11.4,SR Tendulkar,Iqbal Abdulla,DR Smith,1,1,na,na
1st innings,11.5,DR Smith,Iqbal Abdulla,SR Tendulkar,4,4,na,na
1st innings,11.6,DR Smith,Iqbal Abdulla,SR Tendulkar,0,0,na,na
1st innings,12.1,SR Tendulkar,R Bhatia,DR Smith,1,1,na,na
1st innings,12.2,DR Smith,R Bhatia,SR Tendulkar,4,4,na,na
1st innings,12.3,DR Smith,R Bhatia,SR Tendulkar,2,2,na,na
1st innings,12.4,DR Smith,R Bhatia,SR Tendulkar,1,1,na,na
1st innings,12.5,SR Tendulkar,R Bhatia,DR Smith,1,1,na,na
1st innings,12.6,DR Smith,R Bhatia,SR Tendulkar,0,0,na,"{'kind': 'bowled', 'player_out': 'SR Tendulkar'}"
1st innings,13.1,KD Karthik,Iqbal Abdulla,DR Smith,4,4,na,na
1st innings,13.2,KD Karthik,Iqbal Abdulla,DR Smith,2,2,na,na
1st innings,13.3,KD Karthik,Iqbal Abdulla,DR Smith,0,0,na,"{'fielders': ['R McLaren'], 'kind': 'caught', 'player_out': 'DR Smith'}"
1st innings,13.4,KD Karthik,Iqbal Abdulla,RG Sharma,1,1,na,na
1st innings,13.5,RG Sharma,Iqbal Abdulla,KD Karthik,1,1,na,na
1st innings,13.6,KD Karthik,Iqbal Abdulla,RG Sharma,0,0,na,na
1st innings,14.1,RG Sharma,SP Narine,KD Karthik,0,0,na,na
1st innings,14.2,RG Sharma,SP Narine,KD Karthik,1,1,na,na
1st innings,14.3,KD Karthik,SP Narine,RG Sharma,1,1,na,na
1st innings,14.4,RG Sharma,SP Narine,KD Karthik,2,2,na,na
1st innings,14.5,RG Sharma,SP Narine,KD Karthik,0,0,na,na
1st innings,14.6,RG Sharma,SP Narine,KD Karthik,1,1,na,na
1st innings,15.1,RG Sharma,R Bhatia,KD Karthik,1,1,na,na
1st innings,15.2,KD Karthik,R Bhatia,RG Sharma,1,1,na,na
1st innings,15.3,RG Sharma,R Bhatia,KD Karthik,1,1,na,na
1st innings,15.4,KD Karthik,R Bhatia,RG Sharma,4,4,na,na
1st innings,15.5,KD Karthik,R Bhatia,RG Sharma,0,0,na,na
1st innings,15.6,KD Karthik,R Bhatia,RG Sharma,6,6,na,na
1st innings,16.1,RG Sharma,SP Narine,KD Karthik,1,1,na,na
1st innings,16.2,RG Sharma,SP Narine,KD Karthik,1,1,na,na
1st innings,16.3,KD Karthik,SP Narine,RG Sharma,2,2,na,na
1st innings,16.4,KD Karthik,SP Narine,RG Sharma,0,0,na,na
1st innings,16.5,KD Karthik,SP Narine,RG Sharma,1,1,na,na
1st innings,16.6,RG Sharma,SP Narine,KD Karthik,6,6,na,na
1st innings,17.1,KD Karthik,R McLaren,RG Sharma,0,0,na,"{'fielders': ['EJG Morgan'], 'kind': 'caught', 'player_out': 'RG Sharma'}"
1st innings,17.2,KD Karthik,R McLaren,KA Pollard,0,0,na,na
1st innings,17.3,KD Karthik,R McLaren,KA Pollard,0,0,na,na
1st innings,17.4,KD Karthik,R McLaren,KA Pollard,4,4,na,na
1st innings,17.5,KD Karthik,R McLaren,KA Pollard,0,0,na,"{'fielders': ['SP Narine'], 'kind': 'caught', 'player_out': 'KA Pollard'}"
1st innings,17.6,AT Rayudu,R McLaren,KD Karthik,1,1,na,"{'fielders': ['L Balaji', 'MS Bisla'], 'kind': 'run out', 'player_out': 'AT Rayudu'}"
1st innings,18.1,Harbhajan Singh,SP Narine,KD Karthik,4,4,na,na
1st innings,18.2,Harbhajan Singh,SP Narine,KD Karthik,1,0,{'wides': 1},na
1st innings,18.3,Harbhajan Singh,SP Narine,KD Karthik,4,4,na,na
1st innings,18.4,Harbhajan Singh,SP Narine,KD Karthik,0,0,na,"{'fielders': ['YK Pathan'], 'kind': 'run out', 'player_out': 'Harbhajan Singh'}"
1st innings,18.5,KD Karthik,SP Narine,MG Johnson,0,0,na,na
1st innings,18.6,KD Karthik,SP Narine,MG Johnson,0,0,na,na
1st innings,18.7,KD Karthik,SP Narine,MG Johnson,1,1,na,na
1st innings,19.1,KD Karthik,R McLaren,MG Johnson,1,1,na,na
1st innings,19.2,MG Johnson,R McLaren,KD Karthik,4,4,na,na
1st innings,19.3,MG Johnson,R McLaren,KD Karthik,6,6,na,na
1st innings,19.4,MG Johnson,R McLaren,KD Karthik,1,0,{'legbyes': 1},na
1st innings,19.5,KD Karthik,R McLaren,MG Johnson,2,2,na,na
1st innings,19.6,KD Karthik,R McLaren,MG Johnson,5,0,{'wides': 5},na
1st innings,19.7,KD Karthik,R McLaren,MG Johnson,6,6,na,na
2nd innings,0.1,G Gambhir,MG Johnson,MS Bisla,0,0,na,na
2nd innings,0.2,G Gambhir,MG Johnson,MS Bisla,1,0,{'legbyes': 1},na
2nd innings,0.3,MS Bisla,MG Johnson,G Gambhir,0,0,na,na
2nd innings,0.4,MS Bisla,MG Johnson,G Gambhir,0,0,na,"{'kind': 'bowled', 'player_out': 'G Gambhir'}"
2nd innings,0.5,MS Bisla,MG Johnson,JH Kallis,1,1,na,na
2nd innings,0.6,JH Kallis,MG Johnson,MS Bisla,0,0,na,na
2nd innings,1.1,MS Bisla,AN Ahmed,JH Kallis,0,0,na,na
2nd innings,1.2,MS Bisla,AN Ahmed,JH Kallis,0,0,na,na
2nd innings,1.3,MS Bisla,AN Ahmed,JH Kallis,0,0,na,na
2nd innings,1.4,MS Bisla,AN Ahmed,JH Kallis,0,0,na,na
2nd innings,1.5,MS Bisla,AN Ahmed,JH Kallis,4,4,na,na
2nd innings,1.6,MS Bisla,AN Ahmed,JH Kallis,6,6,na,na
2nd innings,2.1,JH Kallis,MG Johnson,MS Bisla,0,0,na,na
2nd innings,2.2,JH Kallis,MG Johnson,MS Bisla,1,1,na,na
2nd innings,2.3,MS Bisla,MG Johnson,JH Kallis,4,4,na,na
2nd innings,2.4,MS Bisla,MG Johnson,JH Kallis,1,1,na,na
2nd innings,2.5,JH Kallis,MG Johnson,MS Bisla,0,0,na,na
2nd innings,2.6,JH Kallis,MG Johnson,MS Bisla,4,4,na,na
2nd innings,3.1,MS Bisla,PP Ojha,JH Kallis,0,0,na,na
2nd innings,3.2,MS Bisla,PP Ojha,JH Kallis,1,1,na,na
2nd innings,3.3,JH Kallis,PP Ojha,MS Bisla,0,0,na,na
2nd innings,3.4,JH Kallis,PP Ojha,MS Bisla,1,1,na,na
2nd innings,3.5,MS Bisla,PP Ojha,JH Kallis,1,1,na,na
2nd innings,3.6,JH Kallis,PP Ojha,MS Bisla,4,4,na,na
2nd innings,4.1,MS Bisla,MG Johnson,JH Kallis,0,0,na,na
2nd innings,4.2,MS Bisla,MG Johnson,JH Kallis,0,0,na,na
2nd innings,4.3,MS Bisla,MG Johnson,JH Kallis,1,1,na,na
2nd innings,4.4,JH Kallis,MG Johnson,MS Bisla,0,0,na,na
2nd innings,4.5,JH Kallis,MG Johnson,MS Bisla,0,0,na,na
2nd innings,4.6,JH Kallis,MG Johnson,MS Bisla,0,0,na,na
2nd innings,5.1,MS Bisla,SL Malinga,JH Kallis,1,1,na,na
2nd innings,5.2,JH Kallis,SL Malinga,MS Bisla,0,0,na,na
2nd innings,5.3,JH Kallis,SL Malinga,MS Bisla,0,0,na,na
2nd innings,5.4,JH Kallis,SL Malinga,MS Bisla,2,2,na,na
2nd innings,5.5,JH Kallis,SL Malinga,MS Bisla,4,4,na,na
2nd innings,5.6,JH Kallis,SL Malinga,MS Bisla,1,1,na,na
2nd innings,6.1,JH Kallis,PP Ojha,MS Bisla,0,0,na,"{'fielders': ['KD Karthik'], 'kind': 'stumped', 'player_out': 'MS Bisla'}"
2nd innings,6.2,JH Kallis,PP Ojha,YK Pathan,1,1,na,na
2nd innings,6.3,YK Pathan,PP Ojha,JH Kallis,0,0,na,na
2nd innings,6.4,YK Pathan,PP Ojha,JH Kallis,1,1,na,na
2nd innings,6.5,JH Kallis,PP Ojha,YK Pathan,6,6,na,na
2nd innings,6.6,JH Kallis,PP Ojha,YK Pathan,0,0,na,na
2nd innings,7.1,YK Pathan,AN Ahmed,JH Kallis,0,0,na,na
2nd innings,7.2,YK Pathan,AN Ahmed,JH Kallis,1,1,na,na
2nd innings,7.3,JH Kallis,AN Ahmed,YK Pathan,4,4,na,na
2nd innings,7.4,JH Kallis,AN Ahmed,YK Pathan,0,0,na,na
2nd innings,7.5,JH Kallis,AN Ahmed,YK Pathan,1,1,na,na
2nd innings,7.6,YK Pathan,AN Ahmed,JH Kallis,0,0,na,na
2nd innings,8.1,JH Kallis,PP Ojha,YK Pathan,1,1,na,na
2nd innings,8.2,YK Pathan,PP Ojha,JH Kallis,1,1,na,na
2nd innings,8.3,JH Kallis,PP Ojha,YK Pathan,0,0,na,"{'kind': 'bowled', 'player_out': 'YK Pathan'}"
2nd innings,8.4,JH Kallis,PP Ojha,EJG Morgan,0,0,na,na
2nd innings,8.5,JH Kallis,PP Ojha,EJG Morgan,1,1,na,na
2nd innings,8.6,EJG Morgan,PP Ojha,JH Kallis,0,0,na,na
2nd innings,9.1,JH Kallis,Harbhajan Singh,EJG Morgan,1,1,na,na
2nd innings,9.2,EJG Morgan,Harbhajan Singh,JH Kallis,1,1,na,na
2nd innings,9.3,JH Kallis,Harbhajan Singh,EJG Morgan,1,1,na,na
2nd innings,9.4,EJG Morgan,Harbhajan Singh,JH Kallis,0,0,na,na
2nd innings,9.5,EJG Morgan,Harbhajan Singh,JH Kallis,0,0,na,"{'fielders': ['AN Ahmed'], 'kind': 'caught', 'player_out': 'JH Kallis'}"
2nd innings,9.6,DB Das,Harbhajan Singh,EJG Morgan,4,0,{'legbyes': 4},na
2nd innings,10.1,EJG Morgan,PP Ojha,DB Das,4,4,na,na
2nd innings,10.2,EJG Morgan,PP Ojha,DB Das,0,0,na,na
2nd innings,10.3,EJG Morgan,PP Ojha,DB Das,1,1,na,na
2nd innings,10.4,DB Das,PP Ojha,EJG Morgan,1,0,{'legbyes': 1},na
2nd innings,10.5,EJG Morgan,PP Ojha,DB Das,0,0,na,na
2nd innings,10.6,EJG Morgan,PP Ojha,DB Das,0,0,na,na
2nd innings,11.1,DB Das,Harbhajan Singh,EJG Morgan,1,1,na,na
2nd innings,11.2,EJG Morgan,Harbhajan Singh,DB Das,0,0,na,na
2nd innings,11.3,EJG Morgan,Harbhajan Singh,DB Das,1,1,na,na
2nd innings,11.4,DB Das,Harbhajan Singh,EJG Morgan,1,1,na,na
2nd innings,11.5,EJG Morgan,Harbhajan Singh,DB Das,0,0,na,na
2nd innings,11.6,EJG Morgan,Harbhajan Singh,DB Das,6,6,na,na
2nd innings,12.1,DB Das,AN Ahmed,EJG Morgan,0,0,na,na
2nd innings,12.2,DB Das,AN Ahmed,EJG Morgan,0,0,na,"{'fielders': ['RG Sharma'], 'kind': 'caught', 'player_out': 'EJG Morgan'}"
2nd innings,12.3,DB Das,AN Ahmed,R McLaren,1,1,na,na
2nd innings,12.4,R McLaren,AN Ahmed,DB Das,0,0,na,na
2nd innings,12.5,R McLaren,AN Ahmed,DB Das,1,1,na,na
2nd innings,12.6,DB Das,AN Ahmed,R McLaren,0,0,na,na
2nd innings,13.1,R McLaren,Harbhajan Singh,DB Das,6,6,na,na
2nd innings,13.2,R McLaren,Harbhajan Singh,DB Das,0,0,na,na
2nd innings,13.3,R McLaren,Harbhajan Singh,DB Das,0,0,na,na
2nd innings,13.4,R McLaren,Harbhajan Singh,DB Das,0,0,na,na
2nd innings,13.5,R McLaren,Harbhajan Singh,DB Das,4,4,na,na
2nd innings,13.6,R McLaren,Harbhajan Singh,DB Das,0,0,na,"{'kind': 'caught and bowled', 'player_out': 'DB Das'}"
2nd innings,14.1,R Bhatia,SL Malinga,R McLaren,0,0,na,"{'fielders': ['RG Sharma', 'KD Karthik'], 'kind': 'run out', 'player_out': 'R McLaren'}"
2nd innings,14.2,R Bhatia,SL Malinga,Iqbal Abdulla,0,0,na,na
2nd innings,14.3,R Bhatia,SL Malinga,Iqbal Abdulla,1,1,na,na
2nd innings,14.4,Iqbal Abdulla,SL Malinga,R Bhatia,0,0,na,na
2nd innings,14.5,Iqbal Abdulla,SL Malinga,R Bhatia,1,1,na,na
2nd innings,14.6,R Bhatia,SL Malinga,Iqbal Abdulla,1,1,na,na
2nd innings,15.1,R Bhatia,Harbhajan Singh,Iqbal Abdulla,0,0,na,na
2nd innings,15.2,R Bhatia,Harbhajan Singh,Iqbal Abdulla,1,1,na,na
2nd innings,15.3,Iqbal Abdulla,Harbhajan Singh,R Bhatia,2,2,na,na
2nd innings,15.4,Iqbal Abdulla,Harbhajan Singh,R Bhatia,1,1,na,na
2nd innings,15.5,R Bhatia,Harbhajan Singh,Iqbal Abdulla,1,1,na,na
2nd innings,15.6,Iqbal Abdulla,Harbhajan Singh,R Bhatia,0,0,na,"{'fielders': ['SL Malinga'], 'kind': 'caught', 'player_out': 'R Bhatia'}"
2nd innings,16.1,Iqbal Abdulla,SL Malinga,SP Narine,0,0,na,na
2nd innings,16.2,Iqbal Abdulla,SL Malinga,SP Narine,1,1,na,na
2nd innings,16.3,SP Narine,SL Malinga,Iqbal Abdulla,0,0,na,na
2nd innings,16.4,SP Narine,SL Malinga,Iqbal Abdulla,1,1,na,na
2nd innings,16.5,Iqbal Abdulla,SL Malinga,SP Narine,1,1,na,na
2nd innings,16.6,SP Narine,SL Malinga,Iqbal Abdulla,0,0,na,na
2nd innings,17.1,Iqbal Abdulla,MG Johnson,SP Narine,1,1,na,na
2nd innings,17.2,SP Narine,MG Johnson,Iqbal Abdulla,1,0,{'legbyes': 1},na
2nd innings,17.3,Iqbal Abdulla,MG Johnson,SP Narine,2,0,{'legbyes': 2},na
2nd innings,17.4,Iqbal Abdulla,MG Johnson,SP Narine,0,0,na,"{'fielders': ['KD Karthik'], 'kind': 'caught', 'player_out': 'SP Narine'}"
2nd innings,17.5,Iqbal Abdulla,MG Johnson,L Balaji,0,0,na,na
2nd innings,17.6,Iqbal Abdulla,MG Johnson,L Balaji,0,0,na,na
2nd innings,18.1,L Balaji,SL Malinga,Iqbal Abdulla,1,1,na,na
2nd innings,18.2,Iqbal Abdulla,SL Malinga,L Balaji,0,0,na,"{'kind': 'bowled', 'player_out': 'L Balaji'}"
