innings,deliveries,non_striker,bowler,batsman,total_runs,batsman_runs,extras,wickets
1st innings,0.1,AP Tare,AA Chavan,GJ Maxwell,0,0,na,na
1st innings,0.2,AP Tare,AA Chavan,GJ Maxwell,0,0,na,na
1st innings,0.3,AP Tare,AA Chavan,GJ Maxwell,0,0,na,na
1st innings,0.4,AP Tare,AA Chavan,GJ Maxwell,1,1,na,na
1st innings,0.5,GJ Maxwell,AA Chavan,AP Tare,1,1,na,na
1st innings,0.6,AP Tare,AA Chavan,GJ Maxwell,0,0,na,na
1st innings,1.1,GJ Maxwell,JP Faulkner,AP Tare,1,1,na,na
1st innings,1.2,AP Tare,JP Faulkner,GJ Maxwell,0,0,na,na
1st innings,1.3,AP Tare,JP Faulkner,GJ Maxwell,0,0,na,na
1st innings,1.4,AP Tare,JP Faulkner,GJ Maxwell,6,6,na,na
1st innings,1.5,AP Tare,JP Faulkner,GJ Maxwell,0,0,na,na
1st innings,1.6,AP Tare,JP Faulkner,GJ Maxwell,1,1,na,na
1st innings,2.1,AP Tare,AA Chavan,GJ Maxwell,6,6,na,na
1st innings,2.2,AP Tare,AA Chavan,GJ Maxwell,2,2,na,na
1st innings,2.3,AP Tare,AA Chavan,GJ Maxwell,6,6,na,na
1st innings,2.4,AP Tare,AA Chavan,GJ Maxwell,0,0,na,na
1st innings,2.5,AP Tare,AA Chavan,GJ Maxwell,1,1,na,na
1st innings,2.6,GJ Maxwell,AA Chavan,AP Tare,0,0,na,na
1st innings,3.1,AP Tare,SR Watson,GJ Maxwell,0,0,na,na
1st innings,3.2,AP Tare,SR Watson,GJ Maxwell,0,0,na,"{'kind': 'lbw', 'player_out': 'GJ Maxwell'}"
1st innings,3.3,AP Tare,SR Watson,KD Karthik,1,0,{'legbyes': 1},na
1st innings,3.4,KD Karthik,SR Watson,AP Tare,1,1,na,na
1st innings,3.5,AP Tare,SR Watson,KD Karthik,0,0,na,na
1st innings,3.6,AP Tare,SR Watson,KD Karthik,0,0,na,na
1st innings,4.1,KD Karthik,AA Chavan,AP Tare,0,0,na,na
1st innings,4.2,KD Karthik,AA Chavan,AP Tare,0,0,na,na
1st innings,4.3,KD Karthik,AA Chavan,AP Tare,4,4,na,na
1st innings,4.4,KD Karthik,AA Chavan,AP Tare,4,4,na,na
1st innings,4.5,KD Karthik,AA Chavan,AP Tare,0,0,na,na
1st innings,4.6,KD Karthik,AA Chavan,AP Tare,0,0,na,na
1st innings,5.1,AP Tare,SR Watson,KD Karthik,1,0,{'wides': 1},na
1st innings,5.2,AP Tare,SR Watson,KD Karthik,0,0,na,na
1st innings,5.3,AP Tare,SR Watson,KD Karthik,4,4,na,na
1st innings,5.4,AP Tare,SR Watson,KD Karthik,1,0,{'legbyes': 1},na
1st innings,5.5,KD Karthik,SR Watson,AP Tare,0,0,na,na
1st innings,5.6,KD Karthik,SR Watson,AP Tare,2,2,na,na
1st innings,5.7,KD Karthik,SR Watson,AP Tare,6,6,na,na
1st innings,6.1,AP Tare,STR Binny,KD Karthik,1,1,na,na
1st innings,6.2,KD Karthik,STR Binny,AP Tare,4,4,na,na
1st innings,6.3,KD Karthik,STR Binny,AP Tare,1,1,na,na
1st innings,6.4,AP Tare,STR Binny,KD Karthik,1,1,na,na
1st innings,6.5,KD Karthik,STR Binny,AP Tare,0,0,na,na
1st innings,6.6,KD Karthik,STR Binny,AP Tare,4,4,na,na
1st innings,7.1,AP Tare,PV Tambe,KD Karthik,1,0,{'wides': 1},na
1st innings,7.2,AP Tare,PV Tambe,KD Karthik,1,1,na,na
1st innings,7.3,KD Karthik,PV Tambe,AP Tare,2,2,na,na
1st innings,7.4,KD Karthik,PV Tambe,AP Tare,1,1,na,na
1st innings,7.5,AP Tare,PV Tambe,KD Karthik,0,0,na,na
1st innings,7.6,AP Tare,PV Tambe,KD Karthik,0,0,na,na
1st innings,7.7,AP Tare,PV Tambe,KD Karthik,1,1,na,na
1st innings,8.1,AP Tare,KK Cooper,KD Karthik,1,1,na,na
1st innings,8.2,KD Karthik,KK Cooper,AP Tare,4,4,na,na
1st innings,8.3,KD Karthik,KK Cooper,AP Tare,1,1,na,na
1st innings,8.4,AP Tare,KK Cooper,KD Karthik,1,1,na,na
1st innings,8.5,KD Karthik,KK Cooper,AP Tare,0,0,na,na
1st innings,8.6,KD Karthik,KK Cooper,AP Tare,0,0,na,na
1st innings,9.1,AP Tare,PV Tambe,KD Karthik,1,1,na,na
1st innings,9.2,KD Karthik,PV Tambe,AP Tare,0,0,na,na
1st innings,9.3,KD Karthik,PV Tambe,AP Tare,2,2,na,na
1st innings,9.4,KD Karthik,PV Tambe,AP Tare,1,1,na,na
1st innings,9.5,AP Tare,PV Tambe,KD Karthik,4,4,na,na
1st innings,9.6,AP Tare,PV Tambe,KD Karthik,0,0,na,na
1st innings,10.1,KD Karthik,JP Faulkner,AP Tare,4,4,na,na
1st innings,10.2,KD Karthik,JP Faulkner,AP Tare,4,4,na,na
1st innings,10.3,KD Karthik,JP Faulkner,AP Tare,1,1,na,na
1st innings,10.4,AP Tare,JP Faulkner,KD Karthik,1,1,na,na
1st innings,10.5,KD Karthik,JP Faulkner,AP Tare,2,2,na,na
1st innings,10.6,KD Karthik,JP Faulkner,AP Tare,1,1,na,na
1st innings,11.1,KD Karthik,PV Tambe,AP Tare,1,1,na,na
1st innings,11.2,AP Tare,PV Tambe,KD Karthik,1,1,na,na
1st innings,11.3,KD Karthik,PV Tambe,AP Tare,1,1,na,na
1st innings,11.4,AP Tare,PV Tambe,KD Karthik,4,4,na,na
1st innings,11.5,AP Tare,PV Tambe,KD Karthik,0,0,na,"{'fielders': ['SV Samson'], 'kind': 'caught', 'player_out': 'KD Karthik'}"
1st innings,11.6,RG Sharma,PV Tambe,AP Tare,4,4,na,na
1st innings,12.1,AP Tare,KK Cooper,RG Sharma,1,1,na,na
1st innings,12.2,RG Sharma,KK Cooper,AP Tare,2,2,na,na
1st innings,12.3,RG Sharma,KK Cooper,AP Tare,0,0,na,na
1st innings,12.4,RG Sharma,KK Cooper,AP Tare,0,0,na,"{'fielders': ['SR Watson'], 'kind': 'caught', 'player_out': 'AP Tare'}"
1st innings,12.5,KA Pollard,KK Cooper,RG Sharma,2,2,na,na
1st innings,12.6,KA Pollard,KK Cooper,RG Sharma,0,0,na,na
1st innings,13.1,RG Sharma,PV Tambe,KA Pollard,0,0,na,na
1st innings,13.2,RG Sharma,PV Tambe,KA Pollard,1,1,na,na
1st innings,13.3,KA Pollard,PV Tambe,RG Sharma,4,4,na,na
1st innings,13.4,KA Pollard,PV Tambe,RG Sharma,1,1,na,na
1st innings,13.5,RG Sharma,PV Tambe,KA Pollard,6,6,na,na
1st innings,13.6,RG Sharma,PV Tambe,KA Pollard,1,1,na,na
1st innings,14.1,RG Sharma,SR Watson,KA Pollard,1,1,na,na
1st innings,14.2,KA Pollard,SR Watson,RG Sharma,1,1,na,na
1st innings,14.3,RG Sharma,SR Watson,KA Pollard,1,1,na,na
1st innings,14.4,KA Pollard,SR Watson,RG Sharma,1,1,na,na
1st innings,14.5,RG Sharma,SR Watson,KA Pollard,4,4,na,na
1st innings,14.6,RG Sharma,SR Watson,KA Pollard,1,0,{'legbyes': 1},na
1st innings,15.1,RG Sharma,JP Faulkner,KA Pollard,0,0,na,na
1st innings,15.2,RG Sharma,JP Faulkner,KA Pollard,1,0,{'wides': 1},na
1st innings,15.3,RG Sharma,JP Faulkner,KA Pollard,0,0,na,na
1st innings,15.4,RG Sharma,JP Faulkner,KA Pollard,1,1,na,na
1st innings,15.5,KA Pollard,JP Faulkner,RG Sharma,4,4,na,na
1st innings,15.6,KA Pollard,JP Faulkner,RG Sharma,0,0,na,"{'fielders': ['SR Watson'], 'kind': 'caught', 'player_out': 'RG Sharma'}"
1st innings,15.7,AT Rayudu,JP Faulkner,KA Pollard,1,1,na,na
1st innings,16.1,AT Rayudu,KK Cooper,KA Pollard,1,1,na,na
1st innings,16.2,KA Pollard,KK Cooper,AT Rayudu,2,2,na,na
1st innings,16.3,KA Pollard,KK Cooper,AT Rayudu,1,1,na,na
1st innings,16.4,AT Rayudu,KK Cooper,KA Pollard,1,0,{'wides': 1},na
1st innings,16.5,AT Rayudu,KK Cooper,KA Pollard,0,0,na,"{'fielders': ['KK Cooper'], 'kind': 'run out', 'player_out': 'KA Pollard'}"
1st innings,16.6,Harbhajan Singh,KK Cooper,AT Rayudu,1,1,na,na
1st innings,16.7,AT Rayudu,KK Cooper,Harbhajan Singh,2,2,na,na
1st innings,17.1,Harbhajan Singh,SR Watson,AT Rayudu,2,2,na,na
1st innings,17.2,Harbhajan Singh,SR Watson,AT Rayudu,0,0,na,na
1st innings,17.3,Harbhajan Singh,SR Watson,AT Rayudu,1,1,na,na
1st innings,17.4,AT Rayudu,SR Watson,Harbhajan Singh,1,1,na,na
1st innings,17.5,Harbhajan Singh,SR Watson,AT Rayudu,0,0,na,"{'fielders': ['SV Samson'], 'kind': 'caught', 'player_out': 'AT Rayudu'}"
1st innings,17.6,MG Johnson,SR Watson,Harbhajan Singh,4,4,na,na
1st innings,18.1,Harbhajan Singh,KK Cooper,MG Johnson,0,0,na,na
1st innings,18.2,Harbhajan Singh,KK Cooper,MG Johnson,0,0,na,na
1st innings,18.3,Harbhajan Singh,KK Cooper,MG Johnson,0,0,na,na
1st innings,18.4,Harbhajan Singh,KK Cooper,MG Johnson,0,0,na,na
1st innings,18.5,Harbhajan Singh,KK Cooper,MG Johnson,1,1,na,na
1st innings,18.6,MG Johnson,KK Cooper,Harbhajan Singh,6,6,na,na
1st innings,19.1,Harbhajan Singh,JP Faulkner,MG Johnson,1,1,na,na
1st innings,19.2,MG Johnson,JP Faulkner,Harbhajan Singh,1,1,na,na
1st innings,19.3,Harbhajan Singh,JP Faulkner,MG Johnson,0,0,na,"{'fielders': ['BJ Hodge'], 'kind': 'caught', 'player_out': 'MG Johnson'}"
1st innings,19.4,Harbhajan Singh,JP Faulkner,SL Malinga,1,1,na,na
1st innings,19.5,SL Malinga,JP Faulkner,Harbhajan Singh,0,0,na,na
1st innings,19.6,SL Malinga,JP Faulkner,Harbhajan Singh,1,1,na,"{'fielders': ['SR Watson', 'JP Faulkner', 'DH Yagnik'], 'kind': 'run out', 'player_out': 'SL Malinga'}"
2nd innings,0.1,AM Rahane,MG Johnson,R Dravid,1,0,{'wides': 1},na
2nd innings,0.2,AM Rahane,MG Johnson,R Dravid,0,0,na,na
2nd innings,0.3,AM Rahane,MG Johnson,R Dravid,0,0,na,na
2nd innings,0.4,AM Rahane,MG Johnson,R Dravid,4,4,na,na
2nd innings,0.5,AM Rahane,MG Johnson,R Dravid,0,0,na,na
2nd innings,0.6,AM Rahane,MG Johnson,R Dravid,0,0,na,"{'fielders': ['KD Karthik'], 'kind': 'caught', 'player_out': 'R Dravid'}"
2nd innings,0.7,AM Rahane,MG Johnson,JP Faulkner,0,0,na,na
2nd innings,1.1,JP Faulkner,DS Kulkarni,AM Rahane,1,0,{'legbyes': 1},na
2nd innings,1.2,AM Rahane,DS Kulkarni,JP Faulkner,4,4,na,na
2nd innings,1.3,AM Rahane,DS Kulkarni,JP Faulkner,0,0,na,na
2nd innings,1.4,AM Rahane,DS Kulkarni,JP Faulkner,0,0,na,na
2nd innings,1.5,AM Rahane,DS Kulkarni,JP Faulkner,0,0,na,na
2nd innings,1.6,AM Rahane,DS Kulkarni,JP Faulkner,1,1,na,na
2nd innings,2.1,AM Rahane,MG Johnson,JP Faulkner,0,0,na,na
2nd innings,2.2,AM Rahane,MG Johnson,JP Faulkner,4,4,na,na
2nd innings,2.3,AM Rahane,MG Johnson,JP Faulkner,1,1,na,na
2nd innings,2.4,JP Faulkner,MG Johnson,AM Rahane,1,1,na,na
2nd innings,2.5,AM Rahane,MG Johnson,JP Faulkner,0,0,na,na
2nd innings,2.6,AM Rahane,MG Johnson,JP Faulkner,1,1,na,na
2nd innings,3.1,AM Rahane,DS Kulkarni,JP Faulkner,1,1,na,na
2nd innings,3.2,JP Faulkner,DS Kulkarni,AM Rahane,0,0,na,na
2nd innings,3.3,JP Faulkner,DS Kulkarni,AM Rahane,3,3,na,na
2nd innings,3.4,AM Rahane,DS Kulkarni,JP Faulkner,0,0,na,"{'fielders': ['GJ Maxwell'], 'kind': 'caught', 'player_out': 'JP Faulkner'}"
2nd innings,3.5,SV Samson,DS Kulkarni,AM Rahane,0,0,na,na
2nd innings,3.6,SV Samson,DS Kulkarni,AM Rahane,0,0,na,na
2nd innings,4.1,AM Rahane,MG Johnson,SV Samson,4,4,na,na
2nd innings,4.2,AM Rahane,MG Johnson,SV Samson,0,0,na,na
2nd innings,4.3,AM Rahane,MG Johnson,SV Samson,0,0,na,na
2nd innings,4.4,AM Rahane,MG Johnson,SV Samson,0,0,na,"{'fielders': ['PP Ojha'], 'kind': 'caught', 'player_out': 'SV Samson'}"
2nd innings,4.5,AM Rahane,MG Johnson,SR Watson,0,0,na,na
2nd innings,4.6,AM Rahane,MG Johnson,SR Watson,1,1,na,na
2nd innings,5.1,AM Rahane,DS Kulkarni,SR Watson,0,0,na,na
2nd innings,5.2,AM Rahane,DS Kulkarni,SR Watson,1,1,na,na
2nd innings,5.3,SR Watson,DS Kulkarni,AM Rahane,0,0,na,na
2nd innings,5.4,SR Watson,DS Kulkarni,AM Rahane,0,0,na,"{'fielders': ['SL Malinga'], 'kind': 'caught', 'player_out': 'AM Rahane'}"
2nd innings,5.5,STR Binny,DS Kulkarni,SR Watson,0,0,na,na
2nd innings,5.6,STR Binny,DS Kulkarni,SR Watson,1,1,na,na
2nd innings,6.1,STR Binny,Harbhajan Singh,SR Watson,0,0,na,na
2nd innings,6.2,STR Binny,Harbhajan Singh,SR Watson,1,1,na,na
2nd innings,6.3,SR Watson,Harbhajan Singh,STR Binny,0,0,na,na
2nd innings,6.4,SR Watson,Harbhajan Singh,STR Binny,0,0,na,na
2nd innings,6.5,SR Watson,Harbhajan Singh,STR Binny,1,1,na,na
2nd innings,6.6,STR Binny,Harbhajan Singh,SR Watson,1,0,{'wides': 1},na
2nd innings,6.7,STR Binny,Harbhajan Singh,SR Watson,0,0,na,na
2nd innings,7.1,SR Watson,SL Malinga,STR Binny,0,0,na,na
2nd innings,7.2,SR Watson,SL Malinga,STR Binny,1,1,na,na
2nd innings,7.3,STR Binny,SL Malinga,SR Watson,1,1,na,na
2nd innings,7.4,SR Watson,SL Malinga,STR Binny,1,1,na,na
2nd innings,7.5,STR Binny,SL Malinga,SR Watson,6,6,na,na
2nd innings,7.6,STR Binny,SL Malinga,SR Watson,6,6,na,na
2nd innings,8.1,SR Watson,Harbhajan Singh,STR Binny,5,0,{'wides': 5},na
2nd innings,8.2,SR Watson,Harbhajan Singh,STR Binny,2,2,na,na
2nd innings,8.3,SR Watson,Harbhajan Singh,STR Binny,1,1,na,na
2nd innings,8.4,STR Binny,Harbhajan Singh,SR Watson,0,0,na,na
2nd innings,8.5,STR Binny,Harbhajan Singh,SR Watson,1,1,na,na
2nd innings,8.6,SR Watson,Harbhajan Singh,STR Binny,1,1,na,na
2nd innings,8.7,STR Binny,Harbhajan Singh,SR Watson,1,1,na,na
2nd innings,9.1,STR Binny,PP Ojha,SR Watson,0,0,na,"{'fielders': ['KA Pollard'], 'kind': 'caught', 'player_out': 'SR Watson'}"
2nd innings,9.2,DH Yagnik,PP Ojha,STR Binny,0,0,na,na
2nd innings,9.3,DH Yagnik,PP Ojha,STR Binny,1,1,na,na
2nd innings,9.4,STR Binny,PP Ojha,DH Yagnik,0,0,na,na
2nd innings,9.5,STR Binny,PP Ojha,DH Yagnik,0,0,na,na
2nd innings,9.6,STR Binny,PP Ojha,DH Yagnik,1,1,na,na
2nd innings,10.1,STR Binny,Harbhajan Singh,DH Yagnik,1,1,na,na
2nd innings,10.2,DH Yagnik,Harbhajan Singh,STR Binny,3,3,na,na
2nd innings,10.3,STR Binny,Harbhajan Singh,DH Yagnik,0,0,na,na
2nd innings,10.4,STR Binny,Harbhajan Singh,DH Yagnik,0,0,na,na
2nd innings,10.5,STR Binny,Harbhajan Singh,DH Yagnik,1,1,na,na
2nd innings,10.6,DH Yagnik,Harbhajan Singh,STR Binny,4,4,na,na
2nd innings,11.1,STR Binny,PP Ojha,DH Yagnik,1,0,{'legbyes': 1},na
2nd innings,11.2,DH Yagnik,PP Ojha,STR Binny,6,6,na,na
2nd innings,11.3,DH Yagnik,PP Ojha,STR Binny,4,4,na,na
2nd innings,11.4,DH Yagnik,PP Ojha,STR Binny,0,0,na,na
2nd innings,11.5,DH Yagnik,PP Ojha,STR Binny,1,1,na,na
2nd innings,11.6,STR Binny,PP Ojha,DH Yagnik,1,1,na,na
2nd innings,12.1,STR Binny,Harbhajan Singh,DH Yagnik,4,4,na,na
2nd innings,12.2,STR Binny,Harbhajan Singh,DH Yagnik,0,0,na,na
2nd innings,12.3,STR Binny,Harbhajan Singh,DH Yagnik,0,0,na,na
2nd innings,12.4,STR Binny,Harbhajan Singh,DH Yagnik,2,2,na,na
2nd innings,12.5,STR Binny,Harbhajan Singh,DH Yagnik,0,0,na,"{'kind': 'bowled', 'player_out': 'DH Yagnik'}"
2nd innings,12.6,STR Binny,Harbhajan Singh,BJ Hodge,4,0,{'byes': 4},na
2nd innings,13.1,BJ Hodge,PP Ojha,STR Binny,1,1,na,na
2nd innings,13.2,STR Binny,PP Ojha,BJ Hodge,0,0,na,na
2nd innings,13.3,STR Binny,PP Ojha,BJ Hodge,0,0,na,na
2nd innings,13.4,STR Binny,PP Ojha,BJ Hodge,0,0,na,na
2nd innings,13.5,STR Binny,PP Ojha,BJ Hodge,1,1,na,na
2nd innings,13.6,BJ Hodge,PP Ojha,STR Binny,4,4,na,na
2nd innings,14.1,STR Binny,SL Malinga,BJ Hodge,4,4,na,na
2nd innings,14.2,STR Binny,SL Malinga,BJ Hodge,0,0,na,na
2nd innings,14.3,STR Binny,SL Malinga,BJ Hodge,0,0,na,na
2nd innings,14.4,STR Binny,SL Malinga,BJ Hodge,1,0,{'wides': 1},na
2nd innings,14.5,STR Binny,SL Malinga,BJ Hodge,1,1,na,na
2nd innings,14.6,BJ Hodge,SL Malinga,STR Binny,1,1,na,na
2nd innings,14.7,STR Binny,SL Malinga,BJ Hodge,1,1,na,na
2nd innings,15.1,STR Binny,PP Ojha,BJ Hodge,4,4,na,na
2nd innings,15.2,STR Binny,PP Ojha,BJ Hodge,4,4,na,na
2nd innings,15.3,STR Binny,PP Ojha,BJ Hodge,0,0,na,na
2nd innings,15.4,STR Binny,PP Ojha,BJ Hodge,4,4,na,na
2nd innings,15.5,STR Binny,PP Ojha,BJ Hodge,4,4,na,na
2nd innings,15.6,STR Binny,PP Ojha,BJ Hodge,0,0,na,na
2nd innings,16.1,BJ Hodge,MG Johnson,STR Binny,0,0,na,na
2nd innings,16.2,BJ Hodge,MG Johnson,STR Binny,2,2,na,na
2nd innings,16.3,BJ Hodge,MG Johnson,STR Binny,0,0,na,na
2nd innings,16.4,BJ Hodge,MG Johnson,STR Binny,1,0,{'legbyes': 1},na
2nd innings,16.5,STR Binny,MG Johnson,BJ Hodge,4,4,na,na
2nd innings,16.6,STR Binny,MG Johnson,BJ Hodge,0,0,na,na
2nd innings,17.1,BJ Hodge,SL Malinga,STR Binny,0,0,na,na
2nd innings,17.2,BJ Hodge,SL Malinga,STR Binny,1,1,na,na
2nd innings,17.3,STR Binny,SL Malinga,BJ Hodge,2,2,na,na
2nd innings,17.4,STR Binny,SL Malinga,BJ Hodge,1,1,na,na
2nd innings,17.5,BJ Hodge,SL Malinga,STR Binny,1,1,na,na
2nd innings,17.6,STR Binny,SL Malinga,BJ Hodge,0,0,na,na
2nd innings,18.1,BJ Hodge,DS Kulkarni,STR Binny,1,1,na,na
2nd innings,18.2,STR Binny,DS Kulkarni,BJ Hodge,0,0,na,na
2nd innings,18.3,STR Binny,DS Kulkarni,BJ Hodge,2,2,na,na
2nd innings,18.4,STR Binny,DS Kulkarni,BJ Hodge,4,4,na,na
2nd innings,18.5,STR Binny,DS Kulkarni,BJ Hodge,2,2,na,na
2nd innings,18.6,STR Binny,DS Kulkarni,BJ Hodge,1,1,na,na
2nd innings,19.1,STR Binny,SL Malinga,BJ Hodge,0,0,na,"{'kind': 'lbw', 'player_out': 'BJ Hodge'}"
2nd innings,19.2,STR Binny,SL Malinga,KK Cooper,0,0,na,na
2nd innings,19.3,STR Binny,SL Malinga,KK Cooper,6,6,na,na
2nd innings,19.4,STR Binny,SL Malinga,KK Cooper,1,1,na,na
2nd innings,19.5,KK Cooper,SL Malinga,STR Binny,1,0,{'legbyes': 1},na
2nd innings,19.6,STR Binny,SL Malinga,KK Cooper,0,0,na,na
