innings,deliveries,non_striker,bowler,batsman,total_runs,batsman_runs,extras,wickets
1st innings,0.1,MEK Hussey,YK Pathan,WP Saha,0,0,na,na
1st innings,0.2,MEK Hussey,YK Pathan,WP Saha,1,1,na,na
1st innings,0.3,WP Saha,YK Pathan,MEK Hussey,2,2,na,na
1st innings,0.4,WP Saha,YK Pathan,MEK Hussey,2,2,na,na
1st innings,0.5,WP Saha,YK Pathan,MEK Hussey,0,0,na,na
1st innings,0.6,WP Saha,YK Pathan,MEK Hussey,1,1,na,na
1st innings,1.1,WP Saha,Mohammed Shami,MEK Hussey,0,0,na,na
1st innings,1.2,WP Saha,Mohammed Shami,MEK Hussey,0,0,na,na
1st innings,1.3,WP Saha,Mohammed Shami,MEK Hussey,0,0,na,na
1st innings,1.4,WP Saha,Mohammed Shami,MEK Hussey,4,4,na,na
1st innings,1.5,WP Saha,Mohammed Shami,MEK Hussey,0,0,na,na
1st innings,1.6,WP Saha,Mohammed Shami,MEK Hussey,1,1,na,na
1st innings,2.1,WP Saha,L Balaji,MEK Hussey,2,2,na,na
1st innings,2.2,WP Saha,L Balaji,MEK Hussey,0,0,na,na
1st innings,2.3,WP Saha,L Balaji,MEK Hussey,4,4,na,na
1st innings,2.4,WP Saha,L Balaji,MEK Hussey,4,4,na,na
1st innings,2.5,WP Saha,L Balaji,MEK Hussey,0,0,na,na
1st innings,2.6,WP Saha,L Balaji,MEK Hussey,4,4,na,na
1st innings,3.1,MEK Hussey,Mohammed Shami,WP Saha,0,0,na,na
1st innings,3.2,MEK Hussey,Mohammed Shami,WP Saha,4,4,na,na
1st innings,3.3,MEK Hussey,Mohammed Shami,WP Saha,4,4,na,na
1st innings,3.4,MEK Hussey,Mohammed Shami,WP Saha,0,0,na,na
1st innings,3.5,MEK Hussey,Mohammed Shami,WP Saha,1,0,{'wides': 1},na
1st innings,3.6,MEK Hussey,Mohammed Shami,WP Saha,6,6,na,na
1st innings,3.7,MEK Hussey,Mohammed Shami,WP Saha,0,0,na,na
1st innings,4.1,WP Saha,SP Narine,MEK Hussey,0,0,na,na
1st innings,4.2,WP Saha,SP Narine,MEK Hussey,4,4,na,na
1st innings,4.3,WP Saha,SP Narine,MEK Hussey,4,4,na,na
1st innings,4.4,WP Saha,SP Narine,MEK Hussey,0,0,na,na
1st innings,4.5,WP Saha,SP Narine,MEK Hussey,0,0,na,na
1st innings,4.6,WP Saha,SP Narine,MEK Hussey,1,1,na,na
1st innings,5.1,WP Saha,JH Kallis,MEK Hussey,4,4,na,na
1st innings,5.2,WP Saha,JH Kallis,MEK Hussey,3,3,na,na
1st innings,5.3,MEK Hussey,JH Kallis,WP Saha,4,4,na,na
1st innings,5.4,MEK Hussey,JH Kallis,WP Saha,6,6,na,na
1st innings,5.5,MEK Hussey,JH Kallis,WP Saha,1,1,na,na
1st innings,5.6,WP Saha,JH Kallis,MEK Hussey,0,0,na,na
1st innings,6.1,MEK Hussey,R Bhatia,WP Saha,1,1,na,na
1st innings,6.2,WP Saha,R Bhatia,MEK Hussey,1,1,na,na
1st innings,6.3,MEK Hussey,R Bhatia,WP Saha,1,1,na,na
1st innings,6.4,WP Saha,R Bhatia,MEK Hussey,0,0,na,na
1st innings,6.5,WP Saha,R Bhatia,MEK Hussey,1,1,na,na
1st innings,6.6,MEK Hussey,R Bhatia,WP Saha,1,1,na,na
1st innings,7.1,MEK Hussey,JH Kallis,WP Saha,1,1,na,na
1st innings,7.2,WP Saha,JH Kallis,MEK Hussey,6,6,na,na
1st innings,7.3,WP Saha,JH Kallis,MEK Hussey,1,1,na,na
1st innings,7.4,MEK Hussey,JH Kallis,WP Saha,4,4,na,na
1st innings,7.5,MEK Hussey,JH Kallis,WP Saha,1,1,na,na
1st innings,7.6,WP Saha,JH Kallis,MEK Hussey,1,1,na,na
1st innings,8.1,WP Saha,R Bhatia,MEK Hussey,2,2,na,na
1st innings,8.2,WP Saha,R Bhatia,MEK Hussey,1,1,na,na
1st innings,8.3,MEK Hussey,R Bhatia,WP Saha,1,1,na,na
1st innings,8.4,WP Saha,R Bhatia,MEK Hussey,1,1,na,na
1st innings,8.5,MEK Hussey,R Bhatia,WP Saha,1,1,na,na
1st innings,8.6,WP Saha,R Bhatia,MEK Hussey,4,4,na,na
1st innings,9.1,MEK Hussey,SP Narine,WP Saha,1,1,na,na
1st innings,9.2,WP Saha,SP Narine,MEK Hussey,2,2,na,na
1st innings,9.3,WP Saha,SP Narine,MEK Hussey,2,2,na,na
1st innings,9.4,WP Saha,SP Narine,MEK Hussey,1,1,na,na
1st innings,9.5,MEK Hussey,SP Narine,WP Saha,0,0,na,na
1st innings,9.6,MEK Hussey,SP Narine,WP Saha,1,1,na,na
1st innings,10.1,MEK Hussey,R Bhatia,WP Saha,0,0,na,"{'fielders': ['EJG Morgan'], 'kind': 'caught', 'player_out': 'WP Saha'}"
1st innings,10.2,SK Raina,R Bhatia,MEK Hussey,1,1,na,na
1st innings,10.3,MEK Hussey,R Bhatia,SK Raina,1,1,na,na
1st innings,10.4,SK Raina,R Bhatia,MEK Hussey,0,0,na,na
1st innings,10.5,SK Raina,R Bhatia,MEK Hussey,0,0,na,na
1st innings,10.6,SK Raina,R Bhatia,MEK Hussey,1,1,na,na
1st innings,11.1,SK Raina,L Balaji,MEK Hussey,1,1,na,na
1st innings,11.2,MEK Hussey,L Balaji,SK Raina,0,0,na,na
1st innings,11.3,MEK Hussey,L Balaji,SK Raina,1,1,na,na
1st innings,11.4,SK Raina,L Balaji,MEK Hussey,4,4,na,na
1st innings,11.5,SK Raina,L Balaji,MEK Hussey,0,0,na,na
1st innings,11.6,SK Raina,L Balaji,MEK Hussey,2,2,na,na
1st innings,12.1,MEK Hussey,R Bhatia,SK Raina,1,1,na,na
1st innings,12.2,SK Raina,R Bhatia,MEK Hussey,2,2,na,na
1st innings,12.3,SK Raina,R Bhatia,MEK Hussey,4,4,na,na
1st innings,12.4,SK Raina,R Bhatia,MEK Hussey,1,1,na,na
1st innings,12.5,MEK Hussey,R Bhatia,SK Raina,1,1,na,na
1st innings,12.6,SK Raina,R Bhatia,MEK Hussey,4,4,na,na
1st innings,13.1,MEK Hussey,SP Narine,SK Raina,6,6,na,na
1st innings,13.2,MEK Hussey,SP Narine,SK Raina,1,1,na,na
1st innings,13.3,SK Raina,SP Narine,MEK Hussey,0,0,na,na
1st innings,13.4,SK Raina,SP Narine,MEK Hussey,0,0,na,na
1st innings,13.5,SK Raina,SP Narine,MEK Hussey,1,1,na,na
1st innings,13.6,MEK Hussey,SP Narine,SK Raina,4,4,na,na
1st innings,14.1,SK Raina,YK Pathan,MEK Hussey,1,1,na,na
1st innings,14.2,MEK Hussey,YK Pathan,SK Raina,1,1,na,na
1st innings,14.3,SK Raina,YK Pathan,MEK Hussey,1,1,na,na
1st innings,14.4,MEK Hussey,YK Pathan,SK Raina,1,1,na,na
1st innings,14.5,SK Raina,YK Pathan,MEK Hussey,2,2,na,na
1st innings,14.6,SK Raina,YK Pathan,MEK Hussey,6,6,na,na
1st innings,15.1,MEK Hussey,SP Narine,SK Raina,1,1,na,na
1st innings,15.2,SK Raina,SP Narine,MEK Hussey,1,1,na,na
1st innings,15.3,MEK Hussey,SP Narine,SK Raina,4,4,na,na
1st innings,15.4,MEK Hussey,SP Narine,SK Raina,1,1,na,na
1st innings,15.5,SK Raina,SP Narine,MEK Hussey,0,0,na,"{'fielders': ['DB Das'], 'kind': 'caught', 'player_out': 'MEK Hussey'}"
1st innings,15.6,SK Raina,SP Narine,MS Dhoni,0,0,na,na
1st innings,16.1,MS Dhoni,JH Kallis,SK Raina,4,4,na,na
1st innings,16.2,MS Dhoni,JH Kallis,SK Raina,2,2,na,na
1st innings,16.3,MS Dhoni,JH Kallis,SK Raina,1,1,na,na
1st innings,16.4,SK Raina,JH Kallis,MS Dhoni,0,0,na,na
1st innings,16.5,SK Raina,JH Kallis,MS Dhoni,1,0,{'byes': 1},na
1st innings,16.6,MS Dhoni,JH Kallis,SK Raina,2,2,na,na
1st innings,17.1,SK Raina,L Balaji,MS Dhoni,1,1,na,na
1st innings,17.2,MS Dhoni,L Balaji,SK Raina,2,2,na,na
1st innings,17.3,MS Dhoni,L Balaji,SK Raina,1,1,na,na
1st innings,17.4,SK Raina,L Balaji,MS Dhoni,1,0,{'wides': 1},na
1st innings,17.5,SK Raina,L Balaji,MS Dhoni,1,1,na,na
1st innings,17.6,MS Dhoni,L Balaji,SK Raina,1,1,na,na
1st innings,17.7,SK Raina,L Balaji,MS Dhoni,4,4,na,na
1st innings,18.1,MS Dhoni,JH Kallis,SK Raina,1,1,na,na
1st innings,18.2,SK Raina,JH Kallis,MS Dhoni,1,1,na,na
1st innings,18.3,MS Dhoni,JH Kallis,SK Raina,1,1,na,na
1st innings,18.4,SK Raina,JH Kallis,MS Dhoni,1,1,na,na
1st innings,18.5,MS Dhoni,JH Kallis,SK Raina,4,4,na,na
1st innings,18.6,MS Dhoni,JH Kallis,SK Raina,1,1,na,na
1st innings,19.1,MS Dhoni,L Balaji,SK Raina,1,1,na,na
1st innings,19.2,SK Raina,L Balaji,MS Dhoni,1,1,na,"{'fielders': ['DB Das', 'L Balaji'], 'kind': 'run out', 'player_out': 'SK Raina'}"
1st innings,19.3,RA Jadeja,L Balaji,MS Dhoni,2,2,na,na
1st innings,19.4,RA Jadeja,L Balaji,MS Dhoni,1,1,na,na
1st innings,19.5,MS Dhoni,L Balaji,RA Jadeja,1,1,na,na
1st innings,19.6,RA Jadeja,L Balaji,MS Dhoni,6,6,na,na
2nd innings,0.1,G Gambhir,DP Nannes,MS Bisla,5,0,{'wides': 5},na
2nd innings,0.2,G Gambhir,DP Nannes,MS Bisla,1,0,{'noballs': 1},na
2nd innings,0.3,G Gambhir,DP Nannes,MS Bisla,4,0,{'byes': 4},na
2nd innings,0.4,G Gambhir,DP Nannes,MS Bisla,0,0,na,na
2nd innings,0.5,G Gambhir,DP Nannes,MS Bisla,1,1,na,na
2nd innings,0.6,MS Bisla,DP Nannes,G Gambhir,1,1,na,na
2nd innings,0.7,G Gambhir,DP Nannes,MS Bisla,2,0,{'wides': 2},na
2nd innings,0.8,MS Bisla,DP Nannes,G Gambhir,0,0,na,na
2nd innings,0.9,MS Bisla,DP Nannes,G Gambhir,4,4,na,na
2nd innings,1.1,G Gambhir,MM Sharma,MS Bisla,0,0,na,na
2nd innings,1.2,G Gambhir,MM Sharma,MS Bisla,0,0,na,na
2nd innings,1.3,G Gambhir,MM Sharma,MS Bisla,4,4,na,na
2nd innings,1.4,G Gambhir,MM Sharma,MS Bisla,0,0,na,na
2nd innings,1.5,G Gambhir,MM Sharma,MS Bisla,1,1,na,na
2nd innings,1.6,MS Bisla,MM Sharma,G Gambhir,1,1,na,na
2nd innings,2.1,MS Bisla,CH Morris,G Gambhir,4,4,na,na
2nd innings,2.2,MS Bisla,CH Morris,G Gambhir,0,0,na,na
2nd innings,2.3,MS Bisla,CH Morris,G Gambhir,4,4,na,na
2nd innings,2.4,MS Bisla,CH Morris,G Gambhir,0,0,na,"{'kind': 'bowled', 'player_out': 'G Gambhir'}"
2nd innings,2.5,MS Bisla,CH Morris,BB McCullum,0,0,na,na
2nd innings,2.6,MS Bisla,CH Morris,BB McCullum,0,0,na,na
2nd innings,3.1,BB McCullum,MM Sharma,MS Bisla,0,0,na,na
2nd innings,3.2,BB McCullum,MM Sharma,MS Bisla,0,0,na,na
2nd innings,3.3,BB McCullum,MM Sharma,MS Bisla,0,0,na,na
2nd innings,3.4,BB McCullum,MM Sharma,MS Bisla,0,0,na,na
2nd innings,3.5,BB McCullum,MM Sharma,MS Bisla,1,1,na,na
2nd innings,3.6,MS Bisla,MM Sharma,BB McCullum,0,0,na,na
2nd innings,4.1,BB McCullum,CH Morris,MS Bisla,4,4,na,na
2nd innings,4.2,BB McCullum,CH Morris,MS Bisla,4,4,na,na
2nd innings,4.3,BB McCullum,CH Morris,MS Bisla,4,4,na,na
2nd innings,4.4,BB McCullum,CH Morris,MS Bisla,1,0,{'legbyes': 1},na
2nd innings,4.5,MS Bisla,CH Morris,BB McCullum,1,1,na,na
2nd innings,4.6,BB McCullum,CH Morris,MS Bisla,4,4,na,na
2nd innings,5.1,MS Bisla,MM Sharma,BB McCullum,4,4,na,na
2nd innings,5.2,MS Bisla,MM Sharma,BB McCullum,1,1,na,na
2nd innings,5.3,BB McCullum,MM Sharma,MS Bisla,2,2,na,na
2nd innings,5.4,BB McCullum,MM Sharma,MS Bisla,4,4,na,na
2nd innings,5.5,BB McCullum,MM Sharma,MS Bisla,1,0,{'legbyes': 1},na
2nd innings,5.6,MS Bisla,MM Sharma,BB McCullum,0,0,na,"{'kind': 'bowled', 'player_out': 'BB McCullum'}"
2nd innings,6.1,JH Kallis,DP Nannes,MS Bisla,1,1,na,na
2nd innings,6.2,MS Bisla,DP Nannes,JH Kallis,0,0,na,na
2nd innings,6.3,MS Bisla,DP Nannes,JH Kallis,1,1,na,na
2nd innings,6.4,JH Kallis,DP Nannes,MS Bisla,0,0,na,na
2nd innings,6.5,JH Kallis,DP Nannes,MS Bisla,1,0,{'wides': 1},na
2nd innings,6.6,JH Kallis,DP Nannes,MS Bisla,0,0,na,na
2nd innings,6.7,JH Kallis,DP Nannes,MS Bisla,1,1,na,na
2nd innings,7.1,JH Kallis,MM Sharma,MS Bisla,1,1,na,na
2nd innings,7.2,MS Bisla,MM Sharma,JH Kallis,1,1,na,na
2nd innings,7.3,JH Kallis,MM Sharma,MS Bisla,1,1,na,na
2nd innings,7.4,MS Bisla,MM Sharma,JH Kallis,0,0,na,na
2nd innings,7.5,MS Bisla,MM Sharma,JH Kallis,1,1,na,na
2nd innings,7.6,JH Kallis,MM Sharma,MS Bisla,1,1,na,na
2nd innings,8.1,JH Kallis,RA Jadeja,MS Bisla,1,1,na,na
2nd innings,8.2,MS Bisla,RA Jadeja,JH Kallis,1,1,na,na
2nd innings,8.3,JH Kallis,RA Jadeja,MS Bisla,1,1,na,na
2nd innings,8.4,MS Bisla,RA Jadeja,JH Kallis,1,1,na,na
2nd innings,8.5,JH Kallis,RA Jadeja,MS Bisla,0,0,na,na
2nd innings,8.6,JH Kallis,RA Jadeja,MS Bisla,0,0,na,na
2nd innings,9.1,MS Bisla,R Ashwin,JH Kallis,1,1,na,na
2nd innings,9.2,JH Kallis,R Ashwin,MS Bisla,1,1,na,na
2nd innings,9.3,MS Bisla,R Ashwin,JH Kallis,0,0,na,na
2nd innings,9.4,MS Bisla,R Ashwin,JH Kallis,1,1,na,na
2nd innings,9.5,JH Kallis,R Ashwin,MS Bisla,0,0,na,na
2nd innings,9.6,JH Kallis,R Ashwin,MS Bisla,6,6,na,na
2nd innings,10.1,MS Bisla,RA Jadeja,JH Kallis,6,6,na,na
2nd innings,10.2,MS Bisla,RA Jadeja,JH Kallis,0,0,na,na
2nd innings,10.3,MS Bisla,RA Jadeja,JH Kallis,2,2,na,na
2nd innings,10.4,MS Bisla,RA Jadeja,JH Kallis,0,0,na,na
2nd innings,10.5,MS Bisla,RA Jadeja,JH Kallis,1,1,na,na
2nd innings,10.6,JH Kallis,RA Jadeja,MS Bisla,0,0,na,na
2nd innings,11.1,MS Bisla,R Ashwin,JH Kallis,1,1,na,na
2nd innings,11.2,JH Kallis,R Ashwin,MS Bisla,0,0,na,na
2nd innings,11.3,JH Kallis,R Ashwin,MS Bisla,1,1,na,na
2nd innings,11.4,MS Bisla,R Ashwin,JH Kallis,1,1,na,na
2nd innings,11.5,JH Kallis,R Ashwin,MS Bisla,1,1,na,na
2nd innings,11.6,MS Bisla,R Ashwin,JH Kallis,1,1,na,na
2nd innings,12.1,MS Bisla,DJ Bravo,JH Kallis,0,0,na,na
2nd innings,12.2,MS Bisla,DJ Bravo,JH Kallis,0,0,na,"{'fielders': ['DP Nannes'], 'kind': 'caught', 'player_out': 'JH Kallis'}"
2nd innings,12.3,MS Bisla,DJ Bravo,EJG Morgan,1,1,na,na
2nd innings,12.4,EJG Morgan,DJ Bravo,MS Bisla,2,2,na,na
2nd innings,12.5,EJG Morgan,DJ Bravo,MS Bisla,1,1,na,na
2nd innings,12.6,MS Bisla,DJ Bravo,EJG Morgan,4,4,na,na
2nd innings,13.1,EJG Morgan,R Ashwin,MS Bisla,4,4,na,na
2nd innings,13.2,EJG Morgan,R Ashwin,MS Bisla,4,4,na,na
2nd innings,13.3,EJG Morgan,R Ashwin,MS Bisla,1,1,na,na
2nd innings,13.4,MS Bisla,R Ashwin,EJG Morgan,1,1,na,na
2nd innings,13.5,EJG Morgan,R Ashwin,MS Bisla,1,1,na,na
2nd innings,13.6,MS Bisla,R Ashwin,EJG Morgan,1,1,na,na
2nd innings,14.1,MS Bisla,DJ Bravo,EJG Morgan,1,1,na,na
2nd innings,14.2,EJG Morgan,DJ Bravo,MS Bisla,0,0,na,na
2nd innings,14.3,EJG Morgan,DJ Bravo,MS Bisla,4,4,na,na
2nd innings,14.4,EJG Morgan,DJ Bravo,MS Bisla,1,0,{'legbyes': 1},na
2nd innings,14.5,MS Bisla,DJ Bravo,EJG Morgan,0,0,na,na
2nd innings,14.6,MS Bisla,DJ Bravo,EJG Morgan,1,1,na,na
2nd innings,15.1,MS Bisla,DP Nannes,EJG Morgan,1,1,na,na
2nd innings,15.2,EJG Morgan,DP Nannes,MS Bisla,0,0,na,na
2nd innings,15.3,EJG Morgan,DP Nannes,MS Bisla,4,4,na,na
2nd innings,15.4,EJG Morgan,DP Nannes,MS Bisla,1,1,na,na
2nd innings,15.5,MS Bisla,DP Nannes,EJG Morgan,0,0,na,na
2nd innings,15.6,MS Bisla,DP Nannes,EJG Morgan,6,6,na,na
2nd innings,16.1,EJG Morgan,DJ Bravo,MS Bisla,4,4,na,na
2nd innings,16.2,EJG Morgan,DJ Bravo,MS Bisla,1,1,na,na
2nd innings,16.3,MS Bisla,DJ Bravo,EJG Morgan,1,0,{'wides': 1},na
2nd innings,16.4,MS Bisla,DJ Bravo,EJG Morgan,0,0,na,na
2nd innings,16.5,MS Bisla,DJ Bravo,EJG Morgan,1,1,na,na
2nd innings,16.6,EJG Morgan,DJ Bravo,MS Bisla,4,4,na,na
2nd innings,16.7,EJG Morgan,DJ Bravo,MS Bisla,2,2,na,na
2nd innings,17.1,MS Bisla,DP Nannes,EJG Morgan,6,6,na,na
2nd innings,17.2,MS Bisla,DP Nannes,EJG Morgan,1,0,{'legbyes': 1},na
2nd innings,17.3,EJG Morgan,DP Nannes,MS Bisla,4,4,na,na
2nd innings,17.4,EJG Morgan,DP Nannes,MS Bisla,6,6,na,na
2nd innings,17.5,EJG Morgan,DP Nannes,MS Bisla,0,0,na,na
2nd innings,17.6,EJG Morgan,DP Nannes,MS Bisla,4,4,na,na
2nd innings,18.1,MS Bisla,DJ Bravo,EJG Morgan,4,4,na,na
2nd innings,18.2,MS Bisla,DJ Bravo,EJG Morgan,1,0,{'wides': 1},na
2nd innings,18.3,MS Bisla,DJ Bravo,EJG Morgan,1,1,na,na
2nd innings,18.4,EJG Morgan,DJ Bravo,MS Bisla,0,0,na,"{'fielders': ['MEK Hussey'], 'kind': 'run out', 'player_out': 'MS Bisla'}"
2nd innings,18.5,YK Pathan,DJ Bravo,EJG Morgan,1,0,{'wides': 1},na
2nd innings,18.6,YK Pathan,DJ Bravo,EJG Morgan,1,1,na,na
2nd innings,18.7,EJG Morgan,DJ Bravo,YK Pathan,1,1,na,na
2nd innings,18.8,YK Pathan,DJ Bravo,EJG Morgan,1,1,na,na
2nd innings,19.1,YK Pathan,CH Morris,EJG Morgan,0,0,na,na
2nd innings,19.2,YK Pathan,CH Morris,EJG Morgan,1,1,na,na
2nd innings,19.3,EJG Morgan,CH Morris,YK Pathan,1,1,na,na
2nd innings,19.4,YK Pathan,CH Morris,EJG Morgan,0,0,na,na
2nd innings,19.5,YK Pathan,CH Morris,EJG Morgan,1,1,na,na
2nd innings,19.6,EJG Morgan,CH Morris,YK Pathan,1,1,na,na
