innings,deliveries,non_striker,bowler,batsman,total_runs,batsman_runs,extras,wickets
1st innings,0.1,CH Gayle,SMSM Senanayake,CA Pujara,0,0,na,na
1st innings,0.2,CH Gayle,SMSM Senanayake,CA Pujara,0,0,na,na
1st innings,0.3,CH Gayle,SMSM Senanayake,CA Pujara,0,0,na,na
1st innings,0.4,CH Gayle,SMSM Senanayake,CA Pujara,1,1,na,na
1st innings,0.5,CA Pujara,SMSM Senanayake,CH Gayle,1,1,na,na
1st innings,0.6,CH Gayle,SMSM Senanayake,CA Pujara,1,1,na,na
1st innings,1.1,CH Gayle,L Balaji,CA Pujara,0,0,na,na
1st innings,1.2,CH Gayle,L Balaji,CA Pujara,0,0,na,na
1st innings,1.3,CH Gayle,L Balaji,CA Pujara,1,1,na,na
1st innings,1.4,CA Pujara,L Balaji,CH Gayle,0,0,na,na
1st innings,1.5,CA Pujara,L Balaji,CH Gayle,1,1,na,na
1st innings,1.6,CH Gayle,L Balaji,CA Pujara,0,0,na,na
1st innings,2.1,CA Pujara,SMSM Senanayake,CH Gayle,0,0,na,na
1st innings,2.2,CA Pujara,SMSM Senanayake,CH Gayle,4,4,na,na
1st innings,2.3,CA Pujara,SMSM Senanayake,CH Gayle,0,0,na,na
1st innings,2.4,CA Pujara,SMSM Senanayake,CH Gayle,0,0,na,na
1st innings,2.5,CA Pujara,SMSM Senanayake,CH Gayle,1,1,na,na
1st innings,2.6,CH Gayle,SMSM Senanayake,CA Pujara,1,1,na,na
1st innings,3.1,CH Gayle,L Balaji,CA Pujara,0,0,na,na
1st innings,3.2,CH Gayle,L Balaji,CA Pujara,0,0,na,na
1st innings,3.3,CH Gayle,L Balaji,CA Pujara,1,1,na,na
1st innings,3.4,CA Pujara,L Balaji,CH Gayle,0,0,na,na
1st innings,3.5,CA Pujara,L Balaji,CH Gayle,0,0,na,na
1st innings,3.6,CA Pujara,L Balaji,CH Gayle,1,0,{'wides': 1},na
1st innings,3.7,CA Pujara,L Balaji,CH Gayle,1,1,na,na
1st innings,4.1,CA Pujara,SMSM Senanayake,CH Gayle,0,0,na,na
1st innings,4.2,CA Pujara,SMSM Senanayake,CH Gayle,1,1,na,na
1st innings,4.3,CH Gayle,SMSM Senanayake,CA Pujara,0,0,na,"{'fielders': ['L Balaji'], 'kind': 'caught', 'player_out': 'CA Pujara'}"
1st innings,4.4,V Kohli,SMSM Senanayake,CH Gayle,1,1,na,na
1st innings,4.5,CH Gayle,SMSM Senanayake,V Kohli,0,0,na,na
1st innings,4.6,CH Gayle,SMSM Senanayake,V Kohli,0,0,na,na
1st innings,5.1,V Kohli,SP Narine,CH Gayle,0,0,na,na
1st innings,5.2,V Kohli,SP Narine,CH Gayle,1,1,na,na
1st innings,5.3,CH Gayle,SP Narine,V Kohli,0,0,na,na
1st innings,5.4,CH Gayle,SP Narine,V Kohli,4,4,na,na
1st innings,5.5,CH Gayle,SP Narine,V Kohli,0,0,na,na
1st innings,5.6,CH Gayle,SP Narine,V Kohli,1,1,na,na
1st innings,6.1,CH Gayle,JH Kallis,V Kohli,1,1,na,na
1st innings,6.2,V Kohli,JH Kallis,CH Gayle,0,0,na,na
1st innings,6.3,V Kohli,JH Kallis,CH Gayle,1,1,na,na
1st innings,6.4,CH Gayle,JH Kallis,V Kohli,1,1,na,na
1st innings,6.5,V Kohli,JH Kallis,CH Gayle,1,1,na,na
1st innings,6.6,CH Gayle,JH Kallis,V Kohli,2,2,na,na
1st innings,7.1,V Kohli,RN ten Doeschate,CH Gayle,1,1,na,na
1st innings,7.2,CH Gayle,RN ten Doeschate,V Kohli,4,4,na,na
1st innings,7.3,CH Gayle,RN ten Doeschate,V Kohli,1,1,na,na
1st innings,7.4,V Kohli,RN ten Doeschate,CH Gayle,0,0,na,na
1st innings,7.5,V Kohli,RN ten Doeschate,CH Gayle,6,6,na,na
1st innings,7.6,V Kohli,RN ten Doeschate,CH Gayle,2,2,na,na
1st innings,8.1,CH Gayle,JH Kallis,V Kohli,1,1,na,na
1st innings,8.2,V Kohli,JH Kallis,CH Gayle,1,1,na,na
1st innings,8.3,CH Gayle,JH Kallis,V Kohli,2,2,na,na
1st innings,8.4,CH Gayle,JH Kallis,V Kohli,0,0,na,"{'kind': 'bowled', 'player_out': 'V Kohli'}"
1st innings,8.5,CH Gayle,JH Kallis,AB de Villiers,1,1,na,na
1st innings,8.6,AB de Villiers,JH Kallis,CH Gayle,0,0,na,na
1st innings,9.1,CH Gayle,YK Pathan,AB de Villiers,1,1,na,na
1st innings,9.2,AB de Villiers,YK Pathan,CH Gayle,1,0,{'legbyes': 1},na
1st innings,9.3,CH Gayle,YK Pathan,AB de Villiers,1,1,na,na
1st innings,9.4,AB de Villiers,YK Pathan,CH Gayle,1,1,na,na
1st innings,9.5,CH Gayle,YK Pathan,AB de Villiers,1,1,na,na
1st innings,9.6,AB de Villiers,YK Pathan,CH Gayle,2,2,na,na
1st innings,10.1,CH Gayle,JH Kallis,AB de Villiers,0,0,na,na
1st innings,10.2,CH Gayle,JH Kallis,AB de Villiers,0,0,na,na
1st innings,10.3,CH Gayle,JH Kallis,AB de Villiers,1,1,na,na
1st innings,10.4,AB de Villiers,JH Kallis,CH Gayle,1,1,na,na
1st innings,10.5,CH Gayle,JH Kallis,AB de Villiers,0,0,na,na
1st innings,10.6,CH Gayle,JH Kallis,AB de Villiers,1,1,na,na
1st innings,11.1,CH Gayle,R Bhatia,AB de Villiers,1,1,na,na
1st innings,11.2,AB de Villiers,R Bhatia,CH Gayle,1,1,na,na
1st innings,11.3,CH Gayle,R Bhatia,AB de Villiers,1,1,na,na
1st innings,11.4,AB de Villiers,R Bhatia,CH Gayle,1,1,na,na
1st innings,11.5,CH Gayle,R Bhatia,AB de Villiers,1,1,na,na
1st innings,11.6,AB de Villiers,R Bhatia,CH Gayle,1,1,na,na
1st innings,12.1,AB de Villiers,SMSM Senanayake,CH Gayle,1,1,na,na
1st innings,12.2,CH Gayle,SMSM Senanayake,AB de Villiers,1,1,na,na
1st innings,12.3,AB de Villiers,SMSM Senanayake,CH Gayle,1,1,na,na
1st innings,12.4,CH Gayle,SMSM Senanayake,AB de Villiers,1,1,na,na
1st innings,12.5,AB de Villiers,SMSM Senanayake,CH Gayle,1,1,na,na
1st innings,12.6,CH Gayle,SMSM Senanayake,AB de Villiers,2,2,na,na
1st innings,13.1,AB de Villiers,SP Narine,CH Gayle,0,0,na,"{'fielders': ['MS Bisla'], 'kind': 'stumped', 'player_out': 'CH Gayle'}"
1st innings,13.2,AB de Villiers,SP Narine,MC Henriques,0,0,na,na
1st innings,13.3,AB de Villiers,SP Narine,MC Henriques,2,2,na,na
1st innings,13.4,AB de Villiers,SP Narine,MC Henriques,2,2,na,na
1st innings,13.5,AB de Villiers,SP Narine,MC Henriques,1,1,na,na
1st innings,13.6,MC Henriques,SP Narine,AB de Villiers,1,1,na,na
1st innings,14.1,MC Henriques,R Bhatia,AB de Villiers,1,1,na,na
1st innings,14.2,AB de Villiers,R Bhatia,MC Henriques,1,1,na,na
1st innings,14.3,MC Henriques,R Bhatia,AB de Villiers,1,1,na,na
1st innings,14.4,AB de Villiers,R Bhatia,MC Henriques,0,0,na,na
1st innings,14.5,AB de Villiers,R Bhatia,MC Henriques,1,1,na,na
1st innings,14.6,MC Henriques,R Bhatia,AB de Villiers,4,4,na,na
1st innings,15.1,AB de Villiers,L Balaji,MC Henriques,2,2,na,na
1st innings,15.2,AB de Villiers,L Balaji,MC Henriques,1,1,na,na
1st innings,15.3,MC Henriques,L Balaji,AB de Villiers,2,2,na,na
1st innings,15.4,MC Henriques,L Balaji,AB de Villiers,6,6,na,na
1st innings,15.5,MC Henriques,L Balaji,AB de Villiers,0,0,na,"{'fielders': ['MS Bisla'], 'kind': 'caught', 'player_out': 'AB de Villiers'}"
1st innings,15.6,MC Henriques,L Balaji,SS Tiwary,1,1,na,na
1st innings,16.1,MC Henriques,SP Narine,SS Tiwary,0,0,na,na
1st innings,16.2,MC Henriques,SP Narine,SS Tiwary,0,0,na,"{'kind': 'lbw', 'player_out': 'SS Tiwary'}"
1st innings,16.3,MC Henriques,SP Narine,R Vinay Kumar,1,1,na,na
1st innings,16.4,R Vinay Kumar,SP Narine,MC Henriques,1,1,na,na
1st innings,16.5,MC Henriques,SP Narine,R Vinay Kumar,0,0,na,na
1st innings,16.6,MC Henriques,SP Narine,R Vinay Kumar,4,4,na,na
1st innings,17.1,R Vinay Kumar,JH Kallis,MC Henriques,0,0,na,"{'fielders': ['MK Tiwary'], 'kind': 'caught', 'player_out': 'MC Henriques'}"
1st innings,17.2,R Rampaul,JH Kallis,R Vinay Kumar,0,0,na,na
1st innings,17.3,R Rampaul,JH Kallis,R Vinay Kumar,2,2,na,na
1st innings,17.4,R Rampaul,JH Kallis,R Vinay Kumar,1,1,na,na
1st innings,17.5,R Vinay Kumar,JH Kallis,R Rampaul,0,0,na,na
1st innings,17.6,R Vinay Kumar,JH Kallis,R Rampaul,0,0,na,na
1st innings,18.1,R Rampaul,SP Narine,R Vinay Kumar,1,1,na,na
1st innings,18.2,R Vinay Kumar,SP Narine,R Rampaul,0,0,na,"{'kind': 'lbw', 'player_out': 'R Rampaul'}"
1st innings,18.3,R Vinay Kumar,SP Narine,A Mithun,2,2,na,na
1st innings,18.4,R Vinay Kumar,SP Narine,A Mithun,0,0,na,"{'fielders': ['MK Tiwary'], 'kind': 'caught', 'player_out': 'A Mithun'}"
1st innings,18.5,M Kartik,SP Narine,R Vinay Kumar,0,0,na,na
1st innings,18.6,M Kartik,SP Narine,R Vinay Kumar,1,1,na,na
1st innings,19.1,M Kartik,L Balaji,R Vinay Kumar,2,2,na,na
1st innings,19.2,M Kartik,L Balaji,R Vinay Kumar,0,0,na,na
1st innings,19.3,M Kartik,L Balaji,R Vinay Kumar,1,0,{'byes': 1},na
1st innings,19.4,R Vinay Kumar,L Balaji,M Kartik,0,0,na,"{'kind': 'bowled', 'player_out': 'M Kartik'}"
1st innings,19.5,R Vinay Kumar,L Balaji,JD Unadkat,1,1,na,na
1st innings,19.6,JD Unadkat,L Balaji,R Vinay Kumar,2,2,na,na
2nd innings,0.1,G Gambhir,R Rampaul,MS Bisla,0,0,na,na
2nd innings,0.2,G Gambhir,R Rampaul,MS Bisla,0,0,na,"{'fielders': ['MC Henriques'], 'kind': 'caught', 'player_out': 'MS Bisla'}"
2nd innings,0.3,G Gambhir,R Rampaul,JH Kallis,0,0,na,na
2nd innings,0.4,G Gambhir,R Rampaul,JH Kallis,0,0,na,na
2nd innings,0.5,G Gambhir,R Rampaul,JH Kallis,0,0,na,na
2nd innings,0.6,G Gambhir,R Rampaul,JH Kallis,0,0,na,na
2nd innings,1.1,JH Kallis,A Mithun,G Gambhir,1,1,na,na
2nd innings,1.2,G Gambhir,A Mithun,JH Kallis,0,0,na,na
2nd innings,1.3,G Gambhir,A Mithun,JH Kallis,0,0,na,na
2nd innings,1.4,G Gambhir,A Mithun,JH Kallis,2,2,na,na
2nd innings,1.5,G Gambhir,A Mithun,JH Kallis,1,1,na,na
2nd innings,1.6,JH Kallis,A Mithun,G Gambhir,0,0,na,na
2nd innings,2.1,G Gambhir,R Rampaul,JH Kallis,0,0,na,na
2nd innings,2.2,G Gambhir,R Rampaul,JH Kallis,4,4,na,na
2nd innings,2.3,G Gambhir,R Rampaul,JH Kallis,1,1,na,na
2nd innings,2.4,JH Kallis,R Rampaul,G Gambhir,0,0,na,na
2nd innings,2.5,JH Kallis,R Rampaul,G Gambhir,1,0,{'legbyes': 1},na
2nd innings,2.6,G Gambhir,R Rampaul,JH Kallis,0,0,na,na
2nd innings,3.1,JH Kallis,A Mithun,G Gambhir,0,0,na,na
2nd innings,3.2,JH Kallis,A Mithun,G Gambhir,0,0,na,na
2nd innings,3.3,JH Kallis,A Mithun,G Gambhir,0,0,na,na
2nd innings,3.4,JH Kallis,A Mithun,G Gambhir,4,4,na,na
2nd innings,3.5,JH Kallis,A Mithun,G Gambhir,4,4,na,na
2nd innings,3.6,JH Kallis,A Mithun,G Gambhir,4,4,na,na
2nd innings,4.1,G Gambhir,JD Unadkat,JH Kallis,0,0,na,na
2nd innings,4.2,G Gambhir,JD Unadkat,JH Kallis,0,0,na,na
2nd innings,4.3,G Gambhir,JD Unadkat,JH Kallis,2,2,na,na
2nd innings,4.4,G Gambhir,JD Unadkat,JH Kallis,1,1,na,na
2nd innings,4.5,JH Kallis,JD Unadkat,G Gambhir,1,1,na,na
2nd innings,4.6,G Gambhir,JD Unadkat,JH Kallis,1,1,na,na
2nd innings,5.1,G Gambhir,R Vinay Kumar,JH Kallis,3,3,na,na
2nd innings,5.2,JH Kallis,R Vinay Kumar,G Gambhir,0,0,na,na
2nd innings,5.3,JH Kallis,R Vinay Kumar,G Gambhir,1,0,{'wides': 1},na
2nd innings,5.4,JH Kallis,R Vinay Kumar,G Gambhir,0,0,na,na
2nd innings,5.5,JH Kallis,R Vinay Kumar,G Gambhir,0,0,na,na
2nd innings,5.6,JH Kallis,R Vinay Kumar,G Gambhir,0,0,na,"{'fielders': ['CH Gayle'], 'kind': 'caught', 'player_out': 'G Gambhir'}"
2nd innings,5.7,JH Kallis,R Vinay Kumar,YK Pathan,0,0,na,na
2nd innings,6.1,YK Pathan,R Rampaul,JH Kallis,2,2,na,na
2nd innings,6.2,YK Pathan,R Rampaul,JH Kallis,1,1,na,na
2nd innings,6.3,JH Kallis,R Rampaul,YK Pathan,2,2,na,na
2nd innings,6.4,JH Kallis,R Rampaul,YK Pathan,1,0,{'wides': 1},na
2nd innings,6.5,JH Kallis,R Rampaul,YK Pathan,0,0,na,na
2nd innings,6.6,JH Kallis,R Rampaul,YK Pathan,1,1,na,na
2nd innings,6.7,YK Pathan,R Rampaul,JH Kallis,0,0,na,na
2nd innings,7.1,JH Kallis,M Kartik,YK Pathan,6,6,na,na
2nd innings,7.2,JH Kallis,M Kartik,YK Pathan,0,0,na,na
2nd innings,7.3,JH Kallis,M Kartik,YK Pathan,1,1,na,na
2nd innings,7.4,YK Pathan,M Kartik,JH Kallis,0,0,na,na
2nd innings,7.5,YK Pathan,M Kartik,JH Kallis,0,0,na,na
2nd innings,7.6,YK Pathan,M Kartik,JH Kallis,1,1,na,na
2nd innings,8.1,YK Pathan,R Vinay Kumar,JH Kallis,1,1,na,na
2nd innings,8.2,JH Kallis,R Vinay Kumar,YK Pathan,0,0,na,na
2nd innings,8.3,JH Kallis,R Vinay Kumar,YK Pathan,3,3,na,na
2nd innings,8.4,YK Pathan,R Vinay Kumar,JH Kallis,0,0,na,na
2nd innings,8.5,YK Pathan,R Vinay Kumar,JH Kallis,1,1,na,na
2nd innings,8.6,JH Kallis,R Vinay Kumar,YK Pathan,0,0,na,na
2nd innings,9.1,YK Pathan,JD Unadkat,JH Kallis,4,4,na,na
2nd innings,9.2,YK Pathan,JD Unadkat,JH Kallis,0,0,na,na
2nd innings,9.3,YK Pathan,JD Unadkat,JH Kallis,1,1,na,na
2nd innings,9.4,JH Kallis,JD Unadkat,YK Pathan,0,0,na,na
2nd innings,9.5,JH Kallis,JD Unadkat,YK Pathan,4,4,na,na
2nd innings,9.6,JH Kallis,JD Unadkat,YK Pathan,1,1,na,na
2nd innings,10.1,JH Kallis,M Kartik,YK Pathan,0,0,na,na
2nd innings,10.2,JH Kallis,M Kartik,YK Pathan,0,0,na,na
2nd innings,10.3,JH Kallis,M Kartik,YK Pathan,0,0,na,"{'kind': 'lbw', 'player_out': 'YK Pathan'}"
2nd innings,10.4,JH Kallis,M Kartik,MK Tiwary,0,0,na,na
2nd innings,10.5,JH Kallis,M Kartik,MK Tiwary,1,1,na,na
2nd innings,10.6,MK Tiwary,M Kartik,JH Kallis,0,0,na,na
2nd innings,11.1,JH Kallis,JD Unadkat,MK Tiwary,0,0,na,na
2nd innings,11.2,JH Kallis,JD Unadkat,MK Tiwary,1,1,na,na
2nd innings,11.3,MK Tiwary,JD Unadkat,JH Kallis,0,0,na,na
2nd innings,11.4,MK Tiwary,JD Unadkat,JH Kallis,1,1,na,na
2nd innings,11.5,JH Kallis,JD Unadkat,MK Tiwary,0,0,na,na
2nd innings,11.6,JH Kallis,JD Unadkat,MK Tiwary,4,4,na,na
2nd innings,12.1,MK Tiwary,M Kartik,JH Kallis,1,1,na,na
2nd innings,12.2,JH Kallis,M Kartik,MK Tiwary,0,0,na,na
2nd innings,12.3,JH Kallis,M Kartik,MK Tiwary,4,4,na,na
2nd innings,12.4,JH Kallis,M Kartik,MK Tiwary,0,0,na,na
2nd innings,12.5,JH Kallis,M Kartik,MK Tiwary,0,0,na,na
2nd innings,12.6,JH Kallis,M Kartik,MK Tiwary,1,1,na,na
2nd innings,13.1,JH Kallis,A Mithun,MK Tiwary,2,2,na,na
2nd innings,13.2,JH Kallis,A Mithun,MK Tiwary,1,1,na,na
2nd innings,13.3,MK Tiwary,A Mithun,JH Kallis,1,1,na,na
2nd innings,13.4,JH Kallis,A Mithun,MK Tiwary,1,1,na,na
2nd innings,13.5,MK Tiwary,A Mithun,JH Kallis,1,1,na,na
2nd innings,13.6,JH Kallis,A Mithun,MK Tiwary,0,0,na,na
2nd innings,14.1,MK Tiwary,R Rampaul,JH Kallis,1,0,{'wides': 1},na
2nd innings,14.2,MK Tiwary,R Rampaul,JH Kallis,0,0,na,na
2nd innings,14.3,MK Tiwary,R Rampaul,JH Kallis,0,0,na,na
2nd innings,14.4,MK Tiwary,R Rampaul,JH Kallis,1,1,na,na
2nd innings,14.5,JH Kallis,R Rampaul,MK Tiwary,1,1,na,na
2nd innings,14.6,MK Tiwary,R Rampaul,JH Kallis,1,1,na,na
2nd innings,14.7,JH Kallis,R Rampaul,MK Tiwary,1,1,na,na
2nd innings,15.1,JH Kallis,M Kartik,MK Tiwary,0,0,na,na
2nd innings,15.2,JH Kallis,M Kartik,MK Tiwary,0,0,na,na
2nd innings,15.3,JH Kallis,M Kartik,MK Tiwary,0,0,na,na
2nd innings,15.4,JH Kallis,M Kartik,MK Tiwary,1,1,na,na
2nd innings,15.5,MK Tiwary,M Kartik,JH Kallis,1,1,na,na
2nd innings,15.6,JH Kallis,M Kartik,MK Tiwary,0,0,na,na
2nd innings,16.1,MK Tiwary,A Mithun,JH Kallis,4,4,na,na
2nd innings,16.2,MK Tiwary,A Mithun,JH Kallis,4,4,na,na
2nd innings,16.3,MK Tiwary,A Mithun,JH Kallis,1,0,{'wides': 1},na
2nd innings,16.4,MK Tiwary,A Mithun,JH Kallis,0,0,na,na
2nd innings,16.5,MK Tiwary,A Mithun,JH Kallis,0,0,na,"{'fielders': ['MC Henriques'], 'kind': 'caught', 'player_out': 'JH Kallis'}"
2nd innings,16.6,RN ten Doeschate,A Mithun,MK Tiwary,4,4,na,na
2nd innings,16.7,RN ten Doeschate,A Mithun,MK Tiwary,2,2,na,na
2nd innings,17.1,MK Tiwary,R Vinay Kumar,RN ten Doeschate,1,1,na,na
2nd innings,17.2,RN ten Doeschate,R Vinay Kumar,MK Tiwary,0,0,na,na
2nd innings,17.3,RN ten Doeschate,R Vinay Kumar,MK Tiwary,0,0,na,na
2nd innings,17.4,RN ten Doeschate,R Vinay Kumar,MK Tiwary,0,0,na,"{'fielders': ['V Kohli'], 'kind': 'caught', 'player_out': 'MK Tiwary'}"
2nd innings,17.5,RN ten Doeschate,R Vinay Kumar,R Bhatia,1,1,na,na
2nd innings,17.6,R Bhatia,R Vinay Kumar,RN ten Doeschate,1,1,na,na
2nd innings,18.1,R Bhatia,JD Unadkat,RN ten Doeschate,0,0,na,na
2nd innings,18.2,R Bhatia,JD Unadkat,RN ten Doeschate,0,0,na,na
2nd innings,18.3,R Bhatia,JD Unadkat,RN ten Doeschate,4,4,na,na
2nd innings,18.4,R Bhatia,JD Unadkat,RN ten Doeschate,1,1,na,na
2nd innings,18.5,RN ten Doeschate,JD Unadkat,R Bhatia,0,0,na,na
2nd innings,18.6,RN ten Doeschate,JD Unadkat,R Bhatia,1,1,na,na
2nd innings,19.1,RN ten Doeschate,R Vinay Kumar,R Bhatia,1,1,na,na
2nd innings,19.2,R Bhatia,R Vinay Kumar,RN ten Doeschate,4,4,na,na
