innings,deliveries,non_striker,bowler,batsman,total_runs,batsman_runs,extras,wickets
1st innings,0.1,S Dhawan,Z Khan,AJ Finch,1,0,{'legbyes': 1},na
1st innings,0.2,AJ Finch,Z Khan,S Dhawan,1,0,{'legbyes': 1},na
1st innings,0.3,S Dhawan,Z Khan,AJ Finch,4,4,na,na
1st innings,0.4,S Dhawan,Z Khan,AJ Finch,4,4,na,na
1st innings,0.5,S Dhawan,Z Khan,AJ Finch,0,0,na,na
1st innings,0.6,S Dhawan,Z Khan,AJ Finch,0,0,na,na
1st innings,1.1,AJ Finch,SL Malinga,S Dhawan,1,0,{'legbyes': 1},na
1st innings,1.2,S Dhawan,SL Malinga,AJ Finch,2,2,na,na
1st innings,1.3,S Dhawan,SL Malinga,AJ Finch,0,0,na,na
1st innings,1.4,S Dhawan,SL Malinga,AJ Finch,1,1,na,na
1st innings,1.5,AJ Finch,SL Malinga,S Dhawan,1,1,na,na
1st innings,1.6,S Dhawan,SL Malinga,AJ Finch,0,0,na,na
1st innings,2.1,AJ Finch,Z Khan,S Dhawan,1,1,na,na
1st innings,2.2,S Dhawan,Z Khan,AJ Finch,1,0,{'legbyes': 1},na
1st innings,2.3,AJ Finch,Z Khan,S Dhawan,4,4,na,na
1st innings,2.4,AJ Finch,Z Khan,S Dhawan,0,0,na,"{'fielders': ['Harbhajan Singh'], 'kind': 'caught', 'player_out': 'S Dhawan'}"
1st innings,2.5,AJ Finch,Z Khan,KL Rahul,0,0,na,na
1st innings,2.6,AJ Finch,Z Khan,KL Rahul,0,0,na,na
1st innings,3.1,KL Rahul,PP Ojha,AJ Finch,0,0,na,na
1st innings,3.2,KL Rahul,PP Ojha,AJ Finch,4,4,na,na
1st innings,3.3,KL Rahul,PP Ojha,AJ Finch,1,1,na,na
1st innings,3.4,AJ Finch,PP Ojha,KL Rahul,4,4,na,na
1st innings,3.5,AJ Finch,PP Ojha,KL Rahul,0,0,na,na
1st innings,3.6,AJ Finch,PP Ojha,KL Rahul,1,1,na,na
1st innings,4.1,AJ Finch,Z Khan,KL Rahul,0,0,na,na
1st innings,4.2,AJ Finch,Z Khan,KL Rahul,2,2,na,na
1st innings,4.3,AJ Finch,Z Khan,KL Rahul,4,4,na,na
1st innings,4.4,AJ Finch,Z Khan,KL Rahul,1,1,na,na
1st innings,4.5,KL Rahul,Z Khan,AJ Finch,0,0,na,na
1st innings,4.6,KL Rahul,Z Khan,AJ Finch,0,0,na,"{'fielders': ['BR Dunk'], 'kind': 'caught', 'player_out': 'AJ Finch'}"
1st innings,5.1,DA Warner,SL Malinga,KL Rahul,1,1,na,na
1st innings,5.2,KL Rahul,SL Malinga,DA Warner,0,0,na,na
1st innings,5.3,KL Rahul,SL Malinga,DA Warner,1,1,na,na
1st innings,5.4,DA Warner,SL Malinga,KL Rahul,2,2,na,na
1st innings,5.5,DA Warner,SL Malinga,KL Rahul,0,0,na,na
1st innings,5.6,DA Warner,SL Malinga,KL Rahul,2,2,na,na
1st innings,6.1,KL Rahul,Harbhajan Singh,DA Warner,0,0,na,na
1st innings,6.2,KL Rahul,Harbhajan Singh,DA Warner,1,1,na,na
1st innings,6.3,DA Warner,Harbhajan Singh,KL Rahul,1,1,na,na
1st innings,6.4,KL Rahul,Harbhajan Singh,DA Warner,1,1,na,na
1st innings,6.5,DA Warner,Harbhajan Singh,KL Rahul,1,1,na,na
1st innings,6.6,KL Rahul,Harbhajan Singh,DA Warner,0,0,na,na
1st innings,7.1,DA Warner,PP Ojha,KL Rahul,1,1,na,na
1st innings,7.2,KL Rahul,PP Ojha,DA Warner,0,0,na,na
1st innings,7.3,KL Rahul,PP Ojha,DA Warner,5,0,{'wides': 5},na
1st innings,7.4,KL Rahul,PP Ojha,DA Warner,6,6,na,na
1st innings,7.5,KL Rahul,PP Ojha,DA Warner,1,1,na,na
1st innings,7.6,DA Warner,PP Ojha,KL Rahul,1,1,na,na
1st innings,7.7,KL Rahul,PP Ojha,DA Warner,1,1,na,na
1st innings,8.1,KL Rahul,Harbhajan Singh,DA Warner,0,0,na,na
1st innings,8.2,KL Rahul,Harbhajan Singh,DA Warner,0,0,na,na
1st innings,8.3,KL Rahul,Harbhajan Singh,DA Warner,1,1,na,na
1st innings,8.4,DA Warner,Harbhajan Singh,KL Rahul,0,0,na,na
1st innings,8.5,DA Warner,Harbhajan Singh,KL Rahul,1,1,na,na
1st innings,8.6,KL Rahul,Harbhajan Singh,DA Warner,0,0,na,na
1st innings,9.1,DA Warner,KA Pollard,KL Rahul,1,1,na,na
1st innings,9.2,KL Rahul,KA Pollard,DA Warner,1,1,na,na
1st innings,9.3,DA Warner,KA Pollard,KL Rahul,1,1,na,na
1st innings,9.4,KL Rahul,KA Pollard,DA Warner,0,0,na,na
1st innings,9.5,KL Rahul,KA Pollard,DA Warner,2,2,na,na
1st innings,9.6,KL Rahul,KA Pollard,DA Warner,1,1,na,na
1st innings,10.1,KL Rahul,Harbhajan Singh,DA Warner,0,0,na,na
1st innings,10.2,KL Rahul,Harbhajan Singh,DA Warner,1,1,na,na
1st innings,10.3,DA Warner,Harbhajan Singh,KL Rahul,1,1,na,na
1st innings,10.4,KL Rahul,Harbhajan Singh,DA Warner,0,0,na,na
1st innings,10.5,KL Rahul,Harbhajan Singh,DA Warner,2,2,na,na
1st innings,10.6,KL Rahul,Harbhajan Singh,DA Warner,1,1,na,na
1st innings,11.1,KL Rahul,KA Pollard,DA Warner,2,2,na,na
1st innings,11.2,KL Rahul,KA Pollard,DA Warner,1,1,na,na
1st innings,11.3,DA Warner,KA Pollard,KL Rahul,1,1,na,na
1st innings,11.4,KL Rahul,KA Pollard,DA Warner,1,1,na,na
1st innings,11.5,DA Warner,KA Pollard,KL Rahul,1,1,na,na
1st innings,11.6,KL Rahul,KA Pollard,DA Warner,1,1,na,na
1st innings,12.1,KL Rahul,Harbhajan Singh,DA Warner,1,1,na,na
1st innings,12.2,DA Warner,Harbhajan Singh,KL Rahul,2,2,na,na
1st innings,12.3,DA Warner,Harbhajan Singh,KL Rahul,1,1,na,na
1st innings,12.4,KL Rahul,Harbhajan Singh,DA Warner,0,0,na,na
1st innings,12.5,KL Rahul,Harbhajan Singh,DA Warner,1,1,na,na
1st innings,12.6,DA Warner,Harbhajan Singh,KL Rahul,1,0,{'legbyes': 1},na
1st innings,13.1,DA Warner,KA Pollard,KL Rahul,0,0,na,na
1st innings,13.2,DA Warner,KA Pollard,KL Rahul,4,4,na,na
1st innings,13.3,DA Warner,KA Pollard,KL Rahul,1,1,na,na
1st innings,13.4,KL Rahul,KA Pollard,DA Warner,0,0,na,na
1st innings,13.5,KL Rahul,KA Pollard,DA Warner,4,4,na,na
1st innings,13.6,KL Rahul,KA Pollard,DA Warner,1,1,na,na
1st innings,14.1,KL Rahul,PP Ojha,DA Warner,5,0,{'wides': 5},na
1st innings,14.2,KL Rahul,PP Ojha,DA Warner,1,1,na,na
1st innings,14.3,DA Warner,PP Ojha,KL Rahul,1,1,na,na
1st innings,14.4,KL Rahul,PP Ojha,DA Warner,2,2,na,na
1st innings,14.5,KL Rahul,PP Ojha,DA Warner,6,6,na,na
1st innings,14.6,KL Rahul,PP Ojha,DA Warner,1,1,na,na
1st innings,14.7,DA Warner,PP Ojha,KL Rahul,2,2,na,na
1st innings,15.1,KL Rahul,KA Pollard,DA Warner,1,0,{'noballs': 1},na
1st innings,15.2,KL Rahul,KA Pollard,DA Warner,1,1,na,na
1st innings,15.3,DA Warner,KA Pollard,KL Rahul,1,1,na,na
1st innings,15.4,KL Rahul,KA Pollard,DA Warner,6,6,na,na
1st innings,15.5,KL Rahul,KA Pollard,DA Warner,1,1,na,na
1st innings,15.6,DA Warner,KA Pollard,KL Rahul,2,2,na,na
1st innings,15.7,DA Warner,KA Pollard,KL Rahul,1,1,na,na
1st innings,16.1,DA Warner,SL Malinga,KL Rahul,1,1,na,na
1st innings,16.2,KL Rahul,SL Malinga,DA Warner,2,2,na,na
1st innings,16.3,KL Rahul,SL Malinga,DA Warner,2,2,na,na
1st innings,16.4,KL Rahul,SL Malinga,DA Warner,2,2,na,na
1st innings,16.5,KL Rahul,SL Malinga,DA Warner,0,0,na,na
1st innings,16.6,KL Rahul,SL Malinga,DA Warner,0,0,na,na
1st innings,17.1,DA Warner,Z Khan,KL Rahul,1,1,na,na
1st innings,17.2,KL Rahul,Z Khan,DA Warner,1,1,na,na
1st innings,17.3,DA Warner,Z Khan,KL Rahul,1,1,na,na
1st innings,17.4,KL Rahul,Z Khan,DA Warner,1,1,na,na
1st innings,17.5,DA Warner,Z Khan,KL Rahul,1,1,na,na
1st innings,17.6,KL Rahul,Z Khan,DA Warner,1,1,na,na
1st innings,18.1,KL Rahul,CJ Anderson,DA Warner,6,6,na,na
1st innings,18.2,KL Rahul,CJ Anderson,DA Warner,0,0,na,"{'fielders': ['CM Gautam'], 'kind': 'caught', 'player_out': 'DA Warner'}"
1st innings,18.3,KL Rahul,CJ Anderson,DJG Sammy,6,6,na,na
1st innings,18.4,KL Rahul,CJ Anderson,DJG Sammy,1,0,{'wides': 1},na
1st innings,18.5,KL Rahul,CJ Anderson,DJG Sammy,0,0,na,na
1st innings,18.6,KL Rahul,CJ Anderson,DJG Sammy,1,0,{'wides': 1},na
1st innings,18.7,KL Rahul,CJ Anderson,DJG Sammy,4,4,na,na
1st innings,18.8,KL Rahul,CJ Anderson,DJG Sammy,0,0,na,"{'fielders': ['KA Pollard'], 'kind': 'caught', 'player_out': 'DJG Sammy'}"
1st innings,19.1,KL Rahul,SL Malinga,NV Ojha,1,1,na,na
1st innings,19.2,NV Ojha,SL Malinga,KL Rahul,0,0,na,"{'fielders': ['CM Gautam'], 'kind': 'caught', 'player_out': 'KL Rahul'}"
1st innings,19.3,IK Pathan,SL Malinga,NV Ojha,1,1,na,na
1st innings,19.4,NV Ojha,SL Malinga,IK Pathan,1,1,na,na
1st innings,19.5,IK Pathan,SL Malinga,NV Ojha,4,4,na,na
1st innings,19.6,IK Pathan,SL Malinga,NV Ojha,4,4,na,na
2nd innings,0.1,RG Sharma,DW Steyn,BR Dunk,0,0,na,na
2nd innings,0.2,RG Sharma,DW Steyn,BR Dunk,1,1,na,na
2nd innings,0.3,BR Dunk,DW Steyn,RG Sharma,0,0,na,na
2nd innings,0.4,BR Dunk,DW Steyn,RG Sharma,0,0,na,na
2nd innings,0.5,BR Dunk,DW Steyn,RG Sharma,1,1,na,na
2nd innings,0.6,RG Sharma,DW Steyn,BR Dunk,4,4,na,na
2nd innings,1.1,BR Dunk,B Kumar,RG Sharma,0,0,na,na
2nd innings,1.2,BR Dunk,B Kumar,RG Sharma,0,0,na,"{'kind': 'bowled', 'player_out': 'RG Sharma'}"
2nd innings,1.3,BR Dunk,B Kumar,CJ Anderson,1,0,{'wides': 1},na
2nd innings,1.4,BR Dunk,B Kumar,CJ Anderson,0,0,na,na
2nd innings,1.5,BR Dunk,B Kumar,CJ Anderson,0,0,na,na
2nd innings,1.6,BR Dunk,B Kumar,CJ Anderson,0,0,na,na
2nd innings,1.7,BR Dunk,B Kumar,CJ Anderson,1,1,na,na
2nd innings,2.1,BR Dunk,DW Steyn,CJ Anderson,0,0,na,na
2nd innings,2.2,BR Dunk,DW Steyn,CJ Anderson,0,0,na,na
2nd innings,2.3,BR Dunk,DW Steyn,CJ Anderson,0,0,na,na
2nd innings,2.4,BR Dunk,DW Steyn,CJ Anderson,0,0,na,"{'fielders': ['NV Ojha'], 'kind': 'caught', 'player_out': 'CJ Anderson'}"
2nd innings,2.5,BR Dunk,DW Steyn,AT Rayudu,0,0,na,na
2nd innings,2.6,BR Dunk,DW Steyn,AT Rayudu,4,4,na,na
2nd innings,3.1,AT Rayudu,B Kumar,BR Dunk,1,0,{'wides': 1},na
2nd innings,3.2,AT Rayudu,B Kumar,BR Dunk,0,0,na,na
2nd innings,3.3,AT Rayudu,B Kumar,BR Dunk,0,0,na,na
2nd innings,3.4,AT Rayudu,B Kumar,BR Dunk,0,0,na,na
2nd innings,3.5,AT Rayudu,B Kumar,BR Dunk,0,0,na,na
2nd innings,3.6,AT Rayudu,B Kumar,BR Dunk,0,0,na,na
2nd innings,3.7,AT Rayudu,B Kumar,BR Dunk,0,0,na,na
2nd innings,4.1,BR Dunk,KV Sharma,AT Rayudu,1,1,na,na
2nd innings,4.2,AT Rayudu,KV Sharma,BR Dunk,4,4,na,na
2nd innings,4.3,AT Rayudu,KV Sharma,BR Dunk,2,2,na,na
2nd innings,4.4,AT Rayudu,KV Sharma,BR Dunk,0,0,na,na
2nd innings,4.5,AT Rayudu,KV Sharma,BR Dunk,4,4,na,na
2nd innings,4.6,AT Rayudu,KV Sharma,BR Dunk,0,0,na,na
2nd innings,5.1,BR Dunk,DJG Sammy,AT Rayudu,1,1,na,na
2nd innings,5.2,AT Rayudu,DJG Sammy,BR Dunk,4,4,na,na
2nd innings,5.3,AT Rayudu,DJG Sammy,BR Dunk,1,1,na,na
2nd innings,5.4,BR Dunk,DJG Sammy,AT Rayudu,1,1,na,na
2nd innings,5.5,AT Rayudu,DJG Sammy,BR Dunk,0,0,na,"{'kind': 'bowled', 'player_out': 'BR Dunk'}"
2nd innings,5.6,AT Rayudu,DJG Sammy,KA Pollard,1,1,na,na
2nd innings,6.1,AT Rayudu,DW Steyn,KA Pollard,1,0,{'wides': 1},na
2nd innings,6.2,AT Rayudu,DW Steyn,KA Pollard,0,0,na,na
2nd innings,6.3,AT Rayudu,DW Steyn,KA Pollard,0,0,na,na
2nd innings,6.4,AT Rayudu,DW Steyn,KA Pollard,1,1,na,na
2nd innings,6.5,KA Pollard,DW Steyn,AT Rayudu,4,4,na,na
2nd innings,6.6,KA Pollard,DW Steyn,AT Rayudu,0,0,na,na
2nd innings,6.7,KA Pollard,DW Steyn,AT Rayudu,0,0,na,na
2nd innings,7.1,AT Rayudu,KV Sharma,KA Pollard,0,0,na,na
2nd innings,7.2,AT Rayudu,KV Sharma,KA Pollard,3,3,na,na
2nd innings,7.3,KA Pollard,KV Sharma,AT Rayudu,1,1,na,na
2nd innings,7.4,AT Rayudu,KV Sharma,KA Pollard,0,0,na,na
2nd innings,7.5,AT Rayudu,KV Sharma,KA Pollard,1,1,na,na
2nd innings,7.6,KA Pollard,KV Sharma,AT Rayudu,0,0,na,na
2nd innings,8.1,AT Rayudu,A Mishra,KA Pollard,0,0,na,na
2nd innings,8.2,AT Rayudu,A Mishra,KA Pollard,1,1,na,na
2nd innings,8.3,KA Pollard,A Mishra,AT Rayudu,1,1,na,na
2nd innings,8.4,AT Rayudu,A Mishra,KA Pollard,1,1,na,na
2nd innings,8.5,KA Pollard,A Mishra,AT Rayudu,1,1,na,na
2nd innings,8.6,AT Rayudu,A Mishra,KA Pollard,1,1,na,na
2nd innings,9.1,AT Rayudu,DJG Sammy,KA Pollard,2,2,na,na
2nd innings,9.2,AT Rayudu,DJG Sammy,KA Pollard,1,1,na,na
2nd innings,9.3,KA Pollard,DJG Sammy,AT Rayudu,4,4,na,na
2nd innings,9.4,KA Pollard,DJG Sammy,AT Rayudu,1,1,na,na
2nd innings,9.5,AT Rayudu,DJG Sammy,KA Pollard,0,0,na,na
2nd innings,9.6,AT Rayudu,DJG Sammy,KA Pollard,4,4,na,na
2nd innings,10.1,KA Pollard,A Mishra,AT Rayudu,1,1,na,na
2nd innings,10.2,AT Rayudu,A Mishra,KA Pollard,0,0,na,na
2nd innings,10.3,AT Rayudu,A Mishra,KA Pollard,0,0,na,na
2nd innings,10.4,AT Rayudu,A Mishra,KA Pollard,1,1,na,na
2nd innings,10.5,KA Pollard,A Mishra,AT Rayudu,0,0,na,na
2nd innings,10.6,KA Pollard,A Mishra,AT Rayudu,1,1,na,na
2nd innings,11.1,KA Pollard,KV Sharma,AT Rayudu,1,1,na,na
2nd innings,11.2,AT Rayudu,KV Sharma,KA Pollard,0,0,na,na
2nd innings,11.3,AT Rayudu,KV Sharma,KA Pollard,0,0,na,na
2nd innings,11.4,AT Rayudu,KV Sharma,KA Pollard,1,1,na,na
2nd innings,11.5,KA Pollard,KV Sharma,AT Rayudu,1,1,na,na
2nd innings,11.6,AT Rayudu,KV Sharma,KA Pollard,1,1,na,na
2nd innings,12.1,AT Rayudu,A Mishra,KA Pollard,4,4,na,na
2nd innings,12.2,AT Rayudu,A Mishra,KA Pollard,6,6,na,na
2nd innings,12.3,AT Rayudu,A Mishra,KA Pollard,0,0,na,na
2nd innings,12.4,AT Rayudu,A Mishra,KA Pollard,6,6,na,na
2nd innings,12.5,AT Rayudu,A Mishra,KA Pollard,1,1,na,na
2nd innings,12.6,KA Pollard,A Mishra,AT Rayudu,2,2,na,na
2nd innings,13.1,AT Rayudu,KV Sharma,KA Pollard,1,1,na,na
2nd innings,13.2,KA Pollard,KV Sharma,AT Rayudu,1,1,na,na
2nd innings,13.3,AT Rayudu,KV Sharma,KA Pollard,6,6,na,na
2nd innings,13.4,AT Rayudu,KV Sharma,KA Pollard,1,1,na,na
2nd innings,13.5,KA Pollard,KV Sharma,AT Rayudu,4,4,na,na
2nd innings,13.6,KA Pollard,KV Sharma,AT Rayudu,0,0,na,na
2nd innings,14.1,AT Rayudu,B Kumar,KA Pollard,1,1,na,na
2nd innings,14.2,KA Pollard,B Kumar,AT Rayudu,4,4,na,na
2nd innings,14.3,KA Pollard,B Kumar,AT Rayudu,1,1,na,na
2nd innings,14.4,AT Rayudu,B Kumar,KA Pollard,0,0,na,na
2nd innings,14.5,AT Rayudu,B Kumar,KA Pollard,1,1,na,na
2nd innings,14.6,KA Pollard,B Kumar,AT Rayudu,0,0,na,na
2nd innings,15.1,AT Rayudu,IK Pathan,KA Pollard,1,1,na,na
2nd innings,15.2,KA Pollard,IK Pathan,AT Rayudu,1,0,{'wides': 1},na
2nd innings,15.3,KA Pollard,IK Pathan,AT Rayudu,0,0,na,"{'fielders': ['DA Warner'], 'kind': 'caught', 'player_out': 'AT Rayudu'}"
2nd innings,15.4,AP Tare,IK Pathan,KA Pollard,2,2,na,na
2nd innings,15.5,AP Tare,IK Pathan,KA Pollard,1,1,na,na
2nd innings,15.6,KA Pollard,IK Pathan,AP Tare,0,0,na,na
2nd innings,15.7,KA Pollard,IK Pathan,AP Tare,4,4,na,na
2nd innings,16.1,AP Tare,A Mishra,KA Pollard,6,6,na,na
2nd innings,16.2,AP Tare,A Mishra,KA Pollard,6,6,na,na
2nd innings,16.3,AP Tare,A Mishra,KA Pollard,6,6,na,na
2nd innings,16.4,AP Tare,A Mishra,KA Pollard,4,4,na,na
2nd innings,16.5,AP Tare,A Mishra,KA Pollard,2,2,na,na
2nd innings,16.6,AP Tare,A Mishra,KA Pollard,1,0,{'wides': 1},na
2nd innings,16.7,AP Tare,A Mishra,KA Pollard,2,2,na,na
2nd innings,17.1,KA Pollard,DW Steyn,AP Tare,1,1,na,na
2nd innings,17.2,AP Tare,DW Steyn,KA Pollard,1,1,na,na
2nd innings,17.3,KA Pollard,DW Steyn,AP Tare,2,2,na,na
2nd innings,17.4,KA Pollard,DW Steyn,AP Tare,0,0,na,"{'fielders': ['NV Ojha'], 'kind': 'caught', 'player_out': 'AP Tare'}"
2nd innings,17.5,Harbhajan Singh,DW Steyn,KA Pollard,0,0,na,na
2nd innings,17.6,Harbhajan Singh,DW Steyn,KA Pollard,0,0,na,na
2nd innings,18.1,KA Pollard,B Kumar,Harbhajan Singh,1,1,na,na
2nd innings,18.2,Harbhajan Singh,B Kumar,KA Pollard,1,1,na,na
2nd innings,18.3,KA Pollard,B Kumar,Harbhajan Singh,1,0,{'wides': 1},na
2nd innings,18.4,KA Pollard,B Kumar,Harbhajan Singh,0,0,na,na
2nd innings,18.5,KA Pollard,B Kumar,Harbhajan Singh,0,0,na,"{'fielders': ['S Dhawan'], 'kind': 'caught', 'player_out': 'Harbhajan Singh'}"
2nd innings,18.6,KA Pollard,B Kumar,CM Gautam,4,4,na,na
2nd innings,18.7,KA Pollard,B Kumar,CM Gautam,0,0,na,na
2nd innings,19.1,CM Gautam,IK Pathan,KA Pollard,0,0,na,"{'kind': 'bowled', 'player_out': 'KA Pollard'}"
2nd innings,19.2,CM Gautam,IK Pathan,Z Khan,1,1,na,na
2nd innings,19.3,Z Khan,IK Pathan,CM Gautam,0,0,na,na
2nd innings,19.4,Z Khan,IK Pathan,CM Gautam,1,0,{'legbyes': 1},na
2nd innings,19.5,CM Gautam,IK Pathan,Z Khan,1,0,{'byes': 1},na
2nd innings,19.6,Z Khan,IK Pathan,CM Gautam,1,0,{'byes': 1},na
