innings,deliveries,non_striker,bowler,batsman,total_runs,batsman_runs,extras,wickets
1st innings,0.1,V Sehwag,Z Khan,CA Pujara,0,0,na,na
1st innings,0.2,V Sehwag,Z Khan,CA Pujara,4,4,na,na
1st innings,0.3,V Sehwag,Z Khan,CA Pujara,0,0,na,na
1st innings,0.4,V Sehwag,Z Khan,CA Pujara,0,0,na,na
1st innings,0.5,V Sehwag,Z Khan,CA Pujara,0,0,na,na
1st innings,0.6,V Sehwag,Z Khan,CA Pujara,1,1,na,na
1st innings,1.1,V Sehwag,JJ Bumrah,CA Pujara,0,0,na,na
1st innings,1.2,V Sehwag,JJ Bumrah,CA Pujara,2,0,{'wides': 2},na
1st innings,1.3,CA Pujara,JJ Bumrah,V Sehwag,1,1,na,na
1st innings,1.4,V Sehwag,JJ Bumrah,CA Pujara,0,0,na,na
1st innings,1.5,V Sehwag,JJ Bumrah,CA Pujara,4,4,na,na
1st innings,1.6,V Sehwag,JJ Bumrah,CA Pujara,1,0,{'wides': 1},na
1st innings,1.7,V Sehwag,JJ Bumrah,CA Pujara,0,0,na,na
1st innings,1.8,V Sehwag,JJ Bumrah,CA Pujara,0,0,na,na
1st innings,2.1,CA Pujara,Z Khan,V Sehwag,0,0,na,"{'fielders': ['RG Sharma'], 'kind': 'run out', 'player_out': 'V Sehwag'}"
1st innings,2.2,WP Saha,Z Khan,CA Pujara,1,1,na,na
1st innings,2.3,CA Pujara,Z Khan,WP Saha,1,1,na,na
1st innings,2.4,WP Saha,Z Khan,CA Pujara,4,4,na,na
1st innings,2.5,WP Saha,Z Khan,CA Pujara,0,0,na,na
1st innings,2.6,WP Saha,Z Khan,CA Pujara,1,1,na,na
1st innings,3.1,WP Saha,CJ Anderson,CA Pujara,4,4,na,na
1st innings,3.2,WP Saha,CJ Anderson,CA Pujara,0,0,na,na
1st innings,3.3,WP Saha,CJ Anderson,CA Pujara,0,0,na,"{'fielders': ['CM Gautam'], 'kind': 'caught', 'player_out': 'CA Pujara'}"
1st innings,3.4,WP Saha,CJ Anderson,GJ Maxwell,0,0,na,na
1st innings,3.5,WP Saha,CJ Anderson,GJ Maxwell,4,4,na,na
1st innings,3.6,WP Saha,CJ Anderson,GJ Maxwell,1,0,{'wides': 1},na
1st innings,3.7,WP Saha,CJ Anderson,GJ Maxwell,0,0,na,na
1st innings,4.1,GJ Maxwell,JJ Bumrah,WP Saha,0,0,na,na
1st innings,4.2,GJ Maxwell,JJ Bumrah,WP Saha,0,0,na,na
1st innings,4.3,GJ Maxwell,JJ Bumrah,WP Saha,0,0,na,na
1st innings,4.4,GJ Maxwell,JJ Bumrah,WP Saha,1,1,na,na
1st innings,4.5,WP Saha,JJ Bumrah,GJ Maxwell,1,1,na,na
1st innings,4.6,GJ Maxwell,JJ Bumrah,WP Saha,0,0,na,na
1st innings,5.1,WP Saha,SL Malinga,GJ Maxwell,1,1,na,na
1st innings,5.2,GJ Maxwell,SL Malinga,WP Saha,0,0,na,na
1st innings,5.3,GJ Maxwell,SL Malinga,WP Saha,4,4,na,na
1st innings,5.4,GJ Maxwell,SL Malinga,WP Saha,0,0,na,na
1st innings,5.5,GJ Maxwell,SL Malinga,WP Saha,0,0,na,na
1st innings,5.6,GJ Maxwell,SL Malinga,WP Saha,0,0,na,na
1st innings,6.1,WP Saha,JJ Bumrah,GJ Maxwell,1,0,{'noballs': 1},na
1st innings,6.2,WP Saha,JJ Bumrah,GJ Maxwell,4,4,na,na
1st innings,6.3,WP Saha,JJ Bumrah,GJ Maxwell,0,0,na,na
1st innings,6.4,WP Saha,JJ Bumrah,GJ Maxwell,0,0,na,na
1st innings,6.5,WP Saha,JJ Bumrah,GJ Maxwell,1,1,na,na
1st innings,6.6,GJ Maxwell,JJ Bumrah,WP Saha,0,0,na,na
1st innings,6.7,GJ Maxwell,JJ Bumrah,WP Saha,0,0,na,na
1st innings,7.1,WP Saha,Harbhajan Singh,GJ Maxwell,1,1,na,na
1st innings,7.2,GJ Maxwell,Harbhajan Singh,WP Saha,1,1,na,na
1st innings,7.3,WP Saha,Harbhajan Singh,GJ Maxwell,4,4,na,na
1st innings,7.4,WP Saha,Harbhajan Singh,GJ Maxwell,1,1,na,na
1st innings,7.5,GJ Maxwell,Harbhajan Singh,WP Saha,1,1,na,na
1st innings,7.6,WP Saha,Harbhajan Singh,GJ Maxwell,1,1,na,na
1st innings,8.1,WP Saha,SL Malinga,GJ Maxwell,6,6,na,na
1st innings,8.2,WP Saha,SL Malinga,GJ Maxwell,4,4,na,na
1st innings,8.3,WP Saha,SL Malinga,GJ Maxwell,0,0,na,na
1st innings,8.4,WP Saha,SL Malinga,GJ Maxwell,1,1,na,na
1st innings,8.5,GJ Maxwell,SL Malinga,WP Saha,0,0,na,na
1st innings,8.6,GJ Maxwell,SL Malinga,WP Saha,1,1,na,na
1st innings,9.1,GJ Maxwell,Harbhajan Singh,WP Saha,0,0,na,na
1st innings,9.2,GJ Maxwell,Harbhajan Singh,WP Saha,1,1,na,na
1st innings,9.3,WP Saha,Harbhajan Singh,GJ Maxwell,1,0,{'legbyes': 1},na
1st innings,9.4,GJ Maxwell,Harbhajan Singh,WP Saha,0,0,na,na
1st innings,9.5,GJ Maxwell,Harbhajan Singh,WP Saha,1,1,na,na
1st innings,9.6,WP Saha,Harbhajan Singh,GJ Maxwell,4,4,na,na
1st innings,10.1,GJ Maxwell,KA Pollard,WP Saha,1,1,na,na
1st innings,10.2,WP Saha,KA Pollard,GJ Maxwell,1,0,{'wides': 1},na
1st innings,10.3,WP Saha,KA Pollard,GJ Maxwell,2,2,na,na
1st innings,10.4,WP Saha,KA Pollard,GJ Maxwell,1,0,{'legbyes': 1},na
1st innings,10.5,GJ Maxwell,KA Pollard,WP Saha,1,0,{'byes': 1},na
1st innings,10.6,WP Saha,KA Pollard,GJ Maxwell,2,2,na,na
1st innings,10.7,WP Saha,KA Pollard,GJ Maxwell,1,1,na,na
1st innings,11.1,WP Saha,Harbhajan Singh,GJ Maxwell,6,6,na,na
1st innings,11.2,WP Saha,Harbhajan Singh,GJ Maxwell,1,1,na,na
1st innings,11.3,GJ Maxwell,Harbhajan Singh,WP Saha,6,6,na,na
1st innings,11.4,GJ Maxwell,Harbhajan Singh,WP Saha,1,1,na,na
1st innings,11.5,WP Saha,Harbhajan Singh,GJ Maxwell,0,0,na,"{'fielders': ['BR Dunk'], 'kind': 'caught', 'player_out': 'GJ Maxwell'}"
1st innings,11.6,GJ Bailey,Harbhajan Singh,WP Saha,0,0,na,na
1st innings,12.1,WP Saha,CJ Anderson,GJ Bailey,4,4,na,na
1st innings,12.2,WP Saha,CJ Anderson,GJ Bailey,1,1,na,na
1st innings,12.3,GJ Bailey,CJ Anderson,WP Saha,0,0,na,na
1st innings,12.4,GJ Bailey,CJ Anderson,WP Saha,1,1,na,na
1st innings,12.5,WP Saha,CJ Anderson,GJ Bailey,1,1,na,na
1st innings,12.6,GJ Bailey,CJ Anderson,WP Saha,1,1,na,na
1st innings,13.1,GJ Bailey,KA Pollard,WP Saha,4,4,na,na
1st innings,13.2,GJ Bailey,KA Pollard,WP Saha,1,1,na,na
1st innings,13.3,WP Saha,KA Pollard,GJ Bailey,0,0,na,na
1st innings,13.4,WP Saha,KA Pollard,GJ Bailey,1,1,na,na
1st innings,13.5,GJ Bailey,KA Pollard,WP Saha,4,4,na,na
1st innings,13.6,GJ Bailey,KA Pollard,WP Saha,6,6,na,na
1st innings,14.1,WP Saha,Z Khan,GJ Bailey,0,0,na,na
1st innings,14.2,WP Saha,Z Khan,GJ Bailey,0,0,na,na
1st innings,14.3,WP Saha,Z Khan,GJ Bailey,0,0,na,na
1st innings,14.4,WP Saha,Z Khan,GJ Bailey,4,4,na,na
1st innings,14.5,WP Saha,Z Khan,GJ Bailey,1,1,na,na
1st innings,14.6,GJ Bailey,Z Khan,WP Saha,4,4,na,na
1st innings,15.1,WP Saha,Harbhajan Singh,GJ Bailey,1,1,na,na
1st innings,15.2,GJ Bailey,Harbhajan Singh,WP Saha,1,1,na,na
1st innings,15.3,WP Saha,Harbhajan Singh,GJ Bailey,0,0,na,na
1st innings,15.4,WP Saha,Harbhajan Singh,GJ Bailey,2,2,na,na
1st innings,15.5,WP Saha,Harbhajan Singh,GJ Bailey,0,0,na,"{'fielders': ['CJ Anderson'], 'kind': 'caught', 'player_out': 'GJ Bailey'}"
1st innings,15.6,DA Miller,Harbhajan Singh,WP Saha,1,1,na,na
1st innings,16.1,DA Miller,JJ Bumrah,WP Saha,1,1,na,na
1st innings,16.2,WP Saha,JJ Bumrah,DA Miller,1,1,na,na
1st innings,16.3,DA Miller,JJ Bumrah,WP Saha,1,1,na,na
1st innings,16.4,WP Saha,JJ Bumrah,DA Miller,2,2,na,na
1st innings,16.5,WP Saha,JJ Bumrah,DA Miller,0,0,na,na
1st innings,16.6,WP Saha,JJ Bumrah,DA Miller,4,4,na,na
1st innings,17.1,DA Miller,SL Malinga,WP Saha,1,1,na,na
1st innings,17.2,WP Saha,SL Malinga,DA Miller,1,1,na,na
1st innings,17.3,DA Miller,SL Malinga,WP Saha,1,1,na,na
1st innings,17.4,WP Saha,SL Malinga,DA Miller,1,1,na,na
1st innings,17.5,DA Miller,SL Malinga,WP Saha,0,0,na,na
1st innings,17.6,DA Miller,SL Malinga,WP Saha,1,1,na,na
1st innings,18.1,DA Miller,Z Khan,WP Saha,6,6,na,na
1st innings,18.2,DA Miller,Z Khan,WP Saha,1,1,na,na
1st innings,18.3,WP Saha,Z Khan,DA Miller,4,0,{'legbyes': 4},na
1st innings,18.4,WP Saha,KA Pollard,DA Miller,6,6,na,na
1st innings,18.5,WP Saha,KA Pollard,DA Miller,1,1,na,na
1st innings,18.6,DA Miller,KA Pollard,WP Saha,2,2,na,na
1st innings,19.1,WP Saha,SL Malinga,DA Miller,0,0,na,na
1st innings,19.2,WP Saha,SL Malinga,DA Miller,0,0,na,na
1st innings,19.3,WP Saha,SL Malinga,DA Miller,0,0,na,"{'fielders': ['BR Dunk'], 'kind': 'caught', 'player_out': 'DA Miller'}"
1st innings,19.4,MG Johnson,SL Malinga,WP Saha,2,2,na,na
1st innings,19.5,MG Johnson,SL Malinga,WP Saha,1,1,na,na
1st innings,19.6,WP Saha,SL Malinga,MG Johnson,0,0,na,na
2nd innings,0.1,CM Gautam,Sandeep Sharma,BR Dunk,4,4,na,na
2nd innings,0.2,CM Gautam,Sandeep Sharma,BR Dunk,0,0,na,na
2nd innings,0.3,CM Gautam,Sandeep Sharma,BR Dunk,1,1,na,na
2nd innings,0.4,BR Dunk,Sandeep Sharma,CM Gautam,1,0,{'legbyes': 1},na
2nd innings,0.5,CM Gautam,Sandeep Sharma,BR Dunk,0,0,na,"{'fielders': ['WP Saha'], 'kind': 'caught', 'player_out': 'BR Dunk'}"
2nd innings,0.6,CM Gautam,Sandeep Sharma,AT Rayudu,0,0,na,na
2nd innings,1.1,AT Rayudu,L Balaji,CM Gautam,0,0,na,na
2nd innings,1.2,AT Rayudu,L Balaji,CM Gautam,2,2,na,na
2nd innings,1.3,AT Rayudu,L Balaji,CM Gautam,1,1,na,na
2nd innings,1.4,CM Gautam,L Balaji,AT Rayudu,4,4,na,na
2nd innings,1.5,CM Gautam,L Balaji,AT Rayudu,0,0,na,na
2nd innings,1.6,CM Gautam,L Balaji,AT Rayudu,4,4,na,na
2nd innings,2.1,AT Rayudu,Sandeep Sharma,CM Gautam,1,0,{'wides': 1},na
2nd innings,2.2,AT Rayudu,Sandeep Sharma,CM Gautam,4,4,na,na
2nd innings,2.3,AT Rayudu,Sandeep Sharma,CM Gautam,0,0,na,na
2nd innings,2.4,AT Rayudu,Sandeep Sharma,CM Gautam,0,0,na,na
2nd innings,2.5,AT Rayudu,Sandeep Sharma,CM Gautam,1,1,na,na
2nd innings,2.6,CM Gautam,Sandeep Sharma,AT Rayudu,0,0,na,"{'kind': 'lbw', 'player_out': 'AT Rayudu'}"
2nd innings,2.7,CM Gautam,Sandeep Sharma,RG Sharma,0,0,na,na
2nd innings,3.1,RG Sharma,MG Johnson,CM Gautam,1,1,na,na
2nd innings,3.2,CM Gautam,MG Johnson,RG Sharma,0,0,na,na
2nd innings,3.3,CM Gautam,MG Johnson,RG Sharma,0,0,na,na
2nd innings,3.4,CM Gautam,MG Johnson,RG Sharma,0,0,na,na
2nd innings,3.5,CM Gautam,MG Johnson,RG Sharma,0,0,na,na
2nd innings,3.6,CM Gautam,MG Johnson,RG Sharma,6,6,na,na
2nd innings,4.1,RG Sharma,Sandeep Sharma,CM Gautam,0,0,na,na
2nd innings,4.2,RG Sharma,Sandeep Sharma,CM Gautam,0,0,na,na
2nd innings,4.3,RG Sharma,Sandeep Sharma,CM Gautam,0,0,na,na
2nd innings,4.4,RG Sharma,Sandeep Sharma,CM Gautam,6,6,na,na
2nd innings,4.5,RG Sharma,Sandeep Sharma,CM Gautam,0,0,na,na
2nd innings,4.6,RG Sharma,Sandeep Sharma,CM Gautam,6,6,na,na
2nd innings,5.1,CM Gautam,MG Johnson,RG Sharma,0,0,na,na
2nd innings,5.2,CM Gautam,MG Johnson,RG Sharma,1,1,na,na
2nd innings,5.3,RG Sharma,MG Johnson,CM Gautam,1,1,na,na
2nd innings,5.4,CM Gautam,MG Johnson,RG Sharma,1,0,{'wides': 1},na
2nd innings,5.5,CM Gautam,MG Johnson,RG Sharma,0,0,na,na
2nd innings,5.6,CM Gautam,MG Johnson,RG Sharma,4,4,na,na
2nd innings,5.7,CM Gautam,MG Johnson,RG Sharma,0,0,na,na
2nd innings,6.1,RG Sharma,AR Patel,CM Gautam,4,4,na,na
2nd innings,6.2,RG Sharma,AR Patel,CM Gautam,1,1,na,na
2nd innings,6.3,CM Gautam,AR Patel,RG Sharma,4,4,na,na
2nd innings,6.4,CM Gautam,AR Patel,RG Sharma,1,1,na,na
2nd innings,6.5,RG Sharma,AR Patel,CM Gautam,1,1,na,na
2nd innings,6.6,CM Gautam,AR Patel,RG Sharma,1,1,na,na
2nd innings,7.1,CM Gautam,R Dhawan,RG Sharma,1,1,na,na
2nd innings,7.2,RG Sharma,R Dhawan,CM Gautam,0,0,na,na
2nd innings,7.3,RG Sharma,R Dhawan,CM Gautam,0,0,na,na
2nd innings,7.4,RG Sharma,R Dhawan,CM Gautam,2,2,na,na
2nd innings,7.5,RG Sharma,R Dhawan,CM Gautam,0,0,na,na
2nd innings,7.6,RG Sharma,R Dhawan,CM Gautam,1,1,na,na
2nd innings,8.1,RG Sharma,AR Patel,CM Gautam,0,0,na,na
2nd innings,8.2,RG Sharma,AR Patel,CM Gautam,0,0,na,na
2nd innings,8.3,RG Sharma,AR Patel,CM Gautam,1,0,{'legbyes': 1},na
2nd innings,8.4,CM Gautam,AR Patel,RG Sharma,0,0,na,na
2nd innings,8.5,CM Gautam,AR Patel,RG Sharma,1,1,na,na
2nd innings,8.6,RG Sharma,AR Patel,CM Gautam,2,2,na,na
2nd innings,9.1,CM Gautam,R Dhawan,RG Sharma,0,0,na,na
2nd innings,9.2,CM Gautam,R Dhawan,RG Sharma,0,0,na,na
2nd innings,9.3,CM Gautam,R Dhawan,RG Sharma,1,1,na,na
2nd innings,9.4,RG Sharma,R Dhawan,CM Gautam,0,0,na,"{'kind': 'lbw', 'player_out': 'CM Gautam'}"
2nd innings,9.5,RG Sharma,R Dhawan,CJ Anderson,0,0,na,na
2nd innings,9.6,RG Sharma,R Dhawan,CJ Anderson,0,0,na,na
2nd innings,10.1,CJ Anderson,AR Patel,RG Sharma,0,0,na,na
2nd innings,10.2,CJ Anderson,AR Patel,RG Sharma,0,0,na,na
2nd innings,10.3,CJ Anderson,AR Patel,RG Sharma,1,1,na,na
2nd innings,10.4,RG Sharma,AR Patel,CJ Anderson,2,2,na,na
2nd innings,10.5,RG Sharma,AR Patel,CJ Anderson,1,1,na,na
2nd innings,10.6,CJ Anderson,AR Patel,RG Sharma,1,1,na,na
2nd innings,11.1,CJ Anderson,R Dhawan,RG Sharma,6,6,na,na
2nd innings,11.2,CJ Anderson,R Dhawan,RG Sharma,1,1,na,na
2nd innings,11.3,RG Sharma,R Dhawan,CJ Anderson,0,0,na,na
2nd innings,11.4,RG Sharma,R Dhawan,CJ Anderson,0,0,na,na
2nd innings,11.5,RG Sharma,R Dhawan,CJ Anderson,6,6,na,na
2nd innings,11.6,RG Sharma,R Dhawan,CJ Anderson,1,1,na,na
2nd innings,12.1,RG Sharma,AR Patel,CJ Anderson,1,1,na,na
2nd innings,12.2,CJ Anderson,AR Patel,RG Sharma,1,1,na,na
2nd innings,12.3,RG Sharma,AR Patel,CJ Anderson,4,4,na,na
2nd innings,12.4,RG Sharma,AR Patel,CJ Anderson,6,6,na,na
2nd innings,12.5,RG Sharma,AR Patel,CJ Anderson,4,4,na,na
2nd innings,12.6,RG Sharma,AR Patel,CJ Anderson,4,4,na,na
2nd innings,13.1,CJ Anderson,L Balaji,RG Sharma,0,0,na,na
2nd innings,13.2,CJ Anderson,L Balaji,RG Sharma,0,0,na,na
2nd innings,13.3,CJ Anderson,L Balaji,RG Sharma,1,1,na,na
2nd innings,13.4,RG Sharma,L Balaji,CJ Anderson,1,1,na,na
2nd innings,13.5,CJ Anderson,L Balaji,RG Sharma,4,4,na,na
2nd innings,13.6,CJ Anderson,L Balaji,RG Sharma,0,0,na,na
2nd innings,14.1,RG Sharma,MG Johnson,CJ Anderson,0,0,na,na
2nd innings,14.2,RG Sharma,MG Johnson,CJ Anderson,0,0,na,na
2nd innings,14.3,RG Sharma,MG Johnson,CJ Anderson,0,0,na,na
2nd innings,14.4,RG Sharma,MG Johnson,CJ Anderson,2,2,na,na
2nd innings,14.5,RG Sharma,MG Johnson,CJ Anderson,0,0,na,na
2nd innings,14.6,RG Sharma,MG Johnson,CJ Anderson,1,1,na,na
2nd innings,15.1,RG Sharma,L Balaji,CJ Anderson,1,0,{'legbyes': 1},na
2nd innings,15.2,CJ Anderson,L Balaji,RG Sharma,4,4,na,na
2nd innings,15.3,CJ Anderson,L Balaji,RG Sharma,0,0,na,"{'fielders': ['WP Saha'], 'kind': 'caught', 'player_out': 'RG Sharma'}"
2nd innings,15.4,KA Pollard,L Balaji,CJ Anderson,1,1,na,na
2nd innings,15.5,CJ Anderson,L Balaji,KA Pollard,0,0,na,na
2nd innings,15.6,CJ Anderson,L Balaji,KA Pollard,0,0,na,na
2nd innings,16.1,KA Pollard,R Dhawan,CJ Anderson,1,1,na,na
2nd innings,16.2,CJ Anderson,R Dhawan,KA Pollard,1,1,na,na
2nd innings,16.3,KA Pollard,R Dhawan,CJ Anderson,0,0,na,na
2nd innings,16.4,KA Pollard,R Dhawan,CJ Anderson,0,0,na,"{'fielders': ['DA Miller'], 'kind': 'caught', 'player_out': 'CJ Anderson'}"
2nd innings,16.5,AP Tare,R Dhawan,KA Pollard,1,1,na,na
2nd innings,16.6,KA Pollard,R Dhawan,AP Tare,1,1,na,na
2nd innings,17.1,KA Pollard,L Balaji,AP Tare,2,2,na,na
2nd innings,17.2,KA Pollard,L Balaji,AP Tare,4,4,na,na
2nd innings,17.3,KA Pollard,L Balaji,AP Tare,1,1,na,na
2nd innings,17.4,AP Tare,L Balaji,KA Pollard,1,1,na,na
2nd innings,17.5,KA Pollard,L Balaji,AP Tare,2,2,na,na
2nd innings,17.6,KA Pollard,L Balaji,AP Tare,6,6,na,na
2nd innings,18.1,AP Tare,MG Johnson,KA Pollard,6,6,na,na
2nd innings,18.2,AP Tare,MG Johnson,KA Pollard,1,0,{'wides': 1},na
2nd innings,18.3,AP Tare,MG Johnson,KA Pollard,2,2,na,na
2nd innings,18.4,AP Tare,MG Johnson,KA Pollard,2,2,na,na
2nd innings,18.5,AP Tare,MG Johnson,KA Pollard,4,4,na,na
2nd innings,18.6,AP Tare,MG Johnson,KA Pollard,4,4,na,na
2nd innings,18.7,AP Tare,MG Johnson,KA Pollard,1,1,na,na
2nd innings,19.1,AP Tare,Sandeep Sharma,KA Pollard,6,6,na,na
