innings,deliveries,non_striker,bowler,batsman,total_runs,batsman_runs,extras,wickets
1st innings,0.1,BB McCullum,Shakib Al Hasan,DR Smith,0,0,na,na
1st innings,0.2,BB McCullum,Shakib Al Hasan,DR Smith,0,0,na,na
1st innings,0.3,BB McCullum,Shakib Al Hasan,DR Smith,4,4,na,na
1st innings,0.4,BB McCullum,Shakib Al Hasan,DR Smith,1,1,na,na
1st innings,0.5,DR Smith,Shakib Al Hasan,BB McCullum,4,4,na,na
1st innings,0.6,DR Smith,Shakib Al Hasan,BB McCullum,0,0,na,na
1st innings,1.1,BB McCullum,SP Narine,DR Smith,4,4,na,na
1st innings,1.2,BB McCullum,SP Narine,DR Smith,0,0,na,na
1st innings,1.3,BB McCullum,SP Narine,DR Smith,0,0,na,na
1st innings,1.4,BB McCullum,SP Narine,DR Smith,1,1,na,na
1st innings,1.5,DR Smith,SP Narine,BB McCullum,0,0,na,na
1st innings,1.6,DR Smith,SP Narine,BB McCullum,0,0,na,na
1st innings,2.1,BB McCullum,Shakib Al Hasan,DR Smith,0,0,na,na
1st innings,2.2,BB McCullum,Shakib Al Hasan,DR Smith,6,6,na,na
1st innings,2.3,BB McCullum,Shakib Al Hasan,DR Smith,0,0,na,"{'kind': 'lbw', 'player_out': 'DR Smith'}"
1st innings,2.4,BB McCullum,Shakib Al Hasan,SK Raina,0,0,na,na
1st innings,2.5,BB McCullum,Shakib Al Hasan,SK Raina,0,0,na,na
1st innings,2.6,BB McCullum,Shakib Al Hasan,SK Raina,0,0,na,na
1st innings,3.1,SK Raina,SP Narine,BB McCullum,2,2,na,na
1st innings,3.2,SK Raina,SP Narine,BB McCullum,4,4,na,na
1st innings,3.3,SK Raina,SP Narine,BB McCullum,2,2,na,na
1st innings,3.4,SK Raina,SP Narine,BB McCullum,1,1,na,na
1st innings,3.5,BB McCullum,SP Narine,SK Raina,0,0,na,na
1st innings,3.6,BB McCullum,SP Narine,SK Raina,0,0,na,na
1st innings,4.1,SK Raina,Shakib Al Hasan,BB McCullum,0,0,na,na
1st innings,4.2,SK Raina,Shakib Al Hasan,BB McCullum,1,1,na,na
1st innings,4.3,BB McCullum,Shakib Al Hasan,SK Raina,1,1,na,na
1st innings,4.4,SK Raina,Shakib Al Hasan,BB McCullum,0,0,na,na
1st innings,4.5,SK Raina,Shakib Al Hasan,BB McCullum,1,1,na,na
1st innings,4.6,BB McCullum,Shakib Al Hasan,SK Raina,1,1,na,na
1st innings,5.1,BB McCullum,PP Chawla,SK Raina,4,4,na,na
1st innings,5.2,BB McCullum,PP Chawla,SK Raina,0,0,na,na
1st innings,5.3,BB McCullum,PP Chawla,SK Raina,4,4,na,na
1st innings,5.4,BB McCullum,PP Chawla,SK Raina,2,2,na,na
1st innings,5.5,BB McCullum,PP Chawla,SK Raina,0,0,na,na
1st innings,5.6,BB McCullum,PP Chawla,SK Raina,0,0,na,na
1st innings,6.1,SK Raina,R Vinay Kumar,BB McCullum,0,0,na,na
1st innings,6.2,SK Raina,R Vinay Kumar,BB McCullum,0,0,na,na
1st innings,6.3,SK Raina,R Vinay Kumar,BB McCullum,1,0,{'legbyes': 1},na
1st innings,6.4,BB McCullum,R Vinay Kumar,SK Raina,0,0,na,na
1st innings,6.5,BB McCullum,R Vinay Kumar,SK Raina,1,1,na,na
1st innings,6.6,SK Raina,R Vinay Kumar,BB McCullum,6,6,na,na
1st innings,7.1,BB McCullum,PP Chawla,SK Raina,2,2,na,na
1st innings,7.2,BB McCullum,PP Chawla,SK Raina,1,1,na,na
1st innings,7.3,SK Raina,PP Chawla,BB McCullum,4,4,na,na
1st innings,7.4,SK Raina,PP Chawla,BB McCullum,0,0,na,na
1st innings,7.5,SK Raina,PP Chawla,BB McCullum,1,1,na,na
1st innings,7.6,BB McCullum,PP Chawla,SK Raina,0,0,na,na
1st innings,8.1,SK Raina,R Vinay Kumar,BB McCullum,2,2,na,na
1st innings,8.2,SK Raina,R Vinay Kumar,BB McCullum,2,2,na,na
1st innings,8.3,SK Raina,R Vinay Kumar,BB McCullum,4,4,na,na
1st innings,8.4,SK Raina,R Vinay Kumar,BB McCullum,4,4,na,na
1st innings,8.5,SK Raina,R Vinay Kumar,BB McCullum,0,0,na,na
1st innings,8.6,SK Raina,R Vinay Kumar,BB McCullum,1,1,na,na
1st innings,9.1,SK Raina,PP Chawla,BB McCullum,1,1,na,na
1st innings,9.2,BB McCullum,PP Chawla,SK Raina,6,6,na,na
1st innings,9.3,BB McCullum,PP Chawla,SK Raina,1,1,na,na
1st innings,9.4,SK Raina,PP Chawla,BB McCullum,1,1,na,na
1st innings,9.5,BB McCullum,PP Chawla,SK Raina,4,4,na,na
1st innings,9.6,BB McCullum,PP Chawla,SK Raina,0,0,na,na
1st innings,10.1,SK Raina,Shakib Al Hasan,BB McCullum,1,1,na,na
1st innings,10.2,BB McCullum,Shakib Al Hasan,SK Raina,0,0,na,na
1st innings,10.3,BB McCullum,Shakib Al Hasan,SK Raina,4,4,na,na
1st innings,10.4,BB McCullum,Shakib Al Hasan,SK Raina,0,0,na,"{'fielders': ['SA Yadav'], 'kind': 'caught', 'player_out': 'SK Raina'}"
1st innings,10.5,BB McCullum,Shakib Al Hasan,MS Dhoni,1,0,{'legbyes': 1},na
1st innings,10.6,MS Dhoni,Shakib Al Hasan,BB McCullum,1,1,na,na
1st innings,11.1,MS Dhoni,JH Kallis,BB McCullum,1,1,na,na
1st innings,11.2,BB McCullum,JH Kallis,MS Dhoni,1,1,na,na
1st innings,11.3,MS Dhoni,JH Kallis,BB McCullum,0,0,na,na
1st innings,11.4,MS Dhoni,JH Kallis,BB McCullum,6,6,na,na
1st innings,11.5,MS Dhoni,JH Kallis,BB McCullum,1,1,na,na
1st innings,11.6,BB McCullum,JH Kallis,MS Dhoni,1,1,na,na
1st innings,12.1,BB McCullum,R Vinay Kumar,MS Dhoni,1,1,na,na
1st innings,12.2,MS Dhoni,R Vinay Kumar,BB McCullum,1,1,na,na
1st innings,12.3,BB McCullum,R Vinay Kumar,MS Dhoni,2,2,na,na
1st innings,12.4,BB McCullum,R Vinay Kumar,MS Dhoni,1,1,na,na
1st innings,12.5,MS Dhoni,R Vinay Kumar,BB McCullum,0,0,na,na
1st innings,12.6,MS Dhoni,R Vinay Kumar,BB McCullum,1,1,na,na
1st innings,13.1,MS Dhoni,SP Narine,BB McCullum,1,1,na,na
1st innings,13.2,BB McCullum,SP Narine,MS Dhoni,1,1,na,na
1st innings,13.3,MS Dhoni,SP Narine,BB McCullum,1,1,na,na
1st innings,13.4,BB McCullum,SP Narine,MS Dhoni,1,1,na,na
1st innings,13.5,MS Dhoni,SP Narine,BB McCullum,1,1,na,na
1st innings,13.6,BB McCullum,SP Narine,MS Dhoni,1,1,na,na
1st innings,14.1,BB McCullum,AD Russell,MS Dhoni,4,4,na,na
1st innings,14.2,BB McCullum,AD Russell,MS Dhoni,1,0,{'legbyes': 1},na
1st innings,14.3,MS Dhoni,AD Russell,BB McCullum,0,0,na,"{'fielders': ['YK Pathan'], 'kind': 'caught', 'player_out': 'BB McCullum'}"
1st innings,14.4,RA Jadeja,AD Russell,MS Dhoni,0,0,na,na
1st innings,14.5,RA Jadeja,AD Russell,MS Dhoni,1,1,na,na
1st innings,14.6,MS Dhoni,AD Russell,RA Jadeja,6,6,na,na
1st innings,15.1,RA Jadeja,SP Narine,MS Dhoni,1,1,na,na
1st innings,15.2,MS Dhoni,SP Narine,RA Jadeja,0,0,na,na
1st innings,15.3,MS Dhoni,SP Narine,RA Jadeja,2,2,na,na
1st innings,15.4,MS Dhoni,SP Narine,RA Jadeja,1,1,na,na
1st innings,15.5,RA Jadeja,SP Narine,MS Dhoni,1,1,na,na
1st innings,15.6,MS Dhoni,SP Narine,RA Jadeja,1,0,{'noballs': 1},na
1st innings,15.7,MS Dhoni,SP Narine,RA Jadeja,1,0,{'legbyes': 1},na
1st innings,16.1,MS Dhoni,AD Russell,RA Jadeja,1,1,na,na
1st innings,16.2,RA Jadeja,AD Russell,MS Dhoni,6,6,na,na
1st innings,16.3,RA Jadeja,AD Russell,MS Dhoni,1,0,{'legbyes': 1},na
1st innings,16.4,MS Dhoni,AD Russell,RA Jadeja,2,2,na,na
1st innings,16.5,MS Dhoni,AD Russell,RA Jadeja,4,4,na,na
1st innings,16.6,MS Dhoni,AD Russell,RA Jadeja,1,1,na,na
2nd innings,0.1,G Gambhir,BW Hilfenhaus,RV Uthappa,0,0,na,na
2nd innings,0.2,G Gambhir,BW Hilfenhaus,RV Uthappa,0,0,na,na
2nd innings,0.3,G Gambhir,BW Hilfenhaus,RV Uthappa,1,1,na,na
2nd innings,0.4,RV Uthappa,BW Hilfenhaus,G Gambhir,0,0,na,na
2nd innings,0.5,RV Uthappa,BW Hilfenhaus,G Gambhir,2,1,{'noballs': 1},na
2nd innings,0.6,G Gambhir,BW Hilfenhaus,RV Uthappa,0,0,na,na
2nd innings,0.7,G Gambhir,BW Hilfenhaus,RV Uthappa,0,0,na,na
2nd innings,1.1,RV Uthappa,IC Pandey,G Gambhir,0,0,na,na
2nd innings,1.2,RV Uthappa,IC Pandey,G Gambhir,4,4,na,na
2nd innings,1.3,RV Uthappa,IC Pandey,G Gambhir,1,0,{'legbyes': 1},na
2nd innings,1.4,G Gambhir,IC Pandey,RV Uthappa,4,4,na,na
2nd innings,1.5,G Gambhir,IC Pandey,RV Uthappa,4,4,na,na
2nd innings,1.6,G Gambhir,IC Pandey,RV Uthappa,0,0,na,na
2nd innings,2.1,RV Uthappa,BW Hilfenhaus,G Gambhir,1,1,na,na
2nd innings,2.2,G Gambhir,BW Hilfenhaus,RV Uthappa,0,0,na,"{'fielders': ['MS Dhoni', 'BW Hilfenhaus'], 'kind': 'run out', 'player_out': 'G Gambhir'}"
2nd innings,2.3,JH Kallis,BW Hilfenhaus,RV Uthappa,2,2,na,na
2nd innings,2.4,JH Kallis,BW Hilfenhaus,RV Uthappa,0,0,na,na
2nd innings,2.5,JH Kallis,BW Hilfenhaus,RV Uthappa,1,1,na,na
2nd innings,2.6,RV Uthappa,BW Hilfenhaus,JH Kallis,0,0,na,na
2nd innings,3.1,JH Kallis,MM Sharma,RV Uthappa,0,0,na,na
2nd innings,3.2,JH Kallis,MM Sharma,RV Uthappa,4,4,na,na
2nd innings,3.3,JH Kallis,MM Sharma,RV Uthappa,6,6,na,na
2nd innings,3.4,JH Kallis,MM Sharma,RV Uthappa,1,1,na,na
2nd innings,3.5,RV Uthappa,MM Sharma,JH Kallis,0,0,na,na
2nd innings,3.6,RV Uthappa,MM Sharma,JH Kallis,4,4,na,na
2nd innings,4.1,JH Kallis,R Ashwin,RV Uthappa,1,1,na,na
2nd innings,4.2,RV Uthappa,R Ashwin,JH Kallis,0,0,na,na
2nd innings,4.3,RV Uthappa,R Ashwin,JH Kallis,0,0,na,na
2nd innings,4.4,RV Uthappa,R Ashwin,JH Kallis,0,0,na,"{'fielders': ['M Manhas'], 'kind': 'caught', 'player_out': 'JH Kallis'}"
2nd innings,4.5,MK Pandey,R Ashwin,RV Uthappa,1,1,na,na
2nd innings,4.6,RV Uthappa,R Ashwin,MK Pandey,1,1,na,na
2nd innings,5.1,RV Uthappa,RA Jadeja,MK Pandey,0,0,na,"{'fielders': ['BB McCullum'], 'kind': 'caught', 'player_out': 'MK Pandey'}"
2nd innings,5.2,RV Uthappa,RA Jadeja,Shakib Al Hasan,0,0,na,"{'fielders': ['MM Sharma'], 'kind': 'caught', 'player_out': 'Shakib Al Hasan'}"
2nd innings,5.3,SA Yadav,RA Jadeja,RV Uthappa,1,1,na,na
2nd innings,5.4,RV Uthappa,RA Jadeja,SA Yadav,0,0,na,na
2nd innings,5.5,RV Uthappa,RA Jadeja,SA Yadav,0,0,na,na
2nd innings,5.6,RV Uthappa,RA Jadeja,SA Yadav,0,0,na,na
2nd innings,6.1,SA Yadav,SK Raina,RV Uthappa,0,0,na,na
2nd innings,6.2,SA Yadav,SK Raina,RV Uthappa,4,4,na,na
2nd innings,6.3,SA Yadav,SK Raina,RV Uthappa,1,1,na,na
2nd innings,6.4,RV Uthappa,SK Raina,SA Yadav,0,0,na,na
2nd innings,6.5,RV Uthappa,SK Raina,SA Yadav,3,3,na,na
2nd innings,6.6,SA Yadav,SK Raina,RV Uthappa,2,2,na,na
2nd innings,7.1,RV Uthappa,IC Pandey,SA Yadav,2,2,na,na
2nd innings,7.2,RV Uthappa,IC Pandey,SA Yadav,0,0,na,na
2nd innings,7.3,RV Uthappa,IC Pandey,SA Yadav,2,0,{'legbyes': 2},na
2nd innings,7.4,RV Uthappa,IC Pandey,SA Yadav,1,1,na,na
2nd innings,7.5,SA Yadav,IC Pandey,RV Uthappa,4,4,na,na
2nd innings,7.6,SA Yadav,IC Pandey,RV Uthappa,1,1,na,na
2nd innings,8.1,SA Yadav,R Ashwin,RV Uthappa,0,0,na,na
2nd innings,8.2,SA Yadav,R Ashwin,RV Uthappa,1,1,na,na
2nd innings,8.3,RV Uthappa,R Ashwin,SA Yadav,1,1,na,na
2nd innings,8.4,SA Yadav,R Ashwin,RV Uthappa,1,1,na,na
2nd innings,8.5,RV Uthappa,R Ashwin,SA Yadav,1,1,na,na
2nd innings,8.6,SA Yadav,R Ashwin,RV Uthappa,1,1,na,na
2nd innings,9.1,SA Yadav,RA Jadeja,RV Uthappa,1,1,na,na
2nd innings,9.2,RV Uthappa,RA Jadeja,SA Yadav,0,0,na,na
2nd innings,9.3,RV Uthappa,RA Jadeja,SA Yadav,0,0,na,"{'kind': 'lbw', 'player_out': 'SA Yadav'}"
2nd innings,9.4,RV Uthappa,RA Jadeja,YK Pathan,1,1,na,na
2nd innings,9.5,YK Pathan,RA Jadeja,RV Uthappa,0,0,na,na
2nd innings,9.6,YK Pathan,RA Jadeja,RV Uthappa,0,0,na,na
2nd innings,10.1,RV Uthappa,R Ashwin,YK Pathan,0,0,na,na
2nd innings,10.2,RV Uthappa,R Ashwin,YK Pathan,1,1,na,na
2nd innings,10.3,YK Pathan,R Ashwin,RV Uthappa,1,1,na,na
2nd innings,10.4,RV Uthappa,R Ashwin,YK Pathan,0,0,na,na
2nd innings,10.5,RV Uthappa,R Ashwin,YK Pathan,0,0,na,na
2nd innings,10.6,RV Uthappa,R Ashwin,YK Pathan,1,1,na,na
2nd innings,11.1,RV Uthappa,RA Jadeja,YK Pathan,0,0,na,na
2nd innings,11.2,RV Uthappa,RA Jadeja,YK Pathan,1,1,na,na
2nd innings,11.3,YK Pathan,RA Jadeja,RV Uthappa,2,2,na,na
2nd innings,11.4,YK Pathan,RA Jadeja,RV Uthappa,0,0,na,na
2nd innings,11.5,YK Pathan,RA Jadeja,RV Uthappa,1,1,na,na
2nd innings,11.6,RV Uthappa,RA Jadeja,YK Pathan,1,1,na,na
2nd innings,12.1,RV Uthappa,R Ashwin,YK Pathan,0,0,na,na
2nd innings,12.2,RV Uthappa,R Ashwin,YK Pathan,0,0,na,na
2nd innings,12.3,RV Uthappa,R Ashwin,YK Pathan,0,0,na,na
2nd innings,12.4,RV Uthappa,R Ashwin,YK Pathan,0,0,na,na
2nd innings,12.5,RV Uthappa,R Ashwin,YK Pathan,6,6,na,na
2nd innings,12.6,RV Uthappa,R Ashwin,YK Pathan,4,4,na,na
2nd innings,13.1,YK Pathan,RA Jadeja,RV Uthappa,1,1,na,na
2nd innings,13.2,RV Uthappa,RA Jadeja,YK Pathan,2,2,na,na
2nd innings,13.3,RV Uthappa,RA Jadeja,YK Pathan,1,1,na,na
2nd innings,13.4,YK Pathan,RA Jadeja,RV Uthappa,0,0,na,"{'fielders': ['MS Dhoni'], 'kind': 'caught', 'player_out': 'RV Uthappa'}"
2nd innings,13.5,YK Pathan,RA Jadeja,AD Russell,0,0,na,na
2nd innings,13.6,YK Pathan,RA Jadeja,AD Russell,0,0,na,na
2nd innings,14.1,AD Russell,MM Sharma,YK Pathan,1,1,na,na
2nd innings,14.2,YK Pathan,MM Sharma,AD Russell,0,0,na,na
2nd innings,14.3,YK Pathan,MM Sharma,AD Russell,1,1,na,na
2nd innings,14.4,AD Russell,MM Sharma,YK Pathan,0,0,na,na
2nd innings,14.5,AD Russell,MM Sharma,YK Pathan,1,1,na,na
2nd innings,14.6,YK Pathan,MM Sharma,AD Russell,0,0,na,"{'kind': 'bowled', 'player_out': 'AD Russell'}"
2nd innings,15.1,PP Chawla,BW Hilfenhaus,YK Pathan,6,6,na,na
2nd innings,15.2,PP Chawla,BW Hilfenhaus,YK Pathan,6,6,na,na
2nd innings,15.3,PP Chawla,BW Hilfenhaus,YK Pathan,0,0,na,na
2nd innings,15.4,PP Chawla,BW Hilfenhaus,YK Pathan,0,0,na,na
2nd innings,15.5,PP Chawla,BW Hilfenhaus,YK Pathan,6,6,na,na
2nd innings,15.6,PP Chawla,BW Hilfenhaus,YK Pathan,1,1,na,na
2nd innings,16.1,PP Chawla,MM Sharma,YK Pathan,1,1,na,na
2nd innings,16.2,YK Pathan,MM Sharma,PP Chawla,1,1,na,na
2nd innings,16.3,PP Chawla,MM Sharma,YK Pathan,1,1,na,na
2nd innings,16.4,YK Pathan,MM Sharma,PP Chawla,0,0,na,"{'fielders': ['F du Plessis'], 'kind': 'caught', 'player_out': 'PP Chawla'}"
2nd innings,16.5,R Vinay Kumar,MM Sharma,YK Pathan,0,0,na,"{'kind': 'lbw', 'player_out': 'YK Pathan'}"
2nd innings,16.6,R Vinay Kumar,MM Sharma,SP Narine,1,1,na,na
