innings,deliveries,non_striker,bowler,batsman,total_runs,batsman_runs,extras,wickets
1st innings,0.1,CM Gautam,S Badree,LMP Simmons,1,0,{'wides': 1},na
1st innings,0.2,CM Gautam,S Badree,LMP Simmons,0,0,na,na
1st innings,0.3,CM Gautam,S Badree,LMP Simmons,1,1,na,na
1st innings,0.4,LMP Simmons,S Badree,CM Gautam,0,0,na,na
1st innings,0.5,LMP Simmons,S Badree,CM Gautam,0,0,na,na
1st innings,0.6,LMP Simmons,S Badree,CM Gautam,1,1,na,na
1st innings,0.7,CM Gautam,S Badree,LMP Simmons,1,1,na,na
1st innings,1.1,CM Gautam,IC Pandey,LMP Simmons,0,0,na,na
1st innings,1.2,CM Gautam,IC Pandey,LMP Simmons,0,0,na,na
1st innings,1.3,CM Gautam,IC Pandey,LMP Simmons,0,0,na,na
1st innings,1.4,CM Gautam,IC Pandey,LMP Simmons,4,4,na,na
1st innings,1.5,CM Gautam,IC Pandey,LMP Simmons,0,0,na,na
1st innings,1.6,CM Gautam,IC Pandey,LMP Simmons,0,0,na,na
1st innings,2.1,LMP Simmons,S Badree,CM Gautam,4,4,na,na
1st innings,2.2,LMP Simmons,S Badree,CM Gautam,0,0,na,na
1st innings,2.3,LMP Simmons,S Badree,CM Gautam,4,4,na,na
1st innings,2.4,LMP Simmons,S Badree,CM Gautam,0,0,na,na
1st innings,2.5,LMP Simmons,S Badree,CM Gautam,0,0,na,"{'fielders': ['BB McCullum'], 'kind': 'caught', 'player_out': 'CM Gautam'}"
1st innings,2.6,LMP Simmons,S Badree,AT Rayudu,0,0,na,na
1st innings,3.1,AT Rayudu,IC Pandey,LMP Simmons,1,1,na,na
1st innings,3.2,LMP Simmons,IC Pandey,AT Rayudu,1,0,{'wides': 1},na
1st innings,3.3,LMP Simmons,IC Pandey,AT Rayudu,0,0,na,na
1st innings,3.4,LMP Simmons,IC Pandey,AT Rayudu,0,0,na,na
1st innings,3.5,LMP Simmons,IC Pandey,AT Rayudu,0,0,na,na
1st innings,3.6,LMP Simmons,IC Pandey,AT Rayudu,0,0,na,na
1st innings,3.7,LMP Simmons,IC Pandey,AT Rayudu,0,0,na,na
1st innings,4.1,AT Rayudu,S Badree,LMP Simmons,0,0,na,na
1st innings,4.2,AT Rayudu,S Badree,LMP Simmons,6,6,na,na
1st innings,4.3,AT Rayudu,S Badree,LMP Simmons,0,0,na,na
1st innings,4.4,AT Rayudu,S Badree,LMP Simmons,6,6,na,na
1st innings,4.5,AT Rayudu,S Badree,LMP Simmons,1,1,na,na
1st innings,4.6,LMP Simmons,S Badree,AT Rayudu,1,1,na,na
1st innings,5.1,LMP Simmons,IC Pandey,AT Rayudu,4,4,na,na
1st innings,5.2,LMP Simmons,IC Pandey,AT Rayudu,0,0,na,na
1st innings,5.3,LMP Simmons,IC Pandey,AT Rayudu,6,6,na,na
1st innings,5.4,LMP Simmons,IC Pandey,AT Rayudu,0,0,na,na
1st innings,5.5,LMP Simmons,IC Pandey,AT Rayudu,0,0,na,na
1st innings,5.6,LMP Simmons,IC Pandey,AT Rayudu,0,0,na,na
1st innings,6.1,AT Rayudu,RA Jadeja,LMP Simmons,0,0,na,na
1st innings,6.2,AT Rayudu,RA Jadeja,LMP Simmons,4,4,na,na
1st innings,6.3,AT Rayudu,RA Jadeja,LMP Simmons,0,0,na,na
1st innings,6.4,AT Rayudu,RA Jadeja,LMP Simmons,0,0,na,na
1st innings,6.5,AT Rayudu,RA Jadeja,LMP Simmons,0,0,na,na
1st innings,6.6,AT Rayudu,RA Jadeja,LMP Simmons,0,0,na,na
1st innings,7.1,LMP Simmons,MM Sharma,AT Rayudu,1,1,na,na
1st innings,7.2,AT Rayudu,MM Sharma,LMP Simmons,1,1,na,na
1st innings,7.3,LMP Simmons,MM Sharma,AT Rayudu,1,1,na,na
1st innings,7.4,AT Rayudu,MM Sharma,LMP Simmons,0,0,na,na
1st innings,7.5,AT Rayudu,MM Sharma,LMP Simmons,0,0,na,na
1st innings,7.6,AT Rayudu,MM Sharma,LMP Simmons,0,0,na,na
1st innings,8.1,LMP Simmons,RA Jadeja,AT Rayudu,1,1,na,na
1st innings,8.2,AT Rayudu,RA Jadeja,LMP Simmons,2,2,na,na
1st innings,8.3,AT Rayudu,RA Jadeja,LMP Simmons,1,1,na,na
1st innings,8.4,LMP Simmons,RA Jadeja,AT Rayudu,1,1,na,na
1st innings,8.5,AT Rayudu,RA Jadeja,LMP Simmons,0,0,na,na
1st innings,8.6,AT Rayudu,RA Jadeja,LMP Simmons,0,0,na,na
1st innings,9.1,LMP Simmons,R Ashwin,AT Rayudu,0,0,na,na
1st innings,9.2,LMP Simmons,R Ashwin,AT Rayudu,1,1,na,na
1st innings,9.3,AT Rayudu,R Ashwin,LMP Simmons,1,1,na,na
1st innings,9.4,LMP Simmons,R Ashwin,AT Rayudu,1,1,na,na
1st innings,9.5,AT Rayudu,R Ashwin,LMP Simmons,0,0,na,na
1st innings,9.6,AT Rayudu,R Ashwin,LMP Simmons,0,0,na,na
1st innings,10.1,LMP Simmons,RA Jadeja,AT Rayudu,2,2,na,na
1st innings,10.2,LMP Simmons,RA Jadeja,AT Rayudu,6,6,na,na
1st innings,10.3,LMP Simmons,RA Jadeja,AT Rayudu,1,1,na,na
1st innings,10.4,AT Rayudu,RA Jadeja,LMP Simmons,1,1,na,na
1st innings,10.5,LMP Simmons,RA Jadeja,AT Rayudu,1,1,na,na
1st innings,10.6,AT Rayudu,RA Jadeja,LMP Simmons,1,1,na,na
1st innings,11.1,AT Rayudu,R Ashwin,LMP Simmons,4,4,na,na
1st innings,11.2,AT Rayudu,R Ashwin,LMP Simmons,1,1,na,na
1st innings,11.3,LMP Simmons,R Ashwin,AT Rayudu,1,1,na,na
1st innings,11.4,AT Rayudu,R Ashwin,LMP Simmons,2,2,na,na
1st innings,11.5,AT Rayudu,R Ashwin,LMP Simmons,0,0,na,"{'fielders': ['F du Plessis'], 'kind': 'caught', 'player_out': 'LMP Simmons'}"
1st innings,11.6,AT Rayudu,R Ashwin,RG Sharma,1,1,na,na
1st innings,12.1,AT Rayudu,S Badree,RG Sharma,1,1,na,na
1st innings,12.2,RG Sharma,S Badree,AT Rayudu,4,4,na,na
1st innings,12.3,RG Sharma,S Badree,AT Rayudu,1,1,na,na
1st innings,12.4,AT Rayudu,S Badree,RG Sharma,0,0,na,na
1st innings,12.5,AT Rayudu,S Badree,RG Sharma,1,1,na,na
1st innings,12.6,RG Sharma,S Badree,AT Rayudu,1,1,na,na
1st innings,13.1,RG Sharma,R Ashwin,AT Rayudu,1,1,na,na
1st innings,13.2,AT Rayudu,R Ashwin,RG Sharma,2,2,na,na
1st innings,13.3,AT Rayudu,R Ashwin,RG Sharma,0,0,na,na
1st innings,13.4,AT Rayudu,R Ashwin,RG Sharma,1,1,na,na
1st innings,13.5,RG Sharma,R Ashwin,AT Rayudu,2,2,na,na
1st innings,13.6,RG Sharma,R Ashwin,AT Rayudu,1,1,na,na
1st innings,14.1,RG Sharma,MM Sharma,AT Rayudu,1,1,na,na
1st innings,14.2,AT Rayudu,MM Sharma,RG Sharma,0,0,na,na
1st innings,14.3,AT Rayudu,MM Sharma,RG Sharma,4,4,na,na
1st innings,14.4,AT Rayudu,MM Sharma,RG Sharma,0,0,na,na
1st innings,14.5,AT Rayudu,MM Sharma,RG Sharma,1,1,na,na
1st innings,14.6,RG Sharma,MM Sharma,AT Rayudu,0,0,na,na
1st innings,15.1,AT Rayudu,RA Jadeja,RG Sharma,1,1,na,na
1st innings,15.2,RG Sharma,RA Jadeja,AT Rayudu,6,6,na,na
1st innings,15.3,RG Sharma,RA Jadeja,AT Rayudu,2,2,na,na
1st innings,15.4,RG Sharma,RA Jadeja,AT Rayudu,1,1,na,na
1st innings,15.5,AT Rayudu,RA Jadeja,RG Sharma,0,0,na,na
1st innings,15.6,AT Rayudu,RA Jadeja,RG Sharma,2,2,na,na
1st innings,16.1,RG Sharma,MM Sharma,AT Rayudu,1,1,na,na
1st innings,16.2,AT Rayudu,MM Sharma,RG Sharma,1,1,na,na
1st innings,16.3,RG Sharma,MM Sharma,AT Rayudu,1,1,na,na
1st innings,16.4,AT Rayudu,MM Sharma,RG Sharma,1,1,na,na
1st innings,16.5,RG Sharma,MM Sharma,AT Rayudu,1,1,na,na
1st innings,16.6,AT Rayudu,MM Sharma,RG Sharma,2,2,na,na
1st innings,17.1,RG Sharma,R Ashwin,AT Rayudu,1,1,na,na
1st innings,17.2,AT Rayudu,R Ashwin,RG Sharma,1,1,na,na
1st innings,17.3,RG Sharma,R Ashwin,AT Rayudu,2,0,{'wides': 2},na
1st innings,17.4,AT Rayudu,R Ashwin,RG Sharma,0,0,na,"{'fielders': ['SK Raina'], 'kind': 'caught', 'player_out': 'RG Sharma'}"
1st innings,17.5,KA Pollard,R Ashwin,AT Rayudu,6,6,na,na
1st innings,17.6,KA Pollard,R Ashwin,AT Rayudu,1,1,na,na
1st innings,17.7,AT Rayudu,R Ashwin,KA Pollard,0,0,na,"{'fielders': ['SK Raina'], 'kind': 'caught', 'player_out': 'KA Pollard'}"
1st innings,18.1,CJ Anderson,MM Sharma,AT Rayudu,0,0,na,"{'fielders': ['RA Jadeja'], 'kind': 'caught', 'player_out': 'AT Rayudu'}"
1st innings,18.2,CJ Anderson,MM Sharma,AP Tare,4,4,na,na
1st innings,18.3,CJ Anderson,MM Sharma,AP Tare,0,0,na,na
1st innings,18.4,CJ Anderson,MM Sharma,AP Tare,4,4,na,na
1st innings,18.5,CJ Anderson,MM Sharma,AP Tare,1,1,na,na
1st innings,18.6,AP Tare,MM Sharma,CJ Anderson,1,1,na,na
1st innings,19.1,AP Tare,IC Pandey,CJ Anderson,2,2,na,na
1st innings,19.2,AP Tare,IC Pandey,CJ Anderson,1,0,{'wides': 1},na
1st innings,19.3,AP Tare,IC Pandey,CJ Anderson,6,6,na,na
1st innings,19.4,AP Tare,IC Pandey,CJ Anderson,2,2,na,na
1st innings,19.5,AP Tare,IC Pandey,CJ Anderson,6,6,na,na
1st innings,19.6,AP Tare,IC Pandey,CJ Anderson,1,1,na,na
1st innings,19.7,CJ Anderson,IC Pandey,AP Tare,0,0,na,"{'fielders': ['F du Plessis'], 'kind': 'caught', 'player_out': 'AP Tare'}"
2nd innings,0.1,BB McCullum,P Kumar,DR Smith,0,0,na,na
2nd innings,0.2,BB McCullum,P Kumar,DR Smith,2,2,na,na
2nd innings,0.3,BB McCullum,P Kumar,DR Smith,4,4,na,na
2nd innings,0.4,BB McCullum,P Kumar,DR Smith,2,2,na,na
2nd innings,0.5,BB McCullum,P Kumar,DR Smith,0,0,na,na
2nd innings,0.6,BB McCullum,P Kumar,DR Smith,4,4,na,na
2nd innings,1.1,DR Smith,SL Malinga,BB McCullum,0,0,na,na
2nd innings,1.2,DR Smith,SL Malinga,BB McCullum,0,0,na,na
2nd innings,1.3,DR Smith,SL Malinga,BB McCullum,1,1,na,na
2nd innings,1.4,BB McCullum,SL Malinga,DR Smith,0,0,na,na
2nd innings,1.5,BB McCullum,SL Malinga,DR Smith,0,0,na,na
2nd innings,1.6,BB McCullum,SL Malinga,DR Smith,1,1,na,na
2nd innings,2.1,BB McCullum,P Kumar,DR Smith,0,0,na,na
2nd innings,2.2,BB McCullum,P Kumar,DR Smith,0,0,na,na
2nd innings,2.3,BB McCullum,P Kumar,DR Smith,0,0,na,na
2nd innings,2.4,BB McCullum,P Kumar,DR Smith,0,0,na,na
2nd innings,2.5,BB McCullum,P Kumar,DR Smith,1,1,na,na
2nd innings,2.6,DR Smith,P Kumar,BB McCullum,1,1,na,na
2nd innings,3.1,DR Smith,JJ Bumrah,BB McCullum,1,0,{'legbyes': 1},na
2nd innings,3.2,BB McCullum,JJ Bumrah,DR Smith,0,0,na,na
2nd innings,3.3,BB McCullum,JJ Bumrah,DR Smith,1,0,{'legbyes': 1},na
2nd innings,3.4,DR Smith,JJ Bumrah,BB McCullum,6,6,na,na
2nd innings,3.5,DR Smith,JJ Bumrah,BB McCullum,4,4,na,na
2nd innings,3.6,DR Smith,JJ Bumrah,BB McCullum,1,1,na,na
2nd innings,4.1,DR Smith,P Kumar,BB McCullum,0,0,na,na
2nd innings,4.2,DR Smith,P Kumar,BB McCullum,0,0,na,na
2nd innings,4.3,DR Smith,P Kumar,BB McCullum,0,0,na,"{'kind': 'lbw', 'player_out': 'BB McCullum'}"
2nd innings,4.4,DR Smith,P Kumar,SK Raina,0,0,na,na
2nd innings,4.5,DR Smith,P Kumar,SK Raina,4,4,na,na
2nd innings,4.6,DR Smith,P Kumar,SK Raina,1,1,na,na
2nd innings,5.1,DR Smith,JJ Bumrah,SK Raina,1,1,na,na
2nd innings,5.2,SK Raina,JJ Bumrah,DR Smith,0,0,na,na
2nd innings,5.3,SK Raina,JJ Bumrah,DR Smith,0,0,na,na
2nd innings,5.4,SK Raina,JJ Bumrah,DR Smith,1,1,na,na
2nd innings,5.5,DR Smith,JJ Bumrah,SK Raina,0,0,na,na
2nd innings,5.6,DR Smith,JJ Bumrah,SK Raina,2,2,na,na
2nd innings,6.1,SK Raina,Harbhajan Singh,DR Smith,0,0,na,na
2nd innings,6.2,SK Raina,Harbhajan Singh,DR Smith,0,0,na,na
2nd innings,6.3,SK Raina,Harbhajan Singh,DR Smith,1,1,na,na
2nd innings,6.4,DR Smith,Harbhajan Singh,SK Raina,1,1,na,na
2nd innings,6.5,SK Raina,Harbhajan Singh,DR Smith,1,1,na,na
2nd innings,6.6,DR Smith,Harbhajan Singh,SK Raina,1,1,na,na
2nd innings,7.1,DR Smith,KA Pollard,SK Raina,1,0,{'wides': 1},na
2nd innings,7.2,DR Smith,KA Pollard,SK Raina,4,4,na,na
2nd innings,7.3,DR Smith,KA Pollard,SK Raina,1,1,na,na
2nd innings,7.4,SK Raina,KA Pollard,DR Smith,2,2,na,na
2nd innings,7.5,SK Raina,KA Pollard,DR Smith,1,1,na,na
2nd innings,7.6,DR Smith,KA Pollard,SK Raina,4,4,na,na
2nd innings,7.7,DR Smith,KA Pollard,SK Raina,1,0,{'wides': 1},na
2nd innings,7.8,DR Smith,KA Pollard,F du Plessis,0,0,na,na
2nd innings,8.1,F du Plessis,Harbhajan Singh,DR Smith,1,1,na,na
2nd innings,8.2,DR Smith,Harbhajan Singh,F du Plessis,1,1,na,na
2nd innings,8.3,F du Plessis,Harbhajan Singh,DR Smith,1,1,na,na
2nd innings,8.4,DR Smith,Harbhajan Singh,F du Plessis,0,0,na,na
2nd innings,8.5,DR Smith,Harbhajan Singh,F du Plessis,1,1,na,na
2nd innings,8.6,F du Plessis,Harbhajan Singh,DR Smith,0,0,na,na
2nd innings,9.1,DR Smith,KA Pollard,F du Plessis,0,0,na,na
2nd innings,9.2,DR Smith,KA Pollard,F du Plessis,1,1,na,na
2nd innings,9.3,F du Plessis,KA Pollard,DR Smith,4,4,na,na
2nd innings,9.4,F du Plessis,KA Pollard,DR Smith,0,0,na,na
2nd innings,9.5,F du Plessis,KA Pollard,DR Smith,4,4,na,na
2nd innings,9.6,F du Plessis,KA Pollard,DR Smith,6,6,na,na
2nd innings,10.1,DR Smith,Harbhajan Singh,F du Plessis,1,1,na,na
2nd innings,10.2,F du Plessis,Harbhajan Singh,DR Smith,0,0,na,na
2nd innings,10.3,F du Plessis,Harbhajan Singh,DR Smith,1,1,na,na
2nd innings,10.4,DR Smith,Harbhajan Singh,F du Plessis,4,4,na,na
2nd innings,10.5,DR Smith,Harbhajan Singh,F du Plessis,1,1,na,na
2nd innings,10.6,F du Plessis,Harbhajan Singh,DR Smith,0,0,na,na
2nd innings,11.1,DR Smith,SL Malinga,F du Plessis,1,1,na,na
2nd innings,11.2,F du Plessis,SL Malinga,DR Smith,0,0,na,na
2nd innings,11.3,F du Plessis,SL Malinga,DR Smith,1,1,na,na
2nd innings,11.4,DR Smith,SL Malinga,F du Plessis,0,0,na,na
2nd innings,11.5,DR Smith,SL Malinga,F du Plessis,1,1,na,na
2nd innings,11.6,F du Plessis,SL Malinga,DR Smith,0,0,na,na
2nd innings,12.1,DR Smith,Harbhajan Singh,F du Plessis,0,0,na,na
2nd innings,12.2,DR Smith,Harbhajan Singh,F du Plessis,1,1,na,na
2nd innings,12.3,F du Plessis,Harbhajan Singh,DR Smith,0,0,na,na
2nd innings,12.4,F du Plessis,Harbhajan Singh,DR Smith,0,0,na,na
2nd innings,12.5,F du Plessis,Harbhajan Singh,DR Smith,0,0,na,na
2nd innings,12.6,F du Plessis,Harbhajan Singh,DR Smith,6,6,na,na
2nd innings,13.1,DR Smith,CJ Anderson,F du Plessis,2,2,na,na
2nd innings,13.2,DR Smith,CJ Anderson,F du Plessis,1,1,na,na
2nd innings,13.3,F du Plessis,CJ Anderson,DR Smith,0,0,na,na
2nd innings,13.4,F du Plessis,CJ Anderson,DR Smith,1,0,{'byes': 1},na
2nd innings,13.5,DR Smith,CJ Anderson,F du Plessis,6,6,na,na
2nd innings,13.6,DR Smith,CJ Anderson,F du Plessis,2,2,na,na
2nd innings,14.1,F du Plessis,JJ Bumrah,DR Smith,1,1,na,na
2nd innings,14.2,DR Smith,JJ Bumrah,F du Plessis,1,1,na,na
2nd innings,14.3,F du Plessis,JJ Bumrah,DR Smith,0,0,na,na
2nd innings,14.4,F du Plessis,JJ Bumrah,DR Smith,2,2,na,na
2nd innings,14.5,F du Plessis,JJ Bumrah,DR Smith,0,0,na,na
2nd innings,14.6,F du Plessis,JJ Bumrah,DR Smith,4,4,na,na
2nd innings,15.1,DR Smith,P Kumar,F du Plessis,1,1,na,na
2nd innings,15.2,F du Plessis,P Kumar,DR Smith,6,6,na,na
2nd innings,15.3,F du Plessis,P Kumar,DR Smith,0,0,na,"{'fielders': ['LMP Simmons'], 'kind': 'caught', 'player_out': 'DR Smith'}"
2nd innings,15.4,MS Dhoni,P Kumar,F du Plessis,4,4,na,na
2nd innings,15.5,MS Dhoni,P Kumar,F du Plessis,1,1,na,na
2nd innings,15.6,F du Plessis,P Kumar,MS Dhoni,1,0,{'legbyes': 1},na
2nd innings,16.1,F du Plessis,SL Malinga,MS Dhoni,1,0,{'wides': 1},na
2nd innings,16.2,F du Plessis,SL Malinga,MS Dhoni,1,1,na,na
2nd innings,16.3,MS Dhoni,SL Malinga,F du Plessis,1,1,na,na
2nd innings,16.4,F du Plessis,SL Malinga,MS Dhoni,1,1,na,na
2nd innings,16.5,MS Dhoni,SL Malinga,F du Plessis,0,0,na,"{'kind': 'bowled', 'player_out': 'F du Plessis'}"
2nd innings,16.6,MS Dhoni,SL Malinga,RA Jadeja,2,0,{'legbyes': 2},na
2nd innings,16.7,MS Dhoni,SL Malinga,RA Jadeja,0,0,na,na
2nd innings,17.1,RA Jadeja,JJ Bumrah,MS Dhoni,1,1,na,na
2nd innings,17.2,MS Dhoni,JJ Bumrah,RA Jadeja,4,4,na,na
2nd innings,17.3,MS Dhoni,JJ Bumrah,RA Jadeja,1,1,na,na
2nd innings,17.4,RA Jadeja,JJ Bumrah,MS Dhoni,2,2,na,na
2nd innings,17.5,RA Jadeja,JJ Bumrah,MS Dhoni,1,0,{'wides': 1},na
2nd innings,17.6,RA Jadeja,JJ Bumrah,MS Dhoni,1,1,na,na
2nd innings,17.7,MS Dhoni,JJ Bumrah,RA Jadeja,0,0,na,na
2nd innings,18.1,RA Jadeja,SL Malinga,MS Dhoni,1,1,na,na
2nd innings,18.2,MS Dhoni,SL Malinga,RA Jadeja,1,1,na,na
2nd innings,18.3,RA Jadeja,SL Malinga,MS Dhoni,2,2,na,na
2nd innings,18.4,RA Jadeja,SL Malinga,MS Dhoni,1,1,na,na
2nd innings,18.5,MS Dhoni,SL Malinga,RA Jadeja,0,0,na,"{'kind': 'bowled', 'player_out': 'RA Jadeja'}"
2nd innings,18.6,MS Dhoni,SL Malinga,M Manhas,1,1,na,"{'fielders': ['P Kumar', 'CM Gautam'], 'kind': 'run out', 'player_out': 'M Manhas'}"
2nd innings,19.1,R Ashwin,KA Pollard,MS Dhoni,1,0,{'wides': 1},na
2nd innings,19.2,R Ashwin,KA Pollard,MS Dhoni,2,2,na,na
2nd innings,19.3,R Ashwin,KA Pollard,MS Dhoni,6,6,na,na
2nd innings,19.4,R Ashwin,KA Pollard,MS Dhoni,4,4,na,na
