innings,deliveries,non_striker,bowler,batsman,total_runs,batsman_runs,extras,wickets
1st innings,0.1,KK Nair,JP Duminy,AM Rahane,0,0,na,na
1st innings,0.2,KK Nair,JP Duminy,AM Rahane,4,4,na,na
1st innings,0.3,KK Nair,JP Duminy,AM Rahane,1,1,na,na
1st innings,0.4,AM Rahane,JP Duminy,KK Nair,1,1,na,na
1st innings,0.5,KK Nair,JP Duminy,AM Rahane,0,0,na,na
1st innings,0.6,KK Nair,JP Duminy,AM Rahane,1,1,na,na
1st innings,1.1,KK Nair,R Shukla,AM Rahane,4,0,{'legbyes': 4},na
1st innings,1.2,KK Nair,R Shukla,AM Rahane,4,4,na,na
1st innings,1.3,KK Nair,R Shukla,AM Rahane,0,0,na,na
1st innings,1.4,KK Nair,R Shukla,AM Rahane,0,0,na,na
1st innings,1.5,KK Nair,R Shukla,AM Rahane,0,0,na,na
1st innings,1.6,KK Nair,R Shukla,AM Rahane,4,4,na,na
1st innings,2.1,AM Rahane,S Kaul,KK Nair,0,0,na,na
1st innings,2.2,AM Rahane,S Kaul,KK Nair,0,0,na,na
1st innings,2.3,AM Rahane,S Kaul,KK Nair,0,0,na,na
1st innings,2.4,AM Rahane,S Kaul,KK Nair,0,0,na,na
1st innings,2.5,AM Rahane,S Kaul,KK Nair,1,1,na,na
1st innings,2.6,KK Nair,S Kaul,AM Rahane,0,0,na,na
1st innings,3.1,AM Rahane,R Shukla,KK Nair,1,1,na,na
1st innings,3.2,KK Nair,R Shukla,AM Rahane,1,1,na,na
1st innings,3.3,AM Rahane,R Shukla,KK Nair,1,1,na,na
1st innings,3.4,KK Nair,R Shukla,AM Rahane,4,4,na,na
1st innings,3.5,KK Nair,R Shukla,AM Rahane,0,0,na,na
1st innings,3.6,KK Nair,R Shukla,AM Rahane,0,0,na,na
1st innings,4.1,AM Rahane,S Kaul,KK Nair,2,2,na,na
1st innings,4.2,AM Rahane,S Kaul,KK Nair,6,6,na,na
1st innings,4.3,AM Rahane,S Kaul,KK Nair,2,2,na,na
1st innings,4.4,AM Rahane,S Kaul,KK Nair,1,1,na,na
1st innings,4.5,KK Nair,S Kaul,AM Rahane,1,1,na,na
1st innings,4.6,AM Rahane,S Kaul,KK Nair,4,4,na,na
1st innings,5.1,KK Nair,S Nadeem,AM Rahane,0,0,na,na
1st innings,5.2,KK Nair,S Nadeem,AM Rahane,1,1,na,na
1st innings,5.3,AM Rahane,S Nadeem,KK Nair,0,0,na,"{'kind': 'lbw', 'player_out': 'KK Nair'}"
1st innings,5.4,AM Rahane,S Nadeem,KK Cooper,1,1,na,na
1st innings,5.5,KK Cooper,S Nadeem,AM Rahane,1,1,na,na
1st innings,5.6,AM Rahane,S Nadeem,KK Cooper,6,6,na,na
1st innings,6.1,KK Cooper,Imran Tahir,AM Rahane,1,1,na,na
1st innings,6.2,AM Rahane,Imran Tahir,KK Cooper,3,0,{'legbyes': 3},na
1st innings,6.3,KK Cooper,Imran Tahir,AM Rahane,1,1,na,na
1st innings,6.4,AM Rahane,Imran Tahir,KK Cooper,0,0,na,na
1st innings,6.5,AM Rahane,Imran Tahir,KK Cooper,1,1,na,na
1st innings,6.6,KK Cooper,Imran Tahir,AM Rahane,1,1,na,na
1st innings,7.1,KK Cooper,S Nadeem,AM Rahane,0,0,na,na
1st innings,7.2,KK Cooper,S Nadeem,AM Rahane,0,0,na,na
1st innings,7.3,KK Cooper,S Nadeem,AM Rahane,1,1,na,na
1st innings,7.4,AM Rahane,S Nadeem,KK Cooper,6,6,na,na
1st innings,7.5,AM Rahane,S Nadeem,KK Cooper,1,1,na,na
1st innings,7.6,KK Cooper,S Nadeem,AM Rahane,0,0,na,na
1st innings,8.1,AM Rahane,Imran Tahir,KK Cooper,0,0,na,na
1st innings,8.2,AM Rahane,Imran Tahir,KK Cooper,4,4,na,na
1st innings,8.3,AM Rahane,Imran Tahir,KK Cooper,4,4,na,na
1st innings,8.4,AM Rahane,Imran Tahir,KK Cooper,1,1,na,na
1st innings,8.5,KK Cooper,Imran Tahir,AM Rahane,1,1,na,na
1st innings,8.6,AM Rahane,Imran Tahir,KK Cooper,0,0,na,na
1st innings,9.1,KK Cooper,S Nadeem,AM Rahane,1,0,{'legbyes': 1},na
1st innings,9.2,AM Rahane,S Nadeem,KK Cooper,1,1,na,na
1st innings,9.3,KK Cooper,S Nadeem,AM Rahane,1,1,na,na
1st innings,9.4,AM Rahane,S Nadeem,KK Cooper,1,1,na,na
1st innings,9.5,KK Cooper,S Nadeem,AM Rahane,4,4,na,na
1st innings,9.6,KK Cooper,S Nadeem,AM Rahane,1,0,{'wides': 1},na
1st innings,9.7,KK Cooper,S Nadeem,AM Rahane,0,0,na,na
1st innings,10.1,AM Rahane,JP Duminy,KK Cooper,1,0,{'wides': 1},na
1st innings,10.2,AM Rahane,JP Duminy,KK Cooper,6,6,na,na
1st innings,10.3,AM Rahane,JP Duminy,KK Cooper,0,0,na,"{'fielders': ['R Shukla'], 'kind': 'caught', 'player_out': 'KK Cooper'}"
1st innings,10.4,SV Samson,JP Duminy,AM Rahane,1,1,na,na
1st innings,10.5,AM Rahane,JP Duminy,SV Samson,1,1,na,na
1st innings,10.6,SV Samson,JP Duminy,AM Rahane,1,1,na,na
1st innings,10.7,AM Rahane,JP Duminy,SV Samson,1,1,na,na
1st innings,11.1,AM Rahane,MK Tiwary,SV Samson,0,0,na,na
1st innings,11.2,AM Rahane,MK Tiwary,SV Samson,0,0,na,na
1st innings,11.3,AM Rahane,MK Tiwary,SV Samson,6,6,na,na
1st innings,11.4,AM Rahane,MK Tiwary,SV Samson,0,0,na,na
1st innings,11.5,AM Rahane,MK Tiwary,SV Samson,1,1,na,na
1st innings,11.6,SV Samson,MK Tiwary,AM Rahane,4,4,na,na
1st innings,12.1,AM Rahane,JP Duminy,SV Samson,1,1,na,na
1st innings,12.2,SV Samson,JP Duminy,AM Rahane,1,1,na,na
1st innings,12.3,AM Rahane,JP Duminy,SV Samson,1,1,na,na
1st innings,12.4,SV Samson,JP Duminy,AM Rahane,1,1,na,na
1st innings,12.5,AM Rahane,JP Duminy,SV Samson,1,0,{'wides': 1},na
1st innings,12.6,AM Rahane,JP Duminy,SV Samson,1,1,na,na
1st innings,12.7,SV Samson,JP Duminy,AM Rahane,1,1,na,na
1st innings,13.1,SV Samson,Imran Tahir,AM Rahane,1,1,na,na
1st innings,13.2,AM Rahane,Imran Tahir,SV Samson,1,1,na,na
1st innings,13.3,SV Samson,Imran Tahir,AM Rahane,1,1,na,na
1st innings,13.4,AM Rahane,Imran Tahir,SV Samson,1,1,na,na
1st innings,13.5,SV Samson,Imran Tahir,AM Rahane,1,1,na,na
1st innings,13.6,AM Rahane,Imran Tahir,SV Samson,4,4,na,na
1st innings,14.1,SV Samson,S Kaul,AM Rahane,1,1,na,na
1st innings,14.2,AM Rahane,S Kaul,SV Samson,6,6,na,na
1st innings,14.3,AM Rahane,S Kaul,SV Samson,2,2,na,na
1st innings,14.4,AM Rahane,S Kaul,SV Samson,6,6,na,na
1st innings,14.5,AM Rahane,S Kaul,SV Samson,1,1,na,na
1st innings,14.6,SV Samson,S Kaul,AM Rahane,1,1,na,na
1st innings,15.1,SV Samson,R Shukla,AM Rahane,1,1,na,na
1st innings,15.2,AM Rahane,R Shukla,SV Samson,4,4,na,na
1st innings,15.3,AM Rahane,R Shukla,SV Samson,1,0,{'legbyes': 1},na
1st innings,15.4,SV Samson,R Shukla,AM Rahane,4,4,na,na
1st innings,15.5,SV Samson,R Shukla,AM Rahane,2,2,na,na
1st innings,15.6,SV Samson,R Shukla,AM Rahane,4,4,na,na
1st innings,16.1,AM Rahane,S Nadeem,SV Samson,1,0,{'wides': 1},na
1st innings,16.2,AM Rahane,S Nadeem,SV Samson,1,1,na,na
1st innings,16.3,SV Samson,S Nadeem,AM Rahane,6,6,na,na
1st innings,16.4,SV Samson,S Nadeem,AM Rahane,1,1,na,na
1st innings,16.5,AM Rahane,S Nadeem,SV Samson,1,1,na,na
1st innings,16.6,SV Samson,S Nadeem,AM Rahane,0,0,na,"{'kind': 'bowled', 'player_out': 'AM Rahane'}"
1st innings,16.7,SV Samson,S Nadeem,STR Binny,0,0,na,na
1st innings,17.1,STR Binny,Imran Tahir,SV Samson,0,0,na,na
1st innings,17.2,STR Binny,Imran Tahir,SV Samson,1,1,na,na
1st innings,17.3,SV Samson,Imran Tahir,STR Binny,0,0,na,"{'fielders': ['KD Karthik'], 'kind': 'stumped', 'player_out': 'STR Binny'}"
1st innings,17.4,SV Samson,Imran Tahir,BCJ Cutting,1,1,na,na
1st innings,17.5,BCJ Cutting,Imran Tahir,SV Samson,0,0,na,na
1st innings,17.6,BCJ Cutting,Imran Tahir,SV Samson,0,0,na,"{'fielders': ['KM Jadhav'], 'kind': 'caught', 'player_out': 'SV Samson'}"
1st innings,18.1,BCJ Cutting,MK Tiwary,JP Faulkner,2,2,na,na
1st innings,18.2,BCJ Cutting,MK Tiwary,JP Faulkner,1,1,na,na
1st innings,18.3,JP Faulkner,MK Tiwary,BCJ Cutting,6,6,na,na
1st innings,18.4,JP Faulkner,MK Tiwary,BCJ Cutting,1,1,na,na
1st innings,18.5,BCJ Cutting,MK Tiwary,JP Faulkner,6,6,na,na
1st innings,18.6,BCJ Cutting,MK Tiwary,JP Faulkner,1,1,na,na
1st innings,19.1,BCJ Cutting,R Shukla,JP Faulkner,2,1,{'noballs': 1},na
1st innings,19.2,JP Faulkner,R Shukla,BCJ Cutting,0,0,na,na
1st innings,19.3,JP Faulkner,R Shukla,BCJ Cutting,0,0,na,na
1st innings,19.4,JP Faulkner,R Shukla,BCJ Cutting,1,0,{'legbyes': 1},na
1st innings,19.5,BCJ Cutting,R Shukla,JP Faulkner,6,6,na,na
1st innings,19.6,BCJ Cutting,R Shukla,JP Faulkner,6,6,na,na
1st innings,19.7,BCJ Cutting,R Shukla,JP Faulkner,0,0,na,"{'fielders': ['R Shukla'], 'kind': 'run out', 'player_out': 'BCJ Cutting'}"
2nd innings,0.1,MA Agarwal,DS Kulkarni,KP Pietersen,0,0,na,na
2nd innings,0.2,MA Agarwal,DS Kulkarni,KP Pietersen,1,1,na,na
2nd innings,0.3,KP Pietersen,DS Kulkarni,MA Agarwal,4,4,na,na
2nd innings,0.4,KP Pietersen,DS Kulkarni,MA Agarwal,1,1,na,na
2nd innings,0.5,MA Agarwal,DS Kulkarni,KP Pietersen,0,0,na,na
2nd innings,0.6,MA Agarwal,DS Kulkarni,KP Pietersen,0,0,na,na
2nd innings,1.1,KP Pietersen,BCJ Cutting,MA Agarwal,4,4,na,na
2nd innings,1.2,KP Pietersen,BCJ Cutting,MA Agarwal,4,4,na,na
2nd innings,1.3,KP Pietersen,BCJ Cutting,MA Agarwal,1,1,na,na
2nd innings,1.4,MA Agarwal,BCJ Cutting,KP Pietersen,1,1,na,na
2nd innings,1.5,KP Pietersen,BCJ Cutting,MA Agarwal,2,2,na,na
2nd innings,1.6,KP Pietersen,BCJ Cutting,MA Agarwal,1,1,na,na
2nd innings,2.1,KP Pietersen,JP Faulkner,MA Agarwal,0,0,na,na
2nd innings,2.2,KP Pietersen,JP Faulkner,MA Agarwal,0,0,na,na
2nd innings,2.3,KP Pietersen,JP Faulkner,MA Agarwal,0,0,na,"{'fielders': ['SPD Smith'], 'kind': 'caught', 'player_out': 'MA Agarwal'}"
2nd innings,2.4,KD Karthik,JP Faulkner,KP Pietersen,1,1,na,na
2nd innings,2.5,KP Pietersen,JP Faulkner,KD Karthik,1,1,na,na
2nd innings,2.6,KD Karthik,JP Faulkner,KP Pietersen,4,4,na,na
2nd innings,3.1,KP Pietersen,BCJ Cutting,KD Karthik,0,0,na,na
2nd innings,3.2,KP Pietersen,BCJ Cutting,KD Karthik,1,1,na,na
2nd innings,3.3,KD Karthik,BCJ Cutting,KP Pietersen,1,1,na,na
2nd innings,3.4,KP Pietersen,BCJ Cutting,KD Karthik,1,1,na,na
2nd innings,3.5,KD Karthik,BCJ Cutting,KP Pietersen,1,1,na,na
2nd innings,3.6,KP Pietersen,BCJ Cutting,KD Karthik,0,0,na,na
2nd innings,4.1,KD Karthik,DS Kulkarni,KP Pietersen,1,0,{'legbyes': 1},na
2nd innings,4.2,KP Pietersen,DS Kulkarni,KD Karthik,0,0,na,na
2nd innings,4.3,KP Pietersen,DS Kulkarni,KD Karthik,0,0,na,na
2nd innings,4.4,KP Pietersen,DS Kulkarni,KD Karthik,0,0,na,"{'fielders': ['BCJ Cutting'], 'kind': 'caught', 'player_out': 'KD Karthik'}"
2nd innings,4.5,KP Pietersen,DS Kulkarni,JP Duminy,0,0,na,na
2nd innings,4.6,KP Pietersen,DS Kulkarni,JP Duminy,0,0,na,na
2nd innings,5.1,JP Duminy,KK Cooper,KP Pietersen,1,0,{'legbyes': 1},na
2nd innings,5.2,KP Pietersen,KK Cooper,JP Duminy,0,0,na,na
2nd innings,5.3,KP Pietersen,KK Cooper,JP Duminy,0,0,na,na
2nd innings,5.4,KP Pietersen,KK Cooper,JP Duminy,1,1,na,na
2nd innings,5.5,JP Duminy,KK Cooper,KP Pietersen,1,0,{'wides': 1},na
2nd innings,5.6,JP Duminy,KK Cooper,KP Pietersen,0,0,na,na
2nd innings,5.7,JP Duminy,KK Cooper,KP Pietersen,1,1,na,na
2nd innings,6.1,JP Duminy,PV Tambe,KP Pietersen,1,1,na,na
2nd innings,6.2,KP Pietersen,PV Tambe,JP Duminy,1,1,na,na
2nd innings,6.3,JP Duminy,PV Tambe,KP Pietersen,1,1,na,na
2nd innings,6.4,KP Pietersen,PV Tambe,JP Duminy,6,6,na,na
2nd innings,6.5,KP Pietersen,PV Tambe,JP Duminy,0,0,na,"{'fielders': ['KK Nair'], 'kind': 'caught', 'player_out': 'JP Duminy'}"
2nd innings,6.6,KP Pietersen,PV Tambe,MK Tiwary,2,2,na,na
2nd innings,7.1,MK Tiwary,R Bhatia,KP Pietersen,0,0,na,na
2nd innings,7.2,MK Tiwary,R Bhatia,KP Pietersen,1,1,na,na
2nd innings,7.3,KP Pietersen,R Bhatia,MK Tiwary,1,1,na,na
2nd innings,7.4,MK Tiwary,R Bhatia,KP Pietersen,1,0,{'wides': 1},na
2nd innings,7.5,MK Tiwary,R Bhatia,KP Pietersen,0,0,na,"{'kind': 'bowled', 'player_out': 'KP Pietersen'}"
2nd innings,7.6,MK Tiwary,R Bhatia,LRPL Taylor,1,1,na,na
2nd innings,7.7,LRPL Taylor,R Bhatia,MK Tiwary,0,0,na,na
2nd innings,8.1,MK Tiwary,PV Tambe,LRPL Taylor,1,0,{'wides': 1},na
2nd innings,8.2,MK Tiwary,PV Tambe,LRPL Taylor,1,1,na,na
2nd innings,8.3,LRPL Taylor,PV Tambe,MK Tiwary,1,1,na,na
2nd innings,8.4,MK Tiwary,PV Tambe,LRPL Taylor,1,1,na,na
2nd innings,8.5,LRPL Taylor,PV Tambe,MK Tiwary,1,1,na,na
2nd innings,8.6,MK Tiwary,PV Tambe,LRPL Taylor,1,1,na,na
2nd innings,8.7,LRPL Taylor,PV Tambe,MK Tiwary,1,0,{'wides': 1},na
2nd innings,8.8,LRPL Taylor,PV Tambe,MK Tiwary,1,1,na,na
2nd innings,9.1,LRPL Taylor,R Bhatia,MK Tiwary,1,1,na,na
2nd innings,9.2,MK Tiwary,R Bhatia,LRPL Taylor,0,0,na,"{'kind': 'caught and bowled', 'player_out': 'LRPL Taylor'}"
2nd innings,9.3,MK Tiwary,R Bhatia,KM Jadhav,1,1,na,na
2nd innings,9.4,KM Jadhav,R Bhatia,MK Tiwary,0,0,na,na
2nd innings,9.5,KM Jadhav,R Bhatia,MK Tiwary,2,2,na,na
2nd innings,9.6,KM Jadhav,R Bhatia,MK Tiwary,1,1,na,na
2nd innings,10.1,KM Jadhav,PV Tambe,MK Tiwary,0,0,na,na
2nd innings,10.2,KM Jadhav,PV Tambe,MK Tiwary,1,1,na,na
2nd innings,10.3,MK Tiwary,PV Tambe,KM Jadhav,1,1,na,na
2nd innings,10.4,KM Jadhav,PV Tambe,MK Tiwary,1,1,na,na
2nd innings,10.5,MK Tiwary,PV Tambe,KM Jadhav,1,1,na,na
2nd innings,10.6,KM Jadhav,PV Tambe,MK Tiwary,1,1,na,na
2nd innings,11.1,KM Jadhav,BCJ Cutting,MK Tiwary,0,0,na,na
2nd innings,11.2,KM Jadhav,BCJ Cutting,MK Tiwary,4,4,na,na
2nd innings,11.3,KM Jadhav,BCJ Cutting,MK Tiwary,4,4,na,na
2nd innings,11.4,KM Jadhav,BCJ Cutting,MK Tiwary,0,0,na,"{'fielders': ['BCJ Cutting'], 'kind': 'run out', 'player_out': 'KM Jadhav'}"
2nd innings,11.5,S Nadeem,BCJ Cutting,MK Tiwary,1,1,na,na
2nd innings,11.6,MK Tiwary,BCJ Cutting,S Nadeem,0,0,na,na
2nd innings,12.1,S Nadeem,R Bhatia,MK Tiwary,0,0,na,na
2nd innings,12.2,S Nadeem,R Bhatia,MK Tiwary,1,1,na,na
2nd innings,12.3,MK Tiwary,R Bhatia,S Nadeem,0,0,na,na
2nd innings,12.4,MK Tiwary,R Bhatia,S Nadeem,1,1,na,na
2nd innings,12.5,S Nadeem,R Bhatia,MK Tiwary,6,6,na,na
2nd innings,12.6,S Nadeem,R Bhatia,MK Tiwary,1,1,na,na
2nd innings,13.1,S Nadeem,BCJ Cutting,MK Tiwary,1,1,na,na
2nd innings,13.2,MK Tiwary,BCJ Cutting,S Nadeem,0,0,na,"{'kind': 'bowled', 'player_out': 'S Nadeem'}"
2nd innings,13.3,MK Tiwary,BCJ Cutting,Imran Tahir,0,0,na,na
2nd innings,13.4,MK Tiwary,BCJ Cutting,Imran Tahir,4,4,na,na
2nd innings,13.5,MK Tiwary,BCJ Cutting,Imran Tahir,0,0,na,na
2nd innings,13.6,MK Tiwary,BCJ Cutting,Imran Tahir,0,0,na,na
2nd innings,14.1,Imran Tahir,STR Binny,MK Tiwary,0,0,na,na
2nd innings,14.2,Imran Tahir,STR Binny,MK Tiwary,1,1,na,na
2nd innings,14.3,MK Tiwary,STR Binny,Imran Tahir,0,0,na,na
2nd innings,14.4,MK Tiwary,STR Binny,Imran Tahir,0,0,na,"{'kind': 'bowled', 'player_out': 'Imran Tahir'}"
2nd innings,14.5,MK Tiwary,STR Binny,R Shukla,1,1,na,na
2nd innings,14.6,R Shukla,STR Binny,MK Tiwary,1,1,na,na
2nd innings,15.1,R Shukla,DS Kulkarni,MK Tiwary,1,1,na,na
2nd innings,15.2,MK Tiwary,DS Kulkarni,R Shukla,1,1,na,na
2nd innings,15.3,R Shukla,DS Kulkarni,MK Tiwary,0,0,na,na
2nd innings,15.4,R Shukla,DS Kulkarni,MK Tiwary,1,0,{'legbyes': 1},na
2nd innings,15.5,MK Tiwary,DS Kulkarni,R Shukla,1,1,na,na
2nd innings,15.6,R Shukla,DS Kulkarni,MK Tiwary,1,0,{'wides': 1},na
2nd innings,15.7,R Shukla,DS Kulkarni,MK Tiwary,1,1,na,na
2nd innings,16.1,R Shukla,KK Cooper,MK Tiwary,1,1,na,na
2nd innings,16.2,MK Tiwary,KK Cooper,R Shukla,4,4,na,na
2nd innings,16.3,MK Tiwary,KK Cooper,R Shukla,0,0,na,na
2nd innings,16.4,MK Tiwary,KK Cooper,R Shukla,0,0,na,na
2nd innings,16.5,MK Tiwary,KK Cooper,R Shukla,1,1,na,na
2nd innings,16.6,R Shukla,KK Cooper,MK Tiwary,4,4,na,na
2nd innings,17.1,MK Tiwary,STR Binny,R Shukla,4,4,na,na
2nd innings,17.2,MK Tiwary,STR Binny,R Shukla,1,1,na,na
2nd innings,17.3,R Shukla,STR Binny,MK Tiwary,1,1,na,na
2nd innings,17.4,MK Tiwary,STR Binny,R Shukla,0,0,na,na
2nd innings,17.5,MK Tiwary,STR Binny,R Shukla,1,1,na,na
2nd innings,17.6,R Shukla,STR Binny,MK Tiwary,4,4,na,na
2nd innings,18.1,MK Tiwary,KK Cooper,R Shukla,0,0,na,"{'fielders': ['SPD Smith'], 'kind': 'caught', 'player_out': 'R Shukla'}"
2nd innings,18.2,MK Tiwary,KK Cooper,S Kaul,1,1,na,na
2nd innings,18.3,S Kaul,KK Cooper,MK Tiwary,0,0,na,na
2nd innings,18.4,S Kaul,KK Cooper,MK Tiwary,0,0,na,na
2nd innings,18.5,S Kaul,KK Cooper,MK Tiwary,4,4,na,na
2nd innings,18.6,S Kaul,KK Cooper,MK Tiwary,1,1,na,na
2nd innings,19.1,S Kaul,DS Kulkarni,MK Tiwary,1,1,na,na
2nd innings,19.2,MK Tiwary,DS Kulkarni,S Kaul,1,1,na,na
2nd innings,19.3,S Kaul,DS Kulkarni,MK Tiwary,2,2,na,na
2nd innings,19.4,S Kaul,DS Kulkarni,MK Tiwary,1,0,{'wides': 1},na
2nd innings,19.5,S Kaul,DS Kulkarni,MK Tiwary,6,6,na,na
2nd innings,19.6,S Kaul,DS Kulkarni,MK Tiwary,2,2,na,na
2nd innings,19.7,S Kaul,DS Kulkarni,MK Tiwary,0,0,na,na
