innings,deliveries,non_striker,bowler,batsman,total_runs,batsman_runs,extras,wickets
1st innings,0.1,S Dhawan,M Morkel,AJ Finch,0,0,na,na
1st innings,0.2,S Dhawan,M Morkel,AJ Finch,0,0,na,na
1st innings,0.3,S Dhawan,M Morkel,AJ Finch,0,0,na,na
1st innings,0.4,S Dhawan,M Morkel,AJ Finch,1,1,na,na
1st innings,0.5,AJ Finch,M Morkel,S Dhawan,2,0,{'wides': 2},na
1st innings,0.6,S Dhawan,M Morkel,AJ Finch,1,1,na,na
1st innings,0.7,AJ Finch,M Morkel,S Dhawan,4,4,na,na
1st innings,1.1,S Dhawan,UT Yadav,AJ Finch,2,2,na,na
1st innings,1.2,S Dhawan,UT Yadav,AJ Finch,4,4,na,na
1st innings,1.3,S Dhawan,UT Yadav,AJ Finch,0,0,na,"{'fielders': ['M Morkel'], 'kind': 'caught', 'player_out': 'AJ Finch'}"
1st innings,1.4,S Dhawan,UT Yadav,NV Ojha,0,0,na,na
1st innings,1.5,S Dhawan,UT Yadav,NV Ojha,0,0,na,na
1st innings,1.6,S Dhawan,UT Yadav,NV Ojha,0,0,na,na
1st innings,2.1,NV Ojha,M Morkel,S Dhawan,1,1,na,na
1st innings,2.2,S Dhawan,M Morkel,NV Ojha,4,4,na,na
1st innings,2.3,S Dhawan,M Morkel,NV Ojha,0,0,na,na
1st innings,2.4,S Dhawan,M Morkel,NV Ojha,1,0,{'wides': 1},na
1st innings,2.5,S Dhawan,M Morkel,NV Ojha,0,0,na,na
1st innings,2.6,S Dhawan,M Morkel,NV Ojha,0,0,na,na
1st innings,2.7,S Dhawan,M Morkel,NV Ojha,1,1,na,na
1st innings,3.1,S Dhawan,UT Yadav,NV Ojha,1,1,na,na
1st innings,3.2,NV Ojha,UT Yadav,S Dhawan,0,0,na,na
1st innings,3.3,NV Ojha,UT Yadav,S Dhawan,0,0,na,na
1st innings,3.4,NV Ojha,UT Yadav,S Dhawan,4,4,na,na
1st innings,3.5,NV Ojha,UT Yadav,S Dhawan,1,1,na,na
1st innings,3.6,S Dhawan,UT Yadav,NV Ojha,1,1,na,na
1st innings,4.1,S Dhawan,M Morkel,NV Ojha,1,1,na,na
1st innings,4.2,NV Ojha,M Morkel,S Dhawan,4,4,na,na
1st innings,4.3,NV Ojha,M Morkel,S Dhawan,0,0,na,na
1st innings,4.4,NV Ojha,M Morkel,S Dhawan,1,1,na,na
1st innings,4.5,S Dhawan,M Morkel,NV Ojha,2,0,{'wides': 2},na
1st innings,4.6,NV Ojha,M Morkel,S Dhawan,4,4,na,na
1st innings,4.7,NV Ojha,M Morkel,S Dhawan,0,0,na,na
1st innings,5.1,S Dhawan,SP Narine,NV Ojha,1,1,na,na
1st innings,5.2,NV Ojha,SP Narine,S Dhawan,0,0,na,na
1st innings,5.3,NV Ojha,SP Narine,S Dhawan,0,0,na,na
1st innings,5.4,NV Ojha,SP Narine,S Dhawan,0,0,na,"{'fielders': ['G Gambhir'], 'kind': 'caught', 'player_out': 'S Dhawan'}"
1st innings,5.5,DA Warner,SP Narine,NV Ojha,0,0,na,na
1st innings,5.6,DA Warner,SP Narine,NV Ojha,0,0,na,na
1st innings,6.1,NV Ojha,Shakib Al Hasan,DA Warner,0,0,na,na
1st innings,6.2,NV Ojha,Shakib Al Hasan,DA Warner,1,1,na,na
1st innings,6.3,DA Warner,Shakib Al Hasan,NV Ojha,1,0,{'byes': 1},na
1st innings,6.4,NV Ojha,Shakib Al Hasan,DA Warner,6,6,na,na
1st innings,6.5,NV Ojha,Shakib Al Hasan,DA Warner,1,1,na,na
1st innings,6.6,DA Warner,Shakib Al Hasan,NV Ojha,0,0,na,na
1st innings,7.1,NV Ojha,RN ten Doeschate,DA Warner,1,1,na,na
1st innings,7.2,DA Warner,RN ten Doeschate,NV Ojha,0,0,na,na
1st innings,7.3,DA Warner,RN ten Doeschate,NV Ojha,6,6,na,na
1st innings,7.4,DA Warner,RN ten Doeschate,NV Ojha,0,0,na,na
1st innings,7.5,DA Warner,RN ten Doeschate,NV Ojha,0,0,na,na
1st innings,7.6,DA Warner,RN ten Doeschate,NV Ojha,1,1,na,na
1st innings,8.1,DA Warner,Shakib Al Hasan,NV Ojha,6,6,na,na
1st innings,8.2,DA Warner,Shakib Al Hasan,NV Ojha,0,0,na,na
1st innings,8.3,DA Warner,Shakib Al Hasan,NV Ojha,0,0,na,"{'fielders': ['YK Pathan'], 'kind': 'caught', 'player_out': 'NV Ojha'}"
1st innings,8.4,DA Warner,Shakib Al Hasan,KL Rahul,0,0,na,na
1st innings,8.5,DA Warner,Shakib Al Hasan,KL Rahul,0,0,na,na
1st innings,8.6,DA Warner,Shakib Al Hasan,KL Rahul,1,1,na,na
1st innings,9.1,DA Warner,SP Narine,KL Rahul,1,1,na,na
1st innings,9.2,KL Rahul,SP Narine,DA Warner,6,6,na,na
1st innings,9.3,KL Rahul,SP Narine,DA Warner,1,1,na,na
1st innings,9.4,DA Warner,SP Narine,KL Rahul,0,0,na,na
1st innings,9.5,DA Warner,SP Narine,KL Rahul,0,0,na,na
1st innings,9.6,DA Warner,SP Narine,KL Rahul,4,4,na,na
1st innings,10.1,KL Rahul,PP Chawla,DA Warner,1,1,na,na
1st innings,10.2,DA Warner,PP Chawla,KL Rahul,0,0,na,na
1st innings,10.3,DA Warner,PP Chawla,KL Rahul,4,4,na,na
1st innings,10.4,DA Warner,PP Chawla,KL Rahul,1,1,na,na
1st innings,10.5,KL Rahul,PP Chawla,DA Warner,1,1,na,na
1st innings,10.6,DA Warner,PP Chawla,KL Rahul,0,0,na,na
1st innings,11.1,KL Rahul,M Morkel,DA Warner,1,1,na,na
1st innings,11.2,DA Warner,M Morkel,KL Rahul,1,1,na,na
1st innings,11.3,KL Rahul,M Morkel,DA Warner,4,4,na,na
1st innings,11.4,KL Rahul,M Morkel,DA Warner,4,4,na,na
1st innings,11.5,KL Rahul,M Morkel,DA Warner,1,1,na,na
1st innings,11.6,DA Warner,M Morkel,KL Rahul,1,1,na,na
1st innings,12.1,DA Warner,PP Chawla,KL Rahul,1,1,na,na
1st innings,12.2,KL Rahul,PP Chawla,DA Warner,0,0,na,na
1st innings,12.3,KL Rahul,PP Chawla,DA Warner,1,1,na,na
1st innings,12.4,DA Warner,PP Chawla,KL Rahul,0,0,na,"{'kind': 'lbw', 'player_out': 'KL Rahul'}"
1st innings,12.5,DA Warner,PP Chawla,IK Pathan,1,1,na,na
1st innings,12.6,IK Pathan,PP Chawla,DA Warner,1,1,na,na
1st innings,13.1,IK Pathan,UT Yadav,DA Warner,4,4,na,na
1st innings,13.2,IK Pathan,UT Yadav,DA Warner,0,0,na,"{'fielders': ['YK Pathan'], 'kind': 'caught', 'player_out': 'DA Warner'}"
1st innings,13.3,IK Pathan,UT Yadav,DJG Sammy,0,0,na,na
1st innings,13.4,IK Pathan,UT Yadav,DJG Sammy,2,2,na,na
1st innings,13.5,IK Pathan,UT Yadav,DJG Sammy,1,0,{'legbyes': 1},na
1st innings,13.6,DJG Sammy,UT Yadav,IK Pathan,1,1,na,na
1st innings,14.1,DJG Sammy,PP Chawla,IK Pathan,0,0,na,na
1st innings,14.2,DJG Sammy,PP Chawla,IK Pathan,0,0,na,na
1st innings,14.3,DJG Sammy,PP Chawla,IK Pathan,1,1,na,na
1st innings,14.4,IK Pathan,PP Chawla,DJG Sammy,0,0,na,na
1st innings,14.5,IK Pathan,PP Chawla,DJG Sammy,0,0,na,na
1st innings,14.6,IK Pathan,PP Chawla,DJG Sammy,0,0,na,na
1st innings,15.1,DJG Sammy,SP Narine,IK Pathan,1,1,na,na
1st innings,15.2,IK Pathan,SP Narine,DJG Sammy,0,0,na,na
1st innings,15.3,IK Pathan,SP Narine,DJG Sammy,1,1,na,na
1st innings,15.4,DJG Sammy,SP Narine,IK Pathan,0,0,na,na
1st innings,15.5,DJG Sammy,SP Narine,IK Pathan,2,2,na,na
1st innings,15.6,DJG Sammy,SP Narine,IK Pathan,1,1,na,na
1st innings,16.1,DJG Sammy,PP Chawla,IK Pathan,4,4,na,na
1st innings,16.2,DJG Sammy,PP Chawla,IK Pathan,1,1,na,na
1st innings,16.3,IK Pathan,PP Chawla,DJG Sammy,0,0,na,na
1st innings,16.4,IK Pathan,PP Chawla,DJG Sammy,1,1,na,na
1st innings,16.5,DJG Sammy,PP Chawla,IK Pathan,4,4,na,na
1st innings,16.6,DJG Sammy,PP Chawla,IK Pathan,2,2,na,na
1st innings,17.1,IK Pathan,SP Narine,DJG Sammy,0,0,na,na
1st innings,17.2,IK Pathan,SP Narine,DJG Sammy,2,2,na,na
1st innings,17.3,IK Pathan,SP Narine,DJG Sammy,0,0,na,na
1st innings,17.4,IK Pathan,SP Narine,DJG Sammy,0,0,na,na
1st innings,17.5,IK Pathan,SP Narine,DJG Sammy,1,1,na,na
1st innings,17.6,DJG Sammy,SP Narine,IK Pathan,0,0,na,na
1st innings,18.1,IK Pathan,Shakib Al Hasan,DJG Sammy,0,0,na,"{'fielders': ['MK Pandey'], 'kind': 'caught', 'player_out': 'DJG Sammy'}"
1st innings,18.2,KV Sharma,Shakib Al Hasan,IK Pathan,2,2,na,na
1st innings,18.3,KV Sharma,Shakib Al Hasan,IK Pathan,0,0,na,na
1st innings,18.4,KV Sharma,Shakib Al Hasan,IK Pathan,1,0,{'wides': 1},na
1st innings,18.5,KV Sharma,Shakib Al Hasan,IK Pathan,1,1,na,na
1st innings,18.6,IK Pathan,Shakib Al Hasan,KV Sharma,2,2,na,na
1st innings,18.7,IK Pathan,Shakib Al Hasan,KV Sharma,1,1,na,na
1st innings,19.1,IK Pathan,UT Yadav,KV Sharma,1,0,{'wides': 1},na
1st innings,19.2,IK Pathan,UT Yadav,KV Sharma,0,0,na,na
1st innings,19.3,IK Pathan,UT Yadav,KV Sharma,1,1,na,na
1st innings,19.4,KV Sharma,UT Yadav,IK Pathan,1,1,na,"{'fielders': ['YK Pathan'], 'kind': 'run out', 'player_out': 'KV Sharma'}"
1st innings,19.5,IK Pathan,UT Yadav,DW Steyn,1,1,na,na
1st innings,19.6,DW Steyn,UT Yadav,IK Pathan,1,0,{'wides': 1},na
1st innings,19.7,DW Steyn,UT Yadav,IK Pathan,1,1,na,na
1st innings,19.8,IK Pathan,UT Yadav,DW Steyn,0,0,na,"{'kind': 'bowled', 'player_out': 'DW Steyn'}"
2nd innings,0.1,G Gambhir,B Kumar,RV Uthappa,1,1,na,na
2nd innings,0.2,RV Uthappa,B Kumar,G Gambhir,0,0,na,na
2nd innings,0.3,RV Uthappa,B Kumar,G Gambhir,0,0,na,na
2nd innings,0.4,RV Uthappa,B Kumar,G Gambhir,0,0,na,na
2nd innings,0.5,RV Uthappa,B Kumar,G Gambhir,4,4,na,na
2nd innings,0.6,RV Uthappa,B Kumar,G Gambhir,1,1,na,na
2nd innings,1.1,RV Uthappa,DW Steyn,G Gambhir,0,0,na,na
2nd innings,1.2,RV Uthappa,DW Steyn,G Gambhir,1,1,na,na
2nd innings,1.3,G Gambhir,DW Steyn,RV Uthappa,1,1,na,na
2nd innings,1.4,RV Uthappa,DW Steyn,G Gambhir,0,0,na,na
2nd innings,1.5,RV Uthappa,DW Steyn,G Gambhir,0,0,na,na
2nd innings,1.6,RV Uthappa,DW Steyn,G Gambhir,0,0,na,"{'fielders': ['NV Ojha'], 'kind': 'caught', 'player_out': 'G Gambhir'}"
2nd innings,2.1,MK Pandey,B Kumar,RV Uthappa,0,0,na,na
2nd innings,2.2,MK Pandey,B Kumar,RV Uthappa,0,0,na,na
2nd innings,2.3,MK Pandey,B Kumar,RV Uthappa,4,4,na,na
2nd innings,2.4,MK Pandey,B Kumar,RV Uthappa,0,0,na,na
2nd innings,2.5,MK Pandey,B Kumar,RV Uthappa,0,0,na,na
2nd innings,2.6,MK Pandey,B Kumar,RV Uthappa,0,0,na,na
2nd innings,3.1,RV Uthappa,KV Sharma,MK Pandey,0,0,na,na
2nd innings,3.2,RV Uthappa,KV Sharma,MK Pandey,0,0,na,na
2nd innings,3.3,RV Uthappa,KV Sharma,MK Pandey,0,0,na,na
2nd innings,3.4,RV Uthappa,KV Sharma,MK Pandey,1,1,na,na
2nd innings,3.5,MK Pandey,KV Sharma,RV Uthappa,1,1,na,na
2nd innings,3.6,RV Uthappa,KV Sharma,MK Pandey,0,0,na,na
2nd innings,4.1,MK Pandey,DJG Sammy,RV Uthappa,0,0,na,na
2nd innings,4.2,MK Pandey,DJG Sammy,RV Uthappa,1,1,na,na
2nd innings,4.3,RV Uthappa,DJG Sammy,MK Pandey,0,0,na,na
2nd innings,4.4,RV Uthappa,DJG Sammy,MK Pandey,4,4,na,na
2nd innings,4.5,RV Uthappa,DJG Sammy,MK Pandey,1,1,na,na
2nd innings,4.6,MK Pandey,DJG Sammy,RV Uthappa,1,1,na,na
2nd innings,5.1,MK Pandey,DW Steyn,RV Uthappa,2,2,na,na
2nd innings,5.2,MK Pandey,DW Steyn,RV Uthappa,6,6,na,na
2nd innings,5.3,MK Pandey,DW Steyn,RV Uthappa,0,0,na,na
2nd innings,5.4,MK Pandey,DW Steyn,RV Uthappa,0,0,na,na
2nd innings,5.5,MK Pandey,DW Steyn,RV Uthappa,0,0,na,na
2nd innings,5.6,MK Pandey,DW Steyn,RV Uthappa,1,1,na,na
2nd innings,6.1,MK Pandey,A Mishra,RV Uthappa,0,0,na,na
2nd innings,6.2,MK Pandey,A Mishra,RV Uthappa,0,0,na,na
2nd innings,6.3,MK Pandey,A Mishra,RV Uthappa,4,4,na,na
2nd innings,6.4,MK Pandey,A Mishra,RV Uthappa,1,0,{'legbyes': 1},na
2nd innings,6.5,RV Uthappa,A Mishra,MK Pandey,0,0,na,na
2nd innings,6.6,RV Uthappa,A Mishra,MK Pandey,1,1,na,na
2nd innings,7.1,RV Uthappa,KV Sharma,MK Pandey,1,1,na,na
2nd innings,7.2,MK Pandey,KV Sharma,RV Uthappa,0,0,na,na
2nd innings,7.3,MK Pandey,KV Sharma,RV Uthappa,1,1,na,na
2nd innings,7.4,RV Uthappa,KV Sharma,MK Pandey,1,1,na,na
2nd innings,7.5,MK Pandey,KV Sharma,RV Uthappa,4,4,na,na
2nd innings,7.6,MK Pandey,KV Sharma,RV Uthappa,2,2,na,na
2nd innings,8.1,RV Uthappa,IK Pathan,MK Pandey,1,1,na,na
2nd innings,8.2,MK Pandey,IK Pathan,RV Uthappa,1,1,na,na
2nd innings,8.3,RV Uthappa,IK Pathan,MK Pandey,1,1,na,na
2nd innings,8.4,MK Pandey,IK Pathan,RV Uthappa,4,4,na,na
2nd innings,8.5,MK Pandey,IK Pathan,RV Uthappa,1,1,na,na
2nd innings,8.6,RV Uthappa,IK Pathan,MK Pandey,0,0,na,na
2nd innings,9.1,MK Pandey,A Mishra,RV Uthappa,1,1,na,na
2nd innings,9.2,RV Uthappa,A Mishra,MK Pandey,1,1,na,na
2nd innings,9.3,MK Pandey,A Mishra,RV Uthappa,4,4,na,na
2nd innings,9.4,MK Pandey,A Mishra,RV Uthappa,0,0,na,na
2nd innings,9.5,MK Pandey,A Mishra,RV Uthappa,0,0,na,"{'fielders': ['NV Ojha', 'DJG Sammy'], 'kind': 'run out', 'player_out': 'RV Uthappa'}"
2nd innings,9.6,MK Pandey,A Mishra,YK Pathan,1,1,na,na
2nd innings,10.1,MK Pandey,IK Pathan,YK Pathan,4,4,na,na
2nd innings,10.2,MK Pandey,IK Pathan,YK Pathan,0,0,na,na
2nd innings,10.3,MK Pandey,IK Pathan,YK Pathan,0,0,na,na
2nd innings,10.4,MK Pandey,IK Pathan,YK Pathan,1,1,na,na
2nd innings,10.5,YK Pathan,IK Pathan,MK Pandey,1,1,na,na
2nd innings,10.6,MK Pandey,IK Pathan,YK Pathan,0,0,na,na
2nd innings,11.1,YK Pathan,A Mishra,MK Pandey,0,0,na,na
2nd innings,11.2,YK Pathan,A Mishra,MK Pandey,4,4,na,na
2nd innings,11.3,YK Pathan,A Mishra,MK Pandey,6,6,na,na
2nd innings,11.4,YK Pathan,A Mishra,MK Pandey,0,0,na,na
2nd innings,11.5,YK Pathan,A Mishra,MK Pandey,4,4,na,na
2nd innings,11.6,YK Pathan,A Mishra,MK Pandey,1,1,na,na
2nd innings,12.1,YK Pathan,DW Steyn,MK Pandey,1,1,na,na
2nd innings,12.2,MK Pandey,DW Steyn,YK Pathan,4,4,na,na
2nd innings,12.3,MK Pandey,DW Steyn,YK Pathan,0,0,na,na
2nd innings,12.4,MK Pandey,DW Steyn,YK Pathan,1,1,na,na
2nd innings,12.5,YK Pathan,DW Steyn,MK Pandey,0,0,na,na
2nd innings,12.6,YK Pathan,DW Steyn,MK Pandey,1,1,na,na
2nd innings,13.1,YK Pathan,KV Sharma,MK Pandey,0,0,na,na
2nd innings,13.2,YK Pathan,KV Sharma,MK Pandey,1,1,na,na
2nd innings,13.3,MK Pandey,KV Sharma,YK Pathan,1,1,na,na
2nd innings,13.4,YK Pathan,KV Sharma,MK Pandey,1,1,na,na
2nd innings,13.5,MK Pandey,KV Sharma,YK Pathan,0,0,na,na
2nd innings,13.6,MK Pandey,KV Sharma,YK Pathan,1,1,na,na
2nd innings,14.1,MK Pandey,A Mishra,YK Pathan,1,1,na,na
2nd innings,14.2,YK Pathan,A Mishra,MK Pandey,1,1,na,na
2nd innings,14.3,MK Pandey,A Mishra,YK Pathan,6,6,na,na
2nd innings,14.4,MK Pandey,A Mishra,YK Pathan,0,0,na,na
2nd innings,14.5,MK Pandey,A Mishra,YK Pathan,1,1,na,na
2nd innings,14.6,YK Pathan,A Mishra,MK Pandey,2,2,na,na
2nd innings,15.1,MK Pandey,KV Sharma,YK Pathan,1,1,na,na
2nd innings,15.2,YK Pathan,KV Sharma,MK Pandey,0,0,na,"{'fielders': ['AJ Finch'], 'kind': 'caught', 'player_out': 'MK Pandey'}"
2nd innings,15.3,YK Pathan,KV Sharma,RN ten Doeschate,1,1,na,na
2nd innings,15.4,RN ten Doeschate,KV Sharma,YK Pathan,1,1,na,na
2nd innings,15.5,YK Pathan,KV Sharma,RN ten Doeschate,0,0,na,na
2nd innings,15.6,YK Pathan,KV Sharma,RN ten Doeschate,1,1,na,na
2nd innings,16.1,YK Pathan,IK Pathan,RN ten Doeschate,1,1,na,na
2nd innings,16.2,RN ten Doeschate,IK Pathan,YK Pathan,1,1,na,na
2nd innings,16.3,YK Pathan,IK Pathan,RN ten Doeschate,1,1,na,na
2nd innings,16.4,RN ten Doeschate,IK Pathan,YK Pathan,1,1,na,na
2nd innings,16.5,YK Pathan,IK Pathan,RN ten Doeschate,1,1,na,na
2nd innings,16.6,RN ten Doeschate,IK Pathan,YK Pathan,1,1,na,na
2nd innings,17.1,RN ten Doeschate,B Kumar,YK Pathan,6,6,na,na
2nd innings,17.2,RN ten Doeschate,B Kumar,YK Pathan,1,1,na,na
2nd innings,17.3,YK Pathan,B Kumar,RN ten Doeschate,4,4,na,na
2nd innings,17.4,YK Pathan,B Kumar,RN ten Doeschate,1,1,na,na
2nd innings,17.5,RN ten Doeschate,B Kumar,YK Pathan,1,1,na,na
2nd innings,17.6,YK Pathan,B Kumar,RN ten Doeschate,1,1,na,na
2nd innings,18.1,YK Pathan,DW Steyn,RN ten Doeschate,1,1,na,na
2nd innings,18.2,RN ten Doeschate,DW Steyn,YK Pathan,2,2,na,na
2nd innings,18.3,RN ten Doeschate,DW Steyn,YK Pathan,1,1,na,na
2nd innings,18.4,YK Pathan,DW Steyn,RN ten Doeschate,0,0,na,na
2nd innings,18.5,YK Pathan,DW Steyn,RN ten Doeschate,1,1,na,na
2nd innings,18.6,RN ten Doeschate,DW Steyn,YK Pathan,1,1,na,na
2nd innings,19.1,RN ten Doeschate,B Kumar,YK Pathan,1,1,na,na
2nd innings,19.2,YK Pathan,B Kumar,RN ten Doeschate,6,6,na,na
2nd innings,19.3,YK Pathan,B Kumar,RN ten Doeschate,2,2,na,na
2nd innings,19.4,YK Pathan,B Kumar,RN ten Doeschate,4,4,na,na
