innings,deliveries,non_striker,bowler,batsman,total_runs,batsman_runs,extras,wickets
1st innings,0.1,SV Samson,CJ Anderson,SR Watson,1,1,na,na
1st innings,0.2,SR Watson,CJ Anderson,SV Samson,0,0,na,na
1st innings,0.3,SR Watson,CJ Anderson,SV Samson,4,4,na,na
1st innings,0.4,SR Watson,CJ Anderson,SV Samson,0,0,na,na
1st innings,0.5,SR Watson,CJ Anderson,SV Samson,0,0,na,na
1st innings,0.6,SR Watson,CJ Anderson,SV Samson,0,0,na,na
1st innings,1.1,SV Samson,JJ Bumrah,SR Watson,0,0,na,na
1st innings,1.2,SV Samson,JJ Bumrah,SR Watson,0,0,na,na
1st innings,1.3,SV Samson,JJ Bumrah,SR Watson,0,0,na,na
1st innings,1.4,SV Samson,JJ Bumrah,SR Watson,0,0,na,na
1st innings,1.5,SV Samson,JJ Bumrah,SR Watson,0,0,na,na
1st innings,1.6,SV Samson,JJ Bumrah,SR Watson,0,0,na,na
1st innings,2.1,SR Watson,CJ Anderson,SV Samson,0,0,na,na
1st innings,2.2,SR Watson,CJ Anderson,SV Samson,1,1,na,na
1st innings,2.3,SV Samson,CJ Anderson,SR Watson,0,0,na,na
1st innings,2.4,SV Samson,CJ Anderson,SR Watson,1,0,{'legbyes': 1},na
1st innings,2.5,SR Watson,CJ Anderson,SV Samson,4,4,na,na
1st innings,2.6,SR Watson,CJ Anderson,SV Samson,4,4,na,na
1st innings,3.1,SV Samson,JJ Bumrah,SR Watson,0,0,na,na
1st innings,3.2,SV Samson,JJ Bumrah,SR Watson,0,0,na,na
1st innings,3.3,SV Samson,JJ Bumrah,SR Watson,0,0,na,na
1st innings,3.4,SV Samson,JJ Bumrah,SR Watson,1,1,na,na
1st innings,3.5,SR Watson,JJ Bumrah,SV Samson,0,0,na,na
1st innings,3.6,SR Watson,JJ Bumrah,SV Samson,4,4,na,na
1st innings,4.1,SV Samson,PP Ojha,SR Watson,1,1,na,na
1st innings,4.2,SR Watson,PP Ojha,SV Samson,0,0,na,na
1st innings,4.3,SR Watson,PP Ojha,SV Samson,1,0,{'wides': 1},na
1st innings,4.4,SR Watson,PP Ojha,SV Samson,0,0,na,na
1st innings,4.5,SR Watson,PP Ojha,SV Samson,6,6,na,na
1st innings,4.6,SR Watson,PP Ojha,SV Samson,1,1,na,na
1st innings,4.7,SV Samson,PP Ojha,SR Watson,1,1,na,na
1st innings,5.1,SV Samson,Harbhajan Singh,SR Watson,4,4,na,na
1st innings,5.2,SV Samson,Harbhajan Singh,SR Watson,0,0,na,na
1st innings,5.3,SV Samson,Harbhajan Singh,SR Watson,0,0,na,"{'fielders': ['KA Pollard'], 'kind': 'caught', 'player_out': 'SR Watson'}"
1st innings,5.4,KK Nair,Harbhajan Singh,SV Samson,0,0,na,na
1st innings,5.5,KK Nair,Harbhajan Singh,SV Samson,0,0,na,na
1st innings,5.6,KK Nair,Harbhajan Singh,SV Samson,1,1,na,na
1st innings,6.1,KK Nair,PP Ojha,SV Samson,0,0,na,na
1st innings,6.2,KK Nair,PP Ojha,SV Samson,1,1,na,na
1st innings,6.3,SV Samson,PP Ojha,KK Nair,0,0,na,na
1st innings,6.4,SV Samson,PP Ojha,KK Nair,0,0,na,na
1st innings,6.5,SV Samson,PP Ojha,KK Nair,1,1,na,na
1st innings,6.6,KK Nair,PP Ojha,SV Samson,1,1,na,na
1st innings,7.1,KK Nair,Harbhajan Singh,SV Samson,1,1,na,na
1st innings,7.2,SV Samson,Harbhajan Singh,KK Nair,0,0,na,na
1st innings,7.3,SV Samson,Harbhajan Singh,KK Nair,1,1,na,na
1st innings,7.4,KK Nair,Harbhajan Singh,SV Samson,2,2,na,na
1st innings,7.5,KK Nair,Harbhajan Singh,SV Samson,0,0,na,na
1st innings,7.6,KK Nair,Harbhajan Singh,SV Samson,1,1,na,na
1st innings,8.1,KK Nair,S Gopal,SV Samson,1,1,na,na
1st innings,8.2,SV Samson,S Gopal,KK Nair,1,1,na,na
1st innings,8.3,KK Nair,S Gopal,SV Samson,1,1,na,na
1st innings,8.4,SV Samson,S Gopal,KK Nair,1,1,na,na
1st innings,8.5,KK Nair,S Gopal,SV Samson,6,6,na,na
1st innings,8.6,KK Nair,S Gopal,SV Samson,0,0,na,na
1st innings,9.1,SV Samson,KA Pollard,KK Nair,2,2,na,na
1st innings,9.2,SV Samson,KA Pollard,KK Nair,1,0,{'legbyes': 1},na
1st innings,9.3,KK Nair,KA Pollard,SV Samson,1,1,na,na
1st innings,9.4,SV Samson,KA Pollard,KK Nair,0,0,na,na
1st innings,9.5,SV Samson,KA Pollard,KK Nair,1,1,na,na
1st innings,9.6,KK Nair,KA Pollard,SV Samson,1,1,na,na
1st innings,10.1,KK Nair,S Gopal,SV Samson,1,1,na,na
1st innings,10.2,SV Samson,S Gopal,KK Nair,6,6,na,na
1st innings,10.3,SV Samson,S Gopal,KK Nair,4,4,na,na
1st innings,10.4,SV Samson,S Gopal,KK Nair,0,0,na,na
1st innings,10.5,SV Samson,S Gopal,KK Nair,4,4,na,na
1st innings,10.6,SV Samson,S Gopal,KK Nair,4,4,na,na
1st innings,11.1,KK Nair,KA Pollard,SV Samson,1,1,na,na
1st innings,11.2,SV Samson,KA Pollard,KK Nair,4,4,na,na
1st innings,11.3,SV Samson,KA Pollard,KK Nair,0,0,na,na
1st innings,11.4,SV Samson,KA Pollard,KK Nair,1,1,na,na
1st innings,11.5,KK Nair,KA Pollard,SV Samson,2,2,na,na
1st innings,11.6,KK Nair,KA Pollard,SV Samson,4,4,na,na
1st innings,12.1,SV Samson,PP Ojha,KK Nair,1,1,na,na
1st innings,12.2,KK Nair,PP Ojha,SV Samson,1,1,na,na
1st innings,12.3,SV Samson,PP Ojha,KK Nair,6,6,na,na
1st innings,12.4,SV Samson,PP Ojha,KK Nair,4,4,na,na
1st innings,12.5,SV Samson,PP Ojha,KK Nair,0,0,na,na
1st innings,12.6,SV Samson,PP Ojha,KK Nair,4,4,na,na
1st innings,13.1,KK Nair,Harbhajan Singh,SV Samson,2,2,na,na
1st innings,13.2,KK Nair,Harbhajan Singh,SV Samson,1,1,na,na
1st innings,13.3,SV Samson,Harbhajan Singh,KK Nair,4,4,na,na
1st innings,13.4,SV Samson,Harbhajan Singh,KK Nair,1,1,na,na
1st innings,13.5,KK Nair,Harbhajan Singh,SV Samson,6,6,na,na
1st innings,13.6,KK Nair,Harbhajan Singh,SV Samson,1,1,na,na
1st innings,14.1,KK Nair,JJ Bumrah,SV Samson,4,4,na,na
1st innings,14.2,KK Nair,JJ Bumrah,SV Samson,2,2,na,na
1st innings,14.3,KK Nair,JJ Bumrah,SV Samson,2,2,na,na
1st innings,14.4,KK Nair,JJ Bumrah,SV Samson,4,4,na,na
1st innings,14.5,KK Nair,JJ Bumrah,SV Samson,1,1,na,na
1st innings,14.6,SV Samson,JJ Bumrah,KK Nair,0,0,na,"{'fielders': ['LMP Simmons'], 'kind': 'caught', 'player_out': 'KK Nair'}"
1st innings,15.1,BJ Hodge,S Gopal,SV Samson,1,1,na,na
1st innings,15.2,SV Samson,S Gopal,BJ Hodge,1,1,na,na
1st innings,15.3,BJ Hodge,S Gopal,SV Samson,0,0,na,"{'fielders': ['Harbhajan Singh'], 'kind': 'caught', 'player_out': 'SV Samson'}"
1st innings,15.4,JP Faulkner,S Gopal,BJ Hodge,3,3,na,na
1st innings,15.5,BJ Hodge,S Gopal,JP Faulkner,1,1,na,na
1st innings,15.6,JP Faulkner,S Gopal,BJ Hodge,1,1,na,na
1st innings,16.1,JP Faulkner,PP Ojha,BJ Hodge,1,1,na,na
1st innings,16.2,BJ Hodge,PP Ojha,JP Faulkner,0,0,na,na
1st innings,16.3,BJ Hodge,PP Ojha,JP Faulkner,0,0,na,na
1st innings,16.4,BJ Hodge,PP Ojha,JP Faulkner,1,1,na,na
1st innings,16.5,JP Faulkner,PP Ojha,BJ Hodge,0,0,na,na
1st innings,16.6,JP Faulkner,PP Ojha,BJ Hodge,0,0,na,na
1st innings,17.1,BJ Hodge,Harbhajan Singh,JP Faulkner,0,0,na,na
1st innings,17.2,BJ Hodge,Harbhajan Singh,JP Faulkner,6,6,na,na
1st innings,17.3,BJ Hodge,Harbhajan Singh,JP Faulkner,6,6,na,na
1st innings,17.4,BJ Hodge,Harbhajan Singh,JP Faulkner,1,1,na,na
1st innings,17.5,JP Faulkner,Harbhajan Singh,BJ Hodge,4,4,na,na
1st innings,17.6,JP Faulkner,Harbhajan Singh,BJ Hodge,1,1,na,na
1st innings,18.1,JP Faulkner,JJ Bumrah,BJ Hodge,1,1,na,na
1st innings,18.2,BJ Hodge,JJ Bumrah,JP Faulkner,1,1,na,na
1st innings,18.3,JP Faulkner,JJ Bumrah,BJ Hodge,1,1,na,na
1st innings,18.4,BJ Hodge,JJ Bumrah,JP Faulkner,1,0,{'wides': 1},na
1st innings,18.5,BJ Hodge,JJ Bumrah,JP Faulkner,1,1,na,na
1st innings,18.6,JP Faulkner,JJ Bumrah,BJ Hodge,1,1,na,na
1st innings,18.7,BJ Hodge,JJ Bumrah,JP Faulkner,6,6,na,na
1st innings,19.1,JP Faulkner,KA Pollard,BJ Hodge,2,2,na,na
1st innings,19.2,JP Faulkner,KA Pollard,BJ Hodge,2,2,na,na
1st innings,19.3,JP Faulkner,KA Pollard,BJ Hodge,6,6,na,na
1st innings,19.4,JP Faulkner,KA Pollard,BJ Hodge,1,1,na,na
1st innings,19.5,BJ Hodge,KA Pollard,JP Faulkner,1,0,{'wides': 1},na
1st innings,19.6,BJ Hodge,KA Pollard,JP Faulkner,0,0,na,"{'fielders': ['CJ Anderson'], 'kind': 'caught', 'player_out': 'JP Faulkner'}"
1st innings,19.7,KK Cooper,KA Pollard,BJ Hodge,4,4,na,na
2nd innings,0.1,MEK Hussey,JP Faulkner,LMP Simmons,0,0,na,na
2nd innings,0.2,MEK Hussey,JP Faulkner,LMP Simmons,4,4,na,na
2nd innings,0.3,MEK Hussey,JP Faulkner,LMP Simmons,0,0,na,na
2nd innings,0.4,MEK Hussey,JP Faulkner,LMP Simmons,4,4,na,na
2nd innings,0.5,MEK Hussey,JP Faulkner,LMP Simmons,0,0,na,na
2nd innings,0.6,MEK Hussey,JP Faulkner,LMP Simmons,4,4,na,na
2nd innings,1.1,LMP Simmons,DS Kulkarni,MEK Hussey,6,6,na,na
2nd innings,1.2,LMP Simmons,DS Kulkarni,MEK Hussey,0,0,na,na
2nd innings,1.3,LMP Simmons,DS Kulkarni,MEK Hussey,1,1,na,na
2nd innings,1.4,MEK Hussey,DS Kulkarni,LMP Simmons,0,0,na,na
2nd innings,1.5,MEK Hussey,DS Kulkarni,LMP Simmons,0,0,na,"{'fielders': ['JP Faulkner'], 'kind': 'caught', 'player_out': 'LMP Simmons'}"
2nd innings,1.6,CJ Anderson,DS Kulkarni,MEK Hussey,0,0,na,na
2nd innings,2.1,MEK Hussey,SR Watson,CJ Anderson,4,4,na,na
2nd innings,2.2,MEK Hussey,SR Watson,CJ Anderson,6,6,na,na
2nd innings,2.3,MEK Hussey,SR Watson,CJ Anderson,0,0,na,na
2nd innings,2.4,MEK Hussey,SR Watson,CJ Anderson,1,1,na,na
2nd innings,2.5,CJ Anderson,SR Watson,MEK Hussey,4,4,na,na
2nd innings,2.6,CJ Anderson,SR Watson,MEK Hussey,0,0,na,na
2nd innings,3.1,MEK Hussey,DS Kulkarni,CJ Anderson,6,6,na,na
2nd innings,3.2,MEK Hussey,DS Kulkarni,CJ Anderson,0,0,na,na
2nd innings,3.3,MEK Hussey,DS Kulkarni,CJ Anderson,1,1,na,na
2nd innings,3.4,CJ Anderson,DS Kulkarni,MEK Hussey,6,6,na,na
2nd innings,3.5,CJ Anderson,DS Kulkarni,MEK Hussey,1,0,{'wides': 1},na
2nd innings,3.6,CJ Anderson,DS Kulkarni,MEK Hussey,2,2,na,na
2nd innings,3.7,CJ Anderson,DS Kulkarni,MEK Hussey,3,3,na,na
2nd innings,4.1,CJ Anderson,KK Cooper,MEK Hussey,0,0,na,na
2nd innings,4.2,CJ Anderson,KK Cooper,MEK Hussey,0,0,na,"{'kind': 'bowled', 'player_out': 'MEK Hussey'}"
2nd innings,4.3,CJ Anderson,KK Cooper,KA Pollard,1,1,na,na
2nd innings,4.4,KA Pollard,KK Cooper,CJ Anderson,1,0,{'legbyes': 1},na
2nd innings,4.5,CJ Anderson,KK Cooper,KA Pollard,6,6,na,na
2nd innings,4.6,CJ Anderson,KK Cooper,KA Pollard,0,0,na,"{'fielders': ['BJ Hodge'], 'kind': 'caught', 'player_out': 'KA Pollard'}"
2nd innings,5.1,CJ Anderson,JP Faulkner,RG Sharma,0,0,na,na
2nd innings,5.2,CJ Anderson,JP Faulkner,RG Sharma,1,1,na,na
2nd innings,5.3,RG Sharma,JP Faulkner,CJ Anderson,1,1,na,na
2nd innings,5.4,CJ Anderson,JP Faulkner,RG Sharma,6,6,na,na
2nd innings,5.5,CJ Anderson,JP Faulkner,RG Sharma,1,0,{'legbyes': 1},na
2nd innings,5.6,RG Sharma,JP Faulkner,CJ Anderson,1,1,na,na
2nd innings,6.1,RG Sharma,KK Cooper,CJ Anderson,1,0,{'legbyes': 1},na
2nd innings,6.2,CJ Anderson,KK Cooper,RG Sharma,1,1,na,na
2nd innings,6.3,RG Sharma,KK Cooper,CJ Anderson,0,0,na,na
2nd innings,6.4,RG Sharma,KK Cooper,CJ Anderson,1,1,na,na
2nd innings,6.5,CJ Anderson,KK Cooper,RG Sharma,1,1,na,na
2nd innings,6.6,RG Sharma,KK Cooper,CJ Anderson,0,0,na,na
2nd innings,7.1,CJ Anderson,PV Tambe,RG Sharma,1,1,na,na
2nd innings,7.2,RG Sharma,PV Tambe,CJ Anderson,0,0,na,na
2nd innings,7.3,RG Sharma,PV Tambe,CJ Anderson,4,4,na,na
2nd innings,7.4,RG Sharma,PV Tambe,CJ Anderson,6,6,na,na
2nd innings,7.5,RG Sharma,PV Tambe,CJ Anderson,1,0,{'wides': 1},na
2nd innings,7.6,RG Sharma,PV Tambe,CJ Anderson,1,1,na,na
2nd innings,7.7,CJ Anderson,PV Tambe,RG Sharma,1,1,na,na
2nd innings,8.1,CJ Anderson,KK Cooper,RG Sharma,1,1,na,na
2nd innings,8.2,RG Sharma,KK Cooper,CJ Anderson,4,4,na,na
2nd innings,8.3,RG Sharma,KK Cooper,CJ Anderson,2,2,na,na
2nd innings,8.4,RG Sharma,KK Cooper,CJ Anderson,6,6,na,na
2nd innings,8.5,RG Sharma,KK Cooper,CJ Anderson,2,2,na,na
2nd innings,8.6,RG Sharma,KK Cooper,CJ Anderson,0,0,na,na
2nd innings,9.1,CJ Anderson,DS Kulkarni,RG Sharma,4,4,na,na
2nd innings,9.2,CJ Anderson,DS Kulkarni,RG Sharma,0,0,na,"{'fielders': ['KK Nair'], 'kind': 'caught', 'player_out': 'RG Sharma'}"
2nd innings,9.3,AT Rayudu,DS Kulkarni,CJ Anderson,1,0,{'wides': 1},na
2nd innings,9.4,AT Rayudu,DS Kulkarni,CJ Anderson,0,0,na,na
2nd innings,9.5,AT Rayudu,DS Kulkarni,CJ Anderson,6,6,na,na
2nd innings,9.6,AT Rayudu,DS Kulkarni,CJ Anderson,1,1,na,na
2nd innings,9.7,CJ Anderson,DS Kulkarni,AT Rayudu,4,4,na,na
2nd innings,10.1,AT Rayudu,JP Faulkner,CJ Anderson,4,4,na,na
2nd innings,10.2,AT Rayudu,JP Faulkner,CJ Anderson,2,2,na,na
2nd innings,10.3,AT Rayudu,JP Faulkner,CJ Anderson,1,1,na,na
2nd innings,10.4,CJ Anderson,JP Faulkner,AT Rayudu,1,0,{'wides': 1},na
2nd innings,10.5,CJ Anderson,JP Faulkner,AT Rayudu,1,1,na,na
2nd innings,10.6,AT Rayudu,JP Faulkner,CJ Anderson,6,6,na,na
2nd innings,10.7,AT Rayudu,JP Faulkner,CJ Anderson,4,4,na,na
2nd innings,11.1,CJ Anderson,SR Watson,AT Rayudu,4,4,na,na
2nd innings,11.2,CJ Anderson,SR Watson,AT Rayudu,4,4,na,na
2nd innings,11.3,CJ Anderson,SR Watson,AT Rayudu,4,4,na,na
2nd innings,11.4,CJ Anderson,SR Watson,AT Rayudu,1,1,na,na
2nd innings,11.5,AT Rayudu,SR Watson,CJ Anderson,4,4,na,na
2nd innings,11.6,AT Rayudu,SR Watson,CJ Anderson,1,1,na,na
2nd innings,12.1,AT Rayudu,KK Cooper,CJ Anderson,4,4,na,na
2nd innings,12.2,AT Rayudu,KK Cooper,CJ Anderson,2,2,na,na
2nd innings,12.3,AT Rayudu,KK Cooper,CJ Anderson,0,0,na,na
2nd innings,12.4,AT Rayudu,KK Cooper,CJ Anderson,2,2,na,na
2nd innings,12.5,AT Rayudu,KK Cooper,CJ Anderson,1,1,na,na
2nd innings,12.6,CJ Anderson,KK Cooper,AT Rayudu,4,4,na,na
2nd innings,13.1,AT Rayudu,PV Tambe,CJ Anderson,0,0,na,na
2nd innings,13.2,AT Rayudu,PV Tambe,CJ Anderson,4,4,na,na
2nd innings,13.3,AT Rayudu,PV Tambe,CJ Anderson,1,1,na,na
2nd innings,13.4,CJ Anderson,PV Tambe,AT Rayudu,1,1,na,na
2nd innings,13.5,AT Rayudu,PV Tambe,CJ Anderson,4,4,na,na
2nd innings,13.6,AT Rayudu,PV Tambe,CJ Anderson,1,1,na,na
2nd innings,14.1,AT Rayudu,JP Faulkner,CJ Anderson,1,1,na,na
2nd innings,14.2,CJ Anderson,JP Faulkner,AT Rayudu,6,6,na,na
2nd innings,14.3,CJ Anderson,JP Faulkner,AT Rayudu,1,1,na,"{'fielders': ['KK Nair', 'SV Samson'], 'kind': 'run out', 'player_out': 'AT Rayudu'}"
2nd innings,14.4,CJ Anderson,JP Faulkner,AP Tare,6,6,na,na
