innings,deliveries,non_striker,bowler,batsman,total_runs,batsman_runs,extras,wickets
1st innings,0.1,SS Iyer,MA Starc,MA Agarwal,0,0,na,na
1st innings,0.2,SS Iyer,MA Starc,MA Agarwal,0,0,na,na
1st innings,0.3,SS Iyer,MA Starc,MA Agarwal,0,0,na,na
1st innings,0.4,SS Iyer,MA Starc,MA Agarwal,1,1,na,na
1st innings,0.5,MA Agarwal,MA Starc,SS Iyer,1,0,{'wides': 1},na
1st innings,0.6,MA Agarwal,MA Starc,SS Iyer,0,0,na,"{'kind': 'lbw', 'player_out': 'SS Iyer'}"
1st innings,0.7,MA Agarwal,MA Starc,JP Duminy,0,0,na,na
1st innings,1.1,JP Duminy,VR Aaron,MA Agarwal,0,0,na,na
1st innings,1.2,JP Duminy,VR Aaron,MA Agarwal,4,4,na,na
1st innings,1.3,JP Duminy,VR Aaron,MA Agarwal,1,0,{'wides': 1},na
1st innings,1.4,JP Duminy,VR Aaron,MA Agarwal,1,1,na,na
1st innings,1.5,MA Agarwal,VR Aaron,JP Duminy,1,0,{'legbyes': 1},na
1st innings,1.6,JP Duminy,VR Aaron,MA Agarwal,1,1,na,na
1st innings,1.7,MA Agarwal,VR Aaron,JP Duminy,0,0,na,na
1st innings,2.1,JP Duminy,MA Starc,MA Agarwal,0,0,na,na
1st innings,2.2,JP Duminy,MA Starc,MA Agarwal,1,0,{'legbyes': 1},na
1st innings,2.3,MA Agarwal,MA Starc,JP Duminy,0,0,na,na
1st innings,2.4,MA Agarwal,MA Starc,JP Duminy,4,4,na,na
1st innings,2.5,MA Agarwal,MA Starc,JP Duminy,2,2,na,na
1st innings,2.6,MA Agarwal,MA Starc,JP Duminy,0,0,na,na
1st innings,3.1,JP Duminy,VR Aaron,MA Agarwal,0,0,na,na
1st innings,3.2,JP Duminy,VR Aaron,MA Agarwal,1,1,na,na
1st innings,3.3,MA Agarwal,VR Aaron,JP Duminy,0,0,na,na
1st innings,3.4,MA Agarwal,VR Aaron,JP Duminy,1,0,{'wides': 1},na
1st innings,3.5,MA Agarwal,VR Aaron,JP Duminy,4,4,na,na
1st innings,3.6,MA Agarwal,VR Aaron,JP Duminy,1,1,na,na
1st innings,3.7,JP Duminy,VR Aaron,MA Agarwal,6,6,na,na
1st innings,4.1,MA Agarwal,HV Patel,JP Duminy,0,0,na,na
1st innings,4.2,MA Agarwal,HV Patel,JP Duminy,1,1,na,na
1st innings,4.3,JP Duminy,HV Patel,MA Agarwal,1,1,na,na
1st innings,4.4,MA Agarwal,HV Patel,JP Duminy,1,1,na,na
1st innings,4.5,JP Duminy,HV Patel,MA Agarwal,0,0,na,na
1st innings,4.6,JP Duminy,HV Patel,MA Agarwal,1,1,na,na
1st innings,5.1,JP Duminy,D Wiese,MA Agarwal,1,0,{'wides': 1},na
1st innings,5.2,JP Duminy,D Wiese,MA Agarwal,1,1,na,na
1st innings,5.3,MA Agarwal,D Wiese,JP Duminy,0,0,na,"{'fielders': ['KD Karthik'], 'kind': 'caught', 'player_out': 'JP Duminy'}"
1st innings,5.4,MA Agarwal,D Wiese,Yuvraj Singh,0,0,na,na
1st innings,5.5,MA Agarwal,D Wiese,Yuvraj Singh,0,0,na,na
1st innings,5.6,MA Agarwal,D Wiese,Yuvraj Singh,0,0,na,na
1st innings,5.7,MA Agarwal,D Wiese,Yuvraj Singh,2,2,na,na
1st innings,6.1,Yuvraj Singh,VR Aaron,MA Agarwal,1,1,na,na
1st innings,6.2,MA Agarwal,VR Aaron,Yuvraj Singh,0,0,na,"{'fielders': ['KD Karthik'], 'kind': 'caught', 'player_out': 'Yuvraj Singh'}"
1st innings,6.3,MA Agarwal,VR Aaron,AD Mathews,0,0,na,"{'fielders': ['AB de Villiers'], 'kind': 'caught', 'player_out': 'AD Mathews'}"
1st innings,6.4,MA Agarwal,VR Aaron,KM Jadhav,0,0,na,na
1st innings,6.5,MA Agarwal,VR Aaron,KM Jadhav,0,0,na,na
1st innings,6.6,MA Agarwal,VR Aaron,KM Jadhav,1,0,{'wides': 1},na
1st innings,6.7,MA Agarwal,VR Aaron,KM Jadhav,0,0,na,na
1st innings,7.1,KM Jadhav,Iqbal Abdulla,MA Agarwal,1,1,na,na
1st innings,7.2,MA Agarwal,Iqbal Abdulla,KM Jadhav,0,0,na,na
1st innings,7.3,MA Agarwal,Iqbal Abdulla,KM Jadhav,0,0,na,na
1st innings,7.4,MA Agarwal,Iqbal Abdulla,KM Jadhav,1,1,na,na
1st innings,7.5,KM Jadhav,Iqbal Abdulla,MA Agarwal,0,0,na,na
1st innings,7.6,KM Jadhav,Iqbal Abdulla,MA Agarwal,1,1,na,na
1st innings,8.1,KM Jadhav,VR Aaron,MA Agarwal,0,0,na,na
1st innings,8.2,KM Jadhav,VR Aaron,MA Agarwal,0,0,na,na
1st innings,8.3,KM Jadhav,VR Aaron,MA Agarwal,0,0,na,na
1st innings,8.4,KM Jadhav,VR Aaron,MA Agarwal,1,1,na,na
1st innings,8.5,MA Agarwal,VR Aaron,KM Jadhav,1,1,na,na
1st innings,8.6,KM Jadhav,VR Aaron,MA Agarwal,0,0,na,na
1st innings,9.1,MA Agarwal,Iqbal Abdulla,KM Jadhav,2,2,na,na
1st innings,9.2,MA Agarwal,Iqbal Abdulla,KM Jadhav,1,1,na,na
1st innings,9.3,KM Jadhav,Iqbal Abdulla,MA Agarwal,1,1,na,na
1st innings,9.4,MA Agarwal,Iqbal Abdulla,KM Jadhav,4,4,na,na
1st innings,9.5,MA Agarwal,Iqbal Abdulla,KM Jadhav,1,1,na,na
1st innings,9.6,KM Jadhav,Iqbal Abdulla,MA Agarwal,0,0,na,na
1st innings,10.1,MA Agarwal,HV Patel,KM Jadhav,4,4,na,na
1st innings,10.2,MA Agarwal,HV Patel,KM Jadhav,0,0,na,na
1st innings,10.3,MA Agarwal,HV Patel,KM Jadhav,1,1,na,na
1st innings,10.4,KM Jadhav,HV Patel,MA Agarwal,1,1,na,na
1st innings,10.5,MA Agarwal,HV Patel,KM Jadhav,1,1,na,na
1st innings,10.6,KM Jadhav,HV Patel,MA Agarwal,1,1,na,na
1st innings,11.1,KM Jadhav,D Wiese,MA Agarwal,1,1,na,na
1st innings,11.2,MA Agarwal,D Wiese,KM Jadhav,1,1,na,na
1st innings,11.3,KM Jadhav,D Wiese,MA Agarwal,1,1,na,na
1st innings,11.4,MA Agarwal,D Wiese,KM Jadhav,0,0,na,na
1st innings,11.5,MA Agarwal,D Wiese,KM Jadhav,1,1,na,na
1st innings,11.6,KM Jadhav,D Wiese,MA Agarwal,1,1,na,na
1st innings,12.1,KM Jadhav,Iqbal Abdulla,MA Agarwal,0,0,na,"{'fielders': ['KD Karthik'], 'kind': 'stumped', 'player_out': 'MA Agarwal'}"
1st innings,12.2,KM Jadhav,Iqbal Abdulla,NM Coulter-Nile,0,0,na,na
1st innings,12.3,KM Jadhav,Iqbal Abdulla,NM Coulter-Nile,0,0,na,na
1st innings,12.4,KM Jadhav,Iqbal Abdulla,NM Coulter-Nile,0,0,na,na
1st innings,12.5,KM Jadhav,Iqbal Abdulla,NM Coulter-Nile,0,0,na,na
1st innings,12.6,KM Jadhav,Iqbal Abdulla,NM Coulter-Nile,0,0,na,na
1st innings,13.1,NM Coulter-Nile,D Wiese,KM Jadhav,1,1,na,na
1st innings,13.2,KM Jadhav,D Wiese,NM Coulter-Nile,0,0,na,na
1st innings,13.3,KM Jadhav,D Wiese,NM Coulter-Nile,4,4,na,na
1st innings,13.4,KM Jadhav,D Wiese,NM Coulter-Nile,0,0,na,"{'kind': 'lbw', 'player_out': 'NM Coulter-Nile'}"
1st innings,13.5,KM Jadhav,D Wiese,A Mishra,1,1,na,na
1st innings,13.6,A Mishra,D Wiese,KM Jadhav,2,2,na,na
1st innings,14.1,KM Jadhav,MA Starc,A Mishra,1,1,na,na
1st innings,14.2,A Mishra,MA Starc,KM Jadhav,4,4,na,na
1st innings,14.3,A Mishra,MA Starc,KM Jadhav,4,4,na,na
1st innings,14.4,A Mishra,MA Starc,KM Jadhav,1,1,na,na
1st innings,14.5,KM Jadhav,MA Starc,A Mishra,0,0,na,na
1st innings,14.6,KM Jadhav,MA Starc,A Mishra,0,0,na,"{'kind': 'bowled', 'player_out': 'A Mishra'}"
1st innings,15.1,S Nadeem,Iqbal Abdulla,KM Jadhav,1,0,{'wides': 1},na
1st innings,15.2,S Nadeem,Iqbal Abdulla,KM Jadhav,1,1,na,na
1st innings,15.3,KM Jadhav,Iqbal Abdulla,S Nadeem,0,0,na,na
1st innings,15.4,KM Jadhav,Iqbal Abdulla,S Nadeem,1,1,na,na
1st innings,15.5,S Nadeem,Iqbal Abdulla,KM Jadhav,1,1,na,na
1st innings,15.6,KM Jadhav,Iqbal Abdulla,S Nadeem,0,0,na,na
1st innings,15.7,KM Jadhav,Iqbal Abdulla,S Nadeem,1,1,na,na
1st innings,16.1,KM Jadhav,MA Starc,S Nadeem,0,0,na,na
1st innings,16.2,KM Jadhav,MA Starc,S Nadeem,0,0,na,na
1st innings,16.3,KM Jadhav,MA Starc,S Nadeem,0,0,na,"{'kind': 'bowled', 'player_out': 'S Nadeem'}"
1st innings,16.4,KM Jadhav,MA Starc,Imran Tahir,1,1,na,na
1st innings,16.5,Imran Tahir,MA Starc,KM Jadhav,1,1,na,na
1st innings,16.6,KM Jadhav,MA Starc,Imran Tahir,0,0,na,na
1st innings,17.1,Imran Tahir,HV Patel,KM Jadhav,0,0,na,na
1st innings,17.2,Imran Tahir,HV Patel,KM Jadhav,0,0,na,na
1st innings,17.3,Imran Tahir,HV Patel,KM Jadhav,0,0,na,"{'fielders': ['MA Starc'], 'kind': 'caught', 'player_out': 'KM Jadhav'}"
1st innings,17.4,Imran Tahir,HV Patel,DJ Muthuswami,1,1,na,na
1st innings,17.5,DJ Muthuswami,HV Patel,Imran Tahir,1,1,na,na
1st innings,17.6,Imran Tahir,HV Patel,DJ Muthuswami,0,0,na,na
1st innings,18.1,DJ Muthuswami,D Wiese,Imran Tahir,1,1,na,na
1st innings,18.2,Imran Tahir,D Wiese,DJ Muthuswami,0,0,na,"{'fielders': ['AB de Villiers'], 'kind': 'run out', 'player_out': 'DJ Muthuswami'}"
2nd innings,0.1,V Kohli,NM Coulter-Nile,CH Gayle,0,0,na,na
2nd innings,0.2,V Kohli,NM Coulter-Nile,CH Gayle,0,0,na,na
2nd innings,0.3,V Kohli,NM Coulter-Nile,CH Gayle,0,0,na,na
2nd innings,0.4,V Kohli,NM Coulter-Nile,CH Gayle,0,0,na,na
2nd innings,0.5,V Kohli,NM Coulter-Nile,CH Gayle,1,0,{'wides': 1},na
2nd innings,0.6,V Kohli,NM Coulter-Nile,CH Gayle,2,2,na,na
2nd innings,0.7,V Kohli,NM Coulter-Nile,CH Gayle,1,1,na,na
2nd innings,1.1,V Kohli,DJ Muthuswami,CH Gayle,0,0,na,na
2nd innings,1.2,V Kohli,DJ Muthuswami,CH Gayle,0,0,na,na
2nd innings,1.3,V Kohli,DJ Muthuswami,CH Gayle,6,6,na,na
2nd innings,1.4,V Kohli,DJ Muthuswami,CH Gayle,4,4,na,na
2nd innings,1.5,V Kohli,DJ Muthuswami,CH Gayle,0,0,na,na
2nd innings,1.6,V Kohli,DJ Muthuswami,CH Gayle,4,4,na,na
2nd innings,2.1,CH Gayle,NM Coulter-Nile,V Kohli,0,0,na,na
2nd innings,2.2,CH Gayle,NM Coulter-Nile,V Kohli,1,1,na,na
2nd innings,2.3,V Kohli,NM Coulter-Nile,CH Gayle,0,0,na,na
2nd innings,2.4,V Kohli,NM Coulter-Nile,CH Gayle,4,4,na,na
2nd innings,2.5,V Kohli,NM Coulter-Nile,CH Gayle,1,1,na,na
2nd innings,2.6,CH Gayle,NM Coulter-Nile,V Kohli,0,0,na,na
2nd innings,3.1,V Kohli,Imran Tahir,CH Gayle,0,0,na,na
2nd innings,3.2,V Kohli,Imran Tahir,CH Gayle,4,4,na,na
2nd innings,3.3,V Kohli,Imran Tahir,CH Gayle,1,1,na,na
2nd innings,3.4,CH Gayle,Imran Tahir,V Kohli,1,1,na,na
2nd innings,3.5,V Kohli,Imran Tahir,CH Gayle,1,1,na,na
2nd innings,3.6,CH Gayle,Imran Tahir,V Kohli,1,1,na,na
2nd innings,4.1,CH Gayle,NM Coulter-Nile,V Kohli,1,1,na,na
2nd innings,4.2,V Kohli,NM Coulter-Nile,CH Gayle,0,0,na,na
2nd innings,4.3,V Kohli,NM Coulter-Nile,CH Gayle,0,0,na,na
2nd innings,4.4,V Kohli,NM Coulter-Nile,CH Gayle,0,0,na,na
2nd innings,4.5,V Kohli,NM Coulter-Nile,CH Gayle,4,4,na,na
2nd innings,4.6,V Kohli,NM Coulter-Nile,CH Gayle,6,6,na,na
2nd innings,5.1,CH Gayle,JP Duminy,V Kohli,0,0,na,na
2nd innings,5.2,CH Gayle,JP Duminy,V Kohli,1,1,na,na
2nd innings,5.3,V Kohli,JP Duminy,CH Gayle,4,4,na,na
2nd innings,5.4,V Kohli,JP Duminy,CH Gayle,0,0,na,na
2nd innings,5.5,V Kohli,JP Duminy,CH Gayle,1,1,na,na
2nd innings,5.6,CH Gayle,JP Duminy,V Kohli,1,1,na,na
2nd innings,6.1,CH Gayle,A Mishra,V Kohli,0,0,na,na
2nd innings,6.2,CH Gayle,A Mishra,V Kohli,4,4,na,na
2nd innings,6.3,CH Gayle,A Mishra,V Kohli,4,4,na,na
2nd innings,6.4,CH Gayle,A Mishra,V Kohli,1,1,na,na
2nd innings,6.5,V Kohli,A Mishra,CH Gayle,1,1,na,na
2nd innings,6.6,CH Gayle,A Mishra,V Kohli,1,1,na,na
2nd innings,7.1,CH Gayle,Imran Tahir,V Kohli,4,4,na,na
2nd innings,7.2,CH Gayle,Imran Tahir,V Kohli,1,1,na,na
2nd innings,7.3,V Kohli,Imran Tahir,CH Gayle,6,6,na,na
2nd innings,7.4,V Kohli,Imran Tahir,CH Gayle,0,0,na,na
2nd innings,7.5,V Kohli,Imran Tahir,CH Gayle,0,0,na,na
2nd innings,7.6,V Kohli,Imran Tahir,CH Gayle,1,1,na,na
2nd innings,8.1,V Kohli,A Mishra,CH Gayle,1,0,{'wides': 1},na
2nd innings,8.2,V Kohli,A Mishra,CH Gayle,6,6,na,na
2nd innings,8.3,V Kohli,A Mishra,CH Gayle,1,1,na,na
2nd innings,8.4,CH Gayle,A Mishra,V Kohli,1,1,na,na
2nd innings,8.5,V Kohli,A Mishra,CH Gayle,1,1,na,na
2nd innings,8.6,CH Gayle,A Mishra,V Kohli,4,4,na,na
2nd innings,8.7,CH Gayle,A Mishra,V Kohli,0,0,na,na
2nd innings,9.1,V Kohli,AD Mathews,CH Gayle,1,1,na,na
2nd innings,9.2,CH Gayle,AD Mathews,V Kohli,1,1,na,na
2nd innings,9.3,V Kohli,AD Mathews,CH Gayle,0,0,na,na
2nd innings,9.4,V Kohli,AD Mathews,CH Gayle,0,0,na,na
2nd innings,9.5,V Kohli,AD Mathews,CH Gayle,1,1,na,na
2nd innings,9.6,CH Gayle,AD Mathews,V Kohli,0,0,na,na
2nd innings,10.1,V Kohli,NM Coulter-Nile,CH Gayle,1,1,na,na
2nd innings,10.2,CH Gayle,NM Coulter-Nile,V Kohli,4,4,na,na
2nd innings,10.3,CH Gayle,NM Coulter-Nile,V Kohli,4,4,na,na
