innings,deliveries,non_striker,bowler,batsman,total_runs,batsman_runs,extras,wickets
1st innings,0.1,AJ Finch,UT Yadav,RG Sharma,0,0,na,na
1st innings,0.2,AJ Finch,UT Yadav,RG Sharma,1,1,na,na
1st innings,0.3,RG Sharma,UT Yadav,AJ Finch,1,1,na,na
1st innings,0.4,AJ Finch,UT Yadav,RG Sharma,1,1,na,na
1st innings,0.5,RG Sharma,UT Yadav,AJ Finch,1,0,{'legbyes': 1},na
1st innings,0.6,AJ Finch,UT Yadav,RG Sharma,0,0,na,na
1st innings,1.1,RG Sharma,M Morkel,AJ Finch,4,4,na,na
1st innings,1.2,RG Sharma,M Morkel,AJ Finch,0,0,na,na
1st innings,1.3,RG Sharma,M Morkel,AJ Finch,0,0,na,"{'fielders': ['UT Yadav'], 'kind': 'caught', 'player_out': 'AJ Finch'}"
1st innings,1.4,AP Tare,M Morkel,RG Sharma,0,0,na,na
1st innings,1.5,AP Tare,M Morkel,RG Sharma,0,0,na,na
1st innings,1.6,AP Tare,M Morkel,RG Sharma,1,1,na,na
1st innings,2.1,AP Tare,UT Yadav,RG Sharma,4,4,na,na
1st innings,2.2,AP Tare,UT Yadav,RG Sharma,0,0,na,na
1st innings,2.3,AP Tare,UT Yadav,RG Sharma,0,0,na,na
1st innings,2.4,AP Tare,UT Yadav,RG Sharma,4,4,na,na
1st innings,2.5,AP Tare,UT Yadav,RG Sharma,0,0,na,na
1st innings,2.6,AP Tare,UT Yadav,RG Sharma,4,4,na,na
1st innings,3.1,RG Sharma,M Morkel,AP Tare,0,0,na,na
1st innings,3.2,RG Sharma,M Morkel,AP Tare,4,4,na,na
1st innings,3.3,RG Sharma,M Morkel,AP Tare,1,1,na,na
1st innings,3.4,AP Tare,M Morkel,RG Sharma,0,0,na,na
1st innings,3.5,AP Tare,M Morkel,RG Sharma,1,1,na,na
1st innings,3.6,RG Sharma,M Morkel,AP Tare,1,1,na,na
1st innings,4.1,RG Sharma,Shakib Al Hasan,AP Tare,1,1,na,na
1st innings,4.2,AP Tare,Shakib Al Hasan,RG Sharma,0,0,na,na
1st innings,4.3,AP Tare,Shakib Al Hasan,RG Sharma,6,6,na,na
1st innings,4.4,AP Tare,Shakib Al Hasan,RG Sharma,1,1,na,na
1st innings,4.5,RG Sharma,Shakib Al Hasan,AP Tare,0,0,na,na
1st innings,4.6,RG Sharma,Shakib Al Hasan,AP Tare,1,0,{'wides': 1},na
1st innings,4.7,RG Sharma,Shakib Al Hasan,AP Tare,0,0,na,"{'fielders': ['UT Yadav'], 'kind': 'caught', 'player_out': 'AP Tare'}"
1st innings,5.1,RG Sharma,M Morkel,AT Rayudu,0,0,na,na
1st innings,5.2,RG Sharma,M Morkel,AT Rayudu,0,0,na,"{'fielders': ['YK Pathan'], 'kind': 'caught', 'player_out': 'AT Rayudu'}"
1st innings,5.3,RG Sharma,M Morkel,CJ Anderson,0,0,na,na
1st innings,5.4,RG Sharma,M Morkel,CJ Anderson,0,0,na,na
1st innings,5.5,RG Sharma,M Morkel,CJ Anderson,0,0,na,na
1st innings,5.6,RG Sharma,M Morkel,CJ Anderson,0,0,na,na
1st innings,6.1,CJ Anderson,SP Narine,RG Sharma,4,4,na,na
1st innings,6.2,CJ Anderson,SP Narine,RG Sharma,0,0,na,na
1st innings,6.3,CJ Anderson,SP Narine,RG Sharma,0,0,na,na
1st innings,6.4,CJ Anderson,SP Narine,RG Sharma,1,1,na,na
1st innings,6.5,RG Sharma,SP Narine,CJ Anderson,0,0,na,na
1st innings,6.6,RG Sharma,SP Narine,CJ Anderson,0,0,na,na
1st innings,7.1,CJ Anderson,M Morkel,RG Sharma,1,1,na,na
1st innings,7.2,RG Sharma,M Morkel,CJ Anderson,0,0,na,na
1st innings,7.3,RG Sharma,M Morkel,CJ Anderson,0,0,na,na
1st innings,7.4,RG Sharma,M Morkel,CJ Anderson,4,4,na,na
1st innings,7.5,RG Sharma,M Morkel,CJ Anderson,0,0,na,na
1st innings,7.6,RG Sharma,M Morkel,CJ Anderson,1,1,na,na
1st innings,8.1,RG Sharma,SP Narine,CJ Anderson,1,1,na,na
1st innings,8.2,CJ Anderson,SP Narine,RG Sharma,0,0,na,na
1st innings,8.3,CJ Anderson,SP Narine,RG Sharma,0,0,na,na
1st innings,8.4,CJ Anderson,SP Narine,RG Sharma,0,0,na,na
1st innings,8.5,CJ Anderson,SP Narine,RG Sharma,4,4,na,na
1st innings,8.6,CJ Anderson,SP Narine,RG Sharma,1,1,na,na
1st innings,9.1,CJ Anderson,AD Russell,RG Sharma,0,0,na,na
1st innings,9.2,CJ Anderson,AD Russell,RG Sharma,0,0,na,na
1st innings,9.3,CJ Anderson,AD Russell,RG Sharma,1,1,na,na
1st innings,9.4,RG Sharma,AD Russell,CJ Anderson,0,0,na,na
1st innings,9.5,RG Sharma,AD Russell,CJ Anderson,1,1,na,na
1st innings,9.6,CJ Anderson,AD Russell,RG Sharma,1,1,na,na
1st innings,10.1,CJ Anderson,PP Chawla,RG Sharma,2,2,na,na
1st innings,10.2,CJ Anderson,PP Chawla,RG Sharma,1,1,na,na
1st innings,10.3,RG Sharma,PP Chawla,CJ Anderson,0,0,na,na
1st innings,10.4,RG Sharma,PP Chawla,CJ Anderson,1,1,na,na
1st innings,10.5,CJ Anderson,PP Chawla,RG Sharma,1,1,na,na
1st innings,10.6,RG Sharma,PP Chawla,CJ Anderson,4,4,na,na
1st innings,11.1,CJ Anderson,AD Russell,RG Sharma,1,1,na,na
1st innings,11.2,RG Sharma,AD Russell,CJ Anderson,0,0,na,na
1st innings,11.3,RG Sharma,AD Russell,CJ Anderson,0,0,na,na
1st innings,11.4,RG Sharma,AD Russell,CJ Anderson,1,1,na,na
1st innings,11.5,CJ Anderson,AD Russell,RG Sharma,1,1,na,na
1st innings,11.6,RG Sharma,AD Russell,CJ Anderson,0,0,na,na
1st innings,12.1,CJ Anderson,PP Chawla,RG Sharma,0,0,na,na
1st innings,12.2,CJ Anderson,PP Chawla,RG Sharma,1,1,na,na
1st innings,12.3,RG Sharma,PP Chawla,CJ Anderson,1,1,na,na
1st innings,12.4,CJ Anderson,PP Chawla,RG Sharma,0,0,na,na
1st innings,12.5,CJ Anderson,PP Chawla,RG Sharma,1,1,na,na
1st innings,12.6,RG Sharma,PP Chawla,CJ Anderson,4,4,na,na
1st innings,13.1,CJ Anderson,SP Narine,RG Sharma,1,1,na,na
1st innings,13.2,RG Sharma,SP Narine,CJ Anderson,1,1,na,na
1st innings,13.3,CJ Anderson,SP Narine,RG Sharma,1,1,na,na
1st innings,13.4,RG Sharma,SP Narine,CJ Anderson,1,1,na,na
1st innings,13.5,CJ Anderson,SP Narine,RG Sharma,0,0,na,na
1st innings,13.6,CJ Anderson,SP Narine,RG Sharma,0,0,na,na
1st innings,14.1,RG Sharma,UT Yadav,CJ Anderson,2,2,na,na
1st innings,14.2,RG Sharma,UT Yadav,CJ Anderson,1,1,na,na
1st innings,14.3,CJ Anderson,UT Yadav,RG Sharma,4,4,na,na
1st innings,14.4,CJ Anderson,UT Yadav,RG Sharma,4,4,na,na
1st innings,14.5,CJ Anderson,UT Yadav,RG Sharma,6,6,na,na
1st innings,14.6,CJ Anderson,UT Yadav,RG Sharma,4,4,na,na
1st innings,15.1,RG Sharma,Shakib Al Hasan,CJ Anderson,1,1,na,na
1st innings,15.2,CJ Anderson,Shakib Al Hasan,RG Sharma,0,0,na,na
1st innings,15.3,CJ Anderson,Shakib Al Hasan,RG Sharma,0,0,na,na
1st innings,15.4,CJ Anderson,Shakib Al Hasan,RG Sharma,4,4,na,na
1st innings,15.5,CJ Anderson,Shakib Al Hasan,RG Sharma,1,1,na,na
1st innings,15.6,RG Sharma,Shakib Al Hasan,CJ Anderson,2,2,na,na
1st innings,16.1,CJ Anderson,SP Narine,RG Sharma,1,1,na,na
1st innings,16.2,RG Sharma,SP Narine,CJ Anderson,1,1,na,na
1st innings,16.3,CJ Anderson,SP Narine,RG Sharma,0,0,na,na
1st innings,16.4,CJ Anderson,SP Narine,RG Sharma,4,4,na,na
1st innings,16.5,CJ Anderson,SP Narine,RG Sharma,6,6,na,na
1st innings,16.6,CJ Anderson,SP Narine,RG Sharma,1,1,na,na
1st innings,17.1,CJ Anderson,Shakib Al Hasan,RG Sharma,1,0,{'wides': 1},na
1st innings,17.2,CJ Anderson,Shakib Al Hasan,RG Sharma,4,4,na,na
1st innings,17.3,CJ Anderson,Shakib Al Hasan,RG Sharma,0,0,na,na
1st innings,17.4,CJ Anderson,Shakib Al Hasan,RG Sharma,1,1,na,na
1st innings,17.5,RG Sharma,Shakib Al Hasan,CJ Anderson,0,0,na,na
1st innings,17.6,RG Sharma,Shakib Al Hasan,CJ Anderson,4,4,na,na
1st innings,17.7,RG Sharma,Shakib Al Hasan,CJ Anderson,1,1,na,na
1st innings,18.1,RG Sharma,AD Russell,CJ Anderson,6,6,na,na
1st innings,18.2,RG Sharma,AD Russell,CJ Anderson,1,1,na,na
1st innings,18.3,CJ Anderson,AD Russell,RG Sharma,6,6,na,na
1st innings,18.4,CJ Anderson,AD Russell,RG Sharma,1,1,na,na
1st innings,18.5,RG Sharma,AD Russell,CJ Anderson,0,0,na,na
1st innings,18.6,RG Sharma,AD Russell,CJ Anderson,1,1,na,na
1st innings,19.1,RG Sharma,Shakib Al Hasan,CJ Anderson,6,6,na,na
1st innings,19.2,RG Sharma,Shakib Al Hasan,CJ Anderson,2,2,na,na
1st innings,19.3,RG Sharma,Shakib Al Hasan,CJ Anderson,1,1,na,na
1st innings,19.4,CJ Anderson,Shakib Al Hasan,RG Sharma,4,4,na,na
1st innings,19.5,CJ Anderson,Shakib Al Hasan,RG Sharma,1,1,na,na
1st innings,19.6,RG Sharma,Shakib Al Hasan,CJ Anderson,6,6,na,na
2nd innings,0.1,G Gambhir,SL Malinga,RV Uthappa,1,1,na,na
2nd innings,0.2,RV Uthappa,SL Malinga,G Gambhir,1,0,{'wides': 1},na
2nd innings,0.3,RV Uthappa,SL Malinga,G Gambhir,1,0,{'legbyes': 1},na
2nd innings,0.4,G Gambhir,SL Malinga,RV Uthappa,0,0,na,na
2nd innings,0.5,G Gambhir,SL Malinga,RV Uthappa,0,0,na,na
2nd innings,0.6,G Gambhir,SL Malinga,RV Uthappa,0,0,na,na
2nd innings,0.7,G Gambhir,SL Malinga,RV Uthappa,0,0,na,na
2nd innings,1.1,RV Uthappa,R Vinay Kumar,G Gambhir,0,0,na,na
2nd innings,1.2,RV Uthappa,R Vinay Kumar,G Gambhir,1,1,na,na
2nd innings,1.3,G Gambhir,R Vinay Kumar,RV Uthappa,0,0,na,na
2nd innings,1.4,G Gambhir,R Vinay Kumar,RV Uthappa,0,0,na,na
2nd innings,1.5,G Gambhir,R Vinay Kumar,RV Uthappa,1,1,na,na
2nd innings,1.6,RV Uthappa,R Vinay Kumar,G Gambhir,0,0,na,na
2nd innings,2.1,G Gambhir,CJ Anderson,RV Uthappa,6,6,na,na
2nd innings,2.2,G Gambhir,CJ Anderson,RV Uthappa,0,0,na,na
2nd innings,2.3,G Gambhir,CJ Anderson,RV Uthappa,1,1,na,na
2nd innings,2.4,RV Uthappa,CJ Anderson,G Gambhir,1,1,na,na
2nd innings,2.5,G Gambhir,CJ Anderson,RV Uthappa,0,0,na,"{'fielders': ['Harbhajan Singh'], 'kind': 'caught', 'player_out': 'RV Uthappa'}"
2nd innings,2.6,G Gambhir,CJ Anderson,MK Pandey,0,0,na,na
2nd innings,3.1,MK Pandey,R Vinay Kumar,G Gambhir,4,4,na,na
2nd innings,3.2,MK Pandey,R Vinay Kumar,G Gambhir,1,0,{'legbyes': 1},na
2nd innings,3.3,G Gambhir,R Vinay Kumar,MK Pandey,1,1,na,na
2nd innings,3.4,MK Pandey,R Vinay Kumar,G Gambhir,0,0,na,na
2nd innings,3.5,MK Pandey,R Vinay Kumar,G Gambhir,0,0,na,na
2nd innings,3.6,MK Pandey,R Vinay Kumar,G Gambhir,0,0,na,na
2nd innings,4.1,G Gambhir,CJ Anderson,MK Pandey,0,0,na,na
2nd innings,4.2,G Gambhir,CJ Anderson,MK Pandey,6,6,na,na
2nd innings,4.3,G Gambhir,CJ Anderson,MK Pandey,4,4,na,na
2nd innings,4.4,G Gambhir,CJ Anderson,MK Pandey,2,2,na,na
2nd innings,4.5,G Gambhir,CJ Anderson,MK Pandey,1,1,na,na
2nd innings,4.6,MK Pandey,CJ Anderson,G Gambhir,0,0,na,na
2nd innings,5.1,G Gambhir,JJ Bumrah,MK Pandey,4,4,na,na
2nd innings,5.2,G Gambhir,JJ Bumrah,MK Pandey,0,0,na,na
2nd innings,5.3,G Gambhir,JJ Bumrah,MK Pandey,1,1,na,na
2nd innings,5.4,MK Pandey,JJ Bumrah,G Gambhir,0,0,na,na
2nd innings,5.5,MK Pandey,JJ Bumrah,G Gambhir,0,0,na,na
2nd innings,5.6,MK Pandey,JJ Bumrah,G Gambhir,1,1,na,na
2nd innings,6.1,MK Pandey,PP Ojha,G Gambhir,0,0,na,na
2nd innings,6.2,MK Pandey,PP Ojha,G Gambhir,2,2,na,na
2nd innings,6.3,MK Pandey,PP Ojha,G Gambhir,6,6,na,na
2nd innings,6.4,MK Pandey,PP Ojha,G Gambhir,1,1,na,na
2nd innings,6.5,G Gambhir,PP Ojha,MK Pandey,1,1,na,na
2nd innings,6.6,MK Pandey,PP Ojha,G Gambhir,1,1,na,na
2nd innings,7.1,MK Pandey,Harbhajan Singh,G Gambhir,4,4,na,na
2nd innings,7.2,MK Pandey,Harbhajan Singh,G Gambhir,2,2,na,na
2nd innings,7.3,MK Pandey,Harbhajan Singh,G Gambhir,2,2,na,na
2nd innings,7.4,MK Pandey,Harbhajan Singh,G Gambhir,4,4,na,na
2nd innings,7.5,MK Pandey,Harbhajan Singh,G Gambhir,0,0,na,na
2nd innings,7.6,MK Pandey,Harbhajan Singh,G Gambhir,1,1,na,na
2nd innings,8.1,MK Pandey,PP Ojha,G Gambhir,1,1,na,na
2nd innings,8.2,G Gambhir,PP Ojha,MK Pandey,6,6,na,na
2nd innings,8.3,G Gambhir,PP Ojha,MK Pandey,1,1,na,na
2nd innings,8.4,MK Pandey,PP Ojha,G Gambhir,1,1,na,na
2nd innings,8.5,G Gambhir,PP Ojha,MK Pandey,1,1,na,na
2nd innings,8.6,MK Pandey,PP Ojha,G Gambhir,2,2,na,na
2nd innings,9.1,G Gambhir,Harbhajan Singh,MK Pandey,1,1,na,na
2nd innings,9.2,MK Pandey,Harbhajan Singh,G Gambhir,1,1,na,na
2nd innings,9.3,G Gambhir,Harbhajan Singh,MK Pandey,0,0,na,na
2nd innings,9.4,G Gambhir,Harbhajan Singh,MK Pandey,1,1,na,na
2nd innings,9.5,MK Pandey,Harbhajan Singh,G Gambhir,4,4,na,na
2nd innings,9.6,MK Pandey,Harbhajan Singh,G Gambhir,4,4,na,na
2nd innings,10.1,G Gambhir,SL Malinga,MK Pandey,0,0,na,na
2nd innings,10.2,G Gambhir,SL Malinga,MK Pandey,6,6,na,na
2nd innings,10.3,G Gambhir,SL Malinga,MK Pandey,1,1,na,na
2nd innings,10.4,MK Pandey,SL Malinga,G Gambhir,0,0,na,na
2nd innings,10.5,MK Pandey,SL Malinga,G Gambhir,1,1,na,na
2nd innings,10.6,G Gambhir,SL Malinga,MK Pandey,1,1,na,na
2nd innings,11.1,G Gambhir,Harbhajan Singh,MK Pandey,1,1,na,na
2nd innings,11.2,MK Pandey,Harbhajan Singh,G Gambhir,0,0,na,na
2nd innings,11.3,MK Pandey,Harbhajan Singh,G Gambhir,1,1,na,na
2nd innings,11.4,G Gambhir,Harbhajan Singh,MK Pandey,1,1,na,na
2nd innings,11.5,MK Pandey,Harbhajan Singh,G Gambhir,1,1,na,na
2nd innings,11.6,G Gambhir,Harbhajan Singh,MK Pandey,0,0,na,"{'fielders': ['KA Pollard'], 'kind': 'caught', 'player_out': 'MK Pandey'}"
2nd innings,12.1,G Gambhir,R Vinay Kumar,SA Yadav,0,0,na,na
2nd innings,12.2,G Gambhir,R Vinay Kumar,SA Yadav,6,6,na,na
2nd innings,12.3,G Gambhir,R Vinay Kumar,SA Yadav,1,1,na,na
2nd innings,12.4,SA Yadav,R Vinay Kumar,G Gambhir,1,1,na,na
2nd innings,12.5,G Gambhir,R Vinay Kumar,SA Yadav,1,1,na,na
2nd innings,12.6,SA Yadav,R Vinay Kumar,G Gambhir,0,0,na,na
2nd innings,13.1,G Gambhir,Harbhajan Singh,SA Yadav,1,1,na,na
2nd innings,13.2,SA Yadav,Harbhajan Singh,G Gambhir,4,4,na,na
2nd innings,13.3,SA Yadav,Harbhajan Singh,G Gambhir,1,1,na,na
2nd innings,13.4,G Gambhir,Harbhajan Singh,SA Yadav,1,1,na,na
2nd innings,13.5,SA Yadav,Harbhajan Singh,G Gambhir,1,1,na,na
2nd innings,13.6,G Gambhir,Harbhajan Singh,SA Yadav,2,2,na,na
2nd innings,14.1,SA Yadav,JJ Bumrah,G Gambhir,4,4,na,na
2nd innings,14.2,SA Yadav,JJ Bumrah,G Gambhir,0,0,na,"{'fielders': ['AT Rayudu'], 'kind': 'caught', 'player_out': 'G Gambhir'}"
2nd innings,14.3,YK Pathan,JJ Bumrah,SA Yadav,6,6,na,na
2nd innings,14.4,YK Pathan,JJ Bumrah,SA Yadav,1,1,na,na
2nd innings,14.5,SA Yadav,JJ Bumrah,YK Pathan,0,0,na,na
2nd innings,14.6,SA Yadav,JJ Bumrah,YK Pathan,1,1,na,na
2nd innings,15.1,SA Yadav,SL Malinga,YK Pathan,0,0,na,na
2nd innings,15.2,SA Yadav,SL Malinga,YK Pathan,0,0,na,na
2nd innings,15.3,SA Yadav,SL Malinga,YK Pathan,0,0,na,na
2nd innings,15.4,SA Yadav,SL Malinga,YK Pathan,1,1,na,na
2nd innings,15.5,YK Pathan,SL Malinga,SA Yadav,0,0,na,na
2nd innings,15.6,YK Pathan,SL Malinga,SA Yadav,1,1,na,na
2nd innings,16.1,YK Pathan,JJ Bumrah,SA Yadav,1,0,{'wides': 1},na
2nd innings,16.2,YK Pathan,JJ Bumrah,SA Yadav,0,0,na,na
2nd innings,16.3,YK Pathan,JJ Bumrah,SA Yadav,6,6,na,na
2nd innings,16.4,YK Pathan,JJ Bumrah,SA Yadav,0,0,na,na
2nd innings,16.5,YK Pathan,JJ Bumrah,SA Yadav,6,6,na,na
2nd innings,16.6,YK Pathan,JJ Bumrah,SA Yadav,1,1,na,na
2nd innings,16.7,SA Yadav,JJ Bumrah,YK Pathan,6,6,na,na
2nd innings,17.1,YK Pathan,SL Malinga,SA Yadav,1,1,na,na
2nd innings,17.2,SA Yadav,SL Malinga,YK Pathan,4,4,na,na
2nd innings,17.3,SA Yadav,SL Malinga,YK Pathan,0,0,na,na
2nd innings,17.4,SA Yadav,SL Malinga,YK Pathan,1,1,na,na
2nd innings,17.5,YK Pathan,SL Malinga,SA Yadav,6,6,na,na
2nd innings,17.6,YK Pathan,SL Malinga,SA Yadav,2,2,na,na
2nd innings,18.1,SA Yadav,R Vinay Kumar,YK Pathan,0,0,na,na
2nd innings,18.2,SA Yadav,R Vinay Kumar,YK Pathan,1,1,na,na
2nd innings,18.3,YK Pathan,R Vinay Kumar,SA Yadav,4,4,na,na
