innings,deliveries,non_striker,bowler,batsman,total_runs,batsman_runs,extras,wickets
1st innings,0.1,M Vohra,UT Yadav,M Vijay,1,1,na,na
1st innings,0.2,M Vijay,UT Yadav,M Vohra,0,0,na,na
1st innings,0.3,M Vijay,UT Yadav,M Vohra,0,0,na,na
1st innings,0.4,M Vijay,UT Yadav,M Vohra,1,1,na,na
1st innings,0.5,M Vohra,UT Yadav,M Vijay,0,0,na,na
1st innings,0.6,M Vohra,UT Yadav,M Vijay,0,0,na,na
1st innings,1.1,M Vijay,AD Russell,M Vohra,1,1,na,na
1st innings,1.2,M Vohra,AD Russell,M Vijay,1,1,na,na
1st innings,1.3,M Vijay,AD Russell,M Vohra,0,0,na,na
1st innings,1.4,M Vijay,AD Russell,M Vohra,2,2,na,na
1st innings,1.5,M Vijay,AD Russell,M Vohra,4,4,na,na
1st innings,1.6,M Vijay,AD Russell,M Vohra,0,0,na,na
1st innings,2.1,M Vohra,UT Yadav,M Vijay,4,4,na,na
1st innings,2.2,M Vohra,UT Yadav,M Vijay,0,0,na,na
1st innings,2.3,M Vohra,UT Yadav,M Vijay,6,6,na,na
1st innings,2.4,M Vohra,UT Yadav,M Vijay,4,4,na,na
1st innings,2.5,M Vohra,UT Yadav,M Vijay,0,0,na,na
1st innings,2.6,M Vohra,UT Yadav,M Vijay,4,4,na,na
1st innings,3.1,M Vijay,SP Narine,M Vohra,0,0,na,na
1st innings,3.2,M Vijay,SP Narine,M Vohra,1,1,na,na
1st innings,3.3,M Vohra,SP Narine,M Vijay,1,1,na,na
1st innings,3.4,M Vijay,SP Narine,M Vohra,1,1,na,na
1st innings,3.5,M Vohra,SP Narine,M Vijay,0,0,na,na
1st innings,3.6,M Vohra,SP Narine,M Vijay,1,1,na,na
1st innings,4.1,M Vohra,J Botha,M Vijay,1,1,na,na
1st innings,4.2,M Vijay,J Botha,M Vohra,0,0,na,na
1st innings,4.3,M Vijay,J Botha,M Vohra,1,1,na,na
1st innings,4.4,M Vohra,J Botha,M Vijay,0,0,na,na
1st innings,4.5,M Vohra,J Botha,M Vijay,1,1,na,na
1st innings,4.6,M Vijay,J Botha,M Vohra,6,6,na,na
1st innings,5.1,M Vohra,SP Narine,M Vijay,0,0,na,na
1st innings,5.2,M Vohra,SP Narine,M Vijay,0,0,na,na
1st innings,5.3,M Vohra,SP Narine,M Vijay,4,4,na,na
1st innings,5.4,M Vohra,SP Narine,M Vijay,0,0,na,na
1st innings,5.5,M Vohra,SP Narine,M Vijay,0,0,na,"{'kind': 'bowled', 'player_out': 'M Vijay'}"
1st innings,5.6,M Vohra,SP Narine,WP Saha,0,0,na,na
1st innings,6.1,WP Saha,GB Hogg,M Vohra,1,1,na,na
1st innings,6.2,M Vohra,GB Hogg,WP Saha,1,1,na,na
1st innings,6.3,WP Saha,GB Hogg,M Vohra,0,0,na,na
1st innings,6.4,WP Saha,GB Hogg,M Vohra,0,0,na,na
1st innings,6.5,WP Saha,GB Hogg,M Vohra,1,1,na,na
1st innings,6.6,M Vohra,GB Hogg,WP Saha,0,0,na,na
1st innings,7.1,WP Saha,AD Russell,M Vohra,0,0,na,na
1st innings,7.2,WP Saha,AD Russell,M Vohra,2,2,na,na
1st innings,7.3,WP Saha,AD Russell,M Vohra,2,2,na,na
1st innings,7.4,WP Saha,AD Russell,M Vohra,0,0,na,na
1st innings,7.5,WP Saha,AD Russell,M Vohra,6,6,na,na
1st innings,7.6,WP Saha,AD Russell,M Vohra,1,1,na,na
1st innings,8.1,WP Saha,GB Hogg,M Vohra,1,0,{'legbyes': 1},na
1st innings,8.2,M Vohra,GB Hogg,WP Saha,2,0,{'wides': 2},na
1st innings,8.3,WP Saha,GB Hogg,M Vohra,0,0,na,na
1st innings,8.4,WP Saha,GB Hogg,M Vohra,0,0,na,na
1st innings,8.5,WP Saha,GB Hogg,M Vohra,1,1,na,na
1st innings,8.6,M Vohra,GB Hogg,WP Saha,0,0,na,na
1st innings,8.7,M Vohra,GB Hogg,WP Saha,1,1,na,na
1st innings,9.1,M Vohra,PP Chawla,WP Saha,1,1,na,na
1st innings,9.2,WP Saha,PP Chawla,M Vohra,1,1,na,na
1st innings,9.3,M Vohra,PP Chawla,WP Saha,0,0,na,na
1st innings,9.4,M Vohra,PP Chawla,WP Saha,3,3,na,na
1st innings,9.5,WP Saha,PP Chawla,M Vohra,6,6,na,na
1st innings,9.6,WP Saha,PP Chawla,M Vohra,0,0,na,na
1st innings,10.1,M Vohra,SP Narine,WP Saha,1,1,na,na
1st innings,10.2,WP Saha,SP Narine,M Vohra,0,0,na,na
1st innings,10.3,WP Saha,SP Narine,M Vohra,1,1,na,na
1st innings,10.4,M Vohra,SP Narine,WP Saha,1,1,na,na
1st innings,10.5,WP Saha,SP Narine,M Vohra,0,0,na,"{'kind': 'caught and bowled', 'player_out': 'M Vohra'}"
1st innings,10.6,WP Saha,SP Narine,GJ Maxwell,0,0,na,na
1st innings,11.1,GJ Maxwell,PP Chawla,WP Saha,2,2,na,na
1st innings,11.2,GJ Maxwell,PP Chawla,WP Saha,2,2,na,na
1st innings,11.3,GJ Maxwell,PP Chawla,WP Saha,2,2,na,na
1st innings,11.4,GJ Maxwell,PP Chawla,WP Saha,1,1,na,na
1st innings,11.5,WP Saha,PP Chawla,GJ Maxwell,2,2,na,na
1st innings,11.6,WP Saha,PP Chawla,GJ Maxwell,1,1,na,na
1st innings,12.1,WP Saha,AD Russell,GJ Maxwell,1,0,{'legbyes': 1},na
1st innings,12.2,GJ Maxwell,AD Russell,WP Saha,1,1,na,na
1st innings,12.3,WP Saha,AD Russell,GJ Maxwell,1,1,na,na
1st innings,12.4,GJ Maxwell,AD Russell,WP Saha,1,0,{'wides': 1},na
1st innings,12.5,GJ Maxwell,AD Russell,WP Saha,1,1,na,na
1st innings,12.6,WP Saha,AD Russell,GJ Maxwell,0,0,na,na
1st innings,12.7,WP Saha,AD Russell,GJ Maxwell,6,6,na,na
1st innings,13.1,GJ Maxwell,PP Chawla,WP Saha,1,1,na,na
1st innings,13.2,WP Saha,PP Chawla,GJ Maxwell,1,1,na,na
1st innings,13.3,GJ Maxwell,PP Chawla,WP Saha,1,1,na,na
1st innings,13.4,WP Saha,PP Chawla,GJ Maxwell,4,4,na,na
1st innings,13.5,WP Saha,PP Chawla,GJ Maxwell,6,6,na,na
1st innings,13.6,WP Saha,PP Chawla,GJ Maxwell,1,1,na,na
1st innings,14.1,WP Saha,GB Hogg,GJ Maxwell,4,4,na,na
1st innings,14.2,WP Saha,GB Hogg,GJ Maxwell,4,4,na,na
1st innings,14.3,WP Saha,GB Hogg,GJ Maxwell,6,6,na,na
1st innings,14.4,WP Saha,GB Hogg,GJ Maxwell,0,0,na,na
1st innings,14.5,WP Saha,GB Hogg,GJ Maxwell,1,0,{'byes': 1},na
1st innings,14.6,GJ Maxwell,GB Hogg,WP Saha,6,6,na,na
1st innings,15.1,WP Saha,UT Yadav,GJ Maxwell,1,1,na,na
1st innings,15.2,GJ Maxwell,UT Yadav,WP Saha,1,1,na,na
1st innings,15.3,WP Saha,UT Yadav,GJ Maxwell,4,4,na,na
1st innings,15.4,WP Saha,UT Yadav,GJ Maxwell,0,0,na,na
1st innings,15.5,WP Saha,UT Yadav,GJ Maxwell,1,1,na,na
1st innings,15.6,GJ Maxwell,UT Yadav,WP Saha,0,0,na,na
1st innings,16.1,WP Saha,SP Narine,GJ Maxwell,1,1,na,na
1st innings,16.2,GJ Maxwell,SP Narine,WP Saha,1,1,na,na
1st innings,16.3,WP Saha,SP Narine,GJ Maxwell,0,0,na,"{'fielders': ['J Botha'], 'kind': 'caught', 'player_out': 'GJ Maxwell'}"
1st innings,16.4,DA Miller,SP Narine,WP Saha,0,0,na,na
1st innings,16.5,DA Miller,SP Narine,WP Saha,6,6,na,na
1st innings,16.6,DA Miller,SP Narine,WP Saha,0,0,na,"{'kind': 'bowled', 'player_out': 'WP Saha'}"
1st innings,17.1,Gurkeerat Singh,GB Hogg,DA Miller,1,1,na,na
1st innings,17.2,DA Miller,GB Hogg,Gurkeerat Singh,1,1,na,na
1st innings,17.3,Gurkeerat Singh,GB Hogg,DA Miller,1,0,{'legbyes': 1},na
1st innings,17.4,DA Miller,GB Hogg,Gurkeerat Singh,0,0,na,na
1st innings,17.5,DA Miller,GB Hogg,Gurkeerat Singh,0,0,na,na
1st innings,17.6,DA Miller,GB Hogg,Gurkeerat Singh,1,1,na,na
1st innings,18.1,DA Miller,UT Yadav,Gurkeerat Singh,1,1,na,na
1st innings,18.2,Gurkeerat Singh,UT Yadav,DA Miller,1,1,na,na
1st innings,18.3,DA Miller,UT Yadav,Gurkeerat Singh,2,0,{'wides': 2},na
1st innings,18.4,Gurkeerat Singh,UT Yadav,DA Miller,2,2,na,na
1st innings,18.5,Gurkeerat Singh,UT Yadav,DA Miller,1,1,na,na
1st innings,18.6,DA Miller,UT Yadav,Gurkeerat Singh,1,1,na,na
1st innings,18.7,Gurkeerat Singh,UT Yadav,DA Miller,1,1,na,na
1st innings,19.1,Gurkeerat Singh,AD Russell,DA Miller,6,6,na,na
1st innings,19.2,Gurkeerat Singh,AD Russell,DA Miller,1,1,na,na
1st innings,19.3,DA Miller,AD Russell,Gurkeerat Singh,0,0,na,"{'kind': 'caught and bowled', 'player_out': 'Gurkeerat Singh'}"
1st innings,19.4,GJ Bailey,AD Russell,DA Miller,6,6,na,na
1st innings,19.5,GJ Bailey,AD Russell,DA Miller,4,4,na,na
1st innings,19.6,GJ Bailey,AD Russell,DA Miller,4,4,na,na
2nd innings,0.1,G Gambhir,Sandeep Sharma,RV Uthappa,0,0,na,na
2nd innings,0.2,G Gambhir,Sandeep Sharma,RV Uthappa,0,0,na,na
2nd innings,0.3,G Gambhir,Sandeep Sharma,RV Uthappa,1,1,na,na
2nd innings,0.4,RV Uthappa,Sandeep Sharma,G Gambhir,4,4,na,na
2nd innings,0.5,RV Uthappa,Sandeep Sharma,G Gambhir,0,0,na,na
2nd innings,0.6,RV Uthappa,Sandeep Sharma,G Gambhir,0,0,na,na
2nd innings,1.1,G Gambhir,BE Hendricks,RV Uthappa,0,0,na,na
2nd innings,1.2,G Gambhir,BE Hendricks,RV Uthappa,1,1,na,na
2nd innings,1.3,RV Uthappa,BE Hendricks,G Gambhir,0,0,na,na
2nd innings,1.4,RV Uthappa,BE Hendricks,G Gambhir,4,4,na,na
2nd innings,1.5,RV Uthappa,BE Hendricks,G Gambhir,1,1,na,na
2nd innings,1.6,G Gambhir,BE Hendricks,RV Uthappa,4,4,na,na
2nd innings,2.1,RV Uthappa,Sandeep Sharma,G Gambhir,0,0,na,na
2nd innings,2.2,RV Uthappa,Sandeep Sharma,G Gambhir,4,4,na,na
2nd innings,2.3,RV Uthappa,Sandeep Sharma,G Gambhir,1,1,na,na
2nd innings,2.4,G Gambhir,Sandeep Sharma,RV Uthappa,4,4,na,na
2nd innings,2.5,G Gambhir,Sandeep Sharma,RV Uthappa,1,1,na,na
2nd innings,2.6,RV Uthappa,Sandeep Sharma,G Gambhir,0,0,na,na
2nd innings,3.1,G Gambhir,Anureet Singh,RV Uthappa,2,2,na,na
2nd innings,3.2,G Gambhir,Anureet Singh,RV Uthappa,4,4,na,na
2nd innings,3.3,G Gambhir,Anureet Singh,RV Uthappa,0,0,na,"{'fielders': ['AR Patel'], 'kind': 'caught', 'player_out': 'RV Uthappa'}"
2nd innings,3.4,G Gambhir,Anureet Singh,MK Pandey,4,4,na,na
2nd innings,3.5,G Gambhir,Anureet Singh,MK Pandey,1,1,na,na
2nd innings,3.6,MK Pandey,Anureet Singh,G Gambhir,4,4,na,na
2nd innings,4.1,G Gambhir,Sandeep Sharma,MK Pandey,0,0,na,na
2nd innings,4.2,G Gambhir,Sandeep Sharma,MK Pandey,1,1,na,na
2nd innings,4.3,MK Pandey,Sandeep Sharma,G Gambhir,1,1,na,na
2nd innings,4.4,G Gambhir,Sandeep Sharma,MK Pandey,4,4,na,na
2nd innings,4.5,G Gambhir,Sandeep Sharma,MK Pandey,1,0,{'wides': 1},na
2nd innings,4.6,G Gambhir,Sandeep Sharma,MK Pandey,4,4,na,na
2nd innings,4.7,G Gambhir,Sandeep Sharma,MK Pandey,4,4,na,na
2nd innings,5.1,MK Pandey,AR Patel,G Gambhir,1,1,na,na
2nd innings,5.2,G Gambhir,AR Patel,MK Pandey,0,0,na,na
2nd innings,5.3,G Gambhir,AR Patel,MK Pandey,1,1,na,na
2nd innings,5.4,MK Pandey,AR Patel,G Gambhir,0,0,na,na
2nd innings,5.5,MK Pandey,AR Patel,G Gambhir,0,0,na,na
2nd innings,5.6,MK Pandey,AR Patel,G Gambhir,0,0,na,na
2nd innings,6.1,G Gambhir,Gurkeerat Singh,MK Pandey,1,1,na,na
2nd innings,6.2,MK Pandey,Gurkeerat Singh,G Gambhir,0,0,na,na
2nd innings,6.3,MK Pandey,Gurkeerat Singh,G Gambhir,1,1,na,na
2nd innings,6.4,G Gambhir,Gurkeerat Singh,MK Pandey,0,0,na,na
2nd innings,6.5,G Gambhir,Gurkeerat Singh,MK Pandey,1,0,{'wides': 1},na
2nd innings,6.6,G Gambhir,Gurkeerat Singh,MK Pandey,0,0,na,na
2nd innings,6.7,G Gambhir,Gurkeerat Singh,MK Pandey,1,1,na,na
2nd innings,7.1,G Gambhir,GJ Maxwell,MK Pandey,1,1,na,na
2nd innings,7.2,MK Pandey,GJ Maxwell,G Gambhir,1,1,na,na
2nd innings,7.3,G Gambhir,GJ Maxwell,MK Pandey,0,0,na,"{'fielders': ['AR Patel'], 'kind': 'caught', 'player_out': 'MK Pandey'}"
2nd innings,7.4,G Gambhir,GJ Maxwell,SA Yadav,1,1,na,na
2nd innings,7.5,SA Yadav,GJ Maxwell,G Gambhir,1,1,na,na
2nd innings,7.6,G Gambhir,GJ Maxwell,SA Yadav,1,1,na,na
2nd innings,8.1,G Gambhir,Gurkeerat Singh,SA Yadav,1,1,na,na
2nd innings,8.2,SA Yadav,Gurkeerat Singh,G Gambhir,1,1,na,na
2nd innings,8.3,G Gambhir,Gurkeerat Singh,SA Yadav,1,1,na,na
2nd innings,8.4,SA Yadav,Gurkeerat Singh,G Gambhir,0,0,na,na
2nd innings,8.5,SA Yadav,Gurkeerat Singh,G Gambhir,0,0,na,"{'fielders': ['M Vijay'], 'kind': 'caught', 'player_out': 'G Gambhir'}"
2nd innings,8.6,YK Pathan,Gurkeerat Singh,SA Yadav,0,0,na,na
2nd innings,9.1,SA Yadav,BE Hendricks,YK Pathan,0,0,na,na
2nd innings,9.2,SA Yadav,BE Hendricks,YK Pathan,0,0,na,na
2nd innings,9.3,SA Yadav,BE Hendricks,YK Pathan,0,0,na,na
2nd innings,9.4,SA Yadav,BE Hendricks,YK Pathan,1,1,na,na
2nd innings,9.5,YK Pathan,BE Hendricks,SA Yadav,4,4,na,na
2nd innings,9.6,YK Pathan,BE Hendricks,SA Yadav,0,0,na,na
2nd innings,10.1,SA Yadav,Gurkeerat Singh,YK Pathan,6,6,na,na
2nd innings,10.2,SA Yadav,Gurkeerat Singh,YK Pathan,1,1,na,na
2nd innings,10.3,YK Pathan,Gurkeerat Singh,SA Yadav,1,1,na,na
2nd innings,10.4,SA Yadav,Gurkeerat Singh,YK Pathan,1,1,na,na
2nd innings,10.5,YK Pathan,Gurkeerat Singh,SA Yadav,0,0,na,"{'kind': 'bowled', 'player_out': 'SA Yadav'}"
2nd innings,10.6,YK Pathan,Gurkeerat Singh,AD Russell,1,0,{'wides': 1},na
2nd innings,10.7,YK Pathan,Gurkeerat Singh,AD Russell,0,0,na,na
2nd innings,11.1,AD Russell,AR Patel,YK Pathan,0,0,na,na
2nd innings,11.2,AD Russell,AR Patel,YK Pathan,0,0,na,na
2nd innings,11.3,AD Russell,AR Patel,YK Pathan,1,1,na,na
2nd innings,11.4,YK Pathan,AR Patel,AD Russell,0,0,na,na
2nd innings,11.5,YK Pathan,AR Patel,AD Russell,0,0,na,na
2nd innings,11.6,YK Pathan,AR Patel,AD Russell,1,1,na,na
2nd innings,12.1,YK Pathan,Anureet Singh,AD Russell,4,4,na,na
2nd innings,12.2,YK Pathan,Anureet Singh,AD Russell,1,1,na,na
2nd innings,12.3,AD Russell,Anureet Singh,YK Pathan,1,1,na,na
2nd innings,12.4,YK Pathan,Anureet Singh,AD Russell,4,4,na,na
2nd innings,12.5,YK Pathan,Anureet Singh,AD Russell,6,6,na,na
2nd innings,12.6,YK Pathan,Anureet Singh,AD Russell,0,0,na,na
2nd innings,13.1,AD Russell,AR Patel,YK Pathan,6,6,na,na
2nd innings,13.2,AD Russell,AR Patel,YK Pathan,0,0,na,na
2nd innings,13.3,AD Russell,AR Patel,YK Pathan,6,6,na,na
2nd innings,13.4,AD Russell,AR Patel,YK Pathan,1,1,na,na
2nd innings,13.5,YK Pathan,AR Patel,AD Russell,6,6,na,na
2nd innings,13.6,YK Pathan,AR Patel,AD Russell,1,0,{'wides': 1},na
2nd innings,13.7,YK Pathan,AR Patel,AD Russell,4,4,na,na
2nd innings,14.1,AD Russell,BE Hendricks,YK Pathan,1,1,na,na
2nd innings,14.2,YK Pathan,BE Hendricks,AD Russell,4,4,na,na
2nd innings,14.3,YK Pathan,BE Hendricks,AD Russell,1,1,na,na
2nd innings,14.4,AD Russell,BE Hendricks,YK Pathan,0,0,na,na
2nd innings,14.5,AD Russell,BE Hendricks,YK Pathan,4,4,na,na
2nd innings,14.6,AD Russell,BE Hendricks,YK Pathan,0,0,na,"{'fielders': ['WP Saha'], 'kind': 'caught', 'player_out': 'YK Pathan'}"
2nd innings,15.1,J Botha,Anureet Singh,AD Russell,6,6,na,na
2nd innings,15.2,J Botha,Anureet Singh,AD Russell,1,1,na,na
2nd innings,15.3,AD Russell,Anureet Singh,J Botha,1,0,{'legbyes': 1},na
2nd innings,15.4,J Botha,Anureet Singh,AD Russell,4,4,na,na
2nd innings,15.5,J Botha,Anureet Singh,AD Russell,6,6,na,na
2nd innings,15.6,J Botha,Anureet Singh,AD Russell,1,1,na,na
2nd innings,16.1,J Botha,AR Patel,AD Russell,1,1,na,na
2nd innings,16.2,AD Russell,AR Patel,J Botha,1,1,na,na
2nd innings,16.3,J Botha,AR Patel,AD Russell,1,1,na,na
2nd innings,16.4,AD Russell,AR Patel,J Botha,1,1,na,na
2nd innings,16.5,J Botha,AR Patel,AD Russell,0,0,na,"{'fielders': ['WP Saha'], 'kind': 'caught', 'player_out': 'AD Russell'}"
2nd innings,16.6,J Botha,AR Patel,PP Chawla,1,1,na,na
2nd innings,17.1,J Botha,BE Hendricks,PP Chawla,1,0,{'legbyes': 1},na
2nd innings,17.2,PP Chawla,BE Hendricks,J Botha,0,0,na,"{'fielders': ['AR Patel'], 'kind': 'run out', 'player_out': 'J Botha'}"
2nd innings,17.3,GB Hogg,BE Hendricks,PP Chawla,1,1,na,na
2nd innings,17.4,PP Chawla,BE Hendricks,GB Hogg,1,1,na,na
2nd innings,17.5,GB Hogg,BE Hendricks,PP Chawla,4,4,na,na
2nd innings,17.6,GB Hogg,BE Hendricks,PP Chawla,4,4,na,na
2nd innings,18.1,PP Chawla,Sandeep Sharma,GB Hogg,1,1,na,na
2nd innings,18.2,GB Hogg,Sandeep Sharma,PP Chawla,0,0,na,na
2nd innings,18.3,GB Hogg,Sandeep Sharma,PP Chawla,1,1,na,na
2nd innings,18.4,PP Chawla,Sandeep Sharma,GB Hogg,1,1,na,na
2nd innings,18.5,GB Hogg,Sandeep Sharma,PP Chawla,1,1,na,na
2nd innings,18.6,PP Chawla,Sandeep Sharma,GB Hogg,1,1,na,na
2nd innings,19.1,PP Chawla,Anureet Singh,GB Hogg,1,1,na,na
2nd innings,19.2,GB Hogg,Anureet Singh,PP Chawla,0,0,na,"{'fielders': ['Anureet Singh'], 'kind': 'run out', 'player_out': 'GB Hogg'}"
2nd innings,19.3,UT Yadav,Anureet Singh,PP Chawla,6,6,na,na
2nd innings,19.4,UT Yadav,Anureet Singh,PP Chawla,0,0,na,"{'fielders': ['WP Saha'], 'kind': 'caught', 'player_out': 'PP Chawla'}"
2nd innings,19.5,UT Yadav,Anureet Singh,SP Narine,1,0,{'legbyes': 1},na
