innings,deliveries,non_striker,bowler,batsman,total_runs,batsman_runs,extras,wickets
1st innings,0.1,PA Patel,Iqbal Abdulla,LMP Simmons,1,1,na,na
1st innings,0.2,LMP Simmons,Iqbal Abdulla,PA Patel,1,1,na,na
1st innings,0.3,PA Patel,Iqbal Abdulla,LMP Simmons,0,0,na,na
1st innings,0.4,PA Patel,Iqbal Abdulla,LMP Simmons,0,0,na,na
1st innings,0.5,PA Patel,Iqbal Abdulla,LMP Simmons,0,0,na,na
1st innings,0.6,PA Patel,Iqbal Abdulla,LMP Simmons,0,0,na,na
1st innings,1.1,LMP Simmons,VR Aaron,PA Patel,1,0,{'wides': 1},na
1st innings,1.2,LMP Simmons,VR Aaron,PA Patel,5,0,{'wides': 5},na
1st innings,1.3,LMP Simmons,VR Aaron,PA Patel,1,1,na,na
1st innings,1.4,PA Patel,VR Aaron,LMP Simmons,0,0,na,na
1st innings,1.5,PA Patel,VR Aaron,LMP Simmons,0,0,na,na
1st innings,1.6,PA Patel,VR Aaron,LMP Simmons,0,0,na,na
1st innings,1.7,PA Patel,VR Aaron,LMP Simmons,4,4,na,na
1st innings,1.8,PA Patel,VR Aaron,LMP Simmons,0,0,na,na
1st innings,2.1,LMP Simmons,AN Ahmed,PA Patel,4,4,na,na
1st innings,2.2,LMP Simmons,AN Ahmed,PA Patel,4,4,na,na
1st innings,2.3,LMP Simmons,AN Ahmed,PA Patel,0,0,na,na
1st innings,2.4,LMP Simmons,AN Ahmed,PA Patel,0,0,na,na
1st innings,2.5,LMP Simmons,AN Ahmed,PA Patel,1,1,na,na
1st innings,2.6,PA Patel,AN Ahmed,LMP Simmons,1,1,na,na
1st innings,3.1,PA Patel,VR Aaron,LMP Simmons,0,0,na,na
1st innings,3.2,PA Patel,VR Aaron,LMP Simmons,1,0,{'wides': 1},na
1st innings,3.3,PA Patel,VR Aaron,LMP Simmons,0,0,na,na
1st innings,3.4,PA Patel,VR Aaron,LMP Simmons,4,4,na,na
1st innings,3.5,PA Patel,VR Aaron,LMP Simmons,4,4,na,na
1st innings,3.6,PA Patel,VR Aaron,LMP Simmons,0,0,na,na
1st innings,3.7,PA Patel,VR Aaron,LMP Simmons,4,4,na,na
1st innings,4.1,LMP Simmons,AN Ahmed,PA Patel,0,0,na,na
1st innings,4.2,LMP Simmons,AN Ahmed,PA Patel,0,0,na,na
1st innings,4.3,LMP Simmons,AN Ahmed,PA Patel,1,1,na,na
1st innings,4.4,PA Patel,AN Ahmed,LMP Simmons,0,0,na,na
1st innings,4.5,PA Patel,AN Ahmed,LMP Simmons,4,4,na,na
1st innings,4.6,PA Patel,AN Ahmed,LMP Simmons,4,4,na,na
1st innings,5.1,LMP Simmons,D Wiese,PA Patel,0,0,na,na
1st innings,5.2,LMP Simmons,D Wiese,PA Patel,1,0,{'legbyes': 1},na
1st innings,5.3,PA Patel,D Wiese,LMP Simmons,0,0,na,na
1st innings,5.4,PA Patel,D Wiese,LMP Simmons,1,1,na,na
1st innings,5.5,LMP Simmons,D Wiese,PA Patel,0,0,na,"{'kind': 'bowled', 'player_out': 'PA Patel'}"
1st innings,5.6,LMP Simmons,D Wiese,UBT Chand,1,1,na,na
1st innings,6.1,LMP Simmons,Iqbal Abdulla,UBT Chand,0,0,na,na
1st innings,6.2,LMP Simmons,Iqbal Abdulla,UBT Chand,0,0,na,na
1st innings,6.3,LMP Simmons,Iqbal Abdulla,UBT Chand,2,2,na,na
1st innings,6.4,LMP Simmons,Iqbal Abdulla,UBT Chand,4,4,na,na
1st innings,6.5,LMP Simmons,Iqbal Abdulla,UBT Chand,4,4,na,na
1st innings,6.6,LMP Simmons,Iqbal Abdulla,UBT Chand,1,1,na,na
1st innings,7.1,LMP Simmons,D Wiese,UBT Chand,2,0,{'legbyes': 2},na
1st innings,7.2,LMP Simmons,D Wiese,UBT Chand,1,1,na,na
1st innings,7.3,UBT Chand,D Wiese,LMP Simmons,0,0,na,na
1st innings,7.4,UBT Chand,D Wiese,LMP Simmons,1,1,na,na
1st innings,7.5,LMP Simmons,D Wiese,UBT Chand,1,1,na,na
1st innings,7.6,UBT Chand,D Wiese,LMP Simmons,0,0,na,na
1st innings,8.1,LMP Simmons,Iqbal Abdulla,UBT Chand,1,1,na,na
1st innings,8.2,UBT Chand,Iqbal Abdulla,LMP Simmons,1,1,na,na
1st innings,8.3,LMP Simmons,Iqbal Abdulla,UBT Chand,1,1,na,na
1st innings,8.4,UBT Chand,Iqbal Abdulla,LMP Simmons,6,6,na,na
1st innings,8.5,UBT Chand,Iqbal Abdulla,LMP Simmons,0,0,na,na
1st innings,8.6,UBT Chand,Iqbal Abdulla,LMP Simmons,0,0,na,na
1st innings,9.1,LMP Simmons,YS Chahal,UBT Chand,4,4,na,na
1st innings,9.2,LMP Simmons,YS Chahal,UBT Chand,0,0,na,na
1st innings,9.3,LMP Simmons,YS Chahal,UBT Chand,0,0,na,na
1st innings,9.4,LMP Simmons,YS Chahal,UBT Chand,6,6,na,na
1st innings,9.5,LMP Simmons,YS Chahal,UBT Chand,0,0,na,na
1st innings,9.6,LMP Simmons,YS Chahal,UBT Chand,0,0,na,na
1st innings,10.1,UBT Chand,VR Aaron,LMP Simmons,0,0,na,na
1st innings,10.2,UBT Chand,VR Aaron,LMP Simmons,0,0,na,na
1st innings,10.3,UBT Chand,VR Aaron,LMP Simmons,6,6,na,na
1st innings,10.4,UBT Chand,VR Aaron,LMP Simmons,4,4,na,na
1st innings,10.5,UBT Chand,VR Aaron,LMP Simmons,0,0,na,na
1st innings,10.6,UBT Chand,VR Aaron,LMP Simmons,4,4,na,na
1st innings,11.1,LMP Simmons,YS Chahal,UBT Chand,0,0,na,na
1st innings,11.2,LMP Simmons,YS Chahal,UBT Chand,1,1,na,na
1st innings,11.3,UBT Chand,YS Chahal,LMP Simmons,1,1,na,na
1st innings,11.4,LMP Simmons,YS Chahal,UBT Chand,0,0,na,na
1st innings,11.5,LMP Simmons,YS Chahal,UBT Chand,1,1,na,na
1st innings,11.6,UBT Chand,YS Chahal,LMP Simmons,1,1,na,na
1st innings,12.1,UBT Chand,Iqbal Abdulla,LMP Simmons,2,2,na,na
1st innings,12.2,UBT Chand,Iqbal Abdulla,LMP Simmons,0,0,na,na
1st innings,12.3,UBT Chand,Iqbal Abdulla,LMP Simmons,1,1,na,na
1st innings,12.4,LMP Simmons,Iqbal Abdulla,UBT Chand,1,0,{'wides': 1},na
1st innings,12.5,LMP Simmons,Iqbal Abdulla,UBT Chand,2,0,{'wides': 2},na
1st innings,12.6,UBT Chand,Iqbal Abdulla,LMP Simmons,1,1,na,na
1st innings,12.7,LMP Simmons,Iqbal Abdulla,UBT Chand,0,0,na,na
1st innings,12.8,LMP Simmons,Iqbal Abdulla,UBT Chand,6,6,na,na
1st innings,13.1,UBT Chand,YS Chahal,LMP Simmons,1,0,{'wides': 1},na
1st innings,13.2,UBT Chand,YS Chahal,LMP Simmons,4,4,na,na
1st innings,13.3,UBT Chand,YS Chahal,LMP Simmons,0,0,na,na
1st innings,13.4,UBT Chand,YS Chahal,LMP Simmons,0,0,na,"{'fielders': ['VR Aaron'], 'kind': 'caught', 'player_out': 'LMP Simmons'}"
1st innings,13.5,RG Sharma,YS Chahal,UBT Chand,0,0,na,na
1st innings,13.6,RG Sharma,YS Chahal,UBT Chand,0,0,na,na
1st innings,13.7,RG Sharma,YS Chahal,UBT Chand,1,1,na,na
1st innings,14.1,RG Sharma,VR Aaron,UBT Chand,1,0,{'legbyes': 1},na
1st innings,14.2,UBT Chand,VR Aaron,RG Sharma,0,0,na,na
1st innings,14.3,UBT Chand,VR Aaron,RG Sharma,2,2,na,na
1st innings,14.4,UBT Chand,VR Aaron,RG Sharma,4,4,na,na
1st innings,14.5,UBT Chand,VR Aaron,RG Sharma,0,0,na,na
1st innings,14.6,UBT Chand,VR Aaron,RG Sharma,6,6,na,na
1st innings,15.1,RG Sharma,D Wiese,UBT Chand,4,4,na,na
1st innings,15.2,RG Sharma,D Wiese,UBT Chand,4,4,na,na
1st innings,15.3,RG Sharma,D Wiese,UBT Chand,4,4,na,na
1st innings,15.4,RG Sharma,D Wiese,UBT Chand,1,1,na,na
1st innings,15.5,UBT Chand,D Wiese,RG Sharma,1,1,na,na
1st innings,15.6,RG Sharma,D Wiese,UBT Chand,1,0,{'wides': 1},na
1st innings,15.7,RG Sharma,D Wiese,UBT Chand,4,4,na,na
1st innings,16.1,UBT Chand,AN Ahmed,RG Sharma,6,6,na,na
1st innings,16.2,UBT Chand,AN Ahmed,RG Sharma,4,4,na,na
1st innings,16.3,UBT Chand,AN Ahmed,RG Sharma,1,1,na,na
1st innings,16.4,RG Sharma,AN Ahmed,UBT Chand,1,1,na,na
1st innings,16.5,UBT Chand,AN Ahmed,RG Sharma,6,6,na,na
1st innings,16.6,UBT Chand,AN Ahmed,RG Sharma,6,6,na,na
1st innings,17.1,RG Sharma,YS Chahal,UBT Chand,4,4,na,na
1st innings,17.2,RG Sharma,YS Chahal,UBT Chand,1,1,na,na
1st innings,17.3,UBT Chand,YS Chahal,RG Sharma,1,1,na,na
1st innings,17.4,RG Sharma,YS Chahal,UBT Chand,0,0,na,"{'fielders': ['V Kohli'], 'kind': 'caught', 'player_out': 'UBT Chand'}"
1st innings,17.5,KA Pollard,YS Chahal,RG Sharma,1,1,na,na
1st innings,17.6,RG Sharma,YS Chahal,KA Pollard,1,1,na,na
1st innings,18.1,RG Sharma,D Wiese,KA Pollard,4,4,na,na
1st innings,18.2,RG Sharma,D Wiese,KA Pollard,0,0,na,"{'fielders': ['YS Chahal'], 'kind': 'caught', 'player_out': 'KA Pollard'}"
1st innings,18.3,RG Sharma,D Wiese,AT Rayudu,0,0,na,"{'fielders': ['YS Chahal'], 'kind': 'caught', 'player_out': 'AT Rayudu'}"
1st innings,18.4,Harbhajan Singh,D Wiese,RG Sharma,4,4,na,na
1st innings,18.5,Harbhajan Singh,D Wiese,RG Sharma,0,0,na,"{'kind': 'caught and bowled', 'player_out': 'RG Sharma'}"
1st innings,18.6,Harbhajan Singh,D Wiese,HH Pandya,1,1,na,na
1st innings,19.1,Harbhajan Singh,AN Ahmed,HH Pandya,6,6,na,na
1st innings,19.2,Harbhajan Singh,AN Ahmed,HH Pandya,1,0,{'wides': 1},na
1st innings,19.3,Harbhajan Singh,AN Ahmed,HH Pandya,2,2,na,na
1st innings,19.4,Harbhajan Singh,AN Ahmed,HH Pandya,0,0,na,na
1st innings,19.5,Harbhajan Singh,AN Ahmed,HH Pandya,6,6,na,na
1st innings,19.6,Harbhajan Singh,AN Ahmed,HH Pandya,1,1,na,na
1st innings,19.7,HH Pandya,AN Ahmed,Harbhajan Singh,0,0,na,"{'fielders': ['MS Bisla', 'AN Ahmed'], 'kind': 'run out', 'player_out': 'Harbhajan Singh'}"
2nd innings,0.1,MS Bisla,MJ McClenaghan,CH Gayle,0,0,na,na
2nd innings,0.2,MS Bisla,MJ McClenaghan,CH Gayle,0,0,na,na
2nd innings,0.3,MS Bisla,MJ McClenaghan,CH Gayle,1,0,{'wides': 1},na
2nd innings,0.4,MS Bisla,MJ McClenaghan,CH Gayle,1,0,{'noballs': 1},na
2nd innings,0.5,MS Bisla,MJ McClenaghan,CH Gayle,0,0,na,na
2nd innings,0.6,MS Bisla,MJ McClenaghan,CH Gayle,1,0,{'wides': 1},na
2nd innings,0.7,MS Bisla,MJ McClenaghan,CH Gayle,0,0,na,na
2nd innings,0.8,MS Bisla,MJ McClenaghan,CH Gayle,1,1,na,na
2nd innings,0.9,CH Gayle,MJ McClenaghan,MS Bisla,0,0,na,na
2nd innings,1.1,MS Bisla,SL Malinga,CH Gayle,0,0,na,na
2nd innings,1.2,MS Bisla,SL Malinga,CH Gayle,0,0,na,na
2nd innings,1.3,MS Bisla,SL Malinga,CH Gayle,0,0,na,na
2nd innings,1.4,MS Bisla,SL Malinga,CH Gayle,0,0,na,na
2nd innings,1.5,MS Bisla,SL Malinga,CH Gayle,0,0,na,na
2nd innings,1.6,MS Bisla,SL Malinga,CH Gayle,0,0,na,na
2nd innings,2.1,CH Gayle,MJ McClenaghan,MS Bisla,4,4,na,na
2nd innings,2.2,CH Gayle,MJ McClenaghan,MS Bisla,0,0,na,na
2nd innings,2.3,CH Gayle,MJ McClenaghan,MS Bisla,4,4,na,na
2nd innings,2.4,CH Gayle,MJ McClenaghan,MS Bisla,0,0,na,na
2nd innings,2.5,CH Gayle,MJ McClenaghan,MS Bisla,0,0,na,na
2nd innings,2.6,CH Gayle,MJ McClenaghan,MS Bisla,0,0,na,na
2nd innings,3.1,MS Bisla,SL Malinga,CH Gayle,0,0,na,na
2nd innings,3.2,MS Bisla,SL Malinga,CH Gayle,1,1,na,na
2nd innings,3.3,CH Gayle,SL Malinga,MS Bisla,0,0,na,na
2nd innings,3.4,CH Gayle,SL Malinga,MS Bisla,1,1,na,na
2nd innings,3.5,MS Bisla,SL Malinga,CH Gayle,1,1,na,na
2nd innings,3.6,CH Gayle,SL Malinga,MS Bisla,1,1,na,na
2nd innings,4.1,CH Gayle,Harbhajan Singh,MS Bisla,4,4,na,na
2nd innings,4.2,CH Gayle,Harbhajan Singh,MS Bisla,0,0,na,na
2nd innings,4.3,CH Gayle,Harbhajan Singh,MS Bisla,0,0,na,na
2nd innings,4.4,CH Gayle,Harbhajan Singh,MS Bisla,6,6,na,na
2nd innings,4.5,CH Gayle,Harbhajan Singh,MS Bisla,0,0,na,na
2nd innings,4.6,CH Gayle,Harbhajan Singh,MS Bisla,0,0,na,"{'kind': 'bowled', 'player_out': 'MS Bisla'}"
2nd innings,5.1,V Kohli,JJ Bumrah,CH Gayle,1,0,{'wides': 1},na
2nd innings,5.2,V Kohli,JJ Bumrah,CH Gayle,1,0,{'wides': 1},na
2nd innings,5.3,V Kohli,JJ Bumrah,CH Gayle,1,0,{'wides': 1},na
2nd innings,5.4,V Kohli,JJ Bumrah,CH Gayle,1,0,{'wides': 1},na
2nd innings,5.5,V Kohli,JJ Bumrah,CH Gayle,2,2,na,na
2nd innings,5.6,V Kohli,JJ Bumrah,CH Gayle,0,0,na,na
2nd innings,5.7,V Kohli,JJ Bumrah,CH Gayle,1,1,na,na
2nd innings,5.8,CH Gayle,JJ Bumrah,V Kohli,0,0,na,na
2nd innings,5.9,CH Gayle,JJ Bumrah,V Kohli,0,0,na,na
2nd innings,5.1,CH Gayle,JJ Bumrah,V Kohli,0,0,na,na
2nd innings,6.1,V Kohli,Harbhajan Singh,CH Gayle,1,1,na,na
2nd innings,6.2,CH Gayle,Harbhajan Singh,V Kohli,0,0,na,na
2nd innings,6.3,CH Gayle,Harbhajan Singh,V Kohli,1,1,na,na
2nd innings,6.4,V Kohli,Harbhajan Singh,CH Gayle,0,0,na,na
2nd innings,6.5,V Kohli,Harbhajan Singh,CH Gayle,1,1,na,na
2nd innings,6.6,CH Gayle,Harbhajan Singh,V Kohli,1,1,na,na
2nd innings,7.1,CH Gayle,JJ Bumrah,V Kohli,1,1,na,na
2nd innings,7.2,V Kohli,JJ Bumrah,CH Gayle,1,0,{'wides': 1},na
2nd innings,7.3,V Kohli,JJ Bumrah,CH Gayle,1,1,na,na
2nd innings,7.4,CH Gayle,JJ Bumrah,V Kohli,4,4,na,na
2nd innings,7.5,CH Gayle,JJ Bumrah,V Kohli,1,1,na,na
2nd innings,7.6,V Kohli,JJ Bumrah,CH Gayle,1,1,na,na
2nd innings,7.7,CH Gayle,JJ Bumrah,V Kohli,2,2,na,na
2nd innings,8.1,V Kohli,Harbhajan Singh,CH Gayle,0,0,na,"{'kind': 'bowled', 'player_out': 'CH Gayle'}"
2nd innings,8.2,V Kohli,Harbhajan Singh,KD Karthik,1,1,na,na
2nd innings,8.3,KD Karthik,Harbhajan Singh,V Kohli,0,0,na,na
2nd innings,8.4,KD Karthik,Harbhajan Singh,V Kohli,0,0,na,na
2nd innings,8.5,KD Karthik,Harbhajan Singh,V Kohli,6,6,na,na
2nd innings,8.6,KD Karthik,Harbhajan Singh,V Kohli,1,1,na,na
2nd innings,9.1,KD Karthik,HH Pandya,V Kohli,0,0,na,na
2nd innings,9.2,KD Karthik,HH Pandya,V Kohli,1,1,na,na
2nd innings,9.3,V Kohli,HH Pandya,KD Karthik,0,0,na,na
2nd innings,9.4,V Kohli,HH Pandya,KD Karthik,2,2,na,na
2nd innings,9.5,V Kohli,HH Pandya,KD Karthik,0,0,na,na
2nd innings,9.6,V Kohli,HH Pandya,KD Karthik,1,1,na,na
2nd innings,10.1,V Kohli,MJ McClenaghan,KD Karthik,1,1,na,na
2nd innings,10.2,KD Karthik,MJ McClenaghan,V Kohli,0,0,na,na
2nd innings,10.3,KD Karthik,MJ McClenaghan,V Kohli,1,0,{'wides': 1},na
2nd innings,10.4,KD Karthik,MJ McClenaghan,V Kohli,0,0,na,"{'fielders': ['AT Rayudu'], 'kind': 'caught', 'player_out': 'V Kohli'}"
2nd innings,10.5,KD Karthik,MJ McClenaghan,AB de Villiers,4,4,na,na
2nd innings,10.6,KD Karthik,MJ McClenaghan,AB de Villiers,6,6,na,na
2nd innings,10.7,KD Karthik,MJ McClenaghan,AB de Villiers,4,4,na,na
2nd innings,11.1,AB de Villiers,HH Pandya,KD Karthik,1,1,na,na
2nd innings,11.2,KD Karthik,HH Pandya,AB de Villiers,4,4,na,na
2nd innings,11.3,KD Karthik,HH Pandya,AB de Villiers,1,1,na,na
2nd innings,11.4,AB de Villiers,HH Pandya,KD Karthik,2,2,na,na
2nd innings,11.5,AB de Villiers,HH Pandya,KD Karthik,4,4,na,na
2nd innings,11.6,AB de Villiers,HH Pandya,KD Karthik,1,0,{'wides': 1},na
2nd innings,11.7,AB de Villiers,HH Pandya,KD Karthik,6,6,na,na
2nd innings,12.1,KD Karthik,SL Malinga,AB de Villiers,2,0,{'wides': 2},na
2nd innings,12.2,AB de Villiers,SL Malinga,KD Karthik,0,0,na,"{'fielders': ['UBT Chand'], 'kind': 'caught', 'player_out': 'KD Karthik'}"
2nd innings,12.3,RR Rossouw,SL Malinga,AB de Villiers,6,6,na,na
2nd innings,12.4,RR Rossouw,SL Malinga,AB de Villiers,6,6,na,na
2nd innings,12.5,RR Rossouw,SL Malinga,AB de Villiers,2,2,na,na
2nd innings,12.6,RR Rossouw,SL Malinga,AB de Villiers,4,4,na,na
2nd innings,12.7,RR Rossouw,SL Malinga,AB de Villiers,4,4,na,na
2nd innings,13.1,AB de Villiers,Harbhajan Singh,RR Rossouw,0,0,na,"{'kind': 'bowled', 'player_out': 'RR Rossouw'}"
2nd innings,13.2,AB de Villiers,Harbhajan Singh,D Wiese,0,0,na,na
2nd innings,13.3,AB de Villiers,Harbhajan Singh,D Wiese,4,4,na,na
2nd innings,13.4,AB de Villiers,Harbhajan Singh,D Wiese,0,0,na,na
2nd innings,13.5,AB de Villiers,Harbhajan Singh,D Wiese,0,0,na,na
2nd innings,13.6,AB de Villiers,Harbhajan Singh,D Wiese,1,1,na,na
2nd innings,14.1,AB de Villiers,JJ Bumrah,D Wiese,1,1,na,na
2nd innings,14.2,D Wiese,JJ Bumrah,AB de Villiers,0,0,na,"{'fielders': ['KA Pollard'], 'kind': 'caught', 'player_out': 'AB de Villiers'}"
2nd innings,14.3,D Wiese,JJ Bumrah,Iqbal Abdulla,0,0,na,na
2nd innings,14.4,D Wiese,JJ Bumrah,Iqbal Abdulla,0,0,na,na
2nd innings,14.5,D Wiese,JJ Bumrah,Iqbal Abdulla,0,0,na,na
2nd innings,14.6,D Wiese,JJ Bumrah,Iqbal Abdulla,4,4,na,na
2nd innings,15.1,Iqbal Abdulla,HH Pandya,D Wiese,1,1,na,na
2nd innings,15.2,D Wiese,HH Pandya,Iqbal Abdulla,1,0,{'wides': 1},na
2nd innings,15.3,D Wiese,HH Pandya,Iqbal Abdulla,1,0,{'legbyes': 1},na
2nd innings,15.4,Iqbal Abdulla,HH Pandya,D Wiese,6,6,na,na
2nd innings,15.5,Iqbal Abdulla,HH Pandya,D Wiese,1,1,na,na
2nd innings,15.6,D Wiese,HH Pandya,Iqbal Abdulla,1,1,na,na
2nd innings,15.7,Iqbal Abdulla,HH Pandya,D Wiese,4,4,na,na
2nd innings,16.1,D Wiese,JJ Bumrah,Iqbal Abdulla,0,0,na,na
2nd innings,16.2,D Wiese,JJ Bumrah,Iqbal Abdulla,1,1,na,na
2nd innings,16.3,Iqbal Abdulla,JJ Bumrah,D Wiese,6,6,na,na
2nd innings,16.4,Iqbal Abdulla,JJ Bumrah,D Wiese,1,1,na,na
2nd innings,16.5,D Wiese,JJ Bumrah,Iqbal Abdulla,4,4,na,na
2nd innings,16.6,D Wiese,JJ Bumrah,Iqbal Abdulla,4,4,na,na
2nd innings,17.1,Iqbal Abdulla,MJ McClenaghan,D Wiese,4,4,na,na
2nd innings,17.2,Iqbal Abdulla,MJ McClenaghan,D Wiese,0,0,na,na
2nd innings,17.3,Iqbal Abdulla,MJ McClenaghan,D Wiese,4,4,na,na
2nd innings,17.4,Iqbal Abdulla,MJ McClenaghan,D Wiese,4,4,na,na
2nd innings,17.5,Iqbal Abdulla,MJ McClenaghan,D Wiese,1,1,na,na
2nd innings,17.6,D Wiese,MJ McClenaghan,Iqbal Abdulla,1,0,{'noballs': 1},na
2nd innings,17.7,D Wiese,MJ McClenaghan,Iqbal Abdulla,1,1,na,na
2nd innings,18.1,D Wiese,SL Malinga,Iqbal Abdulla,1,0,{'wides': 1},na
2nd innings,18.2,D Wiese,SL Malinga,Iqbal Abdulla,1,1,na,na
2nd innings,18.3,Iqbal Abdulla,SL Malinga,D Wiese,0,0,na,na
2nd innings,18.4,Iqbal Abdulla,SL Malinga,D Wiese,0,0,na,na
2nd innings,18.5,Iqbal Abdulla,SL Malinga,D Wiese,1,1,na,na
2nd innings,18.6,D Wiese,SL Malinga,Iqbal Abdulla,4,4,na,na
2nd innings,18.7,D Wiese,SL Malinga,Iqbal Abdulla,0,0,na,na
2nd innings,19.1,Iqbal Abdulla,KA Pollard,D Wiese,1,1,na,"{'fielders': ['RG Sharma', 'KA Pollard'], 'kind': 'run out', 'player_out': 'Iqbal Abdulla'}"
2nd innings,19.2,AN Ahmed,KA Pollard,D Wiese,0,0,na,na
2nd innings,19.3,AN Ahmed,KA Pollard,D Wiese,1,1,na,na
2nd innings,19.4,D Wiese,KA Pollard,AN Ahmed,1,1,na,na
2nd innings,19.5,AN Ahmed,KA Pollard,D Wiese,2,2,na,na
2nd innings,19.6,AN Ahmed,KA Pollard,D Wiese,4,4,na,na
