innings,deliveries,non_striker,bowler,batsman,total_runs,batsman_runs,extras,wickets
1st innings,0.1,G Gambhir,MA Starc,RV Uthappa,0,0,na,na
1st innings,0.2,G Gambhir,MA Starc,RV Uthappa,0,0,na,na
1st innings,0.3,G Gambhir,MA Starc,RV Uthappa,1,0,{'wides': 1},na
1st innings,0.4,G Gambhir,MA Starc,RV Uthappa,1,1,na,na
1st innings,0.5,RV Uthappa,MA Starc,G Gambhir,1,0,{'wides': 1},na
1st innings,0.6,RV Uthappa,MA Starc,G Gambhir,4,4,na,na
1st innings,0.7,RV Uthappa,MA Starc,G Gambhir,1,1,na,na
1st innings,0.8,G Gambhir,MA Starc,RV Uthappa,0,0,na,na
1st innings,1.1,RV Uthappa,VR Aaron,G Gambhir,1,1,na,na
1st innings,1.2,G Gambhir,VR Aaron,RV Uthappa,2,2,na,na
1st innings,1.3,G Gambhir,VR Aaron,RV Uthappa,0,0,na,na
1st innings,1.4,G Gambhir,VR Aaron,RV Uthappa,4,4,na,na
1st innings,1.5,G Gambhir,VR Aaron,RV Uthappa,4,4,na,na
1st innings,1.6,G Gambhir,VR Aaron,RV Uthappa,1,1,na,na
1st innings,2.1,G Gambhir,HV Patel,RV Uthappa,1,0,{'legbyes': 1},na
1st innings,2.2,RV Uthappa,HV Patel,G Gambhir,1,0,{'wides': 1},na
1st innings,2.3,RV Uthappa,HV Patel,G Gambhir,1,1,na,na
1st innings,2.4,G Gambhir,HV Patel,RV Uthappa,0,0,na,na
1st innings,2.5,G Gambhir,HV Patel,RV Uthappa,0,0,na,na
1st innings,2.6,G Gambhir,HV Patel,RV Uthappa,0,0,na,na
1st innings,2.7,G Gambhir,HV Patel,RV Uthappa,4,4,na,na
1st innings,3.1,RV Uthappa,D Wiese,G Gambhir,1,1,na,na
1st innings,3.2,G Gambhir,D Wiese,RV Uthappa,1,1,na,na
1st innings,3.3,RV Uthappa,D Wiese,G Gambhir,4,4,na,na
1st innings,3.4,RV Uthappa,D Wiese,G Gambhir,0,0,na,na
1st innings,3.5,RV Uthappa,D Wiese,G Gambhir,0,0,na,"{'fielders': ['Mandeep Singh'], 'kind': 'caught', 'player_out': 'G Gambhir'}"
1st innings,3.6,RV Uthappa,D Wiese,AD Russell,1,1,na,na
1st innings,4.1,RV Uthappa,YS Chahal,AD Russell,1,1,na,na
1st innings,4.2,AD Russell,YS Chahal,RV Uthappa,2,2,na,na
1st innings,4.3,AD Russell,YS Chahal,RV Uthappa,1,1,na,na
1st innings,4.4,RV Uthappa,YS Chahal,AD Russell,1,1,na,na
1st innings,4.5,AD Russell,YS Chahal,RV Uthappa,1,1,na,na
1st innings,4.6,RV Uthappa,YS Chahal,AD Russell,4,4,na,na
1st innings,5.1,AD Russell,VR Aaron,RV Uthappa,1,1,na,na
1st innings,5.2,RV Uthappa,VR Aaron,AD Russell,6,6,na,na
1st innings,5.3,RV Uthappa,VR Aaron,AD Russell,0,0,na,na
1st innings,5.4,RV Uthappa,VR Aaron,AD Russell,0,0,na,na
1st innings,5.5,RV Uthappa,VR Aaron,AD Russell,4,4,na,na
1st innings,5.6,RV Uthappa,VR Aaron,AD Russell,6,6,na,na
1st innings,6.1,AD Russell,YS Chahal,RV Uthappa,1,1,na,na
1st innings,6.2,RV Uthappa,YS Chahal,AD Russell,4,4,na,na
1st innings,6.3,RV Uthappa,YS Chahal,AD Russell,4,4,na,na
1st innings,6.4,RV Uthappa,YS Chahal,AD Russell,1,1,na,na
1st innings,6.5,AD Russell,YS Chahal,RV Uthappa,0,0,na,"{'fielders': ['KD Karthik'], 'kind': 'caught', 'player_out': 'RV Uthappa'}"
1st innings,6.6,RN ten Doeschate,YS Chahal,AD Russell,2,2,na,na
1st innings,7.1,AD Russell,D Wiese,RN ten Doeschate,1,1,na,na
1st innings,7.2,RN ten Doeschate,D Wiese,AD Russell,4,4,na,na
1st innings,7.3,RN ten Doeschate,D Wiese,AD Russell,1,1,na,na
1st innings,7.4,AD Russell,D Wiese,RN ten Doeschate,1,1,na,na
1st innings,7.5,RN ten Doeschate,D Wiese,AD Russell,0,0,na,na
1st innings,7.6,RN ten Doeschate,D Wiese,AD Russell,6,6,na,na
1st innings,8.1,AD Russell,HV Patel,RN ten Doeschate,6,6,na,na
1st innings,8.2,AD Russell,HV Patel,RN ten Doeschate,0,0,na,na
1st innings,8.3,AD Russell,HV Patel,RN ten Doeschate,4,4,na,na
1st innings,8.4,AD Russell,HV Patel,RN ten Doeschate,0,0,na,"{'fielders': ['KD Karthik'], 'kind': 'run out', 'player_out': 'AD Russell'}"
1st innings,8.5,RN ten Doeschate,HV Patel,YK Pathan,0,0,na,na
1st innings,8.6,RN ten Doeschate,HV Patel,YK Pathan,6,6,na,na
1st innings,9.1,YK Pathan,MA Starc,RN ten Doeschate,0,0,na,"{'fielders': ['AB de Villiers'], 'kind': 'caught', 'player_out': 'RN ten Doeschate'}"
1st innings,9.2,SA Yadav,MA Starc,YK Pathan,1,1,na,na
1st innings,9.3,YK Pathan,MA Starc,SA Yadav,1,0,{'legbyes': 1},na
1st innings,9.4,SA Yadav,MA Starc,YK Pathan,3,2,{'noballs': 1},na
1st innings,9.5,SA Yadav,MA Starc,YK Pathan,1,1,na,na
1st innings,9.6,YK Pathan,MA Starc,SA Yadav,1,0,{'legbyes': 1},na
1st innings,9.7,SA Yadav,MA Starc,YK Pathan,1,0,{'wides': 1},na
1st innings,9.8,SA Yadav,MA Starc,YK Pathan,1,1,na,na
2nd innings,0.1,V Kohli,PJ Cummins,CH Gayle,1,0,{'wides': 1},na
2nd innings,0.2,V Kohli,PJ Cummins,CH Gayle,1,0,{'wides': 1},na
2nd innings,0.3,V Kohli,PJ Cummins,CH Gayle,1,1,na,na
2nd innings,0.4,CH Gayle,PJ Cummins,V Kohli,0,0,na,na
2nd innings,0.5,CH Gayle,PJ Cummins,V Kohli,0,0,na,na
2nd innings,0.6,CH Gayle,PJ Cummins,V Kohli,0,0,na,na
2nd innings,0.7,CH Gayle,PJ Cummins,V Kohli,0,0,na,na
2nd innings,0.8,CH Gayle,PJ Cummins,V Kohli,1,1,na,na
2nd innings,1.1,CH Gayle,UT Yadav,V Kohli,6,6,na,na
2nd innings,1.2,CH Gayle,UT Yadav,V Kohli,4,4,na,na
2nd innings,1.3,CH Gayle,UT Yadav,V Kohli,0,0,na,na
2nd innings,1.4,CH Gayle,UT Yadav,V Kohli,0,0,na,na
2nd innings,1.5,CH Gayle,UT Yadav,V Kohli,1,1,na,na
2nd innings,1.6,V Kohli,UT Yadav,CH Gayle,1,0,{'wides': 1},na
2nd innings,1.7,V Kohli,UT Yadav,CH Gayle,6,6,na,na
2nd innings,2.1,CH Gayle,PJ Cummins,V Kohli,4,4,na,na
2nd innings,2.2,CH Gayle,PJ Cummins,V Kohli,1,1,na,na
2nd innings,2.3,V Kohli,PJ Cummins,CH Gayle,1,1,na,na
2nd innings,2.4,CH Gayle,PJ Cummins,V Kohli,6,6,na,na
2nd innings,2.5,CH Gayle,PJ Cummins,V Kohli,1,1,na,na
2nd innings,2.6,V Kohli,PJ Cummins,CH Gayle,1,1,na,na
2nd innings,3.1,V Kohli,GB Hogg,CH Gayle,6,6,na,na
2nd innings,3.2,V Kohli,GB Hogg,CH Gayle,0,0,na,na
2nd innings,3.3,V Kohli,GB Hogg,CH Gayle,6,6,na,na
2nd innings,3.4,V Kohli,GB Hogg,CH Gayle,0,0,na,na
2nd innings,3.5,V Kohli,GB Hogg,CH Gayle,0,0,na,"{'fielders': ['AD Russell'], 'kind': 'caught', 'player_out': 'CH Gayle'}"
2nd innings,3.6,V Kohli,GB Hogg,AB de Villiers,1,1,na,na
2nd innings,4.1,V Kohli,PP Chawla,AB de Villiers,0,0,na,na
2nd innings,4.2,V Kohli,PP Chawla,AB de Villiers,1,1,na,na
2nd innings,4.3,AB de Villiers,PP Chawla,V Kohli,1,1,na,na
2nd innings,4.4,V Kohli,PP Chawla,AB de Villiers,0,0,na,"{'kind': 'bowled', 'player_out': 'AB de Villiers'}"
2nd innings,4.5,V Kohli,PP Chawla,Mandeep Singh,0,0,na,na
2nd innings,4.6,V Kohli,PP Chawla,Mandeep Singh,1,1,na,na
2nd innings,5.1,V Kohli,GB Hogg,Mandeep Singh,1,1,na,na
2nd innings,5.2,Mandeep Singh,GB Hogg,V Kohli,1,1,na,na
2nd innings,5.3,V Kohli,GB Hogg,Mandeep Singh,1,1,na,na
2nd innings,5.4,Mandeep Singh,GB Hogg,V Kohli,1,1,na,na
2nd innings,5.5,V Kohli,GB Hogg,Mandeep Singh,0,0,na,na
2nd innings,5.6,V Kohli,GB Hogg,Mandeep Singh,6,6,na,na
2nd innings,6.1,Mandeep Singh,PP Chawla,V Kohli,1,1,na,na
2nd innings,6.2,V Kohli,PP Chawla,Mandeep Singh,4,4,na,na
2nd innings,6.3,V Kohli,PP Chawla,Mandeep Singh,2,2,na,na
2nd innings,6.4,V Kohli,PP Chawla,Mandeep Singh,4,4,na,na
2nd innings,6.5,V Kohli,PP Chawla,Mandeep Singh,1,1,na,na
2nd innings,6.6,Mandeep Singh,PP Chawla,V Kohli,6,6,na,na
2nd innings,7.1,V Kohli,AD Russell,Mandeep Singh,1,1,na,na
2nd innings,7.2,Mandeep Singh,AD Russell,V Kohli,0,0,na,"{'fielders': ['SA Yadav'], 'kind': 'caught', 'player_out': 'V Kohli'}"
2nd innings,7.3,Mandeep Singh,AD Russell,D Wiese,1,0,{'wides': 1},na
2nd innings,7.4,Mandeep Singh,AD Russell,D Wiese,1,1,na,na
2nd innings,7.5,D Wiese,AD Russell,Mandeep Singh,1,1,na,na
2nd innings,7.6,Mandeep Singh,AD Russell,D Wiese,2,2,na,na
2nd innings,7.7,Mandeep Singh,AD Russell,D Wiese,1,1,na,na
2nd innings,8.1,Mandeep Singh,UT Yadav,D Wiese,2,2,na,na
2nd innings,8.2,Mandeep Singh,UT Yadav,D Wiese,1,1,na,na
2nd innings,8.3,D Wiese,UT Yadav,Mandeep Singh,1,1,na,na
2nd innings,8.4,Mandeep Singh,UT Yadav,D Wiese,1,1,na,na
2nd innings,8.5,D Wiese,UT Yadav,Mandeep Singh,4,4,na,na
2nd innings,8.6,D Wiese,UT Yadav,Mandeep Singh,4,4,na,na
2nd innings,9.1,Mandeep Singh,AD Russell,D Wiese,1,1,na,na
2nd innings,9.2,D Wiese,AD Russell,Mandeep Singh,2,2,na,na
2nd innings,9.3,D Wiese,AD Russell,Mandeep Singh,6,6,na,na
2nd innings,9.4,D Wiese,AD Russell,Mandeep Singh,6,6,na,na
