innings,deliveries,non_striker,bowler,batsman,total_runs,batsman_runs,extras,wickets
1st innings,0.1,F du Plessis,P Kumar,AM Rahane,0,0,na,na
1st innings,0.2,F du Plessis,P Kumar,AM Rahane,4,4,na,na
1st innings,0.3,F du Plessis,P Kumar,AM Rahane,1,1,na,na
1st innings,0.4,AM Rahane,P Kumar,F du Plessis,0,0,na,na
1st innings,0.5,AM Rahane,P Kumar,F du Plessis,0,0,na,na
1st innings,0.6,AM Rahane,P Kumar,F du Plessis,0,0,na,na
1st innings,1.1,F du Plessis,SB Jakati,AM Rahane,0,0,na,na
1st innings,1.2,F du Plessis,SB Jakati,AM Rahane,1,1,na,na
1st innings,1.3,AM Rahane,SB Jakati,F du Plessis,1,1,na,na
1st innings,1.4,F du Plessis,SB Jakati,AM Rahane,4,4,na,na
1st innings,1.5,F du Plessis,SB Jakati,AM Rahane,4,4,na,na
1st innings,1.6,F du Plessis,SB Jakati,AM Rahane,1,1,na,na
1st innings,2.1,F du Plessis,P Kumar,AM Rahane,0,0,na,na
1st innings,2.2,F du Plessis,P Kumar,AM Rahane,0,0,na,na
1st innings,2.3,F du Plessis,P Kumar,AM Rahane,1,1,na,na
1st innings,2.4,AM Rahane,P Kumar,F du Plessis,4,4,na,na
1st innings,2.5,AM Rahane,P Kumar,F du Plessis,1,1,na,na
1st innings,2.6,F du Plessis,P Kumar,AM Rahane,1,1,na,na
1st innings,3.1,F du Plessis,PV Tambe,AM Rahane,0,0,na,na
1st innings,3.2,F du Plessis,PV Tambe,AM Rahane,0,0,na,na
1st innings,3.3,F du Plessis,PV Tambe,AM Rahane,4,4,na,na
1st innings,3.4,F du Plessis,PV Tambe,AM Rahane,0,0,na,na
1st innings,3.5,F du Plessis,PV Tambe,AM Rahane,0,0,na,"{'kind': 'lbw', 'player_out': 'AM Rahane'}"
1st innings,3.6,F du Plessis,PV Tambe,KP Pietersen,1,1,na,na
1st innings,4.1,F du Plessis,SB Jakati,KP Pietersen,1,1,na,na
1st innings,4.2,KP Pietersen,SB Jakati,F du Plessis,6,6,na,na
1st innings,4.3,KP Pietersen,SB Jakati,F du Plessis,1,0,{'byes': 1},na
1st innings,4.4,F du Plessis,SB Jakati,KP Pietersen,4,4,na,na
1st innings,4.5,F du Plessis,SB Jakati,KP Pietersen,1,1,na,na
1st innings,4.6,KP Pietersen,SB Jakati,F du Plessis,0,0,na,na
1st innings,5.1,F du Plessis,DJ Bravo,KP Pietersen,6,6,na,na
1st innings,5.2,F du Plessis,DJ Bravo,KP Pietersen,1,1,na,na
1st innings,5.3,KP Pietersen,DJ Bravo,F du Plessis,1,1,na,na
1st innings,5.4,F du Plessis,DJ Bravo,KP Pietersen,1,1,na,na
1st innings,5.5,KP Pietersen,DJ Bravo,F du Plessis,6,6,na,na
1st innings,5.6,KP Pietersen,DJ Bravo,F du Plessis,1,1,na,na
1st innings,6.1,KP Pietersen,RA Jadeja,F du Plessis,1,1,na,na
1st innings,6.2,F du Plessis,RA Jadeja,KP Pietersen,0,0,na,na
1st innings,6.3,F du Plessis,RA Jadeja,KP Pietersen,1,1,na,na
1st innings,6.4,KP Pietersen,RA Jadeja,F du Plessis,0,0,na,na
1st innings,6.5,KP Pietersen,RA Jadeja,F du Plessis,6,6,na,na
1st innings,6.6,KP Pietersen,RA Jadeja,F du Plessis,1,1,na,na
1st innings,7.1,KP Pietersen,PV Tambe,F du Plessis,1,1,na,na
1st innings,7.2,F du Plessis,PV Tambe,KP Pietersen,1,1,na,na
1st innings,7.3,KP Pietersen,PV Tambe,F du Plessis,1,1,na,na
1st innings,7.4,F du Plessis,PV Tambe,KP Pietersen,2,2,na,na
1st innings,7.5,F du Plessis,PV Tambe,KP Pietersen,1,1,na,na
1st innings,7.6,KP Pietersen,PV Tambe,F du Plessis,4,4,na,na
1st innings,8.1,F du Plessis,RA Jadeja,KP Pietersen,2,2,na,na
1st innings,8.2,F du Plessis,RA Jadeja,KP Pietersen,0,0,na,na
1st innings,8.3,F du Plessis,RA Jadeja,KP Pietersen,1,1,na,na
1st innings,8.4,KP Pietersen,RA Jadeja,F du Plessis,2,2,na,na
1st innings,8.5,KP Pietersen,RA Jadeja,F du Plessis,1,1,na,na
1st innings,8.6,F du Plessis,RA Jadeja,KP Pietersen,0,0,na,na
1st innings,9.1,KP Pietersen,PV Tambe,F du Plessis,0,0,na,na
1st innings,9.2,KP Pietersen,PV Tambe,F du Plessis,1,1,na,na
1st innings,9.3,F du Plessis,PV Tambe,KP Pietersen,1,1,na,na
1st innings,9.4,KP Pietersen,PV Tambe,F du Plessis,1,1,na,na
1st innings,9.5,F du Plessis,PV Tambe,KP Pietersen,0,0,na,na
1st innings,9.6,F du Plessis,PV Tambe,KP Pietersen,2,2,na,na
1st innings,10.1,KP Pietersen,SB Jakati,F du Plessis,0,0,na,na
1st innings,10.2,KP Pietersen,SB Jakati,F du Plessis,2,2,na,na
1st innings,10.3,KP Pietersen,SB Jakati,F du Plessis,1,1,na,na
1st innings,10.4,F du Plessis,SB Jakati,KP Pietersen,1,1,na,na
1st innings,10.5,KP Pietersen,SB Jakati,F du Plessis,1,1,na,na
1st innings,10.6,F du Plessis,SB Jakati,KP Pietersen,1,1,na,na
1st innings,11.1,F du Plessis,JP Faulkner,KP Pietersen,4,4,na,na
1st innings,11.2,F du Plessis,JP Faulkner,KP Pietersen,0,0,na,na
1st innings,11.3,F du Plessis,JP Faulkner,KP Pietersen,1,1,na,na
1st innings,11.4,KP Pietersen,JP Faulkner,F du Plessis,1,1,na,na
1st innings,11.5,F du Plessis,JP Faulkner,KP Pietersen,1,1,na,na
1st innings,11.6,KP Pietersen,JP Faulkner,F du Plessis,0,0,na,na
1st innings,12.1,F du Plessis,SB Jakati,KP Pietersen,1,1,na,na
1st innings,12.2,KP Pietersen,SB Jakati,F du Plessis,4,4,na,na
1st innings,12.3,KP Pietersen,SB Jakati,F du Plessis,1,1,na,na
1st innings,12.4,F du Plessis,SB Jakati,KP Pietersen,0,0,na,na
1st innings,12.5,F du Plessis,SB Jakati,KP Pietersen,1,1,na,na
1st innings,12.6,KP Pietersen,SB Jakati,F du Plessis,4,4,na,na
1st innings,13.1,F du Plessis,DJ Bravo,KP Pietersen,1,1,na,na
1st innings,13.2,KP Pietersen,DJ Bravo,F du Plessis,0,0,na,na
1st innings,13.3,KP Pietersen,DJ Bravo,F du Plessis,0,0,na,na
1st innings,13.4,KP Pietersen,DJ Bravo,F du Plessis,1,1,na,na
1st innings,13.5,F du Plessis,DJ Bravo,KP Pietersen,0,0,na,na
1st innings,13.6,F du Plessis,DJ Bravo,KP Pietersen,0,0,na,"{'kind': 'bowled', 'player_out': 'KP Pietersen'}"
1st innings,14.1,SPD Smith,JP Faulkner,F du Plessis,0,0,na,na
1st innings,14.2,SPD Smith,JP Faulkner,F du Plessis,1,1,na,na
1st innings,14.3,F du Plessis,JP Faulkner,SPD Smith,2,2,na,na
1st innings,14.4,F du Plessis,JP Faulkner,SPD Smith,1,1,na,na
1st innings,14.5,SPD Smith,JP Faulkner,F du Plessis,2,2,na,na
1st innings,14.6,SPD Smith,JP Faulkner,F du Plessis,2,2,na,na
1st innings,15.1,F du Plessis,PV Tambe,SPD Smith,1,1,na,na
1st innings,15.2,SPD Smith,PV Tambe,F du Plessis,4,4,na,na
1st innings,15.3,SPD Smith,PV Tambe,F du Plessis,6,6,na,na
1st innings,15.4,SPD Smith,PV Tambe,F du Plessis,0,0,na,"{'fielders': ['KD Karthik'], 'kind': 'stumped', 'player_out': 'F du Plessis'}"
1st innings,15.5,SPD Smith,PV Tambe,MS Dhoni,1,1,na,na
1st innings,15.6,MS Dhoni,PV Tambe,SPD Smith,1,1,na,na
1st innings,16.1,MS Dhoni,RA Jadeja,SPD Smith,0,0,na,na
1st innings,16.2,MS Dhoni,RA Jadeja,SPD Smith,0,0,na,"{'fielders': ['JP Faulkner'], 'kind': 'caught', 'player_out': 'SPD Smith'}"
1st innings,16.3,MR Marsh,RA Jadeja,MS Dhoni,1,0,{'legbyes': 1},na
1st innings,16.4,MS Dhoni,RA Jadeja,MR Marsh,0,0,na,na
1st innings,16.5,MS Dhoni,RA Jadeja,MR Marsh,1,1,na,na
1st innings,16.6,MR Marsh,RA Jadeja,MS Dhoni,0,0,na,na
1st innings,17.1,MS Dhoni,DJ Bravo,MR Marsh,0,0,na,na
1st innings,17.2,MS Dhoni,DJ Bravo,MR Marsh,0,0,na,na
1st innings,17.3,MS Dhoni,DJ Bravo,MR Marsh,1,1,na,na
1st innings,17.4,MR Marsh,DJ Bravo,MS Dhoni,1,1,na,na
1st innings,17.5,MS Dhoni,DJ Bravo,MR Marsh,2,2,na,na
1st innings,17.6,MS Dhoni,DJ Bravo,MR Marsh,1,1,na,na
1st innings,18.1,MS Dhoni,RA Jadeja,MR Marsh,0,0,na,na
1st innings,18.2,MS Dhoni,RA Jadeja,MR Marsh,2,2,na,na
1st innings,18.3,MS Dhoni,RA Jadeja,MR Marsh,0,0,na,na
1st innings,18.4,MS Dhoni,RA Jadeja,MR Marsh,0,0,na,"{'kind': 'bowled', 'player_out': 'MR Marsh'}"
1st innings,18.5,MS Dhoni,RA Jadeja,R Bhatia,0,0,na,na
1st innings,18.6,MS Dhoni,RA Jadeja,R Bhatia,0,0,na,na
1st innings,19.1,R Bhatia,DJ Bravo,MS Dhoni,4,4,na,na
1st innings,19.2,R Bhatia,DJ Bravo,MS Dhoni,2,2,na,na
1st innings,19.3,R Bhatia,DJ Bravo,MS Dhoni,2,2,na,na
1st innings,19.4,R Bhatia,DJ Bravo,MS Dhoni,6,6,na,na
1st innings,19.5,R Bhatia,DJ Bravo,MS Dhoni,2,2,na,na
1st innings,19.6,R Bhatia,DJ Bravo,MS Dhoni,4,4,na,na
2nd innings,0.1,BB McCullum,RP Singh,AJ Finch,0,0,na,na
2nd innings,0.2,BB McCullum,RP Singh,AJ Finch,0,0,na,na
2nd innings,0.3,BB McCullum,RP Singh,AJ Finch,1,0,{'legbyes': 1},na
2nd innings,0.4,AJ Finch,RP Singh,BB McCullum,4,4,na,na
2nd innings,0.5,AJ Finch,RP Singh,BB McCullum,1,1,na,na
2nd innings,0.6,BB McCullum,RP Singh,AJ Finch,1,1,na,na
2nd innings,1.1,BB McCullum,I Sharma,AJ Finch,4,4,na,na
2nd innings,1.2,BB McCullum,I Sharma,AJ Finch,0,0,na,na
2nd innings,1.3,BB McCullum,I Sharma,AJ Finch,0,0,na,na
2nd innings,1.4,BB McCullum,I Sharma,AJ Finch,1,1,na,na
2nd innings,1.5,AJ Finch,I Sharma,BB McCullum,1,0,{'legbyes': 1},na
2nd innings,1.6,BB McCullum,I Sharma,AJ Finch,0,0,na,na
2nd innings,2.1,AJ Finch,RP Singh,BB McCullum,0,0,na,na
2nd innings,2.2,AJ Finch,RP Singh,BB McCullum,6,6,na,na
2nd innings,2.3,AJ Finch,RP Singh,BB McCullum,0,0,na,na
2nd innings,2.4,AJ Finch,RP Singh,BB McCullum,6,6,na,na
2nd innings,2.5,AJ Finch,RP Singh,BB McCullum,1,1,na,na
2nd innings,2.6,BB McCullum,RP Singh,AJ Finch,1,1,na,na
2nd innings,3.1,BB McCullum,I Sharma,AJ Finch,4,4,na,na
2nd innings,3.2,BB McCullum,I Sharma,AJ Finch,1,1,na,na
2nd innings,3.3,AJ Finch,I Sharma,BB McCullum,1,1,na,na
2nd innings,3.4,BB McCullum,I Sharma,AJ Finch,4,4,na,na
2nd innings,3.5,BB McCullum,I Sharma,AJ Finch,0,0,na,na
2nd innings,3.6,BB McCullum,I Sharma,AJ Finch,1,1,na,na
2nd innings,4.1,BB McCullum,R Ashwin,AJ Finch,1,1,na,na
2nd innings,4.2,AJ Finch,R Ashwin,BB McCullum,3,3,na,na
2nd innings,4.3,BB McCullum,R Ashwin,AJ Finch,0,0,na,na
2nd innings,4.4,BB McCullum,R Ashwin,AJ Finch,0,0,na,na
2nd innings,4.5,BB McCullum,R Ashwin,AJ Finch,0,0,na,na
2nd innings,4.6,BB McCullum,R Ashwin,AJ Finch,0,0,na,na
2nd innings,5.1,AJ Finch,M Ashwin,BB McCullum,1,0,{'legbyes': 1},na
2nd innings,5.2,BB McCullum,M Ashwin,AJ Finch,4,4,na,na
2nd innings,5.3,BB McCullum,M Ashwin,AJ Finch,4,4,na,na
2nd innings,5.4,BB McCullum,M Ashwin,AJ Finch,3,0,{'wides': 3},na
2nd innings,5.5,BB McCullum,M Ashwin,AJ Finch,4,4,na,na
2nd innings,5.6,BB McCullum,M Ashwin,AJ Finch,0,0,na,na
2nd innings,5.7,BB McCullum,M Ashwin,AJ Finch,4,4,na,na
2nd innings,6.1,AJ Finch,R Bhatia,BB McCullum,1,1,na,na
2nd innings,6.2,BB McCullum,R Bhatia,AJ Finch,0,0,na,na
2nd innings,6.3,BB McCullum,R Bhatia,AJ Finch,6,6,na,na
2nd innings,6.4,BB McCullum,R Bhatia,AJ Finch,0,0,na,na
2nd innings,6.5,BB McCullum,R Bhatia,AJ Finch,0,0,na,na
2nd innings,6.6,BB McCullum,R Bhatia,AJ Finch,6,6,na,na
2nd innings,7.1,AJ Finch,MR Marsh,BB McCullum,1,1,na,na
2nd innings,7.2,BB McCullum,MR Marsh,AJ Finch,2,2,na,na
2nd innings,7.3,BB McCullum,MR Marsh,AJ Finch,1,1,na,na
2nd innings,7.4,AJ Finch,MR Marsh,BB McCullum,4,4,na,na
2nd innings,7.5,AJ Finch,MR Marsh,BB McCullum,1,1,na,na
2nd innings,7.6,BB McCullum,MR Marsh,AJ Finch,1,1,na,na
2nd innings,8.1,BB McCullum,M Ashwin,AJ Finch,0,0,na,na
2nd innings,8.2,BB McCullum,M Ashwin,AJ Finch,0,0,na,na
2nd innings,8.3,BB McCullum,M Ashwin,AJ Finch,0,0,na,"{'fielders': ['I Sharma'], 'kind': 'caught', 'player_out': 'AJ Finch'}"
2nd innings,8.4,BB McCullum,M Ashwin,SK Raina,1,1,na,na
2nd innings,8.5,SK Raina,M Ashwin,BB McCullum,1,1,na,na
2nd innings,8.6,BB McCullum,M Ashwin,SK Raina,0,0,na,na
2nd innings,9.1,SK Raina,R Ashwin,BB McCullum,0,0,na,na
2nd innings,9.2,SK Raina,R Ashwin,BB McCullum,1,1,na,na
2nd innings,9.3,BB McCullum,R Ashwin,SK Raina,2,2,na,na
2nd innings,9.4,BB McCullum,R Ashwin,SK Raina,2,0,{'wides': 2},na
2nd innings,9.5,SK Raina,R Ashwin,BB McCullum,1,1,na,na
2nd innings,9.6,BB McCullum,R Ashwin,SK Raina,0,0,na,na
2nd innings,9.7,BB McCullum,R Ashwin,SK Raina,0,0,na,na
2nd innings,10.1,SK Raina,M Ashwin,BB McCullum,1,1,na,na
2nd innings,10.2,BB McCullum,M Ashwin,SK Raina,2,2,na,na
2nd innings,10.3,BB McCullum,M Ashwin,SK Raina,1,1,na,na
2nd innings,10.4,SK Raina,M Ashwin,BB McCullum,1,1,na,na
2nd innings,10.5,BB McCullum,M Ashwin,SK Raina,1,1,na,na
2nd innings,10.6,SK Raina,M Ashwin,BB McCullum,2,0,{'byes': 2},na
2nd innings,11.1,BB McCullum,R Ashwin,SK Raina,1,1,na,na
2nd innings,11.2,SK Raina,R Ashwin,BB McCullum,2,2,na,na
2nd innings,11.3,SK Raina,R Ashwin,BB McCullum,0,0,na,na
2nd innings,11.4,SK Raina,R Ashwin,BB McCullum,4,4,na,na
2nd innings,11.5,SK Raina,R Ashwin,BB McCullum,6,6,na,na
2nd innings,11.6,SK Raina,R Ashwin,BB McCullum,0,0,na,na
2nd innings,12.1,BB McCullum,R Bhatia,SK Raina,1,1,na,na
2nd innings,12.2,SK Raina,R Bhatia,BB McCullum,1,1,na,na
2nd innings,12.3,BB McCullum,R Bhatia,SK Raina,1,1,na,na
2nd innings,12.4,SK Raina,R Bhatia,BB McCullum,1,1,na,na
2nd innings,12.5,BB McCullum,R Bhatia,SK Raina,1,1,na,na
2nd innings,12.6,SK Raina,R Bhatia,BB McCullum,1,1,na,na
2nd innings,13.1,SK Raina,I Sharma,BB McCullum,0,0,na,"{'fielders': ['F du Plessis'], 'kind': 'caught', 'player_out': 'BB McCullum'}"
2nd innings,13.2,DJ Bravo,I Sharma,SK Raina,2,2,na,na
2nd innings,13.3,DJ Bravo,I Sharma,SK Raina,1,1,na,na
2nd innings,13.4,SK Raina,I Sharma,DJ Bravo,1,0,{'legbyes': 1},na
2nd innings,13.5,DJ Bravo,I Sharma,SK Raina,4,4,na,na
2nd innings,13.6,DJ Bravo,I Sharma,SK Raina,1,1,na,na
2nd innings,14.1,DJ Bravo,R Ashwin,SK Raina,0,0,na,na
2nd innings,14.2,DJ Bravo,R Ashwin,SK Raina,0,0,na,na
2nd innings,14.3,DJ Bravo,R Ashwin,SK Raina,0,0,na,na
2nd innings,14.4,DJ Bravo,R Ashwin,SK Raina,2,2,na,na
2nd innings,14.5,DJ Bravo,R Ashwin,SK Raina,1,1,na,na
2nd innings,14.6,SK Raina,R Ashwin,DJ Bravo,0,0,na,na
2nd innings,15.1,DJ Bravo,I Sharma,SK Raina,1,1,na,na
2nd innings,15.2,SK Raina,I Sharma,DJ Bravo,4,4,na,na
2nd innings,15.3,SK Raina,I Sharma,DJ Bravo,4,4,na,na
2nd innings,15.4,SK Raina,I Sharma,DJ Bravo,4,4,na,na
2nd innings,15.5,SK Raina,I Sharma,DJ Bravo,1,1,na,na
2nd innings,15.6,DJ Bravo,I Sharma,SK Raina,1,1,na,na
2nd innings,16.1,DJ Bravo,M Ashwin,SK Raina,0,0,na,"{'fielders': ['MS Dhoni'], 'kind': 'stumped', 'player_out': 'SK Raina'}"
2nd innings,16.2,DJ Bravo,M Ashwin,RA Jadeja,0,0,na,na
2nd innings,16.3,DJ Bravo,M Ashwin,RA Jadeja,1,0,{'wides': 1},na
2nd innings,16.4,DJ Bravo,M Ashwin,RA Jadeja,1,1,na,na
2nd innings,16.5,RA Jadeja,M Ashwin,DJ Bravo,1,1,na,na
2nd innings,16.6,DJ Bravo,M Ashwin,RA Jadeja,0,0,na,na
2nd innings,16.7,DJ Bravo,M Ashwin,RA Jadeja,1,1,na,na
2nd innings,17.1,DJ Bravo,R Bhatia,RA Jadeja,0,0,na,na
2nd innings,17.2,DJ Bravo,R Bhatia,RA Jadeja,1,1,na,na
2nd innings,17.3,RA Jadeja,R Bhatia,DJ Bravo,1,0,{'legbyes': 1},na
2nd innings,17.4,DJ Bravo,R Bhatia,RA Jadeja,0,0,na,na
2nd innings,17.5,DJ Bravo,R Bhatia,RA Jadeja,2,1,{'noballs': 1},na
2nd innings,17.6,RA Jadeja,R Bhatia,DJ Bravo,2,2,na,na
2nd innings,17.7,RA Jadeja,R Bhatia,DJ Bravo,6,6,na,na
2nd innings,18.1,DJ Bravo,RP Singh,RA Jadeja,1,0,{'wides': 1},na
