innings,deliveries,non_striker,bowler,batsman,total_runs,batsman_runs,extras,wickets
1st innings,0.1,SS Tiwary,P Kumar,AM Rahane,0,0,na,na
1st innings,0.2,SS Tiwary,P Kumar,AM Rahane,4,4,na,na
1st innings,0.3,SS Tiwary,P Kumar,AM Rahane,0,0,na,na
1st innings,0.4,SS Tiwary,P Kumar,AM Rahane,0,0,na,na
1st innings,0.5,SS Tiwary,P Kumar,AM Rahane,1,1,na,na
1st innings,0.6,AM Rahane,P Kumar,SS Tiwary,0,0,na,na
1st innings,1.1,SS Tiwary,DS Kulkarni,AM Rahane,0,0,na,na
1st innings,1.2,SS Tiwary,DS Kulkarni,AM Rahane,1,0,{'wides': 1},na
1st innings,1.3,SS Tiwary,DS Kulkarni,AM Rahane,4,4,na,na
1st innings,1.4,SS Tiwary,DS Kulkarni,AM Rahane,0,0,na,na
1st innings,1.5,SS Tiwary,DS Kulkarni,AM Rahane,1,1,na,na
1st innings,1.6,AM Rahane,DS Kulkarni,SS Tiwary,1,1,na,na
1st innings,1.7,SS Tiwary,DS Kulkarni,AM Rahane,1,1,na,na
1st innings,2.1,SS Tiwary,P Kumar,AM Rahane,0,0,na,na
1st innings,2.2,SS Tiwary,P Kumar,AM Rahane,0,0,na,na
1st innings,2.3,SS Tiwary,P Kumar,AM Rahane,0,0,na,"{'fielders': ['SK Raina'], 'kind': 'run out', 'player_out': 'SS Tiwary'}"
1st innings,2.4,AM Rahane,P Kumar,SPD Smith,4,4,na,na
1st innings,2.5,AM Rahane,P Kumar,SPD Smith,0,0,na,na
1st innings,2.6,AM Rahane,P Kumar,SPD Smith,1,1,na,na
1st innings,3.1,AM Rahane,DS Kulkarni,SPD Smith,1,1,na,na
1st innings,3.2,SPD Smith,DS Kulkarni,AM Rahane,0,0,na,na
1st innings,3.3,SPD Smith,DS Kulkarni,AM Rahane,1,1,na,na
1st innings,3.4,AM Rahane,DS Kulkarni,SPD Smith,1,1,na,na
1st innings,3.5,SPD Smith,DS Kulkarni,AM Rahane,0,0,na,na
1st innings,3.6,SPD Smith,DS Kulkarni,AM Rahane,1,1,na,na
1st innings,4.1,SPD Smith,P Kumar,AM Rahane,1,1,na,na
1st innings,4.2,AM Rahane,P Kumar,SPD Smith,4,4,na,na
1st innings,4.3,AM Rahane,P Kumar,SPD Smith,4,4,na,na
1st innings,4.4,AM Rahane,P Kumar,SPD Smith,2,2,na,na
1st innings,4.5,AM Rahane,P Kumar,SPD Smith,1,1,na,na
1st innings,4.6,SPD Smith,P Kumar,AM Rahane,1,1,na,na
1st innings,5.1,SPD Smith,DS Kulkarni,AM Rahane,4,4,na,na
1st innings,5.2,SPD Smith,DS Kulkarni,AM Rahane,1,1,na,na
1st innings,5.3,AM Rahane,DS Kulkarni,SPD Smith,1,1,na,na
1st innings,5.4,SPD Smith,DS Kulkarni,AM Rahane,2,2,na,na
1st innings,5.5,SPD Smith,DS Kulkarni,AM Rahane,1,1,na,na
1st innings,5.6,AM Rahane,DS Kulkarni,SPD Smith,4,4,na,na
1st innings,6.1,SPD Smith,RA Jadeja,AM Rahane,1,1,na,na
1st innings,6.2,AM Rahane,RA Jadeja,SPD Smith,1,1,na,na
1st innings,6.3,SPD Smith,RA Jadeja,AM Rahane,2,0,{'legbyes': 2},na
1st innings,6.4,SPD Smith,RA Jadeja,AM Rahane,1,1,na,na
1st innings,6.5,AM Rahane,RA Jadeja,SPD Smith,0,0,na,na
1st innings,6.6,AM Rahane,RA Jadeja,SPD Smith,2,2,na,na
1st innings,7.1,SPD Smith,S Kaushik,AM Rahane,0,0,na,na
1st innings,7.2,SPD Smith,S Kaushik,AM Rahane,1,1,na,na
1st innings,7.3,AM Rahane,S Kaushik,SPD Smith,4,4,na,na
1st innings,7.4,AM Rahane,S Kaushik,SPD Smith,2,2,na,na
1st innings,7.5,AM Rahane,S Kaushik,SPD Smith,0,0,na,na
1st innings,7.6,AM Rahane,S Kaushik,SPD Smith,1,1,na,na
1st innings,8.1,AM Rahane,RA Jadeja,SPD Smith,2,2,na,na
1st innings,8.2,AM Rahane,RA Jadeja,SPD Smith,1,1,na,na
1st innings,8.3,SPD Smith,RA Jadeja,AM Rahane,1,1,na,na
1st innings,8.4,AM Rahane,RA Jadeja,SPD Smith,1,1,na,na
1st innings,8.5,SPD Smith,RA Jadeja,AM Rahane,1,1,na,na
1st innings,8.6,AM Rahane,RA Jadeja,SPD Smith,1,1,na,na
1st innings,9.1,AM Rahane,S Kaushik,SPD Smith,2,2,na,na
1st innings,9.2,AM Rahane,S Kaushik,SPD Smith,1,1,na,na
1st innings,9.3,SPD Smith,S Kaushik,AM Rahane,4,4,na,na
1st innings,9.4,SPD Smith,S Kaushik,AM Rahane,0,0,na,na
1st innings,9.5,SPD Smith,S Kaushik,AM Rahane,1,1,na,na
1st innings,9.6,AM Rahane,S Kaushik,SPD Smith,1,0,{'noballs': 1},na
1st innings,9.7,AM Rahane,S Kaushik,SPD Smith,6,6,na,na
1st innings,10.1,SPD Smith,JP Faulkner,AM Rahane,2,2,na,na
1st innings,10.2,SPD Smith,JP Faulkner,AM Rahane,1,1,na,na
1st innings,10.3,AM Rahane,JP Faulkner,SPD Smith,1,1,na,na
1st innings,10.4,SPD Smith,JP Faulkner,AM Rahane,2,2,na,na
1st innings,10.5,SPD Smith,JP Faulkner,AM Rahane,1,1,na,na
1st innings,10.6,AM Rahane,JP Faulkner,SPD Smith,1,1,na,na
1st innings,11.1,AM Rahane,DJ Bravo,SPD Smith,1,1,na,na
1st innings,11.2,SPD Smith,DJ Bravo,AM Rahane,2,2,na,na
1st innings,11.3,SPD Smith,DJ Bravo,AM Rahane,2,2,na,na
1st innings,11.4,SPD Smith,DJ Bravo,AM Rahane,4,4,na,na
1st innings,11.5,SPD Smith,DJ Bravo,AM Rahane,1,1,na,na
1st innings,11.6,AM Rahane,DJ Bravo,SPD Smith,1,1,na,na
1st innings,12.1,AM Rahane,JP Faulkner,SPD Smith,1,1,na,na
1st innings,12.2,SPD Smith,JP Faulkner,AM Rahane,1,1,na,na
1st innings,12.3,AM Rahane,JP Faulkner,SPD Smith,6,6,na,na
1st innings,12.4,AM Rahane,JP Faulkner,SPD Smith,4,4,na,na
1st innings,12.5,AM Rahane,JP Faulkner,SPD Smith,1,1,na,na
1st innings,12.6,SPD Smith,JP Faulkner,AM Rahane,1,1,na,na
1st innings,13.1,SPD Smith,DJ Bravo,AM Rahane,2,2,na,na
1st innings,13.2,SPD Smith,DJ Bravo,AM Rahane,1,0,{'wides': 1},na
1st innings,13.3,SPD Smith,DJ Bravo,AM Rahane,1,1,na,na
1st innings,13.4,AM Rahane,DJ Bravo,SPD Smith,2,2,na,na
1st innings,13.5,AM Rahane,DJ Bravo,SPD Smith,0,0,na,"{'fielders': ['DJ Bravo'], 'kind': 'run out', 'player_out': 'AM Rahane'}"
1st innings,13.6,MS Dhoni,DJ Bravo,SPD Smith,1,1,na,na
1st innings,13.7,SPD Smith,DJ Bravo,MS Dhoni,1,1,na,na
1st innings,14.1,SPD Smith,RA Jadeja,MS Dhoni,2,2,na,na
1st innings,14.2,SPD Smith,RA Jadeja,MS Dhoni,1,1,na,na
1st innings,14.3,MS Dhoni,RA Jadeja,SPD Smith,6,6,na,na
1st innings,14.4,MS Dhoni,RA Jadeja,SPD Smith,0,0,na,na
1st innings,14.5,MS Dhoni,RA Jadeja,SPD Smith,0,0,na,na
1st innings,14.6,MS Dhoni,RA Jadeja,SPD Smith,0,0,na,na
1st innings,15.1,SPD Smith,S Kaushik,MS Dhoni,0,0,na,na
1st innings,15.2,SPD Smith,S Kaushik,MS Dhoni,1,1,na,na
1st innings,15.3,MS Dhoni,S Kaushik,SPD Smith,1,1,na,na
1st innings,15.4,SPD Smith,S Kaushik,MS Dhoni,1,1,na,na
1st innings,15.5,MS Dhoni,S Kaushik,SPD Smith,0,0,na,na
1st innings,15.6,MS Dhoni,S Kaushik,SPD Smith,6,6,na,na
1st innings,16.1,SPD Smith,RA Jadeja,MS Dhoni,1,0,{'wides': 1},na
1st innings,16.2,SPD Smith,RA Jadeja,MS Dhoni,1,1,na,na
1st innings,16.3,MS Dhoni,RA Jadeja,SPD Smith,1,1,na,na
1st innings,16.4,SPD Smith,RA Jadeja,MS Dhoni,6,6,na,na
1st innings,16.5,SPD Smith,RA Jadeja,MS Dhoni,6,6,na,na
1st innings,16.6,SPD Smith,RA Jadeja,MS Dhoni,1,0,{'wides': 1},na
1st innings,16.7,SPD Smith,RA Jadeja,MS Dhoni,0,0,na,na
1st innings,16.8,SPD Smith,RA Jadeja,MS Dhoni,0,0,na,na
1st innings,17.1,MS Dhoni,DJ Bravo,SPD Smith,1,1,na,na
1st innings,17.2,SPD Smith,DJ Bravo,MS Dhoni,1,1,na,na
1st innings,17.3,MS Dhoni,DJ Bravo,SPD Smith,6,6,na,na
1st innings,17.4,MS Dhoni,DJ Bravo,SPD Smith,1,1,na,na
1st innings,17.5,SPD Smith,DJ Bravo,MS Dhoni,0,0,na,na
1st innings,17.6,SPD Smith,DJ Bravo,MS Dhoni,0,0,na,na
1st innings,18.1,MS Dhoni,P Kumar,SPD Smith,1,1,na,na
1st innings,18.2,SPD Smith,P Kumar,MS Dhoni,4,4,na,na
1st innings,18.3,SPD Smith,P Kumar,MS Dhoni,1,1,na,na
1st innings,18.4,MS Dhoni,P Kumar,SPD Smith,2,2,na,na
1st innings,18.5,MS Dhoni,P Kumar,SPD Smith,2,2,na,na
1st innings,18.6,MS Dhoni,P Kumar,SPD Smith,4,4,na,na
1st innings,19.1,SPD Smith,DJ Bravo,MS Dhoni,1,1,na,na
1st innings,19.2,MS Dhoni,DJ Bravo,SPD Smith,4,4,na,na
1st innings,19.3,MS Dhoni,DJ Bravo,SPD Smith,0,0,na,"{'kind': 'bowled', 'player_out': 'SPD Smith'}"
1st innings,19.4,MS Dhoni,DJ Bravo,NLTC Perera,2,2,na,na
1st innings,19.5,MS Dhoni,DJ Bravo,NLTC Perera,1,1,na,na
1st innings,19.6,NLTC Perera,DJ Bravo,MS Dhoni,4,4,na,na
2nd innings,0.1,BB McCullum,JA Morkel,DR Smith,0,0,na,na
2nd innings,0.2,BB McCullum,JA Morkel,DR Smith,0,0,na,na
2nd innings,0.3,BB McCullum,JA Morkel,DR Smith,2,2,na,na
2nd innings,0.4,BB McCullum,JA Morkel,DR Smith,0,0,na,na
2nd innings,0.5,BB McCullum,JA Morkel,DR Smith,0,0,na,na
2nd innings,0.6,BB McCullum,JA Morkel,DR Smith,4,4,na,na
2nd innings,1.1,DR Smith,AB Dinda,BB McCullum,0,0,na,na
2nd innings,1.2,DR Smith,AB Dinda,BB McCullum,1,1,na,na
2nd innings,1.3,BB McCullum,AB Dinda,DR Smith,1,1,na,na
2nd innings,1.4,DR Smith,AB Dinda,BB McCullum,0,0,na,na
2nd innings,1.5,DR Smith,AB Dinda,BB McCullum,1,1,na,na
2nd innings,1.6,BB McCullum,AB Dinda,DR Smith,0,0,na,na
2nd innings,2.1,DR Smith,JA Morkel,BB McCullum,2,2,na,na
2nd innings,2.2,DR Smith,JA Morkel,BB McCullum,4,4,na,na
2nd innings,2.3,DR Smith,JA Morkel,BB McCullum,1,0,{'wides': 1},na
2nd innings,2.4,DR Smith,JA Morkel,BB McCullum,4,4,na,na
2nd innings,2.5,DR Smith,JA Morkel,BB McCullum,1,0,{'wides': 1},na
2nd innings,2.6,DR Smith,JA Morkel,BB McCullum,6,6,na,na
2nd innings,2.7,DR Smith,JA Morkel,BB McCullum,2,2,na,na
2nd innings,2.8,DR Smith,JA Morkel,BB McCullum,4,4,na,na
2nd innings,3.1,BB McCullum,AB Dinda,DR Smith,2,2,na,na
2nd innings,3.2,BB McCullum,AB Dinda,DR Smith,4,4,na,na
2nd innings,3.3,BB McCullum,AB Dinda,DR Smith,0,0,na,na
2nd innings,3.4,BB McCullum,AB Dinda,DR Smith,1,0,{'wides': 1},na
2nd innings,3.5,BB McCullum,AB Dinda,DR Smith,2,2,na,na
2nd innings,3.6,BB McCullum,AB Dinda,DR Smith,2,2,na,na
2nd innings,3.7,BB McCullum,AB Dinda,DR Smith,4,4,na,na
2nd innings,4.1,DR Smith,NLTC Perera,BB McCullum,4,4,na,na
2nd innings,4.2,DR Smith,NLTC Perera,BB McCullum,4,4,na,na
2nd innings,4.3,DR Smith,NLTC Perera,BB McCullum,1,1,na,na
2nd innings,4.4,BB McCullum,NLTC Perera,DR Smith,4,4,na,na
2nd innings,4.5,BB McCullum,NLTC Perera,DR Smith,1,1,na,na
2nd innings,4.6,DR Smith,NLTC Perera,BB McCullum,0,0,na,na
2nd innings,5.1,BB McCullum,R Ashwin,DR Smith,4,4,na,na
2nd innings,5.2,BB McCullum,R Ashwin,DR Smith,4,4,na,na
2nd innings,5.3,BB McCullum,R Ashwin,DR Smith,0,0,na,na
2nd innings,5.4,BB McCullum,R Ashwin,DR Smith,0,0,na,na
2nd innings,5.5,BB McCullum,R Ashwin,DR Smith,1,0,{'wides': 1},na
2nd innings,5.6,BB McCullum,R Ashwin,DR Smith,1,1,na,na
2nd innings,5.7,DR Smith,R Ashwin,BB McCullum,0,0,na,na
2nd innings,6.1,BB McCullum,R Bhatia,DR Smith,6,6,na,na
2nd innings,6.2,BB McCullum,R Bhatia,DR Smith,3,3,na,na
2nd innings,6.3,DR Smith,R Bhatia,BB McCullum,0,0,na,na
2nd innings,6.4,DR Smith,R Bhatia,BB McCullum,1,1,na,na
2nd innings,6.5,BB McCullum,R Bhatia,DR Smith,1,1,na,na
2nd innings,6.6,DR Smith,R Bhatia,BB McCullum,1,1,na,na
2nd innings,7.1,DR Smith,M Ashwin,BB McCullum,1,1,na,na
2nd innings,7.2,BB McCullum,M Ashwin,DR Smith,0,0,na,na
2nd innings,7.3,BB McCullum,M Ashwin,DR Smith,1,1,na,na
2nd innings,7.4,DR Smith,M Ashwin,BB McCullum,6,6,na,na
2nd innings,7.5,DR Smith,M Ashwin,BB McCullum,1,1,na,na
2nd innings,7.6,BB McCullum,M Ashwin,DR Smith,0,0,na,na
2nd innings,8.1,DR Smith,R Bhatia,BB McCullum,0,0,na,"{'fielders': ['JA Morkel'], 'kind': 'caught', 'player_out': 'BB McCullum'}"
2nd innings,8.2,SK Raina,R Bhatia,DR Smith,4,4,na,na
2nd innings,8.3,SK Raina,R Bhatia,DR Smith,1,1,na,na
2nd innings,8.4,DR Smith,R Bhatia,SK Raina,0,0,na,na
2nd innings,8.5,DR Smith,R Bhatia,SK Raina,1,1,na,na
2nd innings,8.6,SK Raina,R Bhatia,DR Smith,1,1,na,na
2nd innings,9.1,SK Raina,R Ashwin,DR Smith,1,1,na,na
2nd innings,9.2,DR Smith,R Ashwin,SK Raina,1,1,na,na
2nd innings,9.3,SK Raina,R Ashwin,DR Smith,4,4,na,na
2nd innings,9.4,SK Raina,R Ashwin,DR Smith,4,4,na,na
2nd innings,9.5,SK Raina,R Ashwin,DR Smith,1,1,na,na
2nd innings,9.6,DR Smith,R Ashwin,SK Raina,1,1,na,na
2nd innings,10.1,DR Smith,NLTC Perera,SK Raina,1,1,na,na
2nd innings,10.2,SK Raina,NLTC Perera,DR Smith,0,0,na,na
2nd innings,10.3,SK Raina,NLTC Perera,DR Smith,1,1,na,na
2nd innings,10.4,DR Smith,NLTC Perera,SK Raina,1,1,na,na
2nd innings,10.5,SK Raina,NLTC Perera,DR Smith,0,0,na,"{'kind': 'bowled', 'player_out': 'DR Smith'}"
2nd innings,10.6,SK Raina,NLTC Perera,KD Karthik,1,1,na,na
2nd innings,11.1,SK Raina,R Ashwin,KD Karthik,1,1,na,na
2nd innings,11.2,KD Karthik,R Ashwin,SK Raina,0,0,na,na
2nd innings,11.3,KD Karthik,R Ashwin,SK Raina,1,1,na,na
2nd innings,11.4,SK Raina,R Ashwin,KD Karthik,1,1,na,na
2nd innings,11.5,KD Karthik,R Ashwin,SK Raina,1,1,na,na
2nd innings,11.6,SK Raina,R Ashwin,KD Karthik,1,1,na,na
2nd innings,12.1,SK Raina,R Bhatia,KD Karthik,1,1,na,na
2nd innings,12.2,KD Karthik,R Bhatia,SK Raina,1,1,na,na
2nd innings,12.3,SK Raina,R Bhatia,KD Karthik,1,1,na,na
2nd innings,12.4,KD Karthik,R Bhatia,SK Raina,1,1,na,na
2nd innings,12.5,SK Raina,R Bhatia,KD Karthik,2,2,na,na
2nd innings,12.6,SK Raina,R Bhatia,KD Karthik,1,1,na,na
2nd innings,13.1,SK Raina,R Ashwin,KD Karthik,1,1,na,na
2nd innings,13.2,KD Karthik,R Ashwin,SK Raina,1,1,na,na
2nd innings,13.3,SK Raina,R Ashwin,KD Karthik,1,1,na,na
2nd innings,13.4,KD Karthik,R Ashwin,SK Raina,1,1,na,na
2nd innings,13.5,SK Raina,R Ashwin,KD Karthik,2,2,na,na
2nd innings,13.6,SK Raina,R Ashwin,KD Karthik,4,4,na,na
2nd innings,14.1,KD Karthik,M Ashwin,SK Raina,1,1,na,na
2nd innings,14.2,SK Raina,M Ashwin,KD Karthik,0,0,na,na
2nd innings,14.3,SK Raina,M Ashwin,KD Karthik,1,1,na,na
2nd innings,14.4,KD Karthik,M Ashwin,SK Raina,1,1,na,na
2nd innings,14.5,SK Raina,M Ashwin,KD Karthik,2,2,na,na
2nd innings,14.6,SK Raina,M Ashwin,KD Karthik,4,4,na,na
2nd innings,15.1,KD Karthik,NLTC Perera,SK Raina,2,2,na,na
2nd innings,15.2,KD Karthik,NLTC Perera,SK Raina,1,1,na,na
2nd innings,15.3,SK Raina,NLTC Perera,KD Karthik,4,4,na,na
2nd innings,15.4,SK Raina,NLTC Perera,KD Karthik,1,1,na,na
2nd innings,15.5,KD Karthik,NLTC Perera,SK Raina,4,4,na,na
2nd innings,15.6,KD Karthik,NLTC Perera,SK Raina,2,2,na,na
2nd innings,16.1,SK Raina,AB Dinda,KD Karthik,1,0,{'wides': 1},na
2nd innings,16.2,SK Raina,AB Dinda,KD Karthik,4,4,na,na
2nd innings,16.3,SK Raina,AB Dinda,KD Karthik,0,0,na,"{'fielders': ['AM Rahane'], 'kind': 'caught', 'player_out': 'KD Karthik'}"
2nd innings,16.4,DJ Bravo,AB Dinda,SK Raina,2,2,na,na
2nd innings,16.5,DJ Bravo,AB Dinda,SK Raina,1,1,na,na
2nd innings,16.6,SK Raina,AB Dinda,DJ Bravo,1,0,{'wides': 1},na
2nd innings,16.7,SK Raina,AB Dinda,DJ Bravo,2,2,na,na
2nd innings,16.8,SK Raina,AB Dinda,DJ Bravo,0,0,na,na
2nd innings,17.1,DJ Bravo,M Ashwin,SK Raina,0,0,na,na
2nd innings,17.2,DJ Bravo,M Ashwin,SK Raina,0,0,na,na
2nd innings,17.3,DJ Bravo,M Ashwin,SK Raina,2,2,na,na
2nd innings,17.4,DJ Bravo,M Ashwin,SK Raina,1,1,na,na
2nd innings,17.5,SK Raina,M Ashwin,DJ Bravo,0,0,na,na
2nd innings,17.6,SK Raina,M Ashwin,DJ Bravo,1,1,na,na
2nd innings,18.1,SK Raina,AB Dinda,DJ Bravo,4,4,na,na
2nd innings,18.2,SK Raina,AB Dinda,DJ Bravo,0,0,na,"{'fielders': ['MS Dhoni'], 'kind': 'caught', 'player_out': 'DJ Bravo'}"
2nd innings,18.3,SK Raina,AB Dinda,RA Jadeja,0,0,na,"{'fielders': ['MS Dhoni'], 'kind': 'run out', 'player_out': 'RA Jadeja'}"
2nd innings,18.4,SK Raina,AB Dinda,JP Faulkner,1,1,na,na
2nd innings,18.5,JP Faulkner,AB Dinda,SK Raina,4,4,na,na
2nd innings,18.6,JP Faulkner,AB Dinda,SK Raina,2,2,na,na
2nd innings,19.1,SK Raina,NLTC Perera,JP Faulkner,4,4,na,na
2nd innings,19.2,SK Raina,NLTC Perera,JP Faulkner,1,0,{'wides': 1},na
2nd innings,19.3,SK Raina,NLTC Perera,JP Faulkner,1,1,na,na
2nd innings,19.4,JP Faulkner,NLTC Perera,SK Raina,0,0,na,"{'kind': 'bowled', 'player_out': 'SK Raina'}"
2nd innings,19.5,JP Faulkner,NLTC Perera,Ishan Kishan,0,0,na,"{'fielders': ['SS Tiwary'], 'kind': 'run out', 'player_out': 'Ishan Kishan'}"
2nd innings,19.6,P Kumar,NLTC Perera,JP Faulkner,2,2,na,na
2nd innings,19.7,P Kumar,NLTC Perera,JP Faulkner,1,1,na,na
