innings,deliveries,non_striker,bowler,batsman,total_runs,batsman_runs,extras,wickets
1st innings,0.1,MP Stoinis,S Nadeem,M Vijay,1,1,na,na
1st innings,0.2,M Vijay,S Nadeem,MP Stoinis,0,0,na,na
1st innings,0.3,M Vijay,S Nadeem,MP Stoinis,0,0,na,na
1st innings,0.4,M Vijay,S Nadeem,MP Stoinis,0,0,na,na
1st innings,0.5,M Vijay,S Nadeem,MP Stoinis,0,0,na,na
1st innings,0.6,M Vijay,S Nadeem,MP Stoinis,0,0,na,na
1st innings,1.1,MP Stoinis,Mohammed Shami,M Vijay,0,0,na,na
1st innings,1.2,MP Stoinis,Mohammed Shami,M Vijay,1,1,na,na
1st innings,1.3,M Vijay,Mohammed Shami,MP Stoinis,0,0,na,na
1st innings,1.4,M Vijay,Mohammed Shami,MP Stoinis,1,1,na,na
1st innings,1.5,MP Stoinis,Mohammed Shami,M Vijay,4,4,na,na
1st innings,1.6,MP Stoinis,Mohammed Shami,M Vijay,4,4,na,na
1st innings,2.1,M Vijay,S Nadeem,MP Stoinis,1,1,na,na
1st innings,2.2,MP Stoinis,S Nadeem,M Vijay,4,4,na,na
1st innings,2.3,MP Stoinis,S Nadeem,M Vijay,2,2,na,na
1st innings,2.4,MP Stoinis,S Nadeem,M Vijay,1,1,na,na
1st innings,2.5,M Vijay,S Nadeem,MP Stoinis,4,4,na,na
1st innings,2.6,M Vijay,S Nadeem,MP Stoinis,1,1,na,na
1st innings,3.1,M Vijay,CH Morris,MP Stoinis,4,0,{'legbyes': 4},na
1st innings,3.2,M Vijay,CH Morris,MP Stoinis,4,4,na,na
1st innings,3.3,M Vijay,CH Morris,MP Stoinis,0,0,na,na
1st innings,3.4,M Vijay,CH Morris,MP Stoinis,1,1,na,na
1st innings,3.5,MP Stoinis,CH Morris,M Vijay,2,2,na,na
1st innings,3.6,MP Stoinis,CH Morris,M Vijay,1,1,na,na
1st innings,4.1,MP Stoinis,Z Khan,M Vijay,0,0,na,na
1st innings,4.2,MP Stoinis,Z Khan,M Vijay,1,1,na,na
1st innings,4.3,M Vijay,Z Khan,MP Stoinis,2,2,na,na
1st innings,4.4,M Vijay,Z Khan,MP Stoinis,0,0,na,na
1st innings,4.5,M Vijay,Z Khan,MP Stoinis,1,1,na,na
1st innings,4.6,MP Stoinis,Z Khan,M Vijay,0,0,na,na
1st innings,5.1,M Vijay,CH Morris,MP Stoinis,1,1,na,na
1st innings,5.2,MP Stoinis,CH Morris,M Vijay,0,0,na,na
1st innings,5.3,MP Stoinis,CH Morris,M Vijay,4,4,na,na
1st innings,5.4,MP Stoinis,CH Morris,M Vijay,0,0,na,"{'fielders': ['CR Brathwaite'], 'kind': 'caught', 'player_out': 'M Vijay'}"
1st innings,5.5,MP Stoinis,CH Morris,HM Amla,0,0,na,na
1st innings,5.6,MP Stoinis,CH Morris,HM Amla,0,0,na,na
1st innings,6.1,HM Amla,S Nadeem,MP Stoinis,1,1,na,na
1st innings,6.2,MP Stoinis,S Nadeem,HM Amla,0,0,na,na
1st innings,6.3,MP Stoinis,S Nadeem,HM Amla,1,1,na,na
1st innings,6.4,HM Amla,S Nadeem,MP Stoinis,0,0,na,na
1st innings,6.5,HM Amla,S Nadeem,MP Stoinis,1,1,na,na
1st innings,6.6,MP Stoinis,S Nadeem,HM Amla,0,0,na,"{'fielders': ['Z Khan', 'Q de Kock'], 'kind': 'run out', 'player_out': 'HM Amla'}"
1st innings,7.1,WP Saha,Mohammed Shami,MP Stoinis,0,0,na,na
1st innings,7.2,WP Saha,Mohammed Shami,MP Stoinis,0,0,na,na
1st innings,7.3,WP Saha,Mohammed Shami,MP Stoinis,2,2,na,na
1st innings,7.4,WP Saha,Mohammed Shami,MP Stoinis,1,1,na,na
1st innings,7.5,MP Stoinis,Mohammed Shami,WP Saha,4,4,na,na
1st innings,7.6,MP Stoinis,Mohammed Shami,WP Saha,1,1,na,na
1st innings,8.1,MP Stoinis,S Nadeem,WP Saha,1,1,na,na
1st innings,8.2,WP Saha,S Nadeem,MP Stoinis,6,6,na,na
1st innings,8.3,WP Saha,S Nadeem,MP Stoinis,1,1,na,na
1st innings,8.4,MP Stoinis,S Nadeem,WP Saha,2,2,na,na
1st innings,8.5,MP Stoinis,S Nadeem,WP Saha,2,2,na,na
1st innings,8.6,MP Stoinis,S Nadeem,WP Saha,1,1,na,na
1st innings,9.1,MP Stoinis,CR Brathwaite,WP Saha,1,1,na,na
1st innings,9.2,WP Saha,CR Brathwaite,MP Stoinis,1,1,na,na
1st innings,9.3,MP Stoinis,CR Brathwaite,WP Saha,1,1,na,na
1st innings,9.4,WP Saha,CR Brathwaite,MP Stoinis,1,1,na,na
1st innings,9.5,MP Stoinis,CR Brathwaite,WP Saha,1,1,na,na
1st innings,9.6,WP Saha,CR Brathwaite,MP Stoinis,2,2,na,na
1st innings,10.1,MP Stoinis,A Mishra,WP Saha,0,0,na,na
1st innings,10.2,MP Stoinis,A Mishra,WP Saha,1,1,na,na
1st innings,10.3,WP Saha,A Mishra,MP Stoinis,2,2,na,na
1st innings,10.4,WP Saha,A Mishra,MP Stoinis,0,0,na,na
1st innings,10.5,WP Saha,A Mishra,MP Stoinis,1,1,na,na
1st innings,10.6,MP Stoinis,A Mishra,WP Saha,0,0,na,na
1st innings,11.1,WP Saha,CR Brathwaite,MP Stoinis,6,6,na,na
1st innings,11.2,WP Saha,CR Brathwaite,MP Stoinis,1,1,na,na
1st innings,11.3,MP Stoinis,CR Brathwaite,WP Saha,1,1,na,na
1st innings,11.4,WP Saha,CR Brathwaite,MP Stoinis,4,4,na,na
1st innings,11.5,WP Saha,CR Brathwaite,MP Stoinis,0,0,na,na
1st innings,11.6,WP Saha,CR Brathwaite,MP Stoinis,1,1,na,na
1st innings,12.1,WP Saha,A Mishra,MP Stoinis,0,0,na,na
1st innings,12.2,WP Saha,A Mishra,MP Stoinis,1,1,na,na
1st innings,12.3,MP Stoinis,A Mishra,WP Saha,4,4,na,na
1st innings,12.4,MP Stoinis,A Mishra,WP Saha,1,1,na,na
1st innings,12.5,WP Saha,A Mishra,MP Stoinis,1,1,na,na
1st innings,12.6,MP Stoinis,A Mishra,WP Saha,1,1,na,na
1st innings,13.1,MP Stoinis,Z Khan,WP Saha,1,1,na,na
1st innings,13.2,WP Saha,Z Khan,MP Stoinis,1,1,na,na
1st innings,13.3,MP Stoinis,Z Khan,WP Saha,1,1,na,na
1st innings,13.4,WP Saha,Z Khan,MP Stoinis,2,2,na,na
1st innings,13.5,WP Saha,Z Khan,MP Stoinis,0,0,na,"{'fielders': ['SV Samson'], 'kind': 'caught', 'player_out': 'MP Stoinis'}"
1st innings,13.6,GJ Maxwell,Z Khan,WP Saha,0,0,na,na
1st innings,14.1,WP Saha,A Mishra,GJ Maxwell,1,0,{'wides': 1},na
1st innings,14.2,WP Saha,A Mishra,GJ Maxwell,1,1,na,na
1st innings,14.3,GJ Maxwell,A Mishra,WP Saha,4,4,na,na
1st innings,14.4,GJ Maxwell,A Mishra,WP Saha,1,1,na,na
1st innings,14.5,WP Saha,A Mishra,GJ Maxwell,1,1,na,na
1st innings,14.6,GJ Maxwell,A Mishra,WP Saha,4,4,na,na
1st innings,14.7,GJ Maxwell,A Mishra,WP Saha,1,1,na,na
1st innings,15.1,GJ Maxwell,Z Khan,WP Saha,1,1,na,na
1st innings,15.2,WP Saha,Z Khan,GJ Maxwell,1,1,na,na
1st innings,15.3,GJ Maxwell,Z Khan,WP Saha,2,2,na,na
1st innings,15.4,GJ Maxwell,Z Khan,WP Saha,4,4,na,na
1st innings,15.5,GJ Maxwell,Z Khan,WP Saha,4,4,na,na
1st innings,15.6,GJ Maxwell,Z Khan,WP Saha,4,4,na,na
1st innings,16.1,WP Saha,A Mishra,GJ Maxwell,6,6,na,na
1st innings,16.2,WP Saha,A Mishra,GJ Maxwell,2,2,na,na
1st innings,16.3,WP Saha,A Mishra,GJ Maxwell,0,0,na,na
1st innings,16.4,WP Saha,A Mishra,GJ Maxwell,2,2,na,na
1st innings,16.5,WP Saha,A Mishra,GJ Maxwell,2,2,na,na
1st innings,16.6,WP Saha,A Mishra,GJ Maxwell,0,0,na,na
1st innings,17.1,GJ Maxwell,CH Morris,WP Saha,2,2,na,na
1st innings,17.2,GJ Maxwell,CH Morris,WP Saha,1,0,{'legbyes': 1},na
1st innings,17.3,WP Saha,CH Morris,GJ Maxwell,1,1,na,na
1st innings,17.4,GJ Maxwell,CH Morris,WP Saha,0,0,na,na
1st innings,17.5,GJ Maxwell,CH Morris,WP Saha,1,1,na,na
1st innings,17.6,WP Saha,CH Morris,GJ Maxwell,0,0,na,"{'kind': 'bowled', 'player_out': 'GJ Maxwell'}"
1st innings,18.1,DA Miller,Mohammed Shami,WP Saha,0,0,na,"{'fielders': ['CH Morris'], 'kind': 'caught', 'player_out': 'WP Saha'}"
1st innings,18.2,AR Patel,Mohammed Shami,DA Miller,1,0,{'wides': 1},na
1st innings,18.3,AR Patel,Mohammed Shami,DA Miller,2,2,na,na
1st innings,18.4,AR Patel,Mohammed Shami,DA Miller,4,4,na,na
1st innings,18.5,AR Patel,Mohammed Shami,DA Miller,2,2,na,na
1st innings,18.6,AR Patel,Mohammed Shami,DA Miller,1,1,na,na
1st innings,18.7,DA Miller,Mohammed Shami,AR Patel,6,6,na,na
1st innings,19.1,AR Patel,CH Morris,DA Miller,1,1,na,na
1st innings,19.2,DA Miller,CH Morris,AR Patel,1,0,{'wides': 1},na
1st innings,19.3,DA Miller,CH Morris,AR Patel,1,1,na,na
1st innings,19.4,AR Patel,CH Morris,DA Miller,1,1,na,na
1st innings,19.5,DA Miller,CH Morris,AR Patel,6,6,na,na
1st innings,19.6,DA Miller,CH Morris,AR Patel,2,2,na,na
1st innings,19.7,DA Miller,CH Morris,AR Patel,1,1,na,na
2nd innings,0.1,SV Samson,Sandeep Sharma,Q de Kock,0,0,na,na
2nd innings,0.2,SV Samson,Sandeep Sharma,Q de Kock,0,0,na,na
2nd innings,0.3,SV Samson,Sandeep Sharma,Q de Kock,1,1,na,na
2nd innings,0.4,Q de Kock,Sandeep Sharma,SV Samson,0,0,na,na
2nd innings,0.5,Q de Kock,Sandeep Sharma,SV Samson,1,0,{'legbyes': 1},na
2nd innings,0.6,SV Samson,Sandeep Sharma,Q de Kock,1,1,na,na
2nd innings,1.1,SV Samson,MM Sharma,Q de Kock,1,1,na,na
2nd innings,1.2,Q de Kock,MM Sharma,SV Samson,0,0,na,na
2nd innings,1.3,Q de Kock,MM Sharma,SV Samson,0,0,na,na
2nd innings,1.4,Q de Kock,MM Sharma,SV Samson,4,4,na,na
2nd innings,1.5,Q de Kock,MM Sharma,SV Samson,2,2,na,na
2nd innings,1.6,Q de Kock,MM Sharma,SV Samson,0,0,na,na
2nd innings,2.1,SV Samson,KC Cariappa,Q de Kock,0,0,na,na
2nd innings,2.2,SV Samson,KC Cariappa,Q de Kock,1,1,na,na
2nd innings,2.3,Q de Kock,KC Cariappa,SV Samson,0,0,na,na
2nd innings,2.4,Q de Kock,KC Cariappa,SV Samson,1,1,na,na
2nd innings,2.5,SV Samson,KC Cariappa,Q de Kock,4,4,na,na
2nd innings,2.6,SV Samson,KC Cariappa,Q de Kock,0,0,na,na
2nd innings,3.1,Q de Kock,MM Sharma,SV Samson,1,1,na,na
2nd innings,3.2,SV Samson,MM Sharma,Q de Kock,0,0,na,na
2nd innings,3.3,SV Samson,MM Sharma,Q de Kock,4,4,na,na
2nd innings,3.4,SV Samson,MM Sharma,Q de Kock,1,1,na,na
2nd innings,3.5,Q de Kock,MM Sharma,SV Samson,1,1,na,na
2nd innings,3.6,SV Samson,MM Sharma,Q de Kock,0,0,na,na
2nd innings,4.1,Q de Kock,MP Stoinis,SV Samson,1,1,na,na
2nd innings,4.2,SV Samson,MP Stoinis,Q de Kock,4,4,na,na
2nd innings,4.3,SV Samson,MP Stoinis,Q de Kock,4,4,na,na
2nd innings,4.4,SV Samson,MP Stoinis,Q de Kock,1,1,na,na
2nd innings,4.5,Q de Kock,MP Stoinis,SV Samson,1,1,na,na
2nd innings,4.6,SV Samson,MP Stoinis,Q de Kock,1,0,{'legbyes': 1},na
2nd innings,5.1,SV Samson,AR Patel,Q de Kock,2,2,na,na
2nd innings,5.2,SV Samson,AR Patel,Q de Kock,2,2,na,na
2nd innings,5.3,SV Samson,AR Patel,Q de Kock,6,6,na,na
2nd innings,5.4,SV Samson,AR Patel,Q de Kock,4,4,na,na
2nd innings,5.5,SV Samson,AR Patel,Q de Kock,1,1,na,na
2nd innings,5.6,Q de Kock,AR Patel,SV Samson,1,1,na,na
2nd innings,6.1,Q de Kock,KC Cariappa,SV Samson,1,1,na,na
2nd innings,6.2,SV Samson,KC Cariappa,Q de Kock,1,1,na,na
2nd innings,6.3,Q de Kock,KC Cariappa,SV Samson,1,1,na,na
2nd innings,6.4,SV Samson,KC Cariappa,Q de Kock,0,0,na,na
2nd innings,6.5,SV Samson,KC Cariappa,Q de Kock,4,4,na,na
2nd innings,6.6,SV Samson,KC Cariappa,Q de Kock,1,0,{'wides': 1},na
2nd innings,6.7,SV Samson,KC Cariappa,Q de Kock,3,3,na,na
2nd innings,7.1,SV Samson,MP Stoinis,Q de Kock,6,6,na,na
2nd innings,7.2,SV Samson,MP Stoinis,Q de Kock,0,0,na,na
2nd innings,7.3,SV Samson,MP Stoinis,Q de Kock,1,1,na,na
2nd innings,7.4,Q de Kock,MP Stoinis,SV Samson,1,1,na,na
2nd innings,7.5,SV Samson,MP Stoinis,Q de Kock,0,0,na,"{'fielders': ['AR Patel'], 'kind': 'caught', 'player_out': 'Q de Kock'}"
2nd innings,7.6,SV Samson,MP Stoinis,KK Nair,1,1,na,na
2nd innings,8.1,SV Samson,AR Patel,KK Nair,0,0,na,na
2nd innings,8.2,SV Samson,AR Patel,KK Nair,1,1,na,na
2nd innings,8.3,KK Nair,AR Patel,SV Samson,1,1,na,na
2nd innings,8.4,SV Samson,AR Patel,KK Nair,1,1,na,na
2nd innings,8.5,KK Nair,AR Patel,SV Samson,1,1,na,na
2nd innings,8.6,SV Samson,AR Patel,KK Nair,1,1,na,na
2nd innings,9.1,SV Samson,KC Cariappa,KK Nair,2,2,na,na
2nd innings,9.2,SV Samson,KC Cariappa,KK Nair,1,1,na,na
2nd innings,9.3,KK Nair,KC Cariappa,SV Samson,6,6,na,na
2nd innings,9.4,KK Nair,KC Cariappa,SV Samson,1,1,na,na
2nd innings,9.5,SV Samson,KC Cariappa,KK Nair,1,1,na,na
2nd innings,9.6,KK Nair,KC Cariappa,SV Samson,4,4,na,na
2nd innings,10.1,SV Samson,AR Patel,KK Nair,2,2,na,na
2nd innings,10.2,SV Samson,AR Patel,KK Nair,2,2,na,na
2nd innings,10.3,SV Samson,AR Patel,KK Nair,1,1,na,na
2nd innings,10.4,KK Nair,AR Patel,SV Samson,0,0,na,na
2nd innings,10.5,KK Nair,AR Patel,SV Samson,1,1,na,na
2nd innings,10.6,SV Samson,AR Patel,KK Nair,0,0,na,na
2nd innings,11.1,KK Nair,Sandeep Sharma,SV Samson,1,1,na,na
2nd innings,11.2,SV Samson,Sandeep Sharma,KK Nair,1,0,{'legbyes': 1},na
2nd innings,11.3,KK Nair,Sandeep Sharma,SV Samson,2,2,na,na
2nd innings,11.4,KK Nair,Sandeep Sharma,SV Samson,1,1,na,na
2nd innings,11.5,SV Samson,Sandeep Sharma,KK Nair,1,1,na,na
2nd innings,11.6,KK Nair,Sandeep Sharma,SV Samson,2,2,na,na
2nd innings,12.1,SV Samson,AR Patel,KK Nair,1,1,na,na
2nd innings,12.2,KK Nair,AR Patel,SV Samson,2,2,na,na
2nd innings,12.3,KK Nair,AR Patel,SV Samson,1,1,na,na
2nd innings,12.4,SV Samson,AR Patel,KK Nair,1,0,{'legbyes': 1},na
2nd innings,12.5,KK Nair,AR Patel,SV Samson,1,1,na,na
2nd innings,12.6,SV Samson,AR Patel,KK Nair,0,0,na,na
2nd innings,13.1,KK Nair,MP Stoinis,SV Samson,2,2,na,na
2nd innings,13.2,KK Nair,MP Stoinis,SV Samson,4,4,na,na
2nd innings,13.3,KK Nair,MP Stoinis,SV Samson,4,4,na,na
2nd innings,13.4,KK Nair,MP Stoinis,SV Samson,0,0,na,"{'fielders': ['GJ Maxwell'], 'kind': 'caught', 'player_out': 'SV Samson'}"
2nd innings,13.5,SW Billings,MP Stoinis,KK Nair,2,0,{'wides': 2},na
2nd innings,13.6,KK Nair,MP Stoinis,SW Billings,1,1,na,na
2nd innings,13.7,SW Billings,MP Stoinis,KK Nair,4,4,na,na
2nd innings,14.1,KK Nair,MM Sharma,SW Billings,1,1,na,na
2nd innings,14.2,SW Billings,MM Sharma,KK Nair,0,0,na,na
2nd innings,14.3,SW Billings,MM Sharma,KK Nair,0,0,na,na
2nd innings,14.4,SW Billings,MM Sharma,KK Nair,0,0,na,na
2nd innings,14.5,SW Billings,MM Sharma,KK Nair,2,2,na,na
2nd innings,14.6,SW Billings,MM Sharma,KK Nair,1,1,na,na
2nd innings,15.1,SW Billings,KC Cariappa,KK Nair,1,1,na,na
2nd innings,15.2,KK Nair,KC Cariappa,SW Billings,1,0,{'legbyes': 1},na
2nd innings,15.3,SW Billings,KC Cariappa,KK Nair,0,0,na,"{'fielders': ['DA Miller'], 'kind': 'caught', 'player_out': 'KK Nair'}"
2nd innings,15.4,CR Brathwaite,KC Cariappa,SW Billings,0,0,na,na
2nd innings,15.5,CR Brathwaite,KC Cariappa,SW Billings,2,2,na,na
2nd innings,15.6,CR Brathwaite,KC Cariappa,SW Billings,2,2,na,na
2nd innings,16.1,SW Billings,MP Stoinis,CR Brathwaite,2,2,na,na
2nd innings,16.2,SW Billings,MP Stoinis,CR Brathwaite,1,0,{'legbyes': 1},na
2nd innings,16.3,CR Brathwaite,MP Stoinis,SW Billings,0,0,na,na
2nd innings,16.4,CR Brathwaite,MP Stoinis,SW Billings,0,0,na,na
2nd innings,16.5,CR Brathwaite,MP Stoinis,SW Billings,0,0,na,"{'fielders': ['WP Saha'], 'kind': 'caught', 'player_out': 'SW Billings'}"
2nd innings,16.6,CR Brathwaite,MP Stoinis,CH Morris,1,1,na,na
2nd innings,17.1,CR Brathwaite,Sandeep Sharma,CH Morris,1,1,na,na
2nd innings,17.2,CH Morris,Sandeep Sharma,CR Brathwaite,4,4,na,na
2nd innings,17.3,CH Morris,Sandeep Sharma,CR Brathwaite,0,0,na,na
2nd innings,17.4,CH Morris,Sandeep Sharma,CR Brathwaite,6,6,na,na
2nd innings,17.5,CH Morris,Sandeep Sharma,CR Brathwaite,0,0,na,"{'fielders': ['Gurkeerat Singh'], 'kind': 'caught', 'player_out': 'CR Brathwaite'}"
2nd innings,17.6,RR Pant,Sandeep Sharma,CH Morris,1,1,na,na
2nd innings,18.1,RR Pant,MM Sharma,CH Morris,2,2,na,na
2nd innings,18.2,RR Pant,MM Sharma,CH Morris,0,0,na,na
2nd innings,18.3,RR Pant,MM Sharma,CH Morris,0,0,na,na
2nd innings,18.4,RR Pant,MM Sharma,CH Morris,1,1,na,na
2nd innings,18.5,CH Morris,MM Sharma,RR Pant,0,0,na,na
2nd innings,18.6,CH Morris,MM Sharma,RR Pant,0,0,na,na
2nd innings,19.1,RR Pant,Sandeep Sharma,CH Morris,0,0,na,na
2nd innings,19.2,RR Pant,Sandeep Sharma,CH Morris,2,2,na,na
2nd innings,19.3,RR Pant,Sandeep Sharma,CH Morris,2,2,na,na
2nd innings,19.4,RR Pant,Sandeep Sharma,CH Morris,6,6,na,na
2nd innings,19.5,RR Pant,Sandeep Sharma,CH Morris,1,1,na,na
2nd innings,19.6,CH Morris,Sandeep Sharma,RR Pant,4,4,na,na
