inngs,deliveries,non_striker,bowler,batsman,totalruns,batsman_runs,extra_runs,legbyes,byes,wides,noballs,penalty,wicket_kind,fielder1,fielder2,player_out
1st innings,0.1,AJ Finch,SL Malinga,M Klinger,0,0,0,na,na,na,na,na,na,na,na,na
1st innings,0.2,AJ Finch,SL Malinga,M Klinger,1,1,0,na,na,na,na,na,na,na,na,na
1st innings,0.3,M Klinger,SL Malinga,AJ Finch,0,0,0,na,na,na,na,na,na,na,na,na
1st innings,0.4,M Klinger,SL Malinga,AJ Finch,4,4,0,na,na,na,na,na,na,na,na,na
1st innings,0.5,M Klinger,SL Malinga,AJ Finch,1,0,1,1,na,na,na,na,na,na,na,na
1st innings,0.6,AJ Finch,SL Malinga,M Klinger,1,1,0,na,na,na,na,na,na,na,na,na
1st innings,1.1,AJ Finch,KMDN Kulasekara,M Klinger,1,0,1,na,na,1,na,na,na,na,na,na
1st innings,1.2,AJ Finch,KMDN Kulasekara,M Klinger,1,1,0,na,na,na,na,na,na,na,na,na
1st innings,1.3,M Klinger,KMDN Kulasekara,AJ Finch,2,2,0,na,na,na,na,na,na,na,na,na
1st innings,1.4,M Klinger,KMDN Kulasekara,AJ Finch,2,2,0,na,na,na,na,na,na,na,na,na
1st innings,1.5,M Klinger,KMDN Kulasekara,AJ Finch,4,4,0,na,na,na,na,na,na,na,na,na
1st innings,1.6,M Klinger,KMDN Kulasekara,AJ Finch,0,0,0,na,na,na,na,na,na,na,na,na
1st innings,1.7,M Klinger,KMDN Kulasekara,AJ Finch,0,0,0,na,na,na,na,na,na,na,na,na
1st innings,2.1,AJ Finch,JRMVB Sanjaya,M Klinger,0,0,0,na,na,na,na,na,na,na,na,na
1st innings,2.2,AJ Finch,JRMVB Sanjaya,M Klinger,1,1,0,na,na,na,na,na,na,na,na,na
1st innings,2.3,M Klinger,JRMVB Sanjaya,AJ Finch,0,0,0,na,na,na,na,na,na,na,na,na
1st innings,2.4,M Klinger,JRMVB Sanjaya,AJ Finch,0,0,0,na,na,na,na,na,caught and bowled,na,na,AJ Finch
1st innings,2.5,M Klinger,JRMVB Sanjaya,BR Dunk,0,0,0,na,na,na,na,na,na,na,na,na
1st innings,2.6,M Klinger,JRMVB Sanjaya,BR Dunk,0,0,0,na,na,na,na,na,na,na,na,na
1st innings,3.1,BR Dunk,KMDN Kulasekara,M Klinger,1,0,1,na,na,1,na,na,na,na,na,na
1st innings,3.2,BR Dunk,KMDN Kulasekara,M Klinger,2,2,0,na,na,na,na,na,na,na,na,na
1st innings,3.3,BR Dunk,KMDN Kulasekara,M Klinger,0,0,0,na,na,na,na,na,na,na,na,na
1st innings,3.4,BR Dunk,KMDN Kulasekara,M Klinger,4,4,0,na,na,na,na,na,na,na,na,na
1st innings,3.5,BR Dunk,KMDN Kulasekara,M Klinger,1,1,0,na,na,na,na,na,na,na,na,na
1st innings,3.6,M Klinger,KMDN Kulasekara,BR Dunk,4,4,0,na,na,na,na,na,na,na,na,na
1st innings,3.7,M Klinger,KMDN Kulasekara,BR Dunk,0,0,0,na,na,na,na,na,na,na,na,na
1st innings,4.1,BR Dunk,JRMVB Sanjaya,M Klinger,0,0,0,na,na,na,na,na,na,na,na,na
1st innings,4.2,BR Dunk,JRMVB Sanjaya,M Klinger,0,0,0,na,na,na,na,na,na,na,na,na
1st innings,4.3,BR Dunk,JRMVB Sanjaya,M Klinger,1,1,0,na,na,na,na,na,na,na,na,na
1st innings,4.4,M Klinger,JRMVB Sanjaya,BR Dunk,4,4,0,na,na,na,na,na,na,na,na,na
1st innings,4.5,M Klinger,JRMVB Sanjaya,BR Dunk,1,1,0,na,na,na,na,na,na,na,na,na
1st innings,4.6,BR Dunk,JRMVB Sanjaya,M Klinger,2,2,0,na,na,na,na,na,na,na,na,na
1st innings,5.1,M Klinger,EMDY Munaweera,BR Dunk,4,4,0,na,na,na,na,na,na,na,na,na
1st innings,5.2,M Klinger,EMDY Munaweera,BR Dunk,0,0,0,na,na,na,na,na,na,na,na,na
1st innings,5.3,M Klinger,EMDY Munaweera,BR Dunk,6,6,0,na,na,na,na,na,na,na,na,na
1st innings,5.4,M Klinger,EMDY Munaweera,BR Dunk,6,6,0,na,na,na,na,na,na,na,na,na
1st innings,5.5,M Klinger,EMDY Munaweera,BR Dunk,0,0,0,na,na,na,na,na,na,na,na,na
1st innings,5.6,M Klinger,EMDY Munaweera,BR Dunk,6,6,0,na,na,na,na,na,na,na,na,na
1st innings,6.1,BR Dunk,DAS Gunaratne,M Klinger,1,1,0,na,na,na,na,na,na,na,na,na
1st innings,6.2,M Klinger,DAS Gunaratne,BR Dunk,1,1,0,na,na,na,na,na,na,na,na,na
1st innings,6.3,BR Dunk,DAS Gunaratne,M Klinger,1,1,0,na,na,na,na,na,na,na,na,na
1st innings,6.4,M Klinger,DAS Gunaratne,BR Dunk,0,0,0,na,na,na,na,na,bowled,na,na,BR Dunk
1st innings,6.5,M Klinger,DAS Gunaratne,MC Henriques,1,1,0,na,na,na,na,na,na,na,na,na
1st innings,6.6,MC Henriques,DAS Gunaratne,M Klinger,0,0,0,na,na,na,na,na,na,na,na,na
1st innings,7.1,M Klinger,S Prasanna,MC Henriques,1,1,0,na,na,na,na,na,na,na,na,na
1st innings,7.2,MC Henriques,S Prasanna,M Klinger,0,0,0,na,na,na,na,na,na,na,na,na
1st innings,7.3,MC Henriques,S Prasanna,M Klinger,0,0,0,na,na,na,na,na,na,na,na,na
1st innings,7.4,MC Henriques,S Prasanna,M Klinger,1,1,0,na,na,na,na,na,na,na,na,na
1st innings,7.5,M Klinger,S Prasanna,MC Henriques,1,1,0,na,na,na,na,na,na,na,na,na
1st innings,7.6,MC Henriques,S Prasanna,M Klinger,0,0,0,na,na,na,na,na,na,na,na,na
1st innings,8.1,M Klinger,DAS Gunaratne,MC Henriques,1,1,0,na,na,na,na,na,na,na,na,na
1st innings,8.2,MC Henriques,DAS Gunaratne,M Klinger,2,2,0,na,na,na,na,na,na,na,na,na
1st innings,8.3,MC Henriques,DAS Gunaratne,M Klinger,1,1,0,na,na,na,na,na,na,na,na,na
1st innings,8.4,M Klinger,DAS Gunaratne,MC Henriques,1,1,0,na,na,na,na,na,na,na,na,na
1st innings,8.5,MC Henriques,DAS Gunaratne,M Klinger,1,1,0,na,na,na,na,na,na,na,na,na
1st innings,8.6,M Klinger,DAS Gunaratne,MC Henriques,1,1,0,na,na,na,na,na,na,na,na,na
1st innings,9.1,M Klinger,S Prasanna,MC Henriques,0,0,0,na,na,na,na,na,na,na,na,na
1st innings,9.2,M Klinger,S Prasanna,MC Henriques,2,2,0,na,na,na,na,na,na,na,na,na
1st innings,9.3,M Klinger,S Prasanna,MC Henriques,0,0,0,na,na,na,na,na,na,na,na,na
1st innings,9.4,M Klinger,S Prasanna,MC Henriques,1,1,0,na,na,na,na,na,na,na,na,na
1st innings,9.5,MC Henriques,S Prasanna,M Klinger,2,2,0,na,na,na,na,na,na,na,na,na
1st innings,9.6,MC Henriques,S Prasanna,M Klinger,1,1,0,na,na,na,na,na,na,na,na,na
1st innings,10.1,MC Henriques,DAS Gunaratne,M Klinger,6,6,0,na,na,na,na,na,na,na,na,na
1st innings,10.2,MC Henriques,DAS Gunaratne,M Klinger,1,1,0,na,na,na,na,na,na,na,na,na
1st innings,10.3,M Klinger,DAS Gunaratne,MC Henriques,0,0,0,na,na,na,na,na,na,na,na,na
1st innings,10.4,M Klinger,DAS Gunaratne,MC Henriques,1,1,0,na,na,na,na,na,na,na,na,na
1st innings,10.5,MC Henriques,DAS Gunaratne,M Klinger,1,1,0,na,na,na,na,na,na,na,na,na
1st innings,10.6,M Klinger,DAS Gunaratne,MC Henriques,6,6,0,na,na,na,na,na,na,na,na,na
1st innings,11.1,MC Henriques,S Prasanna,M Klinger,2,2,0,na,na,na,na,na,na,na,na,na
1st innings,11.2,MC Henriques,S Prasanna,M Klinger,4,4,0,na,na,na,na,na,na,na,na,na
1st innings,11.3,MC Henriques,S Prasanna,M Klinger,0,0,0,na,na,na,na,na,na,na,na,na
1st innings,11.4,MC Henriques,S Prasanna,M Klinger,1,1,0,na,na,na,na,na,na,na,na,na
1st innings,11.5,M Klinger,S Prasanna,MC Henriques,0,0,0,na,na,na,na,na,na,na,na,na
1st innings,11.6,M Klinger,S Prasanna,MC Henriques,1,1,0,na,na,na,na,na,na,na,na,na
1st innings,12.1,M Klinger,SL Malinga,MC Henriques,0,0,0,na,na,na,na,na,na,na,na,na
1st innings,12.2,M Klinger,SL Malinga,MC Henriques,1,1,0,na,na,na,na,na,na,na,na,na
1st innings,12.3,MC Henriques,SL Malinga,M Klinger,1,1,0,na,na,na,na,na,na,na,na,na
1st innings,12.4,M Klinger,SL Malinga,MC Henriques,1,1,0,na,na,na,na,na,na,na,na,na
1st innings,12.5,MC Henriques,SL Malinga,M Klinger,1,1,0,na,na,na,na,na,na,na,na,na
1st innings,12.6,M Klinger,SL Malinga,MC Henriques,4,4,0,na,na,na,na,na,na,na,na,na
1st innings,13.1,MC Henriques,JRMVB Sanjaya,M Klinger,2,2,0,na,na,na,na,na,na,na,na,na
1st innings,13.2,MC Henriques,JRMVB Sanjaya,M Klinger,0,0,0,na,na,na,na,na,caught,N Dickwella,na,M Klinger
1st innings,13.3,MC Henriques,JRMVB Sanjaya,TM Head,1,1,0,na,na,na,na,na,na,na,na,na
1st innings,13.4,TM Head,JRMVB Sanjaya,MC Henriques,1,1,0,na,na,na,na,na,na,na,na,na
1st innings,13.5,MC Henriques,JRMVB Sanjaya,TM Head,1,1,0,na,na,na,na,na,na,na,na,na
1st innings,13.6,TM Head,JRMVB Sanjaya,MC Henriques,1,0,1,na,na,1,na,na,na,na,na,na
1st innings,13.7,TM Head,JRMVB Sanjaya,MC Henriques,2,2,0,na,na,na,na,na,na,na,na,na
1st innings,14.1,MC Henriques,KMDN Kulasekara,TM Head,2,2,0,na,na,na,na,na,na,na,na,na
1st innings,14.2,MC Henriques,KMDN Kulasekara,TM Head,0,0,0,na,na,na,na,na,caught,N Dickwella,na,TM Head
1st innings,14.3,MC Henriques,KMDN Kulasekara,AJ Turner,1,1,0,na,na,na,na,na,na,na,na,na
1st innings,14.4,AJ Turner,KMDN Kulasekara,MC Henriques,1,1,0,na,na,na,na,na,na,na,na,na
1st innings,14.5,MC Henriques,KMDN Kulasekara,AJ Turner,1,1,0,na,na,na,na,na,na,na,na,na
1st innings,14.6,AJ Turner,KMDN Kulasekara,MC Henriques,1,1,0,na,na,na,na,na,na,na,na,na
1st innings,15.1,AJ Turner,S Prasanna,MC Henriques,1,1,0,na,na,na,na,na,na,na,na,na
1st innings,15.2,MC Henriques,S Prasanna,AJ Turner,2,2,0,na,na,na,na,na,na,na,na,na
1st innings,15.3,MC Henriques,S Prasanna,AJ Turner,2,2,0,na,na,na,na,na,na,na,na,na
1st innings,15.4,MC Henriques,S Prasanna,AJ Turner,1,1,0,na,na,na,na,na,na,na,na,na
1st innings,15.5,AJ Turner,S Prasanna,MC Henriques,3,3,0,na,na,na,na,na,na,na,na,na
1st innings,15.6,MC Henriques,S Prasanna,AJ Turner,0,0,0,na,na,na,na,na,caught,TAM Siriwardana,na,AJ Turner
1st innings,16.1,MC Henriques,SL Malinga,JP Faulkner,1,1,0,na,na,na,na,na,na,na,na,na
1st innings,16.2,JP Faulkner,SL Malinga,MC Henriques,2,2,0,na,na,na,na,na,na,na,na,na
1st innings,16.3,JP Faulkner,SL Malinga,MC Henriques,4,4,0,na,na,na,na,na,na,na,na,na
1st innings,16.4,JP Faulkner,SL Malinga,MC Henriques,2,2,0,na,na,na,na,na,na,na,na,na
1st innings,16.5,JP Faulkner,SL Malinga,MC Henriques,1,1,0,na,na,na,na,na,na,na,na,na
1st innings,16.6,MC Henriques,SL Malinga,JP Faulkner,0,0,0,na,na,na,na,na,lbw,na,na,JP Faulkner
1st innings,17.1,TD Paine,JRMVB Sanjaya,MC Henriques,6,6,0,na,na,na,na,na,na,na,na,na
1st innings,17.2,TD Paine,JRMVB Sanjaya,MC Henriques,1,1,0,na,na,na,na,na,na,na,na,na
1st innings,17.3,MC Henriques,JRMVB Sanjaya,TD Paine,4,4,0,na,na,na,na,na,na,na,na,na
1st innings,17.4,MC Henriques,JRMVB Sanjaya,TD Paine,1,1,0,na,na,na,na,na,na,na,na,na
1st innings,17.5,TD Paine,JRMVB Sanjaya,MC Henriques,1,1,0,na,na,na,na,na,na,na,na,na
1st innings,17.6,MC Henriques,JRMVB Sanjaya,TD Paine,2,2,0,na,na,na,na,na,na,na,na,na
1st innings,18.1,TD Paine,SL Malinga,MC Henriques,2,2,0,na,na,na,na,na,na,na,na,na
1st innings,18.2,TD Paine,SL Malinga,MC Henriques,1,1,0,na,na,na,na,na,na,na,na,na
1st innings,18.3,MC Henriques,SL Malinga,TD Paine,0,0,0,na,na,na,na,na,lbw,na,na,TD Paine
1st innings,18.4,MC Henriques,SL Malinga,PJ Cummins,1,1,0,na,na,na,na,na,na,na,na,na
1st innings,18.5,PJ Cummins,SL Malinga,MC Henriques,1,1,0,na,na,na,na,na,na,na,na,na
1st innings,18.6,MC Henriques,SL Malinga,PJ Cummins,2,2,0,na,na,na,na,na,na,na,na,na
1st innings,19.1,PJ Cummins,KMDN Kulasekara,MC Henriques,2,2,0,na,na,na,na,na,na,na,na,na
1st innings,19.2,PJ Cummins,KMDN Kulasekara,MC Henriques,1,1,0,na,na,na,na,na,na,na,na,na
1st innings,19.3,MC Henriques,KMDN Kulasekara,PJ Cummins,0,0,0,na,na,na,na,na,bowled,na,na,PJ Cummins
1st innings,19.4,MC Henriques,KMDN Kulasekara,AJ Tye,4,0,4,4,na,na,na,na,na,na,na,na
1st innings,19.5,MC Henriques,KMDN Kulasekara,AJ Tye,0,0,0,na,na,na,na,na,lbw,na,na,AJ Tye
1st innings,19.6,MC Henriques,KMDN Kulasekara,JA Richardson,0,0,0,na,na,na,na,na,bowled,na,na,JA Richardson
2nd innings,0.1,WU Tharanga,AJ Turner,N Dickwella,1,1,0,na,na,na,na,na,na,na,na,na
2nd innings,0.2,N Dickwella,AJ Turner,WU Tharanga,0,0,0,na,na,na,na,na,na,na,na,na
2nd innings,0.3,N Dickwella,AJ Turner,WU Tharanga,4,4,0,na,na,na,na,na,na,na,na,na
2nd innings,0.4,N Dickwella,AJ Turner,WU Tharanga,0,0,0,na,na,na,na,na,na,na,na,na
2nd innings,0.5,N Dickwella,AJ Turner,WU Tharanga,0,0,0,na,na,na,na,na,caught,JA Richardson,na,WU Tharanga
2nd innings,0.6,N Dickwella,AJ Turner,EMDY Munaweera,0,0,0,na,na,na,na,na,na,na,na,na
2nd innings,1.1,EMDY Munaweera,PJ Cummins,N Dickwella,4,4,0,na,na,na,na,na,na,na,na,na
2nd innings,1.2,EMDY Munaweera,PJ Cummins,N Dickwella,0,0,0,na,na,na,na,na,na,na,na,na
2nd innings,1.3,EMDY Munaweera,PJ Cummins,N Dickwella,4,4,0,na,na,na,na,na,na,na,na,na
2nd innings,1.4,EMDY Munaweera,PJ Cummins,N Dickwella,4,4,0,na,na,na,na,na,na,na,na,na
2nd innings,1.5,EMDY Munaweera,PJ Cummins,N Dickwella,1,1,0,na,na,na,na,na,na,na,na,na
2nd innings,1.6,N Dickwella,PJ Cummins,EMDY Munaweera,4,4,0,na,na,na,na,na,na,na,na,na
2nd innings,2.1,EMDY Munaweera,JP Faulkner,N Dickwella,0,0,0,na,na,na,na,na,na,na,na,na
2nd innings,2.2,EMDY Munaweera,JP Faulkner,N Dickwella,0,0,0,na,na,na,na,na,caught,TD Paine,na,N Dickwella
2nd innings,2.3,EMDY Munaweera,JP Faulkner,BKG Mendis,0,0,0,na,na,na,na,na,na,na,na,na
2nd innings,2.4,EMDY Munaweera,JP Faulkner,BKG Mendis,2,2,0,na,na,na,na,na,na,na,na,na
2nd innings,2.5,EMDY Munaweera,JP Faulkner,BKG Mendis,2,2,0,na,na,na,na,na,na,na,na,na
2nd innings,2.6,EMDY Munaweera,JP Faulkner,BKG Mendis,1,1,0,na,na,na,na,na,na,na,na,na
2nd innings,3.1,EMDY Munaweera,JA Richardson,BKG Mendis,0,0,0,na,na,na,na,na,na,na,na,na
2nd innings,3.2,EMDY Munaweera,JA Richardson,BKG Mendis,0,0,0,na,na,na,na,na,na,na,na,na
2nd innings,3.3,EMDY Munaweera,JA Richardson,BKG Mendis,0,0,0,na,na,na,na,na,caught,TD Paine,na,BKG Mendis
2nd innings,3.4,EMDY Munaweera,JA Richardson,DAS Gunaratne,0,0,0,na,na,na,na,na,na,na,na,na
2nd innings,3.5,EMDY Munaweera,JA Richardson,DAS Gunaratne,2,2,0,na,na,na,na,na,na,na,na,na
2nd innings,3.6,EMDY Munaweera,JA Richardson,DAS Gunaratne,4,4,0,na,na,na,na,na,na,na,na,na
2nd innings,4.1,DAS Gunaratne,AJ Tye,EMDY Munaweera,6,6,0,na,na,na,na,na,na,na,na,na
2nd innings,4.2,DAS Gunaratne,AJ Tye,EMDY Munaweera,1,0,1,na,na,1,na,na,na,na,na,na
2nd innings,4.3,DAS Gunaratne,AJ Tye,EMDY Munaweera,0,0,0,na,na,na,na,na,caught,TD Paine,na,EMDY Munaweera
2nd innings,4.4,DAS Gunaratne,AJ Tye,TAM Siriwardana,0,0,0,na,na,na,na,na,caught,AJ Turner,na,TAM Siriwardana
2nd innings,4.5,DAS Gunaratne,AJ Tye,CK Kapugedera,0,0,0,na,na,na,na,na,na,na,na,na
2nd innings,4.6,DAS Gunaratne,AJ Tye,CK Kapugedera,1,1,0,na,na,na,na,na,na,na,na,na
2nd innings,4.7,CK Kapugedera,AJ Tye,DAS Gunaratne,0,0,0,na,na,na,na,na,na,na,na,na
2nd innings,5.1,DAS Gunaratne,JA Richardson,CK Kapugedera,0,0,0,na,na,na,na,na,na,na,na,na
2nd innings,5.2,DAS Gunaratne,JA Richardson,CK Kapugedera,1,1,0,na,na,na,na,na,na,na,na,na
2nd innings,5.3,CK Kapugedera,JA Richardson,DAS Gunaratne,1,1,0,na,na,na,na,na,na,na,na,na
2nd innings,5.4,DAS Gunaratne,JA Richardson,CK Kapugedera,1,1,0,na,na,na,na,na,na,na,na,na
2nd innings,5.5,CK Kapugedera,JA Richardson,DAS Gunaratne,1,1,0,na,na,na,na,na,na,na,na,na
2nd innings,5.6,DAS Gunaratne,JA Richardson,CK Kapugedera,0,0,0,na,na,na,na,na,na,na,na,na
2nd innings,6.1,CK Kapugedera,MC Henriques,DAS Gunaratne,0,0,0,na,na,na,na,na,na,na,na,na
2nd innings,6.2,CK Kapugedera,MC Henriques,DAS Gunaratne,2,2,0,na,na,na,na,na,na,na,na,na
2nd innings,6.3,CK Kapugedera,MC Henriques,DAS Gunaratne,1,1,0,na,na,na,na,na,na,na,na,na
2nd innings,6.4,DAS Gunaratne,MC Henriques,CK Kapugedera,1,1,0,na,na,na,na,na,na,na,na,na
2nd innings,6.5,CK Kapugedera,MC Henriques,DAS Gunaratne,1,1,0,na,na,na,na,na,na,na,na,na
2nd innings,6.6,DAS Gunaratne,MC Henriques,CK Kapugedera,1,1,0,na,na,na,na,na,na,na,na,na
2nd innings,7.1,DAS Gunaratne,AJ Turner,CK Kapugedera,1,1,0,na,na,na,na,na,na,na,na,na
2nd innings,7.2,CK Kapugedera,AJ Turner,DAS Gunaratne,1,0,1,1,na,na,na,na,na,na,na,na
2nd innings,7.3,DAS Gunaratne,AJ Turner,CK Kapugedera,4,4,0,na,na,na,na,na,na,na,na,na
2nd innings,7.4,DAS Gunaratne,AJ Turner,CK Kapugedera,0,0,0,na,na,na,na,na,na,na,na,na
2nd innings,7.5,DAS Gunaratne,AJ Turner,CK Kapugedera,4,4,0,na,na,na,na,na,na,na,na,na
2nd innings,7.6,DAS Gunaratne,AJ Turner,CK Kapugedera,1,1,0,na,na,na,na,na,na,na,na,na
2nd innings,8.1,DAS Gunaratne,PJ Cummins,CK Kapugedera,0,0,0,na,na,na,na,na,na,na,na,na
2nd innings,8.2,DAS Gunaratne,PJ Cummins,CK Kapugedera,1,1,0,na,na,na,na,na,na,na,na,na
2nd innings,8.3,CK Kapugedera,PJ Cummins,DAS Gunaratne,1,1,0,na,na,na,na,na,na,na,na,na
2nd innings,8.4,DAS Gunaratne,PJ Cummins,CK Kapugedera,1,1,0,na,na,na,na,na,na,na,na,na
2nd innings,8.5,CK Kapugedera,PJ Cummins,DAS Gunaratne,1,1,0,na,na,na,na,na,na,na,na,na
2nd innings,8.6,DAS Gunaratne,PJ Cummins,CK Kapugedera,0,0,0,na,na,na,na,na,na,na,na,na
2nd innings,9.1,CK Kapugedera,JP Faulkner,DAS Gunaratne,1,1,0,na,na,na,na,na,na,na,na,na
2nd innings,9.2,DAS Gunaratne,JP Faulkner,CK Kapugedera,4,4,0,na,na,na,na,na,na,na,na,na
2nd innings,9.3,DAS Gunaratne,JP Faulkner,CK Kapugedera,1,1,0,na,na,na,na,na,na,na,na,na
2nd innings,9.4,CK Kapugedera,JP Faulkner,DAS Gunaratne,1,1,0,na,na,na,na,na,na,na,na,na
2nd innings,9.5,DAS Gunaratne,JP Faulkner,CK Kapugedera,0,0,0,na,na,na,na,na,na,na,na,na
2nd innings,9.6,DAS Gunaratne,JP Faulkner,CK Kapugedera,1,1,0,na,na,na,na,na,na,na,na,na
2nd innings,10.1,DAS Gunaratne,AJ Tye,CK Kapugedera,0,0,0,na,na,na,na,na,na,na,na,na
2nd innings,10.2,DAS Gunaratne,AJ Tye,CK Kapugedera,2,2,0,na,na,na,na,na,na,na,na,na
2nd innings,10.3,DAS Gunaratne,AJ Tye,CK Kapugedera,0,0,0,na,na,na,na,na,na,na,na,na
2nd innings,10.4,DAS Gunaratne,AJ Tye,CK Kapugedera,1,1,0,na,na,na,na,na,na,na,na,na
2nd innings,10.5,CK Kapugedera,AJ Tye,DAS Gunaratne,4,4,0,na,na,na,na,na,na,na,na,na
2nd innings,10.6,CK Kapugedera,AJ Tye,DAS Gunaratne,2,2,0,na,na,na,na,na,na,na,na,na
2nd innings,11.1,DAS Gunaratne,MC Henriques,CK Kapugedera,1,1,0,na,na,na,na,na,na,na,na,na
2nd innings,11.2,CK Kapugedera,MC Henriques,DAS Gunaratne,1,1,0,na,na,na,na,na,na,na,na,na
2nd innings,11.3,DAS Gunaratne,MC Henriques,CK Kapugedera,0,0,0,na,na,na,na,na,na,na,na,na
2nd innings,11.4,DAS Gunaratne,MC Henriques,CK Kapugedera,0,0,0,na,na,na,na,na,na,na,na,na
2nd innings,11.5,DAS Gunaratne,MC Henriques,CK Kapugedera,1,1,0,na,na,na,na,na,na,na,na,na
2nd innings,11.6,CK Kapugedera,MC Henriques,DAS Gunaratne,2,2,0,na,na,na,na,na,na,na,na,na
2nd innings,12.1,DAS Gunaratne,PJ Cummins,CK Kapugedera,4,4,0,na,na,na,na,na,na,na,na,na
2nd innings,12.2,DAS Gunaratne,PJ Cummins,CK Kapugedera,0,0,0,na,na,na,na,na,na,na,na,na
2nd innings,12.3,DAS Gunaratne,PJ Cummins,CK Kapugedera,0,0,0,na,na,na,na,na,caught,BR Dunk,na,CK Kapugedera
2nd innings,12.4,S Prasanna,PJ Cummins,DAS Gunaratne,0,0,0,na,na,na,na,na,na,na,na,na
2nd innings,12.5,S Prasanna,PJ Cummins,DAS Gunaratne,1,1,0,na,na,na,na,na,na,na,na,na
2nd innings,12.6,DAS Gunaratne,PJ Cummins,S Prasanna,1,0,1,na,na,1,na,na,na,na,na,na
2nd innings,12.7,DAS Gunaratne,PJ Cummins,S Prasanna,1,1,0,na,na,na,na,na,na,na,na,na
2nd innings,13.1,DAS Gunaratne,JA Richardson,S Prasanna,1,0,1,1,na,na,na,na,na,na,na,na
2nd innings,13.2,S Prasanna,JA Richardson,DAS Gunaratne,6,6,0,na,na,na,na,na,na,na,na,na
2nd innings,13.3,S Prasanna,JA Richardson,DAS Gunaratne,4,4,0,na,na,na,na,na,na,na,na,na
2nd innings,13.4,S Prasanna,JA Richardson,DAS Gunaratne,1,1,0,na,na,na,na,na,na,na,na,na
2nd innings,13.5,DAS Gunaratne,JA Richardson,S Prasanna,1,1,0,na,na,na,na,na,na,na,na,na
2nd innings,13.6,S Prasanna,JA Richardson,DAS Gunaratne,2,2,0,na,na,na,na,na,na,na,na,na
2nd innings,14.1,DAS Gunaratne,MC Henriques,S Prasanna,0,0,0,na,na,na,na,na,na,na,na,na
2nd innings,14.2,DAS Gunaratne,MC Henriques,S Prasanna,0,0,0,na,na,na,na,na,na,na,na,na
2nd innings,14.3,DAS Gunaratne,MC Henriques,S Prasanna,2,0,2,na,na,2,na,na,na,na,na,na
2nd innings,14.4,S Prasanna,MC Henriques,DAS Gunaratne,0,0,0,na,na,na,na,na,na,na,na,na
2nd innings,14.5,S Prasanna,MC Henriques,DAS Gunaratne,1,1,0,na,na,na,na,na,na,na,na,na
2nd innings,14.6,DAS Gunaratne,MC Henriques,S Prasanna,0,0,0,na,na,na,na,na,na,na,na,na
2nd innings,14.7,DAS Gunaratne,MC Henriques,S Prasanna,1,0,1,na,na,1,na,na,na,na,na,na
2nd innings,14.8,DAS Gunaratne,MC Henriques,S Prasanna,1,1,0,na,na,na,na,na,na,na,na,na
2nd innings,15.1,DAS Gunaratne,JP Faulkner,S Prasanna,4,4,0,na,na,na,na,na,na,na,na,na
2nd innings,15.2,DAS Gunaratne,JP Faulkner,S Prasanna,0,0,0,na,na,na,na,na,caught,TM Head,na,S Prasanna
2nd innings,15.3,KMDN Kulasekara,JP Faulkner,DAS Gunaratne,0,0,0,na,na,na,na,na,na,na,na,na
2nd innings,15.4,KMDN Kulasekara,JP Faulkner,DAS Gunaratne,1,1,0,na,na,na,na,na,na,na,na,na
2nd innings,15.5,DAS Gunaratne,JP Faulkner,KMDN Kulasekara,1,1,0,na,na,na,na,na,na,na,na,na
2nd innings,15.6,KMDN Kulasekara,JP Faulkner,DAS Gunaratne,1,1,0,na,na,na,na,na,na,na,na,na
2nd innings,16.1,KMDN Kulasekara,AJ Tye,DAS Gunaratne,0,0,0,na,na,na,na,na,na,na,na,na
2nd innings,16.2,KMDN Kulasekara,AJ Tye,DAS Gunaratne,0,0,0,na,na,na,na,na,na,na,na,na
2nd innings,16.3,KMDN Kulasekara,AJ Tye,DAS Gunaratne,2,2,0,na,na,na,na,na,na,na,na,na
2nd innings,16.4,KMDN Kulasekara,AJ Tye,DAS Gunaratne,1,1,0,na,na,na,na,na,na,na,na,na
2nd innings,16.5,DAS Gunaratne,AJ Tye,KMDN Kulasekara,0,0,0,na,na,na,na,na,na,na,na,na
2nd innings,16.6,DAS Gunaratne,AJ Tye,KMDN Kulasekara,1,1,0,na,na,na,na,na,na,na,na,na
2nd innings,17.1,DAS Gunaratne,JP Faulkner,KMDN Kulasekara,1,1,0,na,na,na,na,na,na,na,na,na
2nd innings,17.2,KMDN Kulasekara,JP Faulkner,DAS Gunaratne,1,1,0,na,na,na,na,na,na,na,na,na
2nd innings,17.3,DAS Gunaratne,JP Faulkner,KMDN Kulasekara,4,4,0,na,na,na,na,na,na,na,na,na
2nd innings,17.4,DAS Gunaratne,JP Faulkner,KMDN Kulasekara,4,4,0,na,na,na,na,na,na,na,na,na
2nd innings,17.5,DAS Gunaratne,JP Faulkner,KMDN Kulasekara,1,1,0,na,na,na,na,na,na,na,na,na
2nd innings,17.6,KMDN Kulasekara,JP Faulkner,DAS Gunaratne,1,1,0,na,na,na,na,na,na,na,na,na
2nd innings,18.1,KMDN Kulasekara,MC Henriques,DAS Gunaratne,0,0,0,na,na,na,na,na,na,na,na,na
2nd innings,18.2,KMDN Kulasekara,MC Henriques,DAS Gunaratne,6,6,0,na,na,na,na,na,na,na,na,na
2nd innings,18.3,KMDN Kulasekara,MC Henriques,DAS Gunaratne,6,6,0,na,na,na,na,na,na,na,na,na
2nd innings,18.4,KMDN Kulasekara,MC Henriques,DAS Gunaratne,6,6,0,na,na,na,na,na,na,na,na,na
2nd innings,18.5,KMDN Kulasekara,MC Henriques,DAS Gunaratne,0,0,0,na,na,na,na,na,na,na,na,na
2nd innings,18.6,KMDN Kulasekara,MC Henriques,DAS Gunaratne,4,4,0,na,na,na,na,na,na,na,na,na
2nd innings,19.1,DAS Gunaratne,AJ Tye,KMDN Kulasekara,0,0,0,na,na,na,na,na,caught,M Klinger,na,KMDN Kulasekara
2nd innings,19.2,SL Malinga,AJ Tye,DAS Gunaratne,4,4,0,na,na,na,na,na,na,na,na,na
2nd innings,19.3,SL Malinga,AJ Tye,DAS Gunaratne,6,6,0,na,na,na,na,na,na,na,na,na
2nd innings,19.4,SL Malinga,AJ Tye,DAS Gunaratne,1,1,0,na,na,na,na,na,na,na,na,na
2nd innings,19.5,DAS Gunaratne,AJ Tye,SL Malinga,1,1,0,na,na,na,na,na,na,na,na,na
2nd innings,19.6,SL Malinga,AJ Tye,DAS Gunaratne,4,4,0,na,na,na,na,na,na,na,na,na
