inngs,deliveries,non_striker,bowler,batsman,totalruns,batsman_runs,extra_runs,legbyes,byes,wides,noballs,penalty,wicket_kind,fielder1,fielder2,player_out
1st innings,0.1,Imrul Kayes,BM Wheeler,Tamim Iqbal,0,0,0,na,na,na,na,na,na,na,na,na
1st innings,0.2,Imrul Kayes,BM Wheeler,Tamim Iqbal,0,0,0,na,na,na,na,na,na,na,na,na
1st innings,0.3,Imrul Kayes,BM Wheeler,Tamim Iqbal,0,0,0,na,na,na,na,na,na,na,na,na
1st innings,0.4,Imrul Kayes,BM Wheeler,Tamim Iqbal,0,0,0,na,na,na,na,na,na,na,na,na
1st innings,0.5,Imrul Kayes,BM Wheeler,Tamim Iqbal,1,0,1,na,na,1,na,na,na,na,na,na
1st innings,0.6,Imrul Kayes,BM Wheeler,Tamim Iqbal,2,2,0,na,na,na,na,na,na,na,na,na
1st innings,0.7,Imrul Kayes,BM Wheeler,Tamim Iqbal,1,1,0,na,na,na,na,na,na,na,na,na
1st innings,1.1,Imrul Kayes,MJ Henry,Tamim Iqbal,1,1,0,na,na,na,na,na,na,na,na,na
1st innings,1.2,Tamim Iqbal,MJ Henry,Imrul Kayes,0,0,0,na,na,na,na,na,na,na,na,na
1st innings,1.3,Tamim Iqbal,MJ Henry,Imrul Kayes,0,0,0,na,na,na,na,na,caught,L Ronchi,na,Imrul Kayes
1st innings,1.4,Tamim Iqbal,MJ Henry,Sabbir Rahman,1,0,1,na,na,1,na,na,na,na,na,na
1st innings,1.5,Tamim Iqbal,MJ Henry,Sabbir Rahman,0,0,0,na,na,na,na,na,na,na,na,na
1st innings,1.6,Tamim Iqbal,MJ Henry,Sabbir Rahman,4,4,0,na,na,na,na,na,na,na,na,na
1st innings,1.7,Tamim Iqbal,MJ Henry,Sabbir Rahman,1,1,0,na,na,na,na,na,na,na,na,na
1st innings,2.1,Tamim Iqbal,BM Wheeler,Sabbir Rahman,0,0,0,na,na,na,na,na,na,na,na,na
1st innings,2.2,Tamim Iqbal,BM Wheeler,Sabbir Rahman,0,0,0,na,na,na,na,na,na,na,na,na
1st innings,2.3,Tamim Iqbal,BM Wheeler,Sabbir Rahman,0,0,0,na,na,na,na,na,na,na,na,na
1st innings,2.4,Tamim Iqbal,BM Wheeler,Sabbir Rahman,0,0,0,na,na,na,na,na,na,na,na,na
1st innings,2.5,Tamim Iqbal,BM Wheeler,Sabbir Rahman,0,0,0,na,na,na,na,na,na,na,na,na
1st innings,2.6,Tamim Iqbal,BM Wheeler,Sabbir Rahman,1,1,0,na,na,na,na,na,na,na,na,na
1st innings,3.1,Tamim Iqbal,MJ Henry,Sabbir Rahman,6,6,0,na,na,na,na,na,na,na,na,na
1st innings,3.2,Tamim Iqbal,MJ Henry,Sabbir Rahman,0,0,0,na,na,na,na,na,na,na,na,na
1st innings,3.3,Tamim Iqbal,MJ Henry,Sabbir Rahman,1,1,0,na,na,na,na,na,na,na,na,na
1st innings,3.4,Sabbir Rahman,MJ Henry,Tamim Iqbal,0,0,0,na,na,na,na,na,na,na,na,na
1st innings,3.5,Sabbir Rahman,MJ Henry,Tamim Iqbal,1,1,0,na,na,na,na,na,na,na,na,na
1st innings,3.6,Tamim Iqbal,MJ Henry,Sabbir Rahman,2,2,0,na,na,na,na,na,na,na,na,na
1st innings,4.1,Sabbir Rahman,BM Wheeler,Tamim Iqbal,2,2,0,na,na,na,na,na,na,na,na,na
1st innings,4.2,Sabbir Rahman,BM Wheeler,Tamim Iqbal,0,0,0,na,na,na,na,na,na,na,na,na
1st innings,4.3,Sabbir Rahman,BM Wheeler,Tamim Iqbal,4,4,0,na,na,na,na,na,na,na,na,na
1st innings,4.4,Sabbir Rahman,BM Wheeler,Tamim Iqbal,0,0,0,na,na,na,na,na,caught,TC Bruce,na,Tamim Iqbal
1st innings,4.5,Sabbir Rahman,BM Wheeler,Shakib Al Hasan,1,1,0,na,na,na,na,na,na,na,na,na
1st innings,4.6,Shakib Al Hasan,BM Wheeler,Sabbir Rahman,1,1,0,na,na,na,na,na,na,na,na,na
1st innings,5.1,Shakib Al Hasan,LH Ferguson,Sabbir Rahman,0,0,0,na,na,na,na,na,caught,MJ Henry,na,Sabbir Rahman
1st innings,5.2,Shakib Al Hasan,LH Ferguson,Soumya Sarkar,0,0,0,na,na,na,na,na,caught,CJ Anderson,na,Soumya Sarkar
1st innings,5.3,Shakib Al Hasan,LH Ferguson,Mahmudullah,0,0,0,na,na,na,na,na,na,na,na,na
1st innings,5.4,Shakib Al Hasan,LH Ferguson,Mahmudullah,0,0,0,na,na,na,na,na,na,na,na,na
1st innings,5.5,Shakib Al Hasan,LH Ferguson,Mahmudullah,0,0,0,na,na,na,na,na,na,na,na,na
1st innings,5.6,Shakib Al Hasan,LH Ferguson,Mahmudullah,4,4,0,na,na,na,na,na,na,na,na,na
1st innings,6.1,Mahmudullah,C de Grandhomme,Shakib Al Hasan,0,0,0,na,na,na,na,na,na,na,na,na
1st innings,6.2,Mahmudullah,C de Grandhomme,Shakib Al Hasan,1,1,0,na,na,na,na,na,na,na,na,na
1st innings,6.3,Shakib Al Hasan,C de Grandhomme,Mahmudullah,1,1,0,na,na,na,na,na,na,na,na,na
1st innings,6.4,Mahmudullah,C de Grandhomme,Shakib Al Hasan,1,1,0,na,na,na,na,na,na,na,na,na
1st innings,6.5,Shakib Al Hasan,C de Grandhomme,Mahmudullah,0,0,0,na,na,na,na,na,na,na,na,na
1st innings,6.6,Shakib Al Hasan,C de Grandhomme,Mahmudullah,1,1,0,na,na,na,na,na,na,na,na,na
1st innings,7.1,Shakib Al Hasan,LH Ferguson,Mahmudullah,0,0,0,na,na,na,na,na,na,na,na,na
1st innings,7.2,Shakib Al Hasan,LH Ferguson,Mahmudullah,0,0,0,na,na,na,na,na,na,na,na,na
1st innings,7.3,Shakib Al Hasan,LH Ferguson,Mahmudullah,1,1,0,na,na,na,na,na,na,na,na,na
1st innings,7.4,Mahmudullah,LH Ferguson,Shakib Al Hasan,2,2,0,na,na,na,na,na,na,na,na,na
1st innings,7.5,Mahmudullah,LH Ferguson,Shakib Al Hasan,5,0,5,na,na,5,na,na,na,na,na,na
1st innings,7.6,Mahmudullah,LH Ferguson,Shakib Al Hasan,0,0,0,na,na,na,na,na,na,na,na,na
1st innings,7.7,Mahmudullah,LH Ferguson,Shakib Al Hasan,2,2,0,na,na,na,na,na,na,na,na,na
1st innings,8.1,Shakib Al Hasan,C de Grandhomme,Mahmudullah,6,6,0,na,na,na,na,na,na,na,na,na
1st innings,8.2,Shakib Al Hasan,C de Grandhomme,Mahmudullah,1,1,0,na,na,na,na,na,na,na,na,na
1st innings,8.3,Mahmudullah,C de Grandhomme,Shakib Al Hasan,1,1,0,na,na,na,na,na,na,na,na,na
1st innings,8.4,Shakib Al Hasan,C de Grandhomme,Mahmudullah,2,2,0,na,na,na,na,na,na,na,na,na
1st innings,8.5,Shakib Al Hasan,C de Grandhomme,Mahmudullah,1,1,0,na,na,na,na,na,na,na,na,na
1st innings,8.6,Mahmudullah,C de Grandhomme,Shakib Al Hasan,1,1,0,na,na,na,na,na,na,na,na,na
1st innings,9.1,Mahmudullah,MJ Santner,Shakib Al Hasan,1,1,0,na,na,na,na,na,na,na,na,na
1st innings,9.2,Shakib Al Hasan,MJ Santner,Mahmudullah,0,0,0,na,na,na,na,na,na,na,na,na
1st innings,9.3,Shakib Al Hasan,MJ Santner,Mahmudullah,1,1,0,na,na,na,na,na,na,na,na,na
1st innings,9.4,Mahmudullah,MJ Santner,Shakib Al Hasan,2,2,0,na,na,na,na,na,na,na,na,na
1st innings,9.5,Mahmudullah,MJ Santner,Shakib Al Hasan,1,1,0,na,na,na,na,na,na,na,na,na
1st innings,9.6,Shakib Al Hasan,MJ Santner,Mahmudullah,0,0,0,na,na,na,na,na,na,na,na,na
1st innings,10.1,Mahmudullah,C de Grandhomme,Shakib Al Hasan,1,1,0,na,na,na,na,na,na,na,na,na
1st innings,10.2,Shakib Al Hasan,C de Grandhomme,Mahmudullah,0,0,0,na,na,na,na,na,na,na,na,na
1st innings,10.3,Shakib Al Hasan,C de Grandhomme,Mahmudullah,1,1,0,na,na,na,na,na,na,na,na,na
1st innings,10.4,Mahmudullah,C de Grandhomme,Shakib Al Hasan,0,0,0,na,na,na,na,na,caught,MJ Santner,na,Shakib Al Hasan
1st innings,10.5,Mosaddek Hossain,C de Grandhomme,Mahmudullah,0,0,0,na,na,na,na,na,na,na,na,na
1st innings,10.6,Mosaddek Hossain,C de Grandhomme,Mahmudullah,0,0,0,na,na,na,na,na,na,na,na,na
1st innings,11.1,Mahmudullah,MJ Santner,Mosaddek Hossain,1,1,0,na,na,na,na,na,na,na,na,na
1st innings,11.2,Mosaddek Hossain,MJ Santner,Mahmudullah,1,1,0,na,na,na,na,na,na,na,na,na
1st innings,11.3,Mahmudullah,MJ Santner,Mosaddek Hossain,1,1,0,na,na,na,na,na,na,na,na,na
1st innings,11.4,Mosaddek Hossain,MJ Santner,Mahmudullah,0,0,0,na,na,na,na,na,na,na,na,na
1st innings,11.5,Mosaddek Hossain,MJ Santner,Mahmudullah,0,0,0,na,na,na,na,na,na,na,na,na
1st innings,11.6,Mosaddek Hossain,MJ Santner,Mahmudullah,0,0,0,na,na,na,na,na,na,na,na,na
1st innings,12.1,Mahmudullah,C de Grandhomme,Mosaddek Hossain,1,0,1,na,na,1,na,na,na,na,na,na
1st innings,12.2,Mahmudullah,C de Grandhomme,Mosaddek Hossain,0,0,0,na,na,na,na,na,na,na,na,na
1st innings,12.3,Mahmudullah,C de Grandhomme,Mosaddek Hossain,0,0,0,na,na,na,na,na,na,na,na,na
1st innings,12.4,Mahmudullah,C de Grandhomme,Mosaddek Hossain,1,0,1,na,na,1,na,na,na,na,na,na
1st innings,12.5,Mahmudullah,C de Grandhomme,Mosaddek Hossain,1,1,0,na,na,na,na,na,na,na,na,na
1st innings,12.6,Mosaddek Hossain,C de Grandhomme,Mahmudullah,1,1,0,na,na,na,na,na,na,na,na,na
1st innings,12.7,Mahmudullah,C de Grandhomme,Mosaddek Hossain,0,0,0,na,na,na,na,na,na,na,na,na
1st innings,12.8,Mahmudullah,C de Grandhomme,Mosaddek Hossain,1,1,0,na,na,na,na,na,na,na,na,na
1st innings,13.1,Mahmudullah,MJ Santner,Mosaddek Hossain,1,1,0,na,na,na,na,na,na,na,na,na
1st innings,13.2,Mosaddek Hossain,MJ Santner,Mahmudullah,1,1,0,na,na,na,na,na,na,na,na,na
1st innings,13.3,Mahmudullah,MJ Santner,Mosaddek Hossain,0,0,0,na,na,na,na,na,na,na,na,na
1st innings,13.4,Mahmudullah,MJ Santner,Mosaddek Hossain,6,6,0,na,na,na,na,na,na,na,na,na
1st innings,13.5,Mahmudullah,MJ Santner,Mosaddek Hossain,1,0,1,na,na,1,na,na,na,na,na,na
1st innings,13.6,Mahmudullah,MJ Santner,Mosaddek Hossain,0,0,0,na,na,na,na,na,na,na,na,na
1st innings,13.7,Mahmudullah,MJ Santner,Mosaddek Hossain,0,0,0,na,na,na,na,na,na,na,na,na
1st innings,14.1,Mosaddek Hossain,LH Ferguson,Mahmudullah,0,0,0,na,na,na,na,na,na,na,na,na
1st innings,14.2,Mosaddek Hossain,LH Ferguson,Mahmudullah,1,1,0,na,na,na,na,na,na,na,na,na
1st innings,14.3,Mahmudullah,LH Ferguson,Mosaddek Hossain,6,6,0,na,na,na,na,na,na,na,na,na
1st innings,14.4,Mahmudullah,LH Ferguson,Mosaddek Hossain,1,1,0,na,na,na,na,na,na,na,na,na
1st innings,14.5,Mosaddek Hossain,LH Ferguson,Mahmudullah,1,0,1,na,na,1,na,na,na,na,na,na
1st innings,14.6,Mosaddek Hossain,LH Ferguson,Mahmudullah,1,0,1,na,na,1,na,na,na,na,na,na
1st innings,14.7,Mosaddek Hossain,LH Ferguson,Mahmudullah,1,1,0,na,na,na,na,na,na,na,na,na
1st innings,14.8,Mahmudullah,LH Ferguson,Mosaddek Hossain,1,0,1,na,na,1,na,na,na,na,na,na
1st innings,14.9,Mahmudullah,LH Ferguson,Mosaddek Hossain,1,1,0,na,na,na,na,na,na,na,na,na
1st innings,15.1,Mahmudullah,MJ Santner,Mosaddek Hossain,1,1,0,na,na,na,na,na,na,na,na,na
1st innings,15.2,Mosaddek Hossain,MJ Santner,Mahmudullah,1,1,0,na,na,na,na,na,na,na,na,na
1st innings,15.3,Mahmudullah,MJ Santner,Mosaddek Hossain,0,0,0,na,na,na,na,na,caught,CJ Anderson,na,Mosaddek Hossain
1st innings,15.4,Mashrafe Mortaza,MJ Santner,Mahmudullah,0,0,0,na,na,na,na,na,na,na,na,na
1st innings,15.5,Mashrafe Mortaza,MJ Santner,Mahmudullah,1,1,0,na,na,na,na,na,na,na,na,na
1st innings,15.6,Mahmudullah,MJ Santner,Mashrafe Mortaza,0,0,0,na,na,na,na,na,na,na,na,na
1st innings,16.1,Mashrafe Mortaza,MJ Henry,Mahmudullah,1,0,1,na,na,1,na,na,na,na,na,na
1st innings,16.2,Mashrafe Mortaza,MJ Henry,Mahmudullah,4,4,0,na,na,na,na,na,na,na,na,na
1st innings,16.3,Mashrafe Mortaza,MJ Henry,Mahmudullah,0,0,0,na,na,na,na,na,na,na,na,na
1st innings,16.4,Mashrafe Mortaza,MJ Henry,Mahmudullah,6,6,0,na,na,na,na,na,na,na,na,na
1st innings,16.5,Mashrafe Mortaza,MJ Henry,Mahmudullah,0,0,0,na,na,na,na,na,na,na,na,na
1st innings,16.6,Mashrafe Mortaza,MJ Henry,Mahmudullah,1,1,0,na,na,na,na,na,na,na,na,na
1st innings,16.7,Mahmudullah,MJ Henry,Mashrafe Mortaza,1,0,1,na,na,1,na,na,na,na,na,na
1st innings,16.8,Mahmudullah,MJ Henry,Mashrafe Mortaza,1,1,0,na,na,na,na,na,na,na,na,na
1st innings,17.1,Mahmudullah,BM Wheeler,Mashrafe Mortaza,0,0,0,na,na,na,na,na,caught,C de Grandhomme,na,Mashrafe Mortaza
1st innings,17.2,Mahmudullah,BM Wheeler,Nurul Hasan,1,1,0,na,na,na,na,na,na,na,na,na
1st innings,17.3,Nurul Hasan,BM Wheeler,Mahmudullah,1,0,1,na,na,1,na,na,na,na,na,na
1st innings,17.4,Nurul Hasan,BM Wheeler,Mahmudullah,0,0,0,na,na,na,na,na,na,na,na,na
1st innings,17.5,Nurul Hasan,BM Wheeler,Mahmudullah,0,0,0,na,na,na,na,na,na,na,na,na
1st innings,17.6,Nurul Hasan,BM Wheeler,Mahmudullah,1,0,1,na,na,1,na,na,na,na,na,na
1st innings,17.7,Nurul Hasan,BM Wheeler,Mahmudullah,1,0,1,na,na,1,na,na,na,na,na,na
1st innings,17.8,Nurul Hasan,BM Wheeler,Mahmudullah,4,4,0,na,na,na,na,na,na,na,na,na
1st innings,17.9,Nurul Hasan,BM Wheeler,Mahmudullah,1,1,0,na,na,na,na,na,na,na,na,na
1st innings,18.1,Nurul Hasan,MJ Henry,Mahmudullah,6,6,0,na,na,na,na,na,na,na,na,na
1st innings,18.2,Nurul Hasan,MJ Henry,Mahmudullah,1,1,0,na,na,na,na,na,na,na,na,na
1st innings,18.3,Mahmudullah,MJ Henry,Nurul Hasan,1,1,0,na,na,na,na,na,na,na,na,na
1st innings,18.4,Nurul Hasan,MJ Henry,Mahmudullah,1,1,0,na,na,na,na,na,na,na,na,na
1st innings,18.5,Mahmudullah,MJ Henry,Nurul Hasan,0,0,0,na,na,na,na,na,na,na,na,na
1st innings,18.6,Mahmudullah,MJ Henry,Nurul Hasan,4,4,0,na,na,na,na,na,na,na,na,na
1st innings,19.1,Nurul Hasan,LH Ferguson,Mahmudullah,2,2,0,na,na,na,na,na,na,na,na,na
1st innings,19.2,Nurul Hasan,LH Ferguson,Mahmudullah,0,0,0,na,na,na,na,na,bowled,na,na,Mahmudullah
1st innings,19.3,Nurul Hasan,LH Ferguson,Rubel Hossain,1,1,0,na,na,na,na,na,na,na,na,na
1st innings,19.4,Rubel Hossain,LH Ferguson,Nurul Hasan,0,0,0,na,na,na,na,na,na,na,na,na
1st innings,19.5,Rubel Hossain,LH Ferguson,Nurul Hasan,1,1,0,na,na,na,na,na,na,na,na,na
1st innings,19.6,Nurul Hasan,LH Ferguson,Rubel Hossain,1,1,0,na,na,na,na,na,na,na,na,na
2nd innings,0.1,KS Williamson,Shakib Al Hasan,NT Broom,1,1,0,na,na,na,na,na,na,na,na,na
2nd innings,0.2,NT Broom,Shakib Al Hasan,KS Williamson,1,1,0,na,na,na,na,na,na,na,na,na
2nd innings,0.3,KS Williamson,Shakib Al Hasan,NT Broom,0,0,0,na,na,na,na,na,na,na,na,na
2nd innings,0.4,KS Williamson,Shakib Al Hasan,NT Broom,1,1,0,na,na,na,na,na,na,na,na,na
2nd innings,0.5,NT Broom,Shakib Al Hasan,KS Williamson,4,4,0,na,na,na,na,na,na,na,na,na
2nd innings,0.6,NT Broom,Shakib Al Hasan,KS Williamson,1,1,0,na,na,na,na,na,na,na,na,na
2nd innings,1.1,NT Broom,Mashrafe Mortaza,KS Williamson,4,4,0,na,na,na,na,na,na,na,na,na
2nd innings,1.2,NT Broom,Mashrafe Mortaza,KS Williamson,2,2,0,na,na,na,na,na,na,na,na,na
2nd innings,1.3,NT Broom,Mashrafe Mortaza,KS Williamson,1,1,0,na,na,na,na,na,na,na,na,na
2nd innings,1.4,KS Williamson,Mashrafe Mortaza,NT Broom,1,0,1,1,na,na,na,na,na,na,na,na
2nd innings,1.5,NT Broom,Mashrafe Mortaza,KS Williamson,1,1,0,na,na,na,na,na,na,na,na,na
2nd innings,1.6,KS Williamson,Mashrafe Mortaza,NT Broom,0,0,0,na,na,na,na,na,na,na,na,na
2nd innings,2.1,NT Broom,Rubel Hossain,KS Williamson,1,1,0,na,na,na,na,na,na,na,na,na
2nd innings,2.2,KS Williamson,Rubel Hossain,NT Broom,4,4,0,na,na,na,na,na,na,na,na,na
2nd innings,2.3,KS Williamson,Rubel Hossain,NT Broom,0,0,0,na,na,na,na,na,caught,Shakib Al Hasan,na,NT Broom
2nd innings,2.4,C Munro,Rubel Hossain,KS Williamson,4,4,0,na,na,na,na,na,na,na,na,na
2nd innings,2.5,C Munro,Rubel Hossain,KS Williamson,0,0,0,na,na,na,na,na,na,na,na,na
2nd innings,2.6,C Munro,Rubel Hossain,KS Williamson,2,2,0,na,na,na,na,na,na,na,na,na
2nd innings,3.1,KS Williamson,Mustafizur Rahman,C Munro,0,0,0,na,na,na,na,na,na,na,na,na
2nd innings,3.2,KS Williamson,Mustafizur Rahman,C Munro,0,0,0,na,na,na,na,na,caught,Nurul Hasan,na,C Munro
2nd innings,3.3,KS Williamson,Mustafizur Rahman,CJ Anderson,0,0,0,na,na,na,na,na,na,na,na,na
2nd innings,3.4,KS Williamson,Mustafizur Rahman,CJ Anderson,1,1,0,na,na,na,na,na,na,na,na,na
2nd innings,3.5,CJ Anderson,Mustafizur Rahman,KS Williamson,1,1,0,na,na,na,na,na,na,na,na,na
2nd innings,3.6,KS Williamson,Mustafizur Rahman,CJ Anderson,0,0,0,na,na,na,na,na,na,na,na,na
2nd innings,4.1,CJ Anderson,Rubel Hossain,KS Williamson,0,0,0,na,na,na,na,na,na,na,na,na
2nd innings,4.2,CJ Anderson,Rubel Hossain,KS Williamson,1,1,0,na,na,na,na,na,na,na,na,na
2nd innings,4.3,KS Williamson,Rubel Hossain,CJ Anderson,1,1,0,na,na,na,na,na,na,na,na,na
2nd innings,4.4,CJ Anderson,Rubel Hossain,KS Williamson,1,1,0,na,na,na,na,na,na,na,na,na
2nd innings,4.5,KS Williamson,Rubel Hossain,CJ Anderson,0,0,0,na,na,na,na,na,na,na,na,na
2nd innings,4.6,KS Williamson,Rubel Hossain,CJ Anderson,1,1,0,na,na,na,na,na,na,na,na,na
2nd innings,5.1,KS Williamson,Mustafizur Rahman,CJ Anderson,4,4,0,na,na,na,na,na,na,na,na,na
2nd innings,5.2,KS Williamson,Mustafizur Rahman,CJ Anderson,0,0,0,na,na,na,na,na,na,na,na,na
2nd innings,5.3,KS Williamson,Mustafizur Rahman,CJ Anderson,2,2,0,na,na,na,na,na,na,na,na,na
2nd innings,5.4,KS Williamson,Mustafizur Rahman,CJ Anderson,1,0,1,na,na,1,na,na,na,na,na,na
2nd innings,5.5,KS Williamson,Mustafizur Rahman,CJ Anderson,2,2,0,na,na,na,na,na,na,na,na,na
2nd innings,5.6,KS Williamson,Mustafizur Rahman,CJ Anderson,0,0,0,na,na,na,na,na,na,na,na,na
2nd innings,5.7,KS Williamson,Mustafizur Rahman,CJ Anderson,0,0,0,na,na,na,na,na,na,na,na,na
2nd innings,6.1,CJ Anderson,Shakib Al Hasan,KS Williamson,1,1,0,na,na,na,na,na,na,na,na,na
2nd innings,6.2,KS Williamson,Shakib Al Hasan,CJ Anderson,2,2,0,na,na,na,na,na,na,na,na,na
2nd innings,6.3,KS Williamson,Shakib Al Hasan,CJ Anderson,0,0,0,na,na,na,na,na,caught,Tamim Iqbal,na,CJ Anderson
2nd innings,6.4,TC Bruce,Shakib Al Hasan,KS Williamson,0,0,0,na,na,na,na,na,na,na,na,na
2nd innings,6.5,TC Bruce,Shakib Al Hasan,KS Williamson,0,0,0,na,na,na,na,na,na,na,na,na
2nd innings,6.6,TC Bruce,Shakib Al Hasan,KS Williamson,1,1,0,na,na,na,na,na,na,na,na,na
2nd innings,7.1,TC Bruce,Mashrafe Mortaza,KS Williamson,1,1,0,na,na,na,na,na,na,na,na,na
2nd innings,7.2,KS Williamson,Mashrafe Mortaza,TC Bruce,0,0,0,na,na,na,na,na,na,na,na,na
2nd innings,7.3,KS Williamson,Mashrafe Mortaza,TC Bruce,1,1,0,na,na,na,na,na,na,na,na,na
2nd innings,7.4,TC Bruce,Mashrafe Mortaza,KS Williamson,1,1,0,na,na,na,na,na,na,na,na,na
2nd innings,7.5,KS Williamson,Mashrafe Mortaza,TC Bruce,1,1,0,na,na,na,na,na,na,na,na,na
2nd innings,7.6,TC Bruce,Mashrafe Mortaza,KS Williamson,0,0,0,na,na,na,na,na,na,na,na,na
2nd innings,8.1,KS Williamson,Shakib Al Hasan,TC Bruce,1,1,0,na,na,na,na,na,na,na,na,na
2nd innings,8.2,TC Bruce,Shakib Al Hasan,KS Williamson,1,1,0,na,na,na,na,na,na,na,na,na
2nd innings,8.3,KS Williamson,Shakib Al Hasan,TC Bruce,1,1,0,na,na,na,na,na,na,na,na,na
2nd innings,8.4,TC Bruce,Shakib Al Hasan,KS Williamson,0,0,0,na,na,na,na,na,na,na,na,na
2nd innings,8.5,TC Bruce,Shakib Al Hasan,KS Williamson,2,2,0,na,na,na,na,na,na,na,na,na
2nd innings,8.6,TC Bruce,Shakib Al Hasan,KS Williamson,1,1,0,na,na,na,na,na,na,na,na,na
2nd innings,9.1,TC Bruce,Mosaddek Hossain,KS Williamson,1,1,0,na,na,na,na,na,na,na,na,na
2nd innings,9.2,KS Williamson,Mosaddek Hossain,TC Bruce,0,0,0,na,na,na,na,na,na,na,na,na
2nd innings,9.3,KS Williamson,Mosaddek Hossain,TC Bruce,1,1,0,na,na,na,na,na,na,na,na,na
2nd innings,9.4,TC Bruce,Mosaddek Hossain,KS Williamson,0,0,0,na,na,na,na,na,na,na,na,na
2nd innings,9.5,TC Bruce,Mosaddek Hossain,KS Williamson,1,1,0,na,na,na,na,na,na,na,na,na
2nd innings,9.6,KS Williamson,Mosaddek Hossain,TC Bruce,1,1,0,na,na,na,na,na,na,na,na,na
2nd innings,10.1,KS Williamson,Mashrafe Mortaza,TC Bruce,1,1,0,na,na,na,na,na,run out,Soumya Sarkar,Soumya Sarkar,TC Bruce
2nd innings,10.2,C de Grandhomme,Mashrafe Mortaza,KS Williamson,1,1,0,na,na,na,na,na,na,na,na,na
2nd innings,10.3,KS Williamson,Mashrafe Mortaza,C de Grandhomme,1,1,0,na,na,na,na,na,na,na,na,na
2nd innings,10.4,C de Grandhomme,Mashrafe Mortaza,KS Williamson,1,1,0,na,na,na,na,na,na,na,na,na
2nd innings,10.5,KS Williamson,Mashrafe Mortaza,C de Grandhomme,0,0,0,na,na,na,na,na,na,na,na,na
2nd innings,10.6,KS Williamson,Mashrafe Mortaza,C de Grandhomme,6,6,0,na,na,na,na,na,na,na,na,na
2nd innings,11.1,C de Grandhomme,Mosaddek Hossain,KS Williamson,0,0,0,na,na,na,na,na,na,na,na,na
2nd innings,11.2,C de Grandhomme,Mosaddek Hossain,KS Williamson,1,1,0,na,na,na,na,na,na,na,na,na
2nd innings,11.3,KS Williamson,Mosaddek Hossain,C de Grandhomme,0,0,0,na,na,na,na,na,na,na,na,na
2nd innings,11.4,KS Williamson,Mosaddek Hossain,C de Grandhomme,1,1,0,na,na,na,na,na,na,na,na,na
2nd innings,11.5,C de Grandhomme,Mosaddek Hossain,KS Williamson,0,0,0,na,na,na,na,na,na,na,na,na
2nd innings,11.6,C de Grandhomme,Mosaddek Hossain,KS Williamson,3,3,0,na,na,na,na,na,na,na,na,na
2nd innings,12.1,C de Grandhomme,Mustafizur Rahman,KS Williamson,1,1,0,na,na,na,na,na,na,na,na,na
2nd innings,12.2,KS Williamson,Mustafizur Rahman,C de Grandhomme,1,1,0,na,na,na,na,na,na,na,na,na
2nd innings,12.3,C de Grandhomme,Mustafizur Rahman,KS Williamson,1,1,0,na,na,na,na,na,na,na,na,na
2nd innings,12.4,KS Williamson,Mustafizur Rahman,C de Grandhomme,1,1,0,na,na,na,na,na,na,na,na,na
2nd innings,12.5,C de Grandhomme,Mustafizur Rahman,KS Williamson,0,0,0,na,na,na,na,na,na,na,na,na
2nd innings,12.6,C de Grandhomme,Mustafizur Rahman,KS Williamson,1,1,0,na,na,na,na,na,na,na,na,na
2nd innings,13.1,C de Grandhomme,Shakib Al Hasan,KS Williamson,0,0,0,na,na,na,na,na,na,na,na,na
2nd innings,13.2,C de Grandhomme,Shakib Al Hasan,KS Williamson,4,4,0,na,na,na,na,na,na,na,na,na
2nd innings,13.3,C de Grandhomme,Shakib Al Hasan,KS Williamson,1,1,0,na,na,na,na,na,na,na,na,na
2nd innings,13.4,KS Williamson,Shakib Al Hasan,C de Grandhomme,0,0,0,na,na,na,na,na,na,na,na,na
2nd innings,13.5,KS Williamson,Shakib Al Hasan,C de Grandhomme,1,1,0,na,na,na,na,na,na,na,na,na
2nd innings,13.6,C de Grandhomme,Shakib Al Hasan,KS Williamson,6,6,0,na,na,na,na,na,na,na,na,na
2nd innings,14.1,KS Williamson,Rubel Hossain,C de Grandhomme,6,6,0,na,na,na,na,na,na,na,na,na
2nd innings,14.2,KS Williamson,Rubel Hossain,C de Grandhomme,1,1,0,na,na,na,na,na,na,na,na,na
2nd innings,14.3,C de Grandhomme,Rubel Hossain,KS Williamson,1,1,0,na,na,na,na,na,na,na,na,na
2nd innings,14.4,KS Williamson,Rubel Hossain,C de Grandhomme,2,1,1,na,na,na,1,na,na,na,na,na
2nd innings,14.5,C de Grandhomme,Rubel Hossain,KS Williamson,4,4,0,na,na,na,na,na,na,na,na,na
2nd innings,14.6,C de Grandhomme,Rubel Hossain,KS Williamson,1,1,0,na,na,na,na,na,na,na,na,na
2nd innings,14.7,KS Williamson,Rubel Hossain,C de Grandhomme,0,0,0,na,na,na,na,na,na,na,na,na
2nd innings,15.1,C de Grandhomme,Soumya Sarkar,KS Williamson,1,1,0,na,na,na,na,na,na,na,na,na
2nd innings,15.2,KS Williamson,Soumya Sarkar,C de Grandhomme,1,1,0,na,na,na,na,na,na,na,na,na
2nd innings,15.3,C de Grandhomme,Soumya Sarkar,KS Williamson,6,6,0,na,na,na,na,na,na,na,na,na
2nd innings,15.4,C de Grandhomme,Soumya Sarkar,KS Williamson,1,1,0,na,na,na,na,na,na,na,na,na
2nd innings,15.5,KS Williamson,Soumya Sarkar,C de Grandhomme,4,4,0,na,na,na,na,na,na,na,na,na
2nd innings,15.6,KS Williamson,Soumya Sarkar,C de Grandhomme,4,4,0,na,na,na,na,na,na,na,na,na
2nd innings,16.1,C de Grandhomme,Mustafizur Rahman,KS Williamson,0,0,0,na,na,na,na,na,na,na,na,na
2nd innings,16.2,C de Grandhomme,Mustafizur Rahman,KS Williamson,1,1,0,na,na,na,na,na,na,na,na,na
2nd innings,16.3,KS Williamson,Mustafizur Rahman,C de Grandhomme,1,1,0,na,na,na,na,na,na,na,na,na
2nd innings,16.4,C de Grandhomme,Mustafizur Rahman,KS Williamson,1,1,0,na,na,na,na,na,na,na,na,na
2nd innings,16.5,KS Williamson,Mustafizur Rahman,C de Grandhomme,1,1,0,na,na,na,na,na,na,na,na,na
2nd innings,16.6,C de Grandhomme,Mustafizur Rahman,KS Williamson,1,1,0,na,na,na,na,na,na,na,na,na
2nd innings,17.1,C de Grandhomme,Rubel Hossain,KS Williamson,1,1,0,na,na,na,na,na,na,na,na,na
2nd innings,17.2,KS Williamson,Rubel Hossain,C de Grandhomme,1,1,0,na,na,na,na,na,na,na,na,na
2nd innings,17.3,C de Grandhomme,Rubel Hossain,KS Williamson,1,1,0,na,na,na,na,na,na,na,na,na
2nd innings,17.4,KS Williamson,Rubel Hossain,C de Grandhomme,0,0,0,na,na,na,na,na,na,na,na,na
2nd innings,17.5,KS Williamson,Rubel Hossain,C de Grandhomme,4,4,0,na,na,na,na,na,na,na,na,na
2nd innings,17.6,KS Williamson,Rubel Hossain,C de Grandhomme,6,6,0,na,na,na,na,na,na,na,na,na
