inngs,deliveries,non_striker,bowler,batsman,totalruns,batsman_runs,extra_runs,legbyes,byes,wides,noballs,penalty,wicket_kind,fielder1,fielder2,player_out
1st innings,0.1,Q de Kock,TA Boult,HM Amla,0,0,0,na,na,na,na,na,na,na,na,na
1st innings,0.2,Q de Kock,TA Boult,HM Amla,4,0,4,4,na,na,na,na,na,na,na,na
1st innings,0.3,Q de Kock,TA Boult,HM Amla,0,0,0,na,na,na,na,na,na,na,na,na
1st innings,0.4,Q de Kock,TA Boult,HM Amla,0,0,0,na,na,na,na,na,na,na,na,na
1st innings,0.5,Q de Kock,TA Boult,HM Amla,1,1,0,na,na,na,na,na,na,na,na,na
1st innings,0.6,HM Amla,TA Boult,Q de Kock,0,0,0,na,na,na,na,na,na,na,na,na
1st innings,1.1,Q de Kock,BM Wheeler,HM Amla,0,0,0,na,na,na,na,na,na,na,na,na
1st innings,1.2,Q de Kock,BM Wheeler,HM Amla,4,4,0,na,na,na,na,na,na,na,na,na
1st innings,1.3,Q de Kock,BM Wheeler,HM Amla,4,4,0,na,na,na,na,na,na,na,na,na
1st innings,1.4,Q de Kock,BM Wheeler,HM Amla,1,1,0,na,na,na,na,na,na,na,na,na
1st innings,1.5,HM Amla,BM Wheeler,Q de Kock,0,0,0,na,na,na,na,na,na,na,na,na
1st innings,1.6,HM Amla,BM Wheeler,Q de Kock,0,0,0,na,na,na,na,na,na,na,na,na
1st innings,2.1,Q de Kock,TA Boult,HM Amla,0,0,0,na,na,na,na,na,na,na,na,na
1st innings,2.2,Q de Kock,TA Boult,HM Amla,0,0,0,na,na,na,na,na,na,na,na,na
1st innings,2.3,Q de Kock,TA Boult,HM Amla,1,1,0,na,na,na,na,na,na,na,na,na
1st innings,2.4,HM Amla,TA Boult,Q de Kock,0,0,0,na,na,na,na,na,caught,MJ Santner,na,Q de Kock
1st innings,2.5,HM Amla,TA Boult,F du Plessis,0,0,0,na,na,na,na,na,na,na,na,na
1st innings,2.6,HM Amla,TA Boult,F du Plessis,0,0,0,na,na,na,na,na,na,na,na,na
1st innings,3.1,F du Plessis,TG Southee,HM Amla,1,0,1,na,na,1,na,na,na,na,na,na
1st innings,3.2,F du Plessis,TG Southee,HM Amla,1,1,0,na,na,na,na,na,na,na,na,na
1st innings,3.3,HM Amla,TG Southee,F du Plessis,0,0,0,na,na,na,na,na,na,na,na,na
1st innings,3.4,HM Amla,TG Southee,F du Plessis,2,2,0,na,na,na,na,na,na,na,na,na
1st innings,3.5,HM Amla,TG Southee,F du Plessis,0,0,0,na,na,na,na,na,na,na,na,na
1st innings,3.6,HM Amla,TG Southee,F du Plessis,0,0,0,na,na,na,na,na,na,na,na,na
1st innings,3.7,HM Amla,TG Southee,F du Plessis,6,6,0,na,na,na,na,na,na,na,na,na
1st innings,4.1,F du Plessis,BM Wheeler,HM Amla,4,4,0,na,na,na,na,na,na,na,na,na
1st innings,4.2,F du Plessis,BM Wheeler,HM Amla,4,4,0,na,na,na,na,na,na,na,na,na
1st innings,4.3,F du Plessis,BM Wheeler,HM Amla,4,4,0,na,na,na,na,na,na,na,na,na
1st innings,4.4,F du Plessis,BM Wheeler,HM Amla,4,4,0,na,na,na,na,na,na,na,na,na
1st innings,4.5,F du Plessis,BM Wheeler,HM Amla,0,0,0,na,na,na,na,na,na,na,na,na
1st innings,4.6,F du Plessis,BM Wheeler,HM Amla,1,1,0,na,na,na,na,na,na,na,na,na
1st innings,5.1,F du Plessis,TG Southee,HM Amla,1,1,0,na,na,na,na,na,na,na,na,na
1st innings,5.2,HM Amla,TG Southee,F du Plessis,4,4,0,na,na,na,na,na,na,na,na,na
1st innings,5.3,HM Amla,TG Southee,F du Plessis,1,1,0,na,na,na,na,na,na,na,na,na
1st innings,5.4,F du Plessis,TG Southee,HM Amla,4,4,0,na,na,na,na,na,na,na,na,na
1st innings,5.5,F du Plessis,TG Southee,HM Amla,4,4,0,na,na,na,na,na,na,na,na,na
1st innings,5.6,F du Plessis,TG Southee,HM Amla,0,0,0,na,na,na,na,na,na,na,na,na
1st innings,6.1,HM Amla,MJ Santner,F du Plessis,1,1,0,na,na,na,na,na,na,na,na,na
1st innings,6.2,F du Plessis,MJ Santner,HM Amla,0,0,0,na,na,na,na,na,na,na,na,na
1st innings,6.3,F du Plessis,MJ Santner,HM Amla,1,1,0,na,na,na,na,na,na,na,na,na
1st innings,6.4,HM Amla,MJ Santner,F du Plessis,1,1,0,na,na,na,na,na,na,na,na,na
1st innings,6.5,F du Plessis,MJ Santner,HM Amla,1,1,0,na,na,na,na,na,na,na,na,na
1st innings,6.6,HM Amla,MJ Santner,F du Plessis,1,1,0,na,na,na,na,na,na,na,na,na
1st innings,7.1,HM Amla,C de Grandhomme,F du Plessis,2,2,0,na,na,na,na,na,na,na,na,na
1st innings,7.2,HM Amla,C de Grandhomme,F du Plessis,1,1,0,na,na,na,na,na,na,na,na,na
1st innings,7.3,F du Plessis,C de Grandhomme,HM Amla,1,1,0,na,na,na,na,na,na,na,na,na
1st innings,7.4,HM Amla,C de Grandhomme,F du Plessis,2,0,2,na,na,2,na,na,na,na,na,na
1st innings,7.5,F du Plessis,C de Grandhomme,HM Amla,2,2,0,na,na,na,na,na,na,na,na,na
1st innings,7.6,F du Plessis,C de Grandhomme,HM Amla,1,1,0,na,na,na,na,na,na,na,na,na
1st innings,7.7,HM Amla,C de Grandhomme,F du Plessis,1,1,0,na,na,na,na,na,na,na,na,na
1st innings,8.1,HM Amla,MJ Santner,F du Plessis,1,1,0,na,na,na,na,na,na,na,na,na
1st innings,8.2,F du Plessis,MJ Santner,HM Amla,1,1,0,na,na,na,na,na,na,na,na,na
1st innings,8.3,HM Amla,MJ Santner,F du Plessis,6,6,0,na,na,na,na,na,na,na,na,na
1st innings,8.4,HM Amla,MJ Santner,F du Plessis,1,1,0,na,na,na,na,na,na,na,na,na
1st innings,8.5,F du Plessis,MJ Santner,HM Amla,1,1,0,na,na,na,na,na,na,na,na,na
1st innings,8.6,HM Amla,MJ Santner,F du Plessis,6,6,0,na,na,na,na,na,na,na,na,na
1st innings,9.1,F du Plessis,C Munro,HM Amla,4,4,0,na,na,na,na,na,na,na,na,na
1st innings,9.2,F du Plessis,C Munro,HM Amla,0,0,0,na,na,na,na,na,na,na,na,na
1st innings,9.3,F du Plessis,C Munro,HM Amla,6,6,0,na,na,na,na,na,na,na,na,na
1st innings,9.4,F du Plessis,C Munro,HM Amla,1,1,0,na,na,na,na,na,na,na,na,na
1st innings,9.5,HM Amla,C Munro,F du Plessis,0,0,0,na,na,na,na,na,na,na,na,na
1st innings,9.6,HM Amla,C Munro,F du Plessis,0,0,0,na,na,na,na,na,na,na,na,na
1st innings,10.1,F du Plessis,TA Boult,HM Amla,1,1,0,na,na,na,na,na,na,na,na,na
1st innings,10.2,HM Amla,TA Boult,F du Plessis,0,0,0,na,na,na,na,na,na,na,na,na
1st innings,10.3,HM Amla,TA Boult,F du Plessis,1,1,0,na,na,na,na,na,na,na,na,na
1st innings,10.4,F du Plessis,TA Boult,HM Amla,1,1,0,na,na,na,na,na,na,na,na,na
1st innings,10.5,HM Amla,TA Boult,F du Plessis,1,1,0,na,na,na,na,na,na,na,na,na
1st innings,10.6,F du Plessis,TA Boult,HM Amla,0,0,0,na,na,na,na,na,na,na,na,na
1st innings,11.1,HM Amla,C de Grandhomme,F du Plessis,0,0,0,na,na,na,na,na,lbw,na,na,F du Plessis
1st innings,11.2,HM Amla,C de Grandhomme,AB de Villiers,1,1,0,na,na,na,na,na,na,na,na,na
1st innings,11.3,AB de Villiers,C de Grandhomme,HM Amla,1,1,0,na,na,na,na,na,na,na,na,na
1st innings,11.4,HM Amla,C de Grandhomme,AB de Villiers,1,1,0,na,na,na,na,na,na,na,na,na
1st innings,11.5,AB de Villiers,C de Grandhomme,HM Amla,1,1,0,na,na,na,na,na,na,na,na,na
1st innings,11.6,HM Amla,C de Grandhomme,AB de Villiers,1,1,0,na,na,na,na,na,na,na,na,na
1st innings,12.1,HM Amla,MJ Santner,AB de Villiers,0,0,0,na,na,na,na,na,na,na,na,na
1st innings,12.2,HM Amla,MJ Santner,AB de Villiers,1,1,0,na,na,na,na,na,na,na,na,na
1st innings,12.3,AB de Villiers,MJ Santner,HM Amla,4,0,4,na,4,na,na,na,na,na,na,na
1st innings,12.4,AB de Villiers,MJ Santner,HM Amla,1,1,0,na,na,na,na,na,na,na,na,na
1st innings,12.5,HM Amla,MJ Santner,AB de Villiers,4,4,0,na,na,na,na,na,na,na,na,na
1st innings,12.6,HM Amla,MJ Santner,AB de Villiers,1,1,0,na,na,na,na,na,na,na,na,na
1st innings,13.1,HM Amla,BM Wheeler,AB de Villiers,0,0,0,na,na,na,na,na,na,na,na,na
1st innings,13.2,HM Amla,BM Wheeler,AB de Villiers,4,4,0,na,na,na,na,na,na,na,na,na
1st innings,13.3,HM Amla,BM Wheeler,AB de Villiers,1,1,0,na,na,na,na,na,na,na,na,na
1st innings,13.4,AB de Villiers,BM Wheeler,HM Amla,0,0,0,na,na,na,na,na,caught,TC Bruce,na,HM Amla
1st innings,13.5,JP Duminy,BM Wheeler,AB de Villiers,4,4,0,na,na,na,na,na,na,na,na,na
1st innings,13.6,JP Duminy,BM Wheeler,AB de Villiers,0,0,0,na,na,na,na,na,na,na,na,na
1st innings,14.1,AB de Villiers,MJ Santner,JP Duminy,2,2,0,na,na,na,na,na,na,na,na,na
1st innings,14.2,AB de Villiers,MJ Santner,JP Duminy,6,6,0,na,na,na,na,na,na,na,na,na
1st innings,14.3,AB de Villiers,MJ Santner,JP Duminy,1,1,0,na,na,na,na,na,na,na,na,na
1st innings,14.4,JP Duminy,MJ Santner,AB de Villiers,1,1,0,na,na,na,na,na,na,na,na,na
1st innings,14.5,AB de Villiers,MJ Santner,JP Duminy,1,1,0,na,na,na,na,na,na,na,na,na
1st innings,14.6,JP Duminy,MJ Santner,AB de Villiers,1,1,0,na,na,na,na,na,na,na,na,na
1st innings,15.1,JP Duminy,C de Grandhomme,AB de Villiers,0,0,0,na,na,na,na,na,na,na,na,na
1st innings,15.2,JP Duminy,C de Grandhomme,AB de Villiers,6,6,0,na,na,na,na,na,na,na,na,na
1st innings,15.3,JP Duminy,C de Grandhomme,AB de Villiers,0,0,0,na,na,na,na,na,caught,BM Wheeler,na,AB de Villiers
1st innings,15.4,F Behardien,C de Grandhomme,JP Duminy,1,1,0,na,na,na,na,na,na,na,na,na
1st innings,15.5,JP Duminy,C de Grandhomme,F Behardien,0,0,0,na,na,na,na,na,na,na,na,na
1st innings,15.6,JP Duminy,C de Grandhomme,F Behardien,0,0,0,na,na,na,na,na,na,na,na,na
1st innings,16.1,F Behardien,TG Southee,JP Duminy,0,0,0,na,na,na,na,na,na,na,na,na
1st innings,16.2,F Behardien,TG Southee,JP Duminy,1,1,0,na,na,na,na,na,na,na,na,na
1st innings,16.3,JP Duminy,TG Southee,F Behardien,1,1,0,na,na,na,na,na,na,na,na,na
1st innings,16.4,F Behardien,TG Southee,JP Duminy,4,4,0,na,na,na,na,na,na,na,na,na
1st innings,16.5,F Behardien,TG Southee,JP Duminy,4,4,0,na,na,na,na,na,na,na,na,na
1st innings,16.6,F Behardien,TG Southee,JP Duminy,1,1,0,na,na,na,na,na,na,na,na,na
1st innings,17.1,F Behardien,BM Wheeler,JP Duminy,0,0,0,na,na,na,na,na,na,na,na,na
1st innings,17.2,F Behardien,BM Wheeler,JP Duminy,6,6,0,na,na,na,na,na,na,na,na,na
1st innings,17.3,F Behardien,BM Wheeler,JP Duminy,1,1,0,na,na,na,na,na,na,na,na,na
1st innings,17.4,JP Duminy,BM Wheeler,F Behardien,0,0,0,na,na,na,na,na,na,na,na,na
1st innings,17.5,JP Duminy,BM Wheeler,F Behardien,6,6,0,na,na,na,na,na,na,na,na,na
1st innings,17.6,JP Duminy,BM Wheeler,F Behardien,1,1,0,na,na,na,na,na,na,na,na,na
1st innings,18.1,JP Duminy,TA Boult,F Behardien,0,0,0,na,na,na,na,na,caught,CJ Anderson,na,F Behardien
1st innings,18.2,CH Morris,TA Boult,JP Duminy,1,1,0,na,na,na,na,na,na,na,na,na
1st innings,18.3,JP Duminy,TA Boult,CH Morris,0,0,0,na,na,na,na,na,na,na,na,na
1st innings,18.4,JP Duminy,TA Boult,CH Morris,1,1,0,na,na,na,na,na,na,na,na,na
1st innings,18.5,CH Morris,TA Boult,JP Duminy,0,0,0,na,na,na,na,na,na,na,na,na
1st innings,18.6,CH Morris,TA Boult,JP Duminy,0,0,0,na,na,na,na,na,na,na,na,na
1st innings,19.1,JP Duminy,TG Southee,CH Morris,6,6,0,na,na,na,na,na,na,na,na,na
1st innings,19.2,JP Duminy,TG Southee,CH Morris,0,0,0,na,na,na,na,na,na,na,na,na
1st innings,19.3,JP Duminy,TG Southee,CH Morris,0,0,0,na,na,na,na,na,na,na,na,na
1st innings,19.4,JP Duminy,TG Southee,CH Morris,2,2,0,na,na,na,na,na,na,na,na,na
1st innings,19.5,JP Duminy,TG Southee,CH Morris,0,0,0,na,na,na,na,na,run out,L Ronchi,na,JP Duminy
1st innings,19.6,CH Morris,TG Southee,WD Parnell,4,4,0,na,na,na,na,na,na,na,na,na
2nd innings,0.1,KS Williamson,CH Morris,GD Phillips,0,0,0,na,na,na,na,na,na,na,na,na
2nd innings,0.2,KS Williamson,CH Morris,GD Phillips,0,0,0,na,na,na,na,na,na,na,na,na
2nd innings,0.3,KS Williamson,CH Morris,GD Phillips,0,0,0,na,na,na,na,na,na,na,na,na
2nd innings,0.4,KS Williamson,CH Morris,GD Phillips,0,0,0,na,na,na,na,na,na,na,na,na
2nd innings,0.5,KS Williamson,CH Morris,GD Phillips,1,1,0,na,na,na,na,na,na,na,na,na
2nd innings,0.6,GD Phillips,CH Morris,KS Williamson,4,4,0,na,na,na,na,na,na,na,na,na
2nd innings,1.1,KS Williamson,D Paterson,GD Phillips,0,0,0,na,na,na,na,na,na,na,na,na
2nd innings,1.2,KS Williamson,D Paterson,GD Phillips,0,0,0,na,na,na,na,na,na,na,na,na
2nd innings,1.3,KS Williamson,D Paterson,GD Phillips,1,1,0,na,na,na,na,na,na,na,na,na
2nd innings,1.4,GD Phillips,D Paterson,KS Williamson,1,1,0,na,na,na,na,na,na,na,na,na
2nd innings,1.5,KS Williamson,D Paterson,GD Phillips,2,2,0,na,na,na,na,na,na,na,na,na
2nd innings,1.6,KS Williamson,D Paterson,GD Phillips,1,1,0,na,na,na,na,na,na,na,na,na
2nd innings,2.1,KS Williamson,CH Morris,GD Phillips,0,0,0,na,na,na,na,na,caught,Q de Kock,na,GD Phillips
2nd innings,2.2,KS Williamson,CH Morris,C Munro,0,0,0,na,na,na,na,na,bowled,na,na,C Munro
2nd innings,2.3,KS Williamson,CH Morris,TC Bruce,0,0,0,na,na,na,na,na,na,na,na,na
2nd innings,2.4,KS Williamson,CH Morris,TC Bruce,0,0,0,na,na,na,na,na,na,na,na,na
2nd innings,2.5,KS Williamson,CH Morris,TC Bruce,0,0,0,na,na,na,na,na,na,na,na,na
2nd innings,2.6,KS Williamson,CH Morris,TC Bruce,0,0,0,na,na,na,na,na,na,na,na,na
2nd innings,3.1,TC Bruce,D Paterson,KS Williamson,0,0,0,na,na,na,na,na,na,na,na,na
2nd innings,3.2,TC Bruce,D Paterson,KS Williamson,1,1,0,na,na,na,na,na,na,na,na,na
2nd innings,3.3,KS Williamson,D Paterson,TC Bruce,1,1,0,na,na,na,na,na,na,na,na,na
2nd innings,3.4,TC Bruce,D Paterson,KS Williamson,0,0,0,na,na,na,na,na,na,na,na,na
2nd innings,3.5,TC Bruce,D Paterson,KS Williamson,1,0,1,1,na,na,na,na,na,na,na,na
2nd innings,3.6,KS Williamson,D Paterson,TC Bruce,6,6,0,na,na,na,na,na,na,na,na,na
2nd innings,4.1,TC Bruce,CH Morris,KS Williamson,0,0,0,na,na,na,na,na,na,na,na,na
2nd innings,4.2,TC Bruce,CH Morris,KS Williamson,1,1,0,na,na,na,na,na,na,na,na,na
2nd innings,4.3,KS Williamson,CH Morris,TC Bruce,0,0,0,na,na,na,na,na,na,na,na,na
2nd innings,4.4,KS Williamson,CH Morris,TC Bruce,0,0,0,na,na,na,na,na,na,na,na,na
2nd innings,4.5,KS Williamson,CH Morris,TC Bruce,0,0,0,na,na,na,na,na,na,na,na,na
2nd innings,4.6,KS Williamson,CH Morris,TC Bruce,4,4,0,na,na,na,na,na,na,na,na,na
2nd innings,5.1,TC Bruce,WD Parnell,KS Williamson,1,1,0,na,na,na,na,na,na,na,na,na
2nd innings,5.2,KS Williamson,WD Parnell,TC Bruce,1,1,0,na,na,na,na,na,na,na,na,na
2nd innings,5.3,TC Bruce,WD Parnell,KS Williamson,1,0,1,na,na,1,na,na,na,na,na,na
2nd innings,5.4,TC Bruce,WD Parnell,KS Williamson,1,1,0,na,na,na,na,na,na,na,na,na
2nd innings,5.5,KS Williamson,WD Parnell,TC Bruce,0,0,0,na,na,na,na,na,na,na,na,na
2nd innings,5.6,KS Williamson,WD Parnell,TC Bruce,4,4,0,na,na,na,na,na,na,na,na,na
2nd innings,5.7,KS Williamson,WD Parnell,TC Bruce,2,2,0,na,na,na,na,na,na,na,na,na
2nd innings,6.1,TC Bruce,AL Phehlukwayo,KS Williamson,4,4,0,na,na,na,na,na,na,na,na,na
2nd innings,6.2,TC Bruce,AL Phehlukwayo,KS Williamson,0,0,0,na,na,na,na,na,na,na,na,na
2nd innings,6.3,TC Bruce,AL Phehlukwayo,KS Williamson,0,0,0,na,na,na,na,na,caught,WD Parnell,na,KS Williamson
2nd innings,6.4,TC Bruce,AL Phehlukwayo,CJ Anderson,1,1,0,na,na,na,na,na,na,na,na,na
2nd innings,6.5,CJ Anderson,AL Phehlukwayo,TC Bruce,1,1,0,na,na,na,na,na,na,na,na,na
2nd innings,6.6,TC Bruce,AL Phehlukwayo,CJ Anderson,0,0,0,na,na,na,na,na,na,na,na,na
2nd innings,7.1,CJ Anderson,WD Parnell,TC Bruce,1,1,0,na,na,na,na,na,na,na,na,na
2nd innings,7.2,TC Bruce,WD Parnell,CJ Anderson,0,0,0,na,na,na,na,na,na,na,na,na
2nd innings,7.3,TC Bruce,WD Parnell,CJ Anderson,2,2,0,na,na,na,na,na,na,na,na,na
2nd innings,7.4,TC Bruce,WD Parnell,CJ Anderson,1,1,0,na,na,na,na,na,na,na,na,na
2nd innings,7.5,CJ Anderson,WD Parnell,TC Bruce,6,6,0,na,na,na,na,na,na,na,na,na
2nd innings,7.6,CJ Anderson,WD Parnell,TC Bruce,0,0,0,na,na,na,na,na,na,na,na,na
2nd innings,8.1,TC Bruce,Imran Tahir,CJ Anderson,1,1,0,na,na,na,na,na,na,na,na,na
2nd innings,8.2,CJ Anderson,Imran Tahir,TC Bruce,1,1,0,na,na,na,na,na,na,na,na,na
2nd innings,8.3,TC Bruce,Imran Tahir,CJ Anderson,0,0,0,na,na,na,na,na,na,na,na,na
2nd innings,8.4,TC Bruce,Imran Tahir,CJ Anderson,0,0,0,na,na,na,na,na,na,na,na,na
2nd innings,8.5,TC Bruce,Imran Tahir,CJ Anderson,1,1,0,na,na,na,na,na,na,na,na,na
2nd innings,8.6,CJ Anderson,Imran Tahir,TC Bruce,1,1,0,na,na,na,na,na,na,na,na,na
2nd innings,9.1,CJ Anderson,AL Phehlukwayo,TC Bruce,0,0,0,na,na,na,na,na,na,na,na,na
2nd innings,9.2,CJ Anderson,AL Phehlukwayo,TC Bruce,1,1,0,na,na,na,na,na,na,na,na,na
2nd innings,9.3,TC Bruce,AL Phehlukwayo,CJ Anderson,0,0,0,na,na,na,na,na,caught,Q de Kock,na,CJ Anderson
2nd innings,9.4,C de Grandhomme,AL Phehlukwayo,TC Bruce,0,0,0,na,na,na,na,na,na,na,na,na
2nd innings,9.5,C de Grandhomme,AL Phehlukwayo,TC Bruce,4,4,0,na,na,na,na,na,na,na,na,na
2nd innings,9.6,C de Grandhomme,AL Phehlukwayo,TC Bruce,0,0,0,na,na,na,na,na,na,na,na,na
2nd innings,10.1,TC Bruce,Imran Tahir,C de Grandhomme,1,1,0,na,na,na,na,na,na,na,na,na
2nd innings,10.2,C de Grandhomme,Imran Tahir,TC Bruce,0,0,0,na,na,na,na,na,na,na,na,na
2nd innings,10.3,C de Grandhomme,Imran Tahir,TC Bruce,0,0,0,na,na,na,na,na,bowled,na,na,TC Bruce
2nd innings,10.4,C de Grandhomme,Imran Tahir,L Ronchi,0,0,0,na,na,na,na,na,caught,Q de Kock,na,L Ronchi
2nd innings,10.5,C de Grandhomme,Imran Tahir,MJ Santner,0,0,0,na,na,na,na,na,na,na,na,na
2nd innings,10.6,C de Grandhomme,Imran Tahir,MJ Santner,0,0,0,na,na,na,na,na,na,na,na,na
2nd innings,11.1,MJ Santner,AL Phehlukwayo,C de Grandhomme,1,1,0,na,na,na,na,na,na,na,na,na
2nd innings,11.2,C de Grandhomme,AL Phehlukwayo,MJ Santner,0,0,0,na,na,na,na,na,na,na,na,na
2nd innings,11.3,C de Grandhomme,AL Phehlukwayo,MJ Santner,4,4,0,na,na,na,na,na,na,na,na,na
2nd innings,11.4,C de Grandhomme,AL Phehlukwayo,MJ Santner,1,1,0,na,na,na,na,na,na,na,na,na
2nd innings,11.5,MJ Santner,AL Phehlukwayo,C de Grandhomme,1,0,1,na,na,1,na,na,na,na,na,na
2nd innings,11.6,MJ Santner,AL Phehlukwayo,C de Grandhomme,1,1,0,na,na,na,na,na,na,na,na,na
2nd innings,11.7,C de Grandhomme,AL Phehlukwayo,MJ Santner,0,0,0,na,na,na,na,na,caught,HM Amla,na,MJ Santner
2nd innings,12.1,BM Wheeler,Imran Tahir,C de Grandhomme,0,0,0,na,na,na,na,na,na,na,na,na
2nd innings,12.2,BM Wheeler,Imran Tahir,C de Grandhomme,6,6,0,na,na,na,na,na,na,na,na,na
2nd innings,12.3,BM Wheeler,Imran Tahir,C de Grandhomme,6,6,0,na,na,na,na,na,na,na,na,na
2nd innings,12.4,BM Wheeler,Imran Tahir,C de Grandhomme,0,0,0,na,na,na,na,na,caught,JP Duminy,na,C de Grandhomme
2nd innings,12.5,TG Southee,Imran Tahir,BM Wheeler,1,1,0,na,na,na,na,na,na,na,na,na
2nd innings,12.6,BM Wheeler,Imran Tahir,TG Southee,1,1,0,na,na,na,na,na,na,na,na,na
2nd innings,13.1,BM Wheeler,WD Parnell,TG Southee,6,6,0,na,na,na,na,na,na,na,na,na
2nd innings,13.2,BM Wheeler,WD Parnell,TG Southee,6,6,0,na,na,na,na,na,na,na,na,na
2nd innings,13.3,BM Wheeler,WD Parnell,TG Southee,1,1,0,na,na,na,na,na,na,na,na,na
2nd innings,13.4,TG Southee,WD Parnell,BM Wheeler,0,0,0,na,na,na,na,na,na,na,na,na
2nd innings,13.5,TG Southee,WD Parnell,BM Wheeler,1,1,0,na,na,na,na,na,na,na,na,na
2nd innings,13.6,BM Wheeler,WD Parnell,TG Southee,6,6,0,na,na,na,na,na,na,na,na,na
2nd innings,14.1,TG Southee,Imran Tahir,BM Wheeler,4,4,0,na,na,na,na,na,na,na,na,na
2nd innings,14.2,TG Southee,Imran Tahir,BM Wheeler,0,0,0,na,na,na,na,na,na,na,na,na
2nd innings,14.3,TG Southee,Imran Tahir,BM Wheeler,0,0,0,na,na,na,na,na,bowled,na,na,BM Wheeler
2nd innings,14.4,TG Southee,Imran Tahir,TA Boult,1,1,0,na,na,na,na,na,na,na,na,na
2nd innings,14.5,TA Boult,Imran Tahir,TG Southee,0,0,0,na,na,na,na,na,bowled,na,na,TG Southee
