inngs,deliveries,non_striker,bowler,batsman,totalruns,batsman_runs,extra_runs,legbyes,byes,wides,noballs,penalty,wicket_kind,fielder1,fielder2,player_out
1st innings,0.1,RR Hendricks,DJ Willey,JT Smuts,0,0,0,na,na,na,na,na,bowled,na,na,JT Smuts
1st innings,0.2,RR Hendricks,DJ Willey,AB de Villiers,1,0,1,na,na,1,na,na,na,na,na,na
1st innings,0.3,RR Hendricks,DJ Willey,AB de Villiers,1,1,0,na,na,na,na,na,na,na,na,na
1st innings,0.4,AB de Villiers,DJ Willey,RR Hendricks,3,3,0,na,na,na,na,na,na,na,na,na
1st innings,0.5,RR Hendricks,DJ Willey,AB de Villiers,2,2,0,na,na,na,na,na,na,na,na,na
1st innings,0.6,RR Hendricks,DJ Willey,AB de Villiers,0,0,0,na,na,na,na,na,na,na,na,na
1st innings,0.7,RR Hendricks,DJ Willey,AB de Villiers,0,0,0,na,na,na,na,na,na,na,na,na
1st innings,1.1,AB de Villiers,MA Wood,RR Hendricks,0,0,0,na,na,na,na,na,caught,DJ Willey,na,RR Hendricks
1st innings,1.2,AB de Villiers,MA Wood,DA Miller,1,1,0,na,na,na,na,na,na,na,na,na
1st innings,1.3,DA Miller,MA Wood,AB de Villiers,4,4,0,na,na,na,na,na,na,na,na,na
1st innings,1.4,DA Miller,MA Wood,AB de Villiers,0,0,0,na,na,na,na,na,na,na,na,na
1st innings,1.5,DA Miller,MA Wood,AB de Villiers,2,2,0,na,na,na,na,na,na,na,na,na
1st innings,1.6,DA Miller,MA Wood,AB de Villiers,4,4,0,na,na,na,na,na,na,na,na,na
1st innings,2.1,AB de Villiers,DJ Willey,DA Miller,6,6,0,na,na,na,na,na,na,na,na,na
1st innings,2.2,AB de Villiers,DJ Willey,DA Miller,0,0,0,na,na,na,na,na,na,na,na,na
1st innings,2.3,AB de Villiers,DJ Willey,DA Miller,1,1,0,na,na,na,na,na,na,na,na,na
1st innings,2.4,DA Miller,DJ Willey,AB de Villiers,0,0,0,na,na,na,na,na,na,na,na,na
1st innings,2.5,DA Miller,DJ Willey,AB de Villiers,1,1,0,na,na,na,na,na,na,na,na,na
1st innings,2.6,AB de Villiers,DJ Willey,DA Miller,0,0,0,na,na,na,na,na,na,na,na,na
1st innings,3.1,DA Miller,CJ Jordan,AB de Villiers,1,1,0,na,na,na,na,na,na,na,na,na
1st innings,3.2,AB de Villiers,CJ Jordan,DA Miller,1,1,0,na,na,na,na,na,na,na,na,na
1st innings,3.3,DA Miller,CJ Jordan,AB de Villiers,0,0,0,na,na,na,na,na,na,na,na,na
1st innings,3.4,DA Miller,CJ Jordan,AB de Villiers,0,0,0,na,na,na,na,na,na,na,na,na
1st innings,3.5,DA Miller,CJ Jordan,AB de Villiers,0,0,0,na,na,na,na,na,na,na,na,na
1st innings,3.6,DA Miller,CJ Jordan,AB de Villiers,4,4,0,na,na,na,na,na,na,na,na,na
1st innings,4.1,AB de Villiers,MA Wood,DA Miller,0,0,0,na,na,na,na,na,caught,JC Buttler,na,DA Miller
1st innings,4.2,AB de Villiers,MA Wood,F Behardien,0,0,0,na,na,na,na,na,na,na,na,na
1st innings,4.3,AB de Villiers,MA Wood,F Behardien,0,0,0,na,na,na,na,na,na,na,na,na
1st innings,4.4,AB de Villiers,MA Wood,F Behardien,1,1,0,na,na,na,na,na,na,na,na,na
1st innings,4.5,F Behardien,MA Wood,AB de Villiers,0,0,0,na,na,na,na,na,na,na,na,na
1st innings,4.6,F Behardien,MA Wood,AB de Villiers,0,0,0,na,na,na,na,na,na,na,na,na
1st innings,5.1,AB de Villiers,CJ Jordan,F Behardien,4,4,0,na,na,na,na,na,na,na,na,na
1st innings,5.2,AB de Villiers,CJ Jordan,F Behardien,1,1,0,na,na,na,na,na,na,na,na,na
1st innings,5.3,F Behardien,CJ Jordan,AB de Villiers,1,1,0,na,na,na,na,na,na,na,na,na
1st innings,5.4,AB de Villiers,CJ Jordan,F Behardien,2,2,0,na,na,na,na,na,na,na,na,na
1st innings,5.5,AB de Villiers,CJ Jordan,F Behardien,1,1,0,na,na,na,na,na,na,na,na,na
1st innings,5.6,F Behardien,CJ Jordan,AB de Villiers,1,1,0,na,na,na,na,na,na,na,na,na
1st innings,6.1,F Behardien,LA Dawson,AB de Villiers,0,0,0,na,na,na,na,na,na,na,na,na
1st innings,6.2,F Behardien,LA Dawson,AB de Villiers,1,1,0,na,na,na,na,na,na,na,na,na
1st innings,6.3,AB de Villiers,LA Dawson,F Behardien,0,0,0,na,na,na,na,na,na,na,na,na
1st innings,6.4,AB de Villiers,LA Dawson,F Behardien,1,1,0,na,na,na,na,na,na,na,na,na
1st innings,6.5,F Behardien,LA Dawson,AB de Villiers,1,1,0,na,na,na,na,na,na,na,na,na
1st innings,6.6,AB de Villiers,LA Dawson,F Behardien,1,1,0,na,na,na,na,na,na,na,na,na
1st innings,7.1,AB de Villiers,MS Crane,F Behardien,0,0,0,na,na,na,na,na,na,na,na,na
1st innings,7.2,AB de Villiers,MS Crane,F Behardien,0,0,0,na,na,na,na,na,na,na,na,na
1st innings,7.3,AB de Villiers,MS Crane,F Behardien,4,4,0,na,na,na,na,na,na,na,na,na
1st innings,7.4,AB de Villiers,MS Crane,F Behardien,1,1,0,na,na,na,na,na,na,na,na,na
1st innings,7.5,F Behardien,MS Crane,AB de Villiers,1,1,0,na,na,na,na,na,na,na,na,na
1st innings,7.6,AB de Villiers,MS Crane,F Behardien,0,0,0,na,na,na,na,na,na,na,na,na
1st innings,8.1,F Behardien,LA Dawson,AB de Villiers,1,1,0,na,na,na,na,na,na,na,na,na
1st innings,8.2,AB de Villiers,LA Dawson,F Behardien,0,0,0,na,na,na,na,na,na,na,na,na
1st innings,8.3,AB de Villiers,LA Dawson,F Behardien,1,1,0,na,na,na,na,na,na,na,na,na
1st innings,8.4,F Behardien,LA Dawson,AB de Villiers,0,0,0,na,na,na,na,na,na,na,na,na
1st innings,8.5,F Behardien,LA Dawson,AB de Villiers,0,0,0,na,na,na,na,na,na,na,na,na
1st innings,8.6,F Behardien,LA Dawson,AB de Villiers,0,0,0,na,na,na,na,na,na,na,na,na
1st innings,9.1,AB de Villiers,MS Crane,F Behardien,1,1,0,na,na,na,na,na,na,na,na,na
1st innings,9.2,F Behardien,MS Crane,AB de Villiers,1,1,0,na,na,na,na,na,na,na,na,na
1st innings,9.3,AB de Villiers,MS Crane,F Behardien,2,2,0,na,na,na,na,na,na,na,na,na
1st innings,9.4,AB de Villiers,MS Crane,F Behardien,1,1,0,na,na,na,na,na,na,na,na,na
1st innings,9.5,F Behardien,MS Crane,AB de Villiers,1,1,0,na,na,na,na,na,na,na,na,na
1st innings,9.6,AB de Villiers,MS Crane,F Behardien,1,1,0,na,na,na,na,na,na,na,na,na
1st innings,10.1,AB de Villiers,LA Dawson,F Behardien,1,1,0,na,na,na,na,na,na,na,na,na
1st innings,10.2,F Behardien,LA Dawson,AB de Villiers,2,2,0,na,na,na,na,na,na,na,na,na
1st innings,10.3,F Behardien,LA Dawson,AB de Villiers,0,0,0,na,na,na,na,na,na,na,na,na
1st innings,10.4,F Behardien,LA Dawson,AB de Villiers,1,1,0,na,na,na,na,na,na,na,na,na
1st innings,10.5,AB de Villiers,LA Dawson,F Behardien,1,1,0,na,na,na,na,na,na,na,na,na
1st innings,10.6,F Behardien,LA Dawson,AB de Villiers,1,1,0,na,na,na,na,na,na,na,na,na
1st innings,11.1,F Behardien,MS Crane,AB de Villiers,0,0,0,na,na,na,na,na,na,na,na,na
1st innings,11.2,F Behardien,MS Crane,AB de Villiers,1,1,0,na,na,na,na,na,na,na,na,na
1st innings,11.3,AB de Villiers,MS Crane,F Behardien,1,1,0,na,na,na,na,na,na,na,na,na
1st innings,11.4,F Behardien,MS Crane,AB de Villiers,2,2,0,na,na,na,na,na,na,na,na,na
1st innings,11.5,F Behardien,MS Crane,AB de Villiers,1,1,0,na,na,na,na,na,na,na,na,na
1st innings,11.6,AB de Villiers,MS Crane,F Behardien,0,0,0,na,na,na,na,na,na,na,na,na
1st innings,12.1,F Behardien,LA Dawson,AB de Villiers,2,2,0,na,na,na,na,na,na,na,na,na
1st innings,12.2,F Behardien,LA Dawson,AB de Villiers,0,0,0,na,na,na,na,na,na,na,na,na
1st innings,12.3,F Behardien,LA Dawson,AB de Villiers,1,1,0,na,na,na,na,na,na,na,na,na
1st innings,12.4,AB de Villiers,LA Dawson,F Behardien,1,1,0,na,na,na,na,na,na,na,na,na
1st innings,12.5,F Behardien,LA Dawson,AB de Villiers,1,1,0,na,na,na,na,na,na,na,na,na
1st innings,12.6,AB de Villiers,LA Dawson,F Behardien,0,0,0,na,na,na,na,na,na,na,na,na
1st innings,13.1,F Behardien,MS Crane,AB de Villiers,0,0,0,na,na,na,na,na,na,na,na,na
1st innings,13.2,F Behardien,MS Crane,AB de Villiers,1,1,0,na,na,na,na,na,na,na,na,na
1st innings,13.3,AB de Villiers,MS Crane,F Behardien,0,0,0,na,na,na,na,na,na,na,na,na
1st innings,13.4,AB de Villiers,MS Crane,F Behardien,1,1,0,na,na,na,na,na,na,na,na,na
1st innings,13.5,F Behardien,MS Crane,AB de Villiers,0,0,0,na,na,na,na,na,na,na,na,na
1st innings,13.6,F Behardien,MS Crane,AB de Villiers,4,4,0,na,na,na,na,na,na,na,na,na
1st innings,14.1,AB de Villiers,DJ Willey,F Behardien,2,2,0,na,na,na,na,na,na,na,na,na
1st innings,14.2,AB de Villiers,DJ Willey,F Behardien,0,0,0,na,na,na,na,na,na,na,na,na
1st innings,14.3,AB de Villiers,DJ Willey,F Behardien,4,4,0,na,na,na,na,na,na,na,na,na
1st innings,14.4,AB de Villiers,DJ Willey,F Behardien,1,1,0,na,na,na,na,na,na,na,na,na
1st innings,14.5,F Behardien,DJ Willey,AB de Villiers,1,1,0,na,na,na,na,na,na,na,na,na
1st innings,14.6,AB de Villiers,DJ Willey,F Behardien,1,1,0,na,na,na,na,na,na,na,na,na
1st innings,15.1,AB de Villiers,MA Wood,F Behardien,0,0,0,na,na,na,na,na,na,na,na,na
1st innings,15.2,AB de Villiers,MA Wood,F Behardien,1,1,0,na,na,na,na,na,na,na,na,na
1st innings,15.3,F Behardien,MA Wood,AB de Villiers,1,1,0,na,na,na,na,na,na,na,na,na
1st innings,15.4,AB de Villiers,MA Wood,F Behardien,0,0,0,na,na,na,na,na,na,na,na,na
1st innings,15.5,AB de Villiers,MA Wood,F Behardien,6,6,0,na,na,na,na,na,na,na,na,na
1st innings,15.6,AB de Villiers,MA Wood,F Behardien,1,1,0,na,na,na,na,na,na,na,na,na
1st innings,16.1,AB de Villiers,DJ Willey,F Behardien,1,1,0,na,na,na,na,na,na,na,na,na
1st innings,16.2,F Behardien,DJ Willey,AB de Villiers,1,1,0,na,na,na,na,na,na,na,na,na
1st innings,16.3,AB de Villiers,DJ Willey,F Behardien,0,0,0,na,na,na,na,na,na,na,na,na
1st innings,16.4,AB de Villiers,DJ Willey,F Behardien,1,1,0,na,na,na,na,na,na,na,na,na
1st innings,16.5,F Behardien,DJ Willey,AB de Villiers,6,6,0,na,na,na,na,na,na,na,na,na
1st innings,16.6,F Behardien,DJ Willey,AB de Villiers,1,1,0,na,na,na,na,na,na,na,na,na
1st innings,17.1,F Behardien,CJ Jordan,AB de Villiers,0,0,0,na,na,na,na,na,na,na,na,na
1st innings,17.2,F Behardien,CJ Jordan,AB de Villiers,1,1,0,na,na,na,na,na,na,na,na,na
1st innings,17.3,AB de Villiers,CJ Jordan,F Behardien,1,1,0,na,na,na,na,na,na,na,na,na
1st innings,17.4,F Behardien,CJ Jordan,AB de Villiers,1,1,0,na,na,na,na,na,na,na,na,na
1st innings,17.5,AB de Villiers,CJ Jordan,F Behardien,0,0,0,na,na,na,na,na,na,na,na,na
1st innings,17.6,AB de Villiers,CJ Jordan,F Behardien,1,1,0,na,na,na,na,na,na,na,na,na
1st innings,18.1,AB de Villiers,MA Wood,F Behardien,2,2,0,na,na,na,na,na,na,na,na,na
1st innings,18.2,AB de Villiers,MA Wood,F Behardien,4,4,0,na,na,na,na,na,na,na,na,na
1st innings,18.3,AB de Villiers,MA Wood,F Behardien,6,6,0,na,na,na,na,na,na,na,na,na
1st innings,18.4,AB de Villiers,MA Wood,F Behardien,2,2,0,na,na,na,na,na,na,na,na,na
1st innings,18.5,AB de Villiers,MA Wood,F Behardien,1,1,0,na,na,na,na,na,na,na,na,na
1st innings,18.6,F Behardien,MA Wood,AB de Villiers,0,0,0,na,na,na,na,na,na,na,na,na
1st innings,19.1,AB de Villiers,CJ Jordan,F Behardien,1,1,0,na,na,na,na,na,na,na,na,na
1st innings,19.2,F Behardien,CJ Jordan,AB de Villiers,6,6,0,na,na,na,na,na,na,na,na,na
1st innings,19.3,F Behardien,CJ Jordan,AB de Villiers,0,0,0,na,na,na,na,na,na,na,na,na
1st innings,19.4,F Behardien,CJ Jordan,AB de Villiers,2,2,0,na,na,na,na,na,na,na,na,na
1st innings,19.5,F Behardien,CJ Jordan,AB de Villiers,1,1,0,na,na,na,na,na,na,na,na,na
1st innings,19.6,AB de Villiers,CJ Jordan,F Behardien,1,1,0,na,na,na,na,na,na,na,na,na
2nd innings,0.1,AD Hales,JT Smuts,JJ Roy,0,0,0,na,na,na,na,na,na,na,na,na
2nd innings,0.2,AD Hales,JT Smuts,JJ Roy,1,1,0,na,na,na,na,na,na,na,na,na
2nd innings,0.3,JJ Roy,JT Smuts,AD Hales,1,1,0,na,na,na,na,na,na,na,na,na
2nd innings,0.4,AD Hales,JT Smuts,JJ Roy,0,0,0,na,na,na,na,na,na,na,na,na
2nd innings,0.5,AD Hales,JT Smuts,JJ Roy,1,1,0,na,na,na,na,na,na,na,na,na
2nd innings,0.6,JJ Roy,JT Smuts,AD Hales,1,1,0,na,na,na,na,na,na,na,na,na
2nd innings,1.1,JJ Roy,WD Parnell,AD Hales,1,0,1,na,na,1,na,na,na,na,na,na
2nd innings,1.2,JJ Roy,WD Parnell,AD Hales,4,4,0,na,na,na,na,na,na,na,na,na
2nd innings,1.3,JJ Roy,WD Parnell,AD Hales,0,0,0,na,na,na,na,na,na,na,na,na
2nd innings,1.4,JJ Roy,WD Parnell,AD Hales,0,0,0,na,na,na,na,na,na,na,na,na
2nd innings,1.5,JJ Roy,WD Parnell,AD Hales,0,0,0,na,na,na,na,na,na,na,na,na
2nd innings,1.6,JJ Roy,WD Parnell,AD Hales,2,2,0,na,na,na,na,na,na,na,na,na
2nd innings,1.7,JJ Roy,WD Parnell,AD Hales,1,0,1,1,na,na,na,na,na,na,na,na
2nd innings,2.1,JJ Roy,JT Smuts,AD Hales,1,1,0,na,na,na,na,na,na,na,na,na
2nd innings,2.2,AD Hales,JT Smuts,JJ Roy,6,6,0,na,na,na,na,na,na,na,na,na
2nd innings,2.3,AD Hales,JT Smuts,JJ Roy,0,0,0,na,na,na,na,na,na,na,na,na
2nd innings,2.4,AD Hales,JT Smuts,JJ Roy,1,1,0,na,na,na,na,na,na,na,na,na
2nd innings,2.5,JJ Roy,JT Smuts,AD Hales,0,0,0,na,na,na,na,na,na,na,na,na
2nd innings,2.6,JJ Roy,JT Smuts,AD Hales,2,2,0,na,na,na,na,na,na,na,na,na
2nd innings,3.1,AD Hales,WD Parnell,JJ Roy,4,0,4,4,na,na,na,na,na,na,na,na
2nd innings,3.2,AD Hales,WD Parnell,JJ Roy,6,6,0,na,na,na,na,na,na,na,na,na
2nd innings,3.3,AD Hales,WD Parnell,JJ Roy,4,4,0,na,na,na,na,na,na,na,na,na
2nd innings,3.4,AD Hales,WD Parnell,JJ Roy,4,4,0,na,na,na,na,na,na,na,na,na
2nd innings,3.5,AD Hales,WD Parnell,JJ Roy,4,4,0,na,na,na,na,na,na,na,na,na
2nd innings,3.6,AD Hales,WD Parnell,JJ Roy,1,1,0,na,na,na,na,na,na,na,na,na
2nd innings,4.1,AD Hales,AL Phehlukwayo,JJ Roy,0,0,0,na,na,na,na,na,lbw,na,na,JJ Roy
2nd innings,4.2,AD Hales,AL Phehlukwayo,JM Bairstow,0,0,0,na,na,na,na,na,na,na,na,na
2nd innings,4.3,AD Hales,AL Phehlukwayo,JM Bairstow,4,4,0,na,na,na,na,na,na,na,na,na
2nd innings,4.4,AD Hales,AL Phehlukwayo,JM Bairstow,1,1,0,na,na,na,na,na,na,na,na,na
2nd innings,4.5,JM Bairstow,AL Phehlukwayo,AD Hales,1,1,0,na,na,na,na,na,na,na,na,na
2nd innings,4.6,AD Hales,AL Phehlukwayo,JM Bairstow,0,0,0,na,na,na,na,na,na,na,na,na
2nd innings,5.1,JM Bairstow,Imran Tahir,AD Hales,0,0,0,na,na,na,na,na,na,na,na,na
2nd innings,5.2,JM Bairstow,Imran Tahir,AD Hales,6,6,0,na,na,na,na,na,na,na,na,na
2nd innings,5.3,JM Bairstow,Imran Tahir,AD Hales,0,0,0,na,na,na,na,na,na,na,na,na
2nd innings,5.4,JM Bairstow,Imran Tahir,AD Hales,1,1,0,na,na,na,na,na,na,na,na,na
2nd innings,5.5,AD Hales,Imran Tahir,JM Bairstow,1,1,0,na,na,na,na,na,na,na,na,na
2nd innings,5.6,JM Bairstow,Imran Tahir,AD Hales,0,0,0,na,na,na,na,na,na,na,na,na
2nd innings,6.1,AD Hales,T Shamsi,JM Bairstow,2,2,0,na,na,na,na,na,na,na,na,na
2nd innings,6.2,AD Hales,T Shamsi,JM Bairstow,1,1,0,na,na,na,na,na,na,na,na,na
2nd innings,6.3,JM Bairstow,T Shamsi,AD Hales,1,1,0,na,na,na,na,na,na,na,na,na
2nd innings,6.4,AD Hales,T Shamsi,JM Bairstow,1,1,0,na,na,na,na,na,na,na,na,na
2nd innings,6.5,JM Bairstow,T Shamsi,AD Hales,0,0,0,na,na,na,na,na,na,na,na,na
2nd innings,6.6,JM Bairstow,T Shamsi,AD Hales,0,0,0,na,na,na,na,na,na,na,na,na
2nd innings,7.1,AD Hales,Imran Tahir,JM Bairstow,2,2,0,na,na,na,na,na,na,na,na,na
2nd innings,7.2,AD Hales,Imran Tahir,JM Bairstow,0,0,0,na,na,na,na,na,na,na,na,na
2nd innings,7.3,AD Hales,Imran Tahir,JM Bairstow,6,6,0,na,na,na,na,na,na,na,na,na
2nd innings,7.4,AD Hales,Imran Tahir,JM Bairstow,2,2,0,na,na,na,na,na,na,na,na,na
2nd innings,7.5,AD Hales,Imran Tahir,JM Bairstow,1,1,0,na,na,na,na,na,na,na,na,na
2nd innings,7.6,JM Bairstow,Imran Tahir,AD Hales,1,1,0,na,na,na,na,na,na,na,na,na
2nd innings,8.1,JM Bairstow,T Shamsi,AD Hales,0,0,0,na,na,na,na,na,na,na,na,na
2nd innings,8.2,JM Bairstow,T Shamsi,AD Hales,0,0,0,na,na,na,na,na,na,na,na,na
2nd innings,8.3,JM Bairstow,T Shamsi,AD Hales,1,1,0,na,na,na,na,na,na,na,na,na
2nd innings,8.4,AD Hales,T Shamsi,JM Bairstow,6,6,0,na,na,na,na,na,na,na,na,na
2nd innings,8.5,AD Hales,T Shamsi,JM Bairstow,1,1,0,na,na,na,na,na,na,na,na,na
2nd innings,8.6,JM Bairstow,T Shamsi,AD Hales,1,1,0,na,na,na,na,na,na,na,na,na
2nd innings,9.1,JM Bairstow,D Pretorius,AD Hales,3,3,0,na,na,na,na,na,na,na,na,na
2nd innings,9.2,AD Hales,D Pretorius,JM Bairstow,1,0,1,na,na,1,na,na,na,na,na,na
2nd innings,9.3,AD Hales,D Pretorius,JM Bairstow,1,1,0,na,na,na,na,na,na,na,na,na
2nd innings,9.4,JM Bairstow,D Pretorius,AD Hales,1,1,0,na,na,na,na,na,na,na,na,na
2nd innings,9.5,AD Hales,D Pretorius,JM Bairstow,1,1,0,na,na,na,na,na,na,na,na,na
2nd innings,9.6,JM Bairstow,D Pretorius,AD Hales,4,4,0,na,na,na,na,na,na,na,na,na
2nd innings,9.7,JM Bairstow,D Pretorius,AD Hales,1,1,0,na,na,na,na,na,na,na,na,na
2nd innings,10.1,JM Bairstow,JT Smuts,AD Hales,1,0,1,1,na,na,na,na,na,na,na,na
2nd innings,10.2,AD Hales,JT Smuts,JM Bairstow,0,0,0,na,na,na,na,na,na,na,na,na
2nd innings,10.3,AD Hales,JT Smuts,JM Bairstow,4,4,0,na,na,na,na,na,na,na,na,na
2nd innings,10.4,AD Hales,JT Smuts,JM Bairstow,1,1,0,na,na,na,na,na,na,na,na,na
2nd innings,10.5,JM Bairstow,JT Smuts,AD Hales,1,1,0,na,na,na,na,na,na,na,na,na
2nd innings,10.6,AD Hales,JT Smuts,JM Bairstow,0,0,0,na,na,na,na,na,na,na,na,na
2nd innings,11.1,JM Bairstow,D Pretorius,AD Hales,2,2,0,na,na,na,na,na,na,na,na,na
2nd innings,11.2,JM Bairstow,D Pretorius,AD Hales,1,1,0,na,na,na,na,na,na,na,na,na
2nd innings,11.3,AD Hales,D Pretorius,JM Bairstow,4,4,0,na,na,na,na,na,na,na,na,na
2nd innings,11.4,AD Hales,D Pretorius,JM Bairstow,1,1,0,na,na,na,na,na,na,na,na,na
2nd innings,11.5,JM Bairstow,D Pretorius,AD Hales,0,0,0,na,na,na,na,na,na,na,na,na
2nd innings,11.6,JM Bairstow,D Pretorius,AD Hales,0,0,0,na,na,na,na,na,na,na,na,na
2nd innings,12.1,AD Hales,Imran Tahir,JM Bairstow,4,4,0,na,na,na,na,na,na,na,na,na
2nd innings,12.2,AD Hales,Imran Tahir,JM Bairstow,1,1,0,na,na,na,na,na,na,na,na,na
2nd innings,12.3,JM Bairstow,Imran Tahir,AD Hales,1,1,0,na,na,na,na,na,na,na,na,na
2nd innings,12.4,AD Hales,Imran Tahir,JM Bairstow,1,1,0,na,na,na,na,na,na,na,na,na
2nd innings,12.5,JM Bairstow,Imran Tahir,AD Hales,4,4,0,na,na,na,na,na,na,na,na,na
2nd innings,12.6,JM Bairstow,Imran Tahir,AD Hales,6,6,0,na,na,na,na,na,na,na,na,na
2nd innings,13.1,AD Hales,T Shamsi,JM Bairstow,2,2,0,na,na,na,na,na,na,na,na,na
2nd innings,13.2,AD Hales,T Shamsi,JM Bairstow,0,0,0,na,na,na,na,na,na,na,na,na
2nd innings,13.3,AD Hales,T Shamsi,JM Bairstow,4,4,0,na,na,na,na,na,na,na,na,na
2nd innings,13.4,AD Hales,T Shamsi,JM Bairstow,0,0,0,na,na,na,na,na,na,na,na,na
2nd innings,13.5,AD Hales,T Shamsi,JM Bairstow,2,2,0,na,na,na,na,na,na,na,na,na
2nd innings,13.6,AD Hales,T Shamsi,JM Bairstow,1,1,0,na,na,na,na,na,na,na,na,na
2nd innings,14.1,AD Hales,AL Phehlukwayo,JM Bairstow,4,4,0,na,na,na,na,na,na,na,na,na
2nd innings,14.2,AD Hales,AL Phehlukwayo,JM Bairstow,0,0,0,na,na,na,na,na,na,na,na,na
2nd innings,14.3,AD Hales,AL Phehlukwayo,JM Bairstow,1,1,0,na,na,na,na,na,na,na,na,na
