inngs,deliveries,non_striker,bowler,batsman,totalruns,batsman_runs,extra_runs,legbyes,byes,wides,noballs,penalty,wicket_kind,fielder1,fielder2,player_out
1st innings,0.1,KL Rahul,LA Dawson,V Kohli,1,1,0,na,na,na,na,na,na,na,na,na
1st innings,0.2,V Kohli,LA Dawson,KL Rahul,2,2,0,na,na,na,na,na,na,na,na,na
1st innings,0.3,V Kohli,LA Dawson,KL Rahul,0,0,0,na,na,na,na,na,na,na,na,na
1st innings,0.4,V Kohli,LA Dawson,KL Rahul,0,0,0,na,na,na,na,na,na,na,na,na
1st innings,0.5,V Kohli,LA Dawson,KL Rahul,1,1,0,na,na,na,na,na,na,na,na,na
1st innings,0.6,KL Rahul,LA Dawson,V Kohli,1,1,0,na,na,na,na,na,na,na,na,na
1st innings,1.1,KL Rahul,TS Mills,V Kohli,0,0,0,na,na,na,na,na,na,na,na,na
1st innings,1.2,KL Rahul,TS Mills,V Kohli,0,0,0,na,na,na,na,na,na,na,na,na
1st innings,1.3,KL Rahul,TS Mills,V Kohli,4,4,0,na,na,na,na,na,na,na,na,na
1st innings,1.4,KL Rahul,TS Mills,V Kohli,1,1,0,na,na,na,na,na,na,na,na,na
1st innings,1.5,V Kohli,TS Mills,KL Rahul,0,0,0,na,na,na,na,na,na,na,na,na
1st innings,1.6,V Kohli,TS Mills,KL Rahul,0,0,0,na,na,na,na,na,na,na,na,na
1st innings,2.1,KL Rahul,CJ Jordan,V Kohli,0,0,0,na,na,na,na,na,na,na,na,na
1st innings,2.2,KL Rahul,CJ Jordan,V Kohli,0,0,0,na,na,na,na,na,na,na,na,na
1st innings,2.3,KL Rahul,CJ Jordan,V Kohli,1,1,0,na,na,na,na,na,na,na,na,na
1st innings,2.4,V Kohli,CJ Jordan,KL Rahul,2,2,0,na,na,na,na,na,na,na,na,na
1st innings,2.5,V Kohli,CJ Jordan,KL Rahul,2,2,0,na,na,na,na,na,na,na,na,na
1st innings,2.6,V Kohli,CJ Jordan,KL Rahul,0,0,0,na,na,na,na,na,na,na,na,na
1st innings,3.1,KL Rahul,TS Mills,V Kohli,0,0,0,na,na,na,na,na,na,na,na,na
1st innings,3.2,KL Rahul,TS Mills,V Kohli,6,6,0,na,na,na,na,na,na,na,na,na
1st innings,3.3,KL Rahul,TS Mills,V Kohli,4,4,0,na,na,na,na,na,na,na,na,na
1st innings,3.4,KL Rahul,TS Mills,V Kohli,2,2,0,na,na,na,na,na,na,na,na,na
1st innings,3.5,KL Rahul,TS Mills,V Kohli,1,1,0,na,na,na,na,na,na,na,na,na
1st innings,3.6,V Kohli,TS Mills,KL Rahul,2,2,0,na,na,na,na,na,na,na,na,na
1st innings,4.1,KL Rahul,CJ Jordan,V Kohli,0,0,0,na,na,na,na,na,caught,LA Dawson,na,V Kohli
1st innings,4.2,SK Raina,CJ Jordan,KL Rahul,4,4,0,na,na,na,na,na,na,na,na,na
1st innings,4.3,SK Raina,CJ Jordan,KL Rahul,1,1,0,na,na,na,na,na,na,na,na,na
1st innings,4.4,KL Rahul,CJ Jordan,SK Raina,0,0,0,na,na,na,na,na,na,na,na,na
1st innings,4.5,KL Rahul,CJ Jordan,SK Raina,1,1,0,na,na,na,na,na,na,na,na,na
1st innings,4.6,SK Raina,CJ Jordan,KL Rahul,1,1,0,na,na,na,na,na,na,na,na,na
1st innings,5.1,SK Raina,BA Stokes,KL Rahul,1,0,1,na,na,1,na,na,na,na,na,na
1st innings,5.2,SK Raina,BA Stokes,KL Rahul,1,1,0,na,na,na,na,na,na,na,na,na
1st innings,5.3,KL Rahul,BA Stokes,SK Raina,0,0,0,na,na,na,na,na,na,na,na,na
1st innings,5.4,KL Rahul,BA Stokes,SK Raina,1,1,0,na,na,na,na,na,na,na,na,na
1st innings,5.5,SK Raina,BA Stokes,KL Rahul,4,4,0,na,na,na,na,na,na,na,na,na
1st innings,5.6,SK Raina,BA Stokes,KL Rahul,1,1,0,na,na,na,na,na,na,na,na,na
1st innings,5.7,KL Rahul,BA Stokes,SK Raina,1,1,0,na,na,na,na,na,na,na,na,na
1st innings,6.1,KL Rahul,MM Ali,SK Raina,1,1,0,na,na,na,na,na,na,na,na,na
1st innings,6.2,SK Raina,MM Ali,KL Rahul,1,1,0,na,na,na,na,na,na,na,na,na
1st innings,6.3,KL Rahul,MM Ali,SK Raina,1,1,0,na,na,na,na,na,na,na,na,na
1st innings,6.4,SK Raina,MM Ali,KL Rahul,3,3,0,na,na,na,na,na,na,na,na,na
1st innings,6.5,KL Rahul,MM Ali,SK Raina,1,0,1,na,na,1,na,na,na,na,na,na
1st innings,6.6,KL Rahul,MM Ali,SK Raina,1,1,0,na,na,na,na,na,na,na,na,na
1st innings,6.7,SK Raina,MM Ali,KL Rahul,0,0,0,na,na,na,na,na,na,na,na,na
1st innings,7.1,KL Rahul,AU Rashid,SK Raina,1,1,0,na,na,na,na,na,na,na,na,na
1st innings,7.2,SK Raina,AU Rashid,KL Rahul,0,0,0,na,na,na,na,na,na,na,na,na
1st innings,7.3,SK Raina,AU Rashid,KL Rahul,1,1,0,na,na,na,na,na,na,na,na,na
1st innings,7.4,KL Rahul,AU Rashid,SK Raina,0,0,0,na,na,na,na,na,caught,CJ Jordan,na,SK Raina
1st innings,7.5,KL Rahul,AU Rashid,Yuvraj Singh,0,0,0,na,na,na,na,na,na,na,na,na
1st innings,7.6,KL Rahul,AU Rashid,Yuvraj Singh,0,0,0,na,na,na,na,na,na,na,na,na
1st innings,8.1,Yuvraj Singh,MM Ali,KL Rahul,0,0,0,na,na,na,na,na,na,na,na,na
1st innings,8.2,Yuvraj Singh,MM Ali,KL Rahul,1,1,0,na,na,na,na,na,na,na,na,na
1st innings,8.3,KL Rahul,MM Ali,Yuvraj Singh,0,0,0,na,na,na,na,na,na,na,na,na
1st innings,8.4,KL Rahul,MM Ali,Yuvraj Singh,0,0,0,na,na,na,na,na,na,na,na,na
1st innings,8.5,KL Rahul,MM Ali,Yuvraj Singh,0,0,0,na,na,na,na,na,na,na,na,na
1st innings,8.6,KL Rahul,MM Ali,Yuvraj Singh,0,0,0,na,na,na,na,na,na,na,na,na
1st innings,9.1,Yuvraj Singh,AU Rashid,KL Rahul,1,1,0,na,na,na,na,na,na,na,na,na
1st innings,9.2,KL Rahul,AU Rashid,Yuvraj Singh,1,1,0,na,na,na,na,na,na,na,na,na
1st innings,9.3,Yuvraj Singh,AU Rashid,KL Rahul,6,6,0,na,na,na,na,na,na,na,na,na
1st innings,9.4,Yuvraj Singh,AU Rashid,KL Rahul,1,1,0,na,na,na,na,na,na,na,na,na
1st innings,9.5,KL Rahul,AU Rashid,Yuvraj Singh,0,0,0,na,na,na,na,na,na,na,na,na
1st innings,9.6,KL Rahul,AU Rashid,Yuvraj Singh,1,1,0,na,na,na,na,na,na,na,na,na
1st innings,10.1,KL Rahul,MM Ali,Yuvraj Singh,0,0,0,na,na,na,na,na,na,na,na,na
1st innings,10.2,KL Rahul,MM Ali,Yuvraj Singh,2,2,0,na,na,na,na,na,na,na,na,na
1st innings,10.3,KL Rahul,MM Ali,Yuvraj Singh,0,0,0,na,na,na,na,na,lbw,na,na,Yuvraj Singh
1st innings,10.4,KL Rahul,MM Ali,MK Pandey,1,1,0,na,na,na,na,na,na,na,na,na
1st innings,10.5,MK Pandey,MM Ali,KL Rahul,1,1,0,na,na,na,na,na,na,na,na,na
1st innings,10.6,KL Rahul,MM Ali,MK Pandey,1,1,0,na,na,na,na,na,na,na,na,na
1st innings,11.1,KL Rahul,LA Dawson,MK Pandey,1,1,0,na,na,na,na,na,na,na,na,na
1st innings,11.2,MK Pandey,LA Dawson,KL Rahul,6,6,0,na,na,na,na,na,na,na,na,na
1st innings,11.3,MK Pandey,LA Dawson,KL Rahul,2,2,0,na,na,na,na,na,na,na,na,na
1st innings,11.4,MK Pandey,LA Dawson,KL Rahul,1,1,0,na,na,na,na,na,na,na,na,na
1st innings,11.5,KL Rahul,LA Dawson,MK Pandey,1,1,0,na,na,na,na,na,na,na,na,na
1st innings,11.6,MK Pandey,LA Dawson,KL Rahul,4,4,0,na,na,na,na,na,na,na,na,na
1st innings,12.1,KL Rahul,MM Ali,MK Pandey,1,1,0,na,na,na,na,na,na,na,na,na
1st innings,12.2,MK Pandey,MM Ali,KL Rahul,1,1,0,na,na,na,na,na,na,na,na,na
1st innings,12.3,KL Rahul,MM Ali,MK Pandey,1,1,0,na,na,na,na,na,na,na,na,na
1st innings,12.4,MK Pandey,MM Ali,KL Rahul,1,1,0,na,na,na,na,na,na,na,na,na
1st innings,12.5,KL Rahul,MM Ali,MK Pandey,1,1,0,na,na,na,na,na,na,na,na,na
1st innings,12.6,MK Pandey,MM Ali,KL Rahul,1,1,0,na,na,na,na,na,na,na,na,na
1st innings,13.1,MK Pandey,AU Rashid,KL Rahul,4,4,0,na,na,na,na,na,na,na,na,na
1st innings,13.2,MK Pandey,AU Rashid,KL Rahul,1,1,0,na,na,na,na,na,na,na,na,na
1st innings,13.3,KL Rahul,AU Rashid,MK Pandey,1,1,0,na,na,na,na,na,na,na,na,na
1st innings,13.4,MK Pandey,AU Rashid,KL Rahul,4,4,0,na,na,na,na,na,na,na,na,na
1st innings,13.5,MK Pandey,AU Rashid,KL Rahul,1,1,0,na,na,na,na,na,na,na,na,na
1st innings,13.6,KL Rahul,AU Rashid,MK Pandey,1,1,0,na,na,na,na,na,na,na,na,na
1st innings,14.1,KL Rahul,BA Stokes,MK Pandey,0,0,0,na,na,na,na,na,na,na,na,na
1st innings,14.2,KL Rahul,BA Stokes,MK Pandey,1,1,0,na,na,na,na,na,na,na,na,na
1st innings,14.3,MK Pandey,BA Stokes,KL Rahul,0,0,0,na,na,na,na,na,na,na,na,na
1st innings,14.4,MK Pandey,BA Stokes,KL Rahul,1,0,1,1,na,na,na,na,na,na,na,na
1st innings,14.5,KL Rahul,BA Stokes,MK Pandey,0,0,0,na,na,na,na,na,na,na,na,na
1st innings,14.6,KL Rahul,BA Stokes,MK Pandey,1,1,0,na,na,na,na,na,na,na,na,na
1st innings,15.1,KL Rahul,TS Mills,MK Pandey,1,1,0,na,na,na,na,na,na,na,na,na
1st innings,15.2,MK Pandey,TS Mills,KL Rahul,1,1,0,na,na,na,na,na,na,na,na,na
1st innings,15.3,KL Rahul,TS Mills,MK Pandey,1,1,0,na,na,na,na,na,na,na,na,na
1st innings,15.4,MK Pandey,TS Mills,KL Rahul,1,1,0,na,na,na,na,na,na,na,na,na
1st innings,15.5,KL Rahul,TS Mills,MK Pandey,1,1,0,na,na,na,na,na,na,na,na,na
1st innings,15.6,MK Pandey,TS Mills,KL Rahul,1,1,0,na,na,na,na,na,na,na,na,na
1st innings,16.1,MK Pandey,BA Stokes,KL Rahul,1,1,0,na,na,na,na,na,na,na,na,na
1st innings,16.2,KL Rahul,BA Stokes,MK Pandey,1,1,0,na,na,na,na,na,na,na,na,na
1st innings,16.3,MK Pandey,BA Stokes,KL Rahul,1,1,0,na,na,na,na,na,na,na,na,na
1st innings,16.4,KL Rahul,BA Stokes,MK Pandey,2,2,0,na,na,na,na,na,na,na,na,na
1st innings,16.5,KL Rahul,BA Stokes,MK Pandey,1,1,0,na,na,na,na,na,na,na,na,na
1st innings,16.6,MK Pandey,BA Stokes,KL Rahul,4,4,0,na,na,na,na,na,na,na,na,na
1st innings,17.1,KL Rahul,CJ Jordan,MK Pandey,1,1,0,na,na,na,na,na,na,na,na,na
1st innings,17.2,MK Pandey,CJ Jordan,KL Rahul,0,0,0,na,na,na,na,na,caught,BA Stokes,na,KL Rahul
1st innings,17.3,MK Pandey,CJ Jordan,MS Dhoni,1,1,0,na,na,na,na,na,na,na,na,na
1st innings,17.4,MS Dhoni,CJ Jordan,MK Pandey,1,1,0,na,na,na,na,na,na,na,na,na
1st innings,17.5,MK Pandey,CJ Jordan,MS Dhoni,1,1,0,na,na,na,na,na,na,na,na,na
1st innings,17.6,MS Dhoni,CJ Jordan,MK Pandey,1,1,0,na,na,na,na,na,na,na,na,na
1st innings,18.1,MS Dhoni,TS Mills,MK Pandey,1,1,0,na,na,na,na,na,na,na,na,na
1st innings,18.2,MK Pandey,TS Mills,MS Dhoni,1,1,0,na,na,na,na,na,na,na,na,na
1st innings,18.3,MS Dhoni,TS Mills,MK Pandey,6,6,0,na,na,na,na,na,na,na,na,na
1st innings,18.4,MS Dhoni,TS Mills,MK Pandey,2,2,0,na,na,na,na,na,na,na,na,na
1st innings,18.5,MS Dhoni,TS Mills,MK Pandey,0,0,0,na,na,na,na,na,bowled,na,na,MK Pandey
1st innings,18.6,MS Dhoni,TS Mills,HH Pandya,0,0,0,na,na,na,na,na,na,na,na,na
1st innings,19.1,HH Pandya,CJ Jordan,MS Dhoni,1,1,0,na,na,na,na,na,na,na,na,na
1st innings,19.2,MS Dhoni,CJ Jordan,HH Pandya,2,2,0,na,na,na,na,na,na,na,na,na
1st innings,19.3,MS Dhoni,CJ Jordan,HH Pandya,1,0,1,na,na,1,na,na,na,na,na,na
1st innings,19.4,MS Dhoni,CJ Jordan,HH Pandya,0,0,0,na,na,na,na,na,run out,CJ Jordan,na,HH Pandya
1st innings,19.5,A Mishra,CJ Jordan,MS Dhoni,0,0,0,na,na,na,na,na,na,na,na,na
1st innings,19.6,A Mishra,CJ Jordan,MS Dhoni,1,1,0,na,na,na,na,na,run out,MM Ali,MM Ali,A Mishra
1st innings,19.7,JJ Bumrah,CJ Jordan,MS Dhoni,0,0,0,na,na,na,na,na,bowled,na,na,MS Dhoni
2nd innings,0.1,SW Billings,YS Chahal,JJ Roy,0,0,0,na,na,na,na,na,na,na,na,na
2nd innings,0.2,SW Billings,YS Chahal,JJ Roy,0,0,0,na,na,na,na,na,na,na,na,na
2nd innings,0.3,SW Billings,YS Chahal,JJ Roy,1,1,0,na,na,na,na,na,na,na,na,na
2nd innings,0.4,JJ Roy,YS Chahal,SW Billings,0,0,0,na,na,na,na,na,na,na,na,na
2nd innings,0.5,JJ Roy,YS Chahal,SW Billings,1,1,0,na,na,na,na,na,na,na,na,na
2nd innings,0.6,SW Billings,YS Chahal,JJ Roy,0,0,0,na,na,na,na,na,na,na,na,na
2nd innings,1.1,JJ Roy,A Nehra,SW Billings,1,1,0,na,na,na,na,na,na,na,na,na
2nd innings,1.2,SW Billings,A Nehra,JJ Roy,0,0,0,na,na,na,na,na,na,na,na,na
2nd innings,1.3,SW Billings,A Nehra,JJ Roy,1,1,0,na,na,na,na,na,na,na,na,na
2nd innings,1.4,JJ Roy,A Nehra,SW Billings,1,1,0,na,na,na,na,na,na,na,na,na
2nd innings,1.5,SW Billings,A Nehra,JJ Roy,1,1,0,na,na,na,na,na,na,na,na,na
2nd innings,1.6,JJ Roy,A Nehra,SW Billings,1,1,0,na,na,na,na,na,na,na,na,na
2nd innings,2.1,JJ Roy,YS Chahal,SW Billings,6,6,0,na,na,na,na,na,na,na,na,na
2nd innings,2.2,JJ Roy,YS Chahal,SW Billings,1,1,0,na,na,na,na,na,na,na,na,na
2nd innings,2.3,SW Billings,YS Chahal,JJ Roy,6,6,0,na,na,na,na,na,na,na,na,na
2nd innings,2.4,SW Billings,YS Chahal,JJ Roy,0,0,0,na,na,na,na,na,na,na,na,na
2nd innings,2.5,SW Billings,YS Chahal,JJ Roy,1,1,0,na,na,na,na,na,na,na,na,na
2nd innings,2.6,JJ Roy,YS Chahal,SW Billings,1,1,0,na,na,na,na,na,na,na,na,na
2nd innings,3.1,JJ Roy,A Nehra,SW Billings,0,0,0,na,na,na,na,na,caught,JJ Bumrah,na,SW Billings
2nd innings,3.2,JE Root,A Nehra,JJ Roy,0,0,0,na,na,na,na,na,caught,SK Raina,na,JJ Roy
2nd innings,3.3,JE Root,A Nehra,EJG Morgan,0,0,0,na,na,na,na,na,na,na,na,na
2nd innings,3.4,JE Root,A Nehra,EJG Morgan,1,1,0,na,na,na,na,na,na,na,na,na
2nd innings,3.5,EJG Morgan,A Nehra,JE Root,1,1,0,na,na,na,na,na,na,na,na,na
2nd innings,3.6,JE Root,A Nehra,EJG Morgan,0,0,0,na,na,na,na,na,na,na,na,na
2nd innings,4.1,EJG Morgan,YS Chahal,JE Root,1,1,0,na,na,na,na,na,na,na,na,na
2nd innings,4.2,JE Root,YS Chahal,EJG Morgan,1,1,0,na,na,na,na,na,na,na,na,na
2nd innings,4.3,EJG Morgan,YS Chahal,JE Root,1,1,0,na,na,na,na,na,na,na,na,na
2nd innings,4.4,JE Root,YS Chahal,EJG Morgan,0,0,0,na,na,na,na,na,na,na,na,na
2nd innings,4.5,JE Root,YS Chahal,EJG Morgan,1,1,0,na,na,na,na,na,na,na,na,na
2nd innings,4.6,EJG Morgan,YS Chahal,JE Root,1,1,0,na,na,na,na,na,na,na,na,na
2nd innings,5.1,EJG Morgan,JJ Bumrah,JE Root,0,0,0,na,na,na,na,na,na,na,na,na
2nd innings,5.2,EJG Morgan,JJ Bumrah,JE Root,1,1,0,na,na,na,na,na,na,na,na,na
2nd innings,5.3,JE Root,JJ Bumrah,EJG Morgan,0,0,0,na,na,na,na,na,na,na,na,na
2nd innings,5.4,JE Root,JJ Bumrah,EJG Morgan,4,4,0,na,na,na,na,na,na,na,na,na
2nd innings,5.5,JE Root,JJ Bumrah,EJG Morgan,2,2,0,na,na,na,na,na,na,na,na,na
2nd innings,5.6,JE Root,JJ Bumrah,EJG Morgan,0,0,0,na,na,na,na,na,na,na,na,na
2nd innings,6.1,EJG Morgan,A Mishra,JE Root,1,1,0,na,na,na,na,na,na,na,na,na
2nd innings,6.2,JE Root,A Mishra,EJG Morgan,1,1,0,na,na,na,na,na,na,na,na,na
2nd innings,6.3,EJG Morgan,A Mishra,JE Root,1,1,0,na,na,na,na,na,na,na,na,na
2nd innings,6.4,JE Root,A Mishra,EJG Morgan,1,1,0,na,na,na,na,na,na,na,na,na
2nd innings,6.5,EJG Morgan,A Mishra,JE Root,2,2,0,na,na,na,na,na,na,na,na,na
2nd innings,6.6,EJG Morgan,A Mishra,JE Root,2,2,0,na,na,na,na,na,na,na,na,na
2nd innings,7.1,JE Root,SK Raina,EJG Morgan,1,0,1,1,na,na,na,na,na,na,na,na
2nd innings,7.2,EJG Morgan,SK Raina,JE Root,1,1,0,na,na,na,na,na,na,na,na,na
2nd innings,7.3,JE Root,SK Raina,EJG Morgan,1,1,0,na,na,na,na,na,na,na,na,na
2nd innings,7.4,EJG Morgan,SK Raina,JE Root,0,0,0,na,na,na,na,na,na,na,na,na
2nd innings,7.5,EJG Morgan,SK Raina,JE Root,1,1,0,na,na,na,na,na,na,na,na,na
2nd innings,7.6,JE Root,SK Raina,EJG Morgan,1,1,0,na,na,na,na,na,na,na,na,na
2nd innings,8.1,JE Root,A Mishra,EJG Morgan,1,1,0,na,na,na,na,na,na,na,na,na
2nd innings,8.2,EJG Morgan,A Mishra,JE Root,4,4,0,na,na,na,na,na,na,na,na,na
2nd innings,8.3,EJG Morgan,A Mishra,JE Root,4,4,0,na,na,na,na,na,na,na,na,na
2nd innings,8.4,EJG Morgan,A Mishra,JE Root,1,1,0,na,na,na,na,na,na,na,na,na
2nd innings,8.5,JE Root,A Mishra,EJG Morgan,0,0,0,na,na,na,na,na,na,na,na,na
2nd innings,8.6,JE Root,A Mishra,EJG Morgan,1,0,1,1,na,na,na,na,na,na,na,na
2nd innings,9.1,JE Root,SK Raina,EJG Morgan,1,1,0,na,na,na,na,na,na,na,na,na
2nd innings,9.2,EJG Morgan,SK Raina,JE Root,1,1,0,na,na,na,na,na,na,na,na,na
2nd innings,9.3,JE Root,SK Raina,EJG Morgan,1,1,0,na,na,na,na,na,na,na,na,na
2nd innings,9.4,EJG Morgan,SK Raina,JE Root,1,1,0,na,na,na,na,na,na,na,na,na
2nd innings,9.5,JE Root,SK Raina,EJG Morgan,0,0,0,na,na,na,na,na,na,na,na,na
2nd innings,9.6,JE Root,SK Raina,EJG Morgan,1,1,0,na,na,na,na,na,na,na,na,na
2nd innings,10.1,JE Root,A Mishra,EJG Morgan,0,0,0,na,na,na,na,na,caught,HH Pandya,na,EJG Morgan
2nd innings,10.2,BA Stokes,A Mishra,JE Root,1,1,0,na,na,na,na,na,na,na,na,na
2nd innings,10.3,JE Root,A Mishra,BA Stokes,1,0,1,na,na,na,1,na,na,na,na,na
2nd innings,10.4,JE Root,A Mishra,BA Stokes,1,1,0,na,na,na,na,na,na,na,na,na
2nd innings,10.5,BA Stokes,A Mishra,JE Root,1,1,0,na,na,na,na,na,na,na,na,na
2nd innings,10.6,JE Root,A Mishra,BA Stokes,0,0,0,na,na,na,na,na,na,na,na,na
2nd innings,10.7,JE Root,A Mishra,BA Stokes,0,0,0,na,na,na,na,na,na,na,na,na
2nd innings,11.1,BA Stokes,SK Raina,JE Root,0,0,0,na,na,na,na,na,na,na,na,na
2nd innings,11.2,BA Stokes,SK Raina,JE Root,1,0,1,na,na,1,na,na,na,na,na,na
2nd innings,11.3,BA Stokes,SK Raina,JE Root,3,0,3,na,na,3,na,na,na,na,na,na
2nd innings,11.4,BA Stokes,SK Raina,JE Root,0,0,0,na,na,na,na,na,na,na,na,na
2nd innings,11.5,BA Stokes,SK Raina,JE Root,1,1,0,na,na,na,na,na,na,na,na,na
2nd innings,11.6,JE Root,SK Raina,BA Stokes,1,1,0,na,na,na,na,na,na,na,na,na
2nd innings,11.7,BA Stokes,SK Raina,JE Root,1,1,0,na,na,na,na,na,na,na,na,na
2nd innings,11.8,JE Root,SK Raina,BA Stokes,1,1,0,na,na,na,na,na,na,na,na,na
2nd innings,12.1,JE Root,A Mishra,BA Stokes,1,1,0,na,na,na,na,na,na,na,na,na
2nd innings,12.2,BA Stokes,A Mishra,JE Root,1,1,0,na,na,na,na,na,na,na,na,na
2nd innings,12.3,JE Root,A Mishra,BA Stokes,0,0,0,na,na,na,na,na,na,na,na,na
2nd innings,12.4,JE Root,A Mishra,BA Stokes,1,1,0,na,na,na,na,na,na,na,na,na
2nd innings,12.5,BA Stokes,A Mishra,JE Root,0,0,0,na,na,na,na,na,na,na,na,na
2nd innings,12.6,BA Stokes,A Mishra,JE Root,0,0,0,na,na,na,na,na,na,na,na,na
2nd innings,13.1,JE Root,SK Raina,BA Stokes,4,4,0,na,na,na,na,na,na,na,na,na
2nd innings,13.2,JE Root,SK Raina,BA Stokes,6,6,0,na,na,na,na,na,na,na,na,na
2nd innings,13.3,JE Root,SK Raina,BA Stokes,1,1,0,na,na,na,na,na,na,na,na,na
2nd innings,13.4,BA Stokes,SK Raina,JE Root,0,0,0,na,na,na,na,na,na,na,na,na
2nd innings,13.5,BA Stokes,SK Raina,JE Root,1,1,0,na,na,na,na,na,na,na,na,na
2nd innings,13.6,JE Root,SK Raina,BA Stokes,1,1,0,na,na,na,na,na,na,na,na,na
2nd innings,14.1,JE Root,YS Chahal,BA Stokes,1,1,0,na,na,na,na,na,na,na,na,na
2nd innings,14.2,BA Stokes,YS Chahal,JE Root,1,1,0,na,na,na,na,na,na,na,na,na
2nd innings,14.3,JE Root,YS Chahal,BA Stokes,0,0,0,na,na,na,na,na,na,na,na,na
2nd innings,14.4,JE Root,YS Chahal,BA Stokes,2,2,0,na,na,na,na,na,na,na,na,na
2nd innings,14.5,JE Root,YS Chahal,BA Stokes,6,6,0,na,na,na,na,na,na,na,na,na
2nd innings,14.6,JE Root,YS Chahal,BA Stokes,1,1,0,na,na,na,na,na,na,na,na,na
2nd innings,15.1,JE Root,JJ Bumrah,BA Stokes,0,0,0,na,na,na,na,na,na,na,na,na
2nd innings,15.2,JE Root,JJ Bumrah,BA Stokes,2,2,0,na,na,na,na,na,na,na,na,na
2nd innings,15.3,JE Root,JJ Bumrah,BA Stokes,4,4,0,na,na,na,na,na,na,na,na,na
2nd innings,15.4,JE Root,JJ Bumrah,BA Stokes,2,2,0,na,na,na,na,na,na,na,na,na
2nd innings,15.5,JE Root,JJ Bumrah,BA Stokes,0,0,0,na,na,na,na,na,na,na,na,na
2nd innings,15.6,JE Root,JJ Bumrah,BA Stokes,1,1,0,na,na,na,na,na,na,na,na,na
2nd innings,16.1,JE Root,A Nehra,BA Stokes,1,1,0,na,na,na,na,na,na,na,na,na
2nd innings,16.2,BA Stokes,A Nehra,JE Root,1,1,0,na,na,na,na,na,na,na,na,na
2nd innings,16.3,JE Root,A Nehra,BA Stokes,1,1,0,na,na,na,na,na,na,na,na,na
2nd innings,16.4,BA Stokes,A Nehra,JE Root,1,1,0,na,na,na,na,na,na,na,na,na
2nd innings,16.5,JE Root,A Nehra,BA Stokes,0,0,0,na,na,na,na,na,lbw,na,na,BA Stokes
2nd innings,16.6,JE Root,A Nehra,JC Buttler,1,1,0,na,na,na,na,na,na,na,na,na
2nd innings,17.1,JE Root,JJ Bumrah,JC Buttler,0,0,0,na,na,na,na,na,na,na,na,na
2nd innings,17.2,JE Root,JJ Bumrah,JC Buttler,0,0,0,na,na,na,na,na,na,na,na,na
2nd innings,17.3,JE Root,JJ Bumrah,JC Buttler,1,1,0,na,na,na,na,na,na,na,na,na
2nd innings,17.4,JC Buttler,JJ Bumrah,JE Root,0,0,0,na,na,na,na,na,na,na,na,na
2nd innings,17.5,JC Buttler,JJ Bumrah,JE Root,0,0,0,na,na,na,na,na,na,na,na,na
2nd innings,17.6,JC Buttler,JJ Bumrah,JE Root,2,2,0,na,na,na,na,na,na,na,na,na
2nd innings,18.1,JE Root,A Nehra,JC Buttler,1,1,0,na,na,na,na,na,na,na,na,na
2nd innings,18.2,JC Buttler,A Nehra,JE Root,2,2,0,na,na,na,na,na,na,na,na,na
2nd innings,18.3,JC Buttler,A Nehra,JE Root,1,1,0,na,na,na,na,na,na,na,na,na
2nd innings,18.4,JE Root,A Nehra,JC Buttler,4,4,0,na,na,na,na,na,na,na,na,na
2nd innings,18.5,JE Root,A Nehra,JC Buttler,2,2,0,na,na,na,na,na,na,na,na,na
2nd innings,18.6,JE Root,A Nehra,JC Buttler,6,6,0,na,na,na,na,na,na,na,na,na
2nd innings,19.1,JC Buttler,JJ Bumrah,JE Root,0,0,0,na,na,na,na,na,lbw,na,na,JE Root
2nd innings,19.2,JC Buttler,JJ Bumrah,MM Ali,1,1,0,na,na,na,na,na,na,na,na,na
2nd innings,19.3,MM Ali,JJ Bumrah,JC Buttler,0,0,0,na,na,na,na,na,na,na,na,na
2nd innings,19.4,MM Ali,JJ Bumrah,JC Buttler,0,0,0,na,na,na,na,na,bowled,na,na,JC Buttler
2nd innings,19.5,MM Ali,JJ Bumrah,CJ Jordan,1,0,1,na,1,na,na,na,na,na,na,na
2nd innings,19.6,CJ Jordan,JJ Bumrah,MM Ali,0,0,0,na,na,na,na,na,na,na,na,na
