inngs,deliveries,non_striker,bowler,batsman,totalruns,batsman_runs,extra_runs,legbyes,byes,wides,noballs,penalty,wicket_kind,fielder1,fielder2,player_out
1st innings,0.1,C Munro,KW Richardson,MJ Guptill,4,4,0,na,na,na,na,na,na,na,na,na
1st innings,0.2,C Munro,KW Richardson,MJ Guptill,0,0,0,na,na,na,na,na,na,na,na,na
1st innings,0.3,C Munro,KW Richardson,MJ Guptill,0,0,0,na,na,na,na,na,na,na,na,na
1st innings,0.4,C Munro,KW Richardson,MJ Guptill,2,2,0,na,na,na,na,na,na,na,na,na
1st innings,0.5,C Munro,KW Richardson,MJ Guptill,1,0,1,na,na,1,na,na,na,na,na,na
1st innings,0.6,C Munro,KW Richardson,MJ Guptill,1,0,1,na,na,1,na,na,na,na,na,na
1st innings,0.7,C Munro,KW Richardson,MJ Guptill,0,0,0,na,na,na,na,na,na,na,na,na
1st innings,0.8,C Munro,KW Richardson,MJ Guptill,4,4,0,na,na,na,na,na,na,na,na,na
1st innings,1.1,MJ Guptill,B Stanlake,C Munro,3,3,0,na,na,na,na,na,na,na,na,na
1st innings,1.2,C Munro,B Stanlake,MJ Guptill,4,4,0,na,na,na,na,na,na,na,na,na
1st innings,1.3,C Munro,B Stanlake,MJ Guptill,0,0,0,na,na,na,na,na,na,na,na,na
1st innings,1.4,C Munro,B Stanlake,MJ Guptill,0,0,0,na,na,na,na,na,na,na,na,na
1st innings,1.5,C Munro,B Stanlake,MJ Guptill,0,0,0,na,na,na,na,na,na,na,na,na
1st innings,1.6,C Munro,B Stanlake,MJ Guptill,6,6,0,na,na,na,na,na,na,na,na,na
1st innings,2.1,MJ Guptill,KW Richardson,C Munro,4,4,0,na,na,na,na,na,na,na,na,na
1st innings,2.2,MJ Guptill,KW Richardson,C Munro,0,0,0,na,na,na,na,na,na,na,na,na
1st innings,2.3,MJ Guptill,KW Richardson,C Munro,1,1,0,na,na,na,na,na,na,na,na,na
1st innings,2.4,C Munro,KW Richardson,MJ Guptill,0,0,0,na,na,na,na,na,na,na,na,na
1st innings,2.5,C Munro,KW Richardson,MJ Guptill,1,0,1,1,na,na,na,na,na,na,na,na
1st innings,2.6,MJ Guptill,KW Richardson,C Munro,0,0,0,na,na,na,na,na,na,na,na,na
1st innings,3.1,C Munro,B Stanlake,MJ Guptill,0,0,0,na,na,na,na,na,na,na,na,na
1st innings,3.2,C Munro,B Stanlake,MJ Guptill,6,6,0,na,na,na,na,na,na,na,na,na
1st innings,3.3,C Munro,B Stanlake,MJ Guptill,0,0,0,na,na,na,na,na,na,na,na,na
1st innings,3.4,C Munro,B Stanlake,MJ Guptill,1,1,0,na,na,na,na,na,na,na,na,na
1st innings,3.5,MJ Guptill,B Stanlake,C Munro,4,4,0,na,na,na,na,na,na,na,na,na
1st innings,3.6,MJ Guptill,B Stanlake,C Munro,1,1,0,na,na,na,na,na,na,na,na,na
1st innings,4.1,MJ Guptill,AJ Tye,C Munro,1,1,0,na,na,na,na,na,na,na,na,na
1st innings,4.2,C Munro,AJ Tye,MJ Guptill,1,1,0,na,na,na,na,na,na,na,na,na
1st innings,4.3,MJ Guptill,AJ Tye,C Munro,1,1,0,na,na,na,na,na,na,na,na,na
1st innings,4.4,C Munro,AJ Tye,MJ Guptill,6,6,0,na,na,na,na,na,na,na,na,na
1st innings,4.5,C Munro,AJ Tye,MJ Guptill,0,0,0,na,na,na,na,na,na,na,na,na
1st innings,4.6,C Munro,AJ Tye,MJ Guptill,4,4,0,na,na,na,na,na,na,na,na,na
1st innings,5.1,MJ Guptill,MP Stoinis,C Munro,4,4,0,na,na,na,na,na,na,na,na,na
1st innings,5.2,MJ Guptill,MP Stoinis,C Munro,0,0,0,na,na,na,na,na,na,na,na,na
1st innings,5.3,MJ Guptill,MP Stoinis,C Munro,4,4,0,na,na,na,na,na,na,na,na,na
1st innings,5.4,MJ Guptill,MP Stoinis,C Munro,1,0,1,na,na,1,na,na,na,na,na,na
1st innings,5.5,MJ Guptill,MP Stoinis,C Munro,1,1,0,na,na,na,na,na,na,na,na,na
1st innings,5.6,C Munro,MP Stoinis,MJ Guptill,0,0,0,na,na,na,na,na,na,na,na,na
1st innings,5.7,C Munro,MP Stoinis,MJ Guptill,1,1,0,na,na,na,na,na,na,na,na,na
1st innings,6.1,C Munro,AC Agar,MJ Guptill,0,0,0,na,na,na,na,na,na,na,na,na
1st innings,6.2,C Munro,AC Agar,MJ Guptill,1,1,0,na,na,na,na,na,na,na,na,na
1st innings,6.3,MJ Guptill,AC Agar,C Munro,6,6,0,na,na,na,na,na,na,na,na,na
1st innings,6.4,MJ Guptill,AC Agar,C Munro,1,1,0,na,na,na,na,na,na,na,na,na
1st innings,6.5,C Munro,AC Agar,MJ Guptill,1,1,0,na,na,na,na,na,na,na,na,na
1st innings,6.6,MJ Guptill,AC Agar,C Munro,0,0,0,na,na,na,na,na,na,na,na,na
1st innings,7.1,C Munro,MP Stoinis,MJ Guptill,1,1,0,na,na,na,na,na,na,na,na,na
1st innings,7.2,MJ Guptill,MP Stoinis,C Munro,0,0,0,na,na,na,na,na,na,na,na,na
1st innings,7.3,MJ Guptill,MP Stoinis,C Munro,4,4,0,na,na,na,na,na,na,na,na,na
1st innings,7.4,MJ Guptill,MP Stoinis,C Munro,1,0,1,1,na,na,na,na,na,na,na,na
1st innings,7.5,C Munro,MP Stoinis,MJ Guptill,1,1,0,na,na,na,na,na,na,na,na,na
1st innings,7.6,MJ Guptill,MP Stoinis,C Munro,1,1,0,na,na,na,na,na,na,na,na,na
1st innings,8.1,MJ Guptill,AC Agar,C Munro,1,1,0,na,na,na,na,na,na,na,na,na
1st innings,8.2,C Munro,AC Agar,MJ Guptill,1,1,0,na,na,na,na,na,na,na,na,na
1st innings,8.3,MJ Guptill,AC Agar,C Munro,6,6,0,na,na,na,na,na,na,na,na,na
1st innings,8.4,MJ Guptill,AC Agar,C Munro,0,0,0,na,na,na,na,na,na,na,na,na
1st innings,8.5,MJ Guptill,AC Agar,C Munro,2,2,0,na,na,na,na,na,na,na,na,na
1st innings,8.6,MJ Guptill,AC Agar,C Munro,1,1,0,na,na,na,na,na,na,na,na,na
1st innings,9.1,MJ Guptill,DJM Short,C Munro,1,1,0,na,na,na,na,na,na,na,na,na
1st innings,9.2,C Munro,DJM Short,MJ Guptill,6,6,0,na,na,na,na,na,na,na,na,na
1st innings,9.3,C Munro,DJM Short,MJ Guptill,1,1,0,na,na,na,na,na,na,na,na,na
1st innings,9.4,MJ Guptill,DJM Short,C Munro,6,6,0,na,na,na,na,na,na,na,na,na
1st innings,9.5,MJ Guptill,DJM Short,C Munro,4,4,0,na,na,na,na,na,na,na,na,na
1st innings,9.6,MJ Guptill,DJM Short,C Munro,1,1,0,na,na,na,na,na,na,na,na,na
1st innings,10.1,MJ Guptill,AJ Tye,C Munro,6,6,0,na,na,na,na,na,na,na,na,na
1st innings,10.2,MJ Guptill,AJ Tye,C Munro,6,6,0,na,na,na,na,na,na,na,na,na
1st innings,10.3,MJ Guptill,AJ Tye,C Munro,6,6,0,na,na,na,na,na,na,na,na,na
1st innings,10.4,MJ Guptill,AJ Tye,C Munro,0,0,0,na,na,na,na,na,caught,GJ Maxwell,na,C Munro
1st innings,10.5,TL Seifert,AJ Tye,MJ Guptill,1,1,0,na,na,na,na,na,na,na,na,na
1st innings,10.6,MJ Guptill,AJ Tye,TL Seifert,6,6,0,na,na,na,na,na,na,na,na,na
1st innings,11.1,TL Seifert,B Stanlake,MJ Guptill,1,1,0,na,na,na,na,na,na,na,na,na
1st innings,11.2,MJ Guptill,B Stanlake,TL Seifert,1,1,0,na,na,na,na,na,na,na,na,na
1st innings,11.3,TL Seifert,B Stanlake,MJ Guptill,4,4,0,na,na,na,na,na,na,na,na,na
1st innings,11.4,TL Seifert,B Stanlake,MJ Guptill,2,2,0,na,na,na,na,na,na,na,na,na
1st innings,11.5,TL Seifert,B Stanlake,MJ Guptill,1,1,0,na,na,na,na,na,na,na,na,na
1st innings,11.6,MJ Guptill,B Stanlake,TL Seifert,4,4,0,na,na,na,na,na,na,na,na,na
1st innings,12.1,TL Seifert,AC Agar,MJ Guptill,1,1,0,na,na,na,na,na,na,na,na,na
1st innings,12.2,MJ Guptill,AC Agar,TL Seifert,0,0,0,na,na,na,na,na,na,na,na,na
1st innings,12.3,MJ Guptill,AC Agar,TL Seifert,1,1,0,na,na,na,na,na,na,na,na,na
1st innings,12.4,TL Seifert,AC Agar,MJ Guptill,1,1,0,na,na,na,na,na,na,na,na,na
1st innings,12.5,MJ Guptill,AC Agar,TL Seifert,0,0,0,na,na,na,na,na,caught,AJ Finch,na,TL Seifert
1st innings,12.6,MS Chapman,AC Agar,MJ Guptill,1,1,0,na,na,na,na,na,na,na,na,na
1st innings,13.1,MS Chapman,MP Stoinis,MJ Guptill,1,1,0,na,na,na,na,na,na,na,na,na
1st innings,13.2,MJ Guptill,MP Stoinis,MS Chapman,0,0,0,na,na,na,na,na,na,na,na,na
1st innings,13.3,MJ Guptill,MP Stoinis,MS Chapman,1,1,0,na,na,na,na,na,na,na,na,na
1st innings,13.4,MS Chapman,MP Stoinis,MJ Guptill,1,1,0,na,na,na,na,na,na,na,na,na
1st innings,13.5,MJ Guptill,MP Stoinis,MS Chapman,1,1,0,na,na,na,na,na,na,na,na,na
1st innings,13.6,MS Chapman,MP Stoinis,MJ Guptill,6,6,0,na,na,na,na,na,na,na,na,na
1st innings,14.1,MJ Guptill,KW Richardson,MS Chapman,1,1,0,na,na,na,na,na,na,na,na,na
1st innings,14.2,MS Chapman,KW Richardson,MJ Guptill,0,0,0,na,na,na,na,na,na,na,na,na
1st innings,14.3,MS Chapman,KW Richardson,MJ Guptill,6,6,0,na,na,na,na,na,na,na,na,na
1st innings,14.4,MS Chapman,KW Richardson,MJ Guptill,4,4,0,na,na,na,na,na,na,na,na,na
1st innings,14.5,MS Chapman,KW Richardson,MJ Guptill,6,6,0,na,na,na,na,na,na,na,na,na
1st innings,14.6,MS Chapman,KW Richardson,MJ Guptill,1,1,0,na,na,na,na,na,na,na,na,na
1st innings,15.1,MS Chapman,MP Stoinis,MJ Guptill,7,6,1,na,na,na,1,na,na,na,na,na
1st innings,15.2,MS Chapman,MP Stoinis,MJ Guptill,6,6,0,na,na,na,na,na,na,na,na,na
1st innings,15.3,MS Chapman,MP Stoinis,MJ Guptill,1,1,0,na,na,na,na,na,na,na,na,na
1st innings,15.4,MJ Guptill,MP Stoinis,MS Chapman,1,1,0,na,na,na,na,na,na,na,na,na
1st innings,15.5,MS Chapman,MP Stoinis,MJ Guptill,1,1,0,na,na,na,na,na,na,na,na,na
1st innings,15.6,MJ Guptill,MP Stoinis,MS Chapman,2,2,0,na,na,na,na,na,na,na,na,na
1st innings,15.7,MJ Guptill,MP Stoinis,MS Chapman,4,4,0,na,na,na,na,na,na,na,na,na
1st innings,16.1,MS Chapman,AJ Tye,MJ Guptill,1,1,0,na,na,na,na,na,na,na,na,na
1st innings,16.2,MJ Guptill,AJ Tye,MS Chapman,1,0,1,na,na,1,na,na,na,na,na,na
1st innings,16.3,MJ Guptill,AJ Tye,MS Chapman,1,1,0,na,na,na,na,na,na,na,na,na
1st innings,16.4,MS Chapman,AJ Tye,MJ Guptill,2,2,0,na,na,na,na,na,na,na,na,na
1st innings,16.5,MS Chapman,AJ Tye,MJ Guptill,1,0,1,na,na,1,na,na,na,na,na,na
1st innings,16.6,MS Chapman,AJ Tye,MJ Guptill,0,0,0,na,na,na,na,na,caught,GJ Maxwell,na,MJ Guptill
1st innings,16.7,C de Grandhomme,AJ Tye,MS Chapman,0,0,0,na,na,na,na,na,na,na,na,na
1st innings,16.8,C de Grandhomme,AJ Tye,MS Chapman,2,2,0,na,na,na,na,na,na,na,na,na
1st innings,17.1,MS Chapman,B Stanlake,C de Grandhomme,1,1,0,na,na,na,na,na,na,na,na,na
1st innings,17.2,C de Grandhomme,B Stanlake,MS Chapman,1,0,1,na,na,1,na,na,na,na,na,na
1st innings,17.3,C de Grandhomme,B Stanlake,MS Chapman,2,2,0,na,na,na,na,na,na,na,na,na
1st innings,17.4,C de Grandhomme,B Stanlake,MS Chapman,0,0,0,na,na,na,na,na,na,na,na,na
1st innings,17.5,C de Grandhomme,B Stanlake,MS Chapman,1,1,0,na,na,na,na,na,na,na,na,na
1st innings,17.6,MS Chapman,B Stanlake,C de Grandhomme,1,0,1,1,na,na,na,na,na,na,na,na
1st innings,17.7,C de Grandhomme,B Stanlake,MS Chapman,0,0,0,na,na,na,na,na,hit wicket,na,na,MS Chapman
1st innings,18.1,LRPL Taylor,KW Richardson,C de Grandhomme,2,2,0,na,na,na,na,na,na,na,na,na
1st innings,18.2,LRPL Taylor,KW Richardson,C de Grandhomme,0,0,0,na,na,na,na,na,bowled,na,na,C de Grandhomme
1st innings,18.3,LRPL Taylor,KW Richardson,KS Williamson,1,1,0,na,na,na,na,na,na,na,na,na
1st innings,18.4,KS Williamson,KW Richardson,LRPL Taylor,1,1,0,na,na,na,na,na,na,na,na,na
1st innings,18.5,LRPL Taylor,KW Richardson,KS Williamson,0,0,0,na,na,na,na,na,caught,AJ Tye,na,KS Williamson
1st innings,18.6,BM Wheeler,KW Richardson,LRPL Taylor,1,1,0,na,na,na,na,na,na,na,na,na
1st innings,19.1,BM Wheeler,AJ Tye,LRPL Taylor,1,1,0,na,na,na,na,na,na,na,na,na
1st innings,19.2,LRPL Taylor,AJ Tye,BM Wheeler,0,0,0,na,na,na,na,na,na,na,na,na
1st innings,19.3,LRPL Taylor,AJ Tye,BM Wheeler,1,1,0,na,na,na,na,na,na,na,na,na
1st innings,19.4,BM Wheeler,AJ Tye,LRPL Taylor,2,2,0,na,na,na,na,na,na,na,na,na
1st innings,19.5,BM Wheeler,AJ Tye,LRPL Taylor,6,6,0,na,na,na,na,na,na,na,na,na
1st innings,19.6,BM Wheeler,AJ Tye,LRPL Taylor,1,0,1,na,na,1,na,na,na,na,na,na
1st innings,19.7,BM Wheeler,AJ Tye,LRPL Taylor,1,0,1,na,na,1,na,na,na,na,na,na
1st innings,19.8,BM Wheeler,AJ Tye,LRPL Taylor,6,6,0,na,na,na,na,na,na,na,na,na
2nd innings,0.1,DJM Short,TA Boult,DA Warner,0,0,0,na,na,na,na,na,na,na,na,na
2nd innings,0.2,DJM Short,TA Boult,DA Warner,1,1,0,na,na,na,na,na,na,na,na,na
2nd innings,0.3,DA Warner,TA Boult,DJM Short,0,0,0,na,na,na,na,na,na,na,na,na
2nd innings,0.4,DA Warner,TA Boult,DJM Short,5,0,5,na,na,5,na,na,na,na,na,na
2nd innings,0.5,DA Warner,TA Boult,DJM Short,0,0,0,na,na,na,na,na,na,na,na,na
2nd innings,0.6,DA Warner,TA Boult,DJM Short,1,1,0,na,na,na,na,na,na,na,na,na
2nd innings,0.7,DJM Short,TA Boult,DA Warner,4,4,0,na,na,na,na,na,na,na,na,na
2nd innings,1.1,DA Warner,BM Wheeler,DJM Short,0,0,0,na,na,na,na,na,na,na,na,na
2nd innings,1.2,DA Warner,BM Wheeler,DJM Short,6,6,0,na,na,na,na,na,na,na,na,na
2nd innings,1.3,DA Warner,BM Wheeler,DJM Short,4,4,0,na,na,na,na,na,na,na,na,na
2nd innings,1.4,DA Warner,BM Wheeler,DJM Short,4,4,0,na,na,na,na,na,na,na,na,na
2nd innings,1.5,DA Warner,BM Wheeler,DJM Short,0,0,0,na,na,na,na,na,na,na,na,na
2nd innings,1.6,DA Warner,BM Wheeler,DJM Short,2,2,0,na,na,na,na,na,na,na,na,na
2nd innings,2.1,DJM Short,TG Southee,DA Warner,4,4,0,na,na,na,na,na,na,na,na,na
2nd innings,2.2,DJM Short,TG Southee,DA Warner,1,1,0,na,na,na,na,na,na,na,na,na
2nd innings,2.3,DA Warner,TG Southee,DJM Short,1,1,0,na,na,na,na,na,na,na,na,na
2nd innings,2.4,DJM Short,TG Southee,DA Warner,1,1,0,na,na,na,na,na,na,na,na,na
2nd innings,2.5,DA Warner,TG Southee,DJM Short,1,0,1,na,na,1,na,na,na,na,na,na
2nd innings,2.6,DA Warner,TG Southee,DJM Short,4,4,0,na,na,na,na,na,na,na,na,na
2nd innings,2.7,DA Warner,TG Southee,DJM Short,4,4,0,na,na,na,na,na,na,na,na,na
2nd innings,3.1,DJM Short,TA Boult,DA Warner,1,1,0,na,na,na,na,na,na,na,na,na
2nd innings,3.2,DA Warner,TA Boult,DJM Short,4,4,0,na,na,na,na,na,na,na,na,na
2nd innings,3.3,DA Warner,TA Boult,DJM Short,0,0,0,na,na,na,na,na,na,na,na,na
2nd innings,3.4,DA Warner,TA Boult,DJM Short,0,0,0,na,na,na,na,na,na,na,na,na
2nd innings,3.5,DA Warner,TA Boult,DJM Short,0,0,0,na,na,na,na,na,na,na,na,na
2nd innings,3.6,DA Warner,TA Boult,DJM Short,1,0,1,na,na,1,na,na,na,na,na,na
2nd innings,3.7,DA Warner,TA Boult,DJM Short,2,2,0,na,na,na,na,na,na,na,na,na
2nd innings,4.1,DJM Short,BM Wheeler,DA Warner,0,0,0,na,na,na,na,na,na,na,na,na
2nd innings,4.2,DJM Short,BM Wheeler,DA Warner,6,6,0,na,na,na,na,na,na,na,na,na
2nd innings,4.3,DJM Short,BM Wheeler,DA Warner,1,0,1,na,na,1,na,na,na,na,na,na
2nd innings,4.4,DJM Short,BM Wheeler,DA Warner,1,0,1,na,na,1,na,na,na,na,na,na
2nd innings,4.5,DJM Short,BM Wheeler,DA Warner,6,6,0,na,na,na,na,na,na,na,na,na
2nd innings,4.6,DJM Short,BM Wheeler,DA Warner,1,1,0,na,na,na,na,na,na,na,na,na
2nd innings,4.7,DA Warner,BM Wheeler,DJM Short,5,0,5,na,na,5,na,na,na,na,na,na
2nd innings,4.8,DA Warner,BM Wheeler,DJM Short,1,1,0,na,na,na,na,na,na,na,na,na
2nd innings,4.9,DJM Short,BM Wheeler,DA Warner,1,1,0,na,na,na,na,na,na,na,na,na
2nd innings,5.1,DJM Short,TG Southee,DA Warner,1,1,0,na,na,na,na,na,na,na,na,na
2nd innings,5.2,DA Warner,TG Southee,DJM Short,4,4,0,na,na,na,na,na,na,na,na,na
2nd innings,5.3,DA Warner,TG Southee,DJM Short,1,1,0,na,na,na,na,na,na,na,na,na
2nd innings,5.4,DJM Short,TG Southee,DA Warner,6,6,0,na,na,na,na,na,na,na,na,na
2nd innings,5.5,DJM Short,TG Southee,DA Warner,0,0,0,na,na,na,na,na,na,na,na,na
2nd innings,5.6,DJM Short,TG Southee,DA Warner,6,6,0,na,na,na,na,na,na,na,na,na
2nd innings,6.1,DA Warner,IS Sodhi,DJM Short,2,2,0,na,na,na,na,na,na,na,na,na
2nd innings,6.2,DA Warner,IS Sodhi,DJM Short,1,1,0,na,na,na,na,na,na,na,na,na
2nd innings,6.3,DJM Short,IS Sodhi,DA Warner,1,1,0,na,na,na,na,na,na,na,na,na
2nd innings,6.4,DA Warner,IS Sodhi,DJM Short,2,2,0,na,na,na,na,na,na,na,na,na
2nd innings,6.5,DA Warner,IS Sodhi,DJM Short,0,0,0,na,na,na,na,na,na,na,na,na
2nd innings,6.6,DA Warner,IS Sodhi,DJM Short,2,2,0,na,na,na,na,na,na,na,na,na
2nd innings,7.1,DJM Short,C de Grandhomme,DA Warner,4,4,0,na,na,na,na,na,na,na,na,na
2nd innings,7.2,DJM Short,C de Grandhomme,DA Warner,1,0,1,na,na,1,na,na,na,na,na,na
2nd innings,7.3,DJM Short,C de Grandhomme,DA Warner,2,2,0,na,na,na,na,na,na,na,na,na
2nd innings,7.4,DJM Short,C de Grandhomme,DA Warner,4,4,0,na,na,na,na,na,na,na,na,na
2nd innings,7.5,DJM Short,C de Grandhomme,DA Warner,1,1,0,na,na,na,na,na,na,na,na,na
2nd innings,7.6,DA Warner,C de Grandhomme,DJM Short,1,1,0,na,na,na,na,na,na,na,na,na
2nd innings,7.7,DJM Short,C de Grandhomme,DA Warner,2,2,0,na,na,na,na,na,na,na,na,na
2nd innings,8.1,DA Warner,IS Sodhi,DJM Short,1,1,0,na,na,na,na,na,na,na,na,na
2nd innings,8.2,DJM Short,IS Sodhi,DA Warner,6,6,0,na,na,na,na,na,na,na,na,na
2nd innings,8.3,DJM Short,IS Sodhi,DA Warner,0,0,0,na,na,na,na,na,bowled,na,na,DA Warner
2nd innings,8.4,DJM Short,IS Sodhi,CA Lynn,1,1,0,na,na,na,na,na,na,na,na,na
2nd innings,8.5,CA Lynn,IS Sodhi,DJM Short,1,1,0,na,na,na,na,na,na,na,na,na
2nd innings,8.6,DJM Short,IS Sodhi,CA Lynn,1,1,0,na,na,na,na,na,na,na,na,na
2nd innings,9.1,DJM Short,C de Grandhomme,CA Lynn,0,0,0,na,na,na,na,na,na,na,na,na
2nd innings,9.2,DJM Short,C de Grandhomme,CA Lynn,6,6,0,na,na,na,na,na,na,na,na,na
2nd innings,9.3,DJM Short,C de Grandhomme,CA Lynn,1,1,0,na,na,na,na,na,na,na,na,na
2nd innings,9.4,CA Lynn,C de Grandhomme,DJM Short,1,1,0,na,na,na,na,na,na,na,na,na
2nd innings,9.5,DJM Short,C de Grandhomme,CA Lynn,2,2,0,na,na,na,na,na,na,na,na,na
2nd innings,9.6,DJM Short,C de Grandhomme,CA Lynn,1,1,0,na,na,na,na,na,na,na,na,na
2nd innings,10.1,DJM Short,IS Sodhi,CA Lynn,0,0,0,na,na,na,na,na,na,na,na,na
2nd innings,10.2,DJM Short,IS Sodhi,CA Lynn,1,1,0,na,na,na,na,na,na,na,na,na
2nd innings,10.3,CA Lynn,IS Sodhi,DJM Short,1,1,0,na,na,na,na,na,na,na,na,na
2nd innings,10.4,DJM Short,IS Sodhi,CA Lynn,1,0,1,na,na,1,na,na,na,na,na,na
2nd innings,10.5,DJM Short,IS Sodhi,CA Lynn,0,0,0,na,na,na,na,na,na,na,na,na
2nd innings,10.6,DJM Short,IS Sodhi,CA Lynn,4,4,0,na,na,na,na,na,na,na,na,na
2nd innings,10.7,DJM Short,IS Sodhi,CA Lynn,1,1,0,na,na,na,na,na,na,na,na,na
2nd innings,11.1,DJM Short,C de Grandhomme,CA Lynn,0,0,0,na,na,na,na,na,caught,MJ Guptill,na,CA Lynn
2nd innings,11.2,GJ Maxwell,C de Grandhomme,DJM Short,6,6,0,na,na,na,na,na,na,na,na,na
2nd innings,11.3,GJ Maxwell,C de Grandhomme,DJM Short,1,0,1,na,na,1,na,na,na,na,na,na
2nd innings,11.4,GJ Maxwell,C de Grandhomme,DJM Short,1,1,0,na,na,na,na,na,na,na,na,na
2nd innings,11.5,DJM Short,C de Grandhomme,GJ Maxwell,1,1,0,na,na,na,na,na,na,na,na,na
2nd innings,11.6,GJ Maxwell,C de Grandhomme,DJM Short,6,6,0,na,na,na,na,na,na,na,na,na
2nd innings,11.7,GJ Maxwell,C de Grandhomme,DJM Short,4,4,0,na,na,na,na,na,na,na,na,na
2nd innings,12.1,DJM Short,BM Wheeler,GJ Maxwell,6,6,0,na,na,na,na,na,na,na,na,na
2nd innings,12.2,DJM Short,BM Wheeler,GJ Maxwell,4,4,0,na,na,na,na,na,na,na,na,na
2nd innings,12.3,DJM Short,BM Wheeler,GJ Maxwell,1,1,0,na,na,na,na,na,na,na,na,na
2nd innings,12.4,GJ Maxwell,BM Wheeler,DJM Short,0,0,0,na,na,na,na,na,na,na,na,na
2nd innings,12.5,GJ Maxwell,BM Wheeler,DJM Short,1,1,0,na,na,na,na,na,na,na,na,na
2nd innings,12.6,DJM Short,BM Wheeler,GJ Maxwell,1,1,0,na,na,na,na,na,na,na,na,na
2nd innings,13.1,DJM Short,TA Boult,GJ Maxwell,1,1,0,na,na,na,na,na,na,na,na,na
2nd innings,13.2,GJ Maxwell,TA Boult,DJM Short,0,0,0,na,na,na,na,na,na,na,na,na
2nd innings,13.3,GJ Maxwell,TA Boult,DJM Short,4,4,0,na,na,na,na,na,na,na,na,na
2nd innings,13.4,GJ Maxwell,TA Boult,DJM Short,1,1,0,na,na,na,na,na,na,na,na,na
2nd innings,13.5,DJM Short,TA Boult,GJ Maxwell,4,4,0,na,na,na,na,na,na,na,na,na
2nd innings,13.6,DJM Short,TA Boult,GJ Maxwell,1,1,0,na,na,na,na,na,na,na,na,na
2nd innings,14.1,DJM Short,IS Sodhi,GJ Maxwell,6,6,0,na,na,na,na,na,na,na,na,na
2nd innings,14.2,DJM Short,IS Sodhi,GJ Maxwell,1,1,0,na,na,na,na,na,na,na,na,na
2nd innings,14.3,GJ Maxwell,IS Sodhi,DJM Short,0,0,0,na,na,na,na,na,na,na,na,na
2nd innings,14.4,GJ Maxwell,IS Sodhi,DJM Short,1,1,0,na,na,na,na,na,na,na,na,na
2nd innings,14.5,DJM Short,IS Sodhi,GJ Maxwell,0,0,0,na,na,na,na,na,na,na,na,na
2nd innings,14.6,DJM Short,IS Sodhi,GJ Maxwell,1,1,0,na,na,na,na,na,na,na,na,na
2nd innings,15.1,DJM Short,TG Southee,GJ Maxwell,4,4,0,na,na,na,na,na,na,na,na,na
2nd innings,15.2,DJM Short,TG Southee,GJ Maxwell,0,0,0,na,na,na,na,na,bowled,na,na,GJ Maxwell
2nd innings,15.3,DJM Short,TG Southee,AJ Finch,0,0,0,na,na,na,na,na,na,na,na,na
2nd innings,15.4,DJM Short,TG Southee,AJ Finch,1,1,0,na,na,na,na,na,na,na,na,na
2nd innings,15.5,AJ Finch,TG Southee,DJM Short,1,1,0,na,na,na,na,na,na,na,na,na
2nd innings,15.6,DJM Short,TG Southee,AJ Finch,1,1,0,na,na,na,na,na,na,na,na,na
2nd innings,16.1,DJM Short,BM Wheeler,AJ Finch,7,6,1,na,na,na,1,na,na,na,na,na
2nd innings,16.2,DJM Short,BM Wheeler,AJ Finch,4,4,0,na,na,na,na,na,na,na,na,na
2nd innings,16.3,DJM Short,BM Wheeler,AJ Finch,2,1,1,na,na,na,1,na,na,na,na,na
2nd innings,16.4,AJ Finch,TA Boult,DJM Short,1,1,0,na,na,na,na,na,na,na,na,na
2nd innings,16.5,DJM Short,TA Boult,AJ Finch,1,1,0,na,na,na,na,na,na,na,na,na
2nd innings,16.6,AJ Finch,TA Boult,DJM Short,0,0,0,na,na,na,na,na,caught,TL Seifert,na,DJM Short
2nd innings,16.7,MP Stoinis,TA Boult,AJ Finch,4,4,0,na,na,na,na,na,na,na,na,na
2nd innings,16.8,MP Stoinis,TA Boult,AJ Finch,6,6,0,na,na,na,na,na,na,na,na,na
2nd innings,17.1,AJ Finch,TG Southee,MP Stoinis,0,0,0,na,na,na,na,na,na,na,na,na
2nd innings,17.2,AJ Finch,TG Southee,MP Stoinis,1,1,0,na,na,na,na,na,na,na,na,na
2nd innings,17.3,MP Stoinis,TG Southee,AJ Finch,1,1,0,na,na,na,na,na,na,na,na,na
2nd innings,17.4,AJ Finch,TG Southee,MP Stoinis,1,1,0,na,na,na,na,na,na,na,na,na
2nd innings,17.5,MP Stoinis,TG Southee,AJ Finch,4,4,0,na,na,na,na,na,na,na,na,na
2nd innings,17.6,MP Stoinis,TG Southee,AJ Finch,0,0,0,na,na,na,na,na,na,na,na,na
2nd innings,18.1,AJ Finch,C de Grandhomme,MP Stoinis,1,1,0,na,na,na,na,na,na,na,na,na
2nd innings,18.2,MP Stoinis,C de Grandhomme,AJ Finch,1,0,1,na,na,1,na,na,na,na,na,na
2nd innings,18.3,MP Stoinis,C de Grandhomme,AJ Finch,1,1,0,na,na,na,na,na,na,na,na,na
2nd innings,18.4,AJ Finch,C de Grandhomme,MP Stoinis,1,1,0,na,na,na,na,na,run out,na,na,MP Stoinis
2nd innings,18.5,AJ Finch,C de Grandhomme,AT Carey,1,1,0,na,na,na,na,na,na,na,na,na
2nd innings,18.6,AT Carey,C de Grandhomme,AJ Finch,6,6,0,na,na,na,na,na,na,na,na,na
