inngs,deliveries,non_striker,bowler,batsman,totalruns,batsman_runs,extra_runs,legbyes,byes,wides,noballs,penalty,wicket_kind,fielder1,fielder2,player_out
1st innings,0.1,Javed Ahmadi,JE Taylor,Noor Ali Zadran,0,0,0,na,na,na,na,na,na,na,na,na
1st innings,0.2,Javed Ahmadi,JE Taylor,Noor Ali Zadran,0,0,0,na,na,na,na,na,na,na,na,na
1st innings,0.3,Javed Ahmadi,JE Taylor,Noor Ali Zadran,0,0,0,na,na,na,na,na,na,na,na,na
1st innings,0.4,Javed Ahmadi,JE Taylor,Noor Ali Zadran,0,0,0,na,na,na,na,na,na,na,na,na
1st innings,0.5,Javed Ahmadi,JE Taylor,Noor Ali Zadran,2,2,0,na,na,na,na,na,na,na,na,na
1st innings,0.6,Javed Ahmadi,JE Taylor,Noor Ali Zadran,4,4,0,na,na,na,na,na,na,na,na,na
1st innings,1.1,Noor Ali Zadran,S Badree,Javed Ahmadi,1,0,1,1,na,na,na,na,na,na,na,na
1st innings,1.2,Javed Ahmadi,S Badree,Noor Ali Zadran,0,0,0,na,na,na,na,na,na,na,na,na
1st innings,1.3,Javed Ahmadi,S Badree,Noor Ali Zadran,6,6,0,na,na,na,na,na,na,na,na,na
1st innings,1.4,Javed Ahmadi,S Badree,Noor Ali Zadran,1,1,0,na,na,na,na,na,na,na,na,na
1st innings,1.5,Noor Ali Zadran,S Badree,Javed Ahmadi,0,0,0,na,na,na,na,na,lbw,na,na,Javed Ahmadi
1st innings,1.6,Noor Ali Zadran,S Badree,Asghar Stanikzai,0,0,0,na,na,na,na,na,na,na,na,na
1st innings,2.1,Asghar Stanikzai,JE Taylor,Noor Ali Zadran,1,0,1,na,na,1,na,na,na,na,na,na
1st innings,2.2,Asghar Stanikzai,JE Taylor,Noor Ali Zadran,0,0,0,na,na,na,na,na,na,na,na,na
1st innings,2.3,Asghar Stanikzai,JE Taylor,Noor Ali Zadran,4,4,0,na,na,na,na,na,na,na,na,na
1st innings,2.4,Asghar Stanikzai,JE Taylor,Noor Ali Zadran,4,4,0,na,na,na,na,na,na,na,na,na
1st innings,2.5,Asghar Stanikzai,JE Taylor,Noor Ali Zadran,4,4,0,na,na,na,na,na,na,na,na,na
1st innings,2.6,Asghar Stanikzai,JE Taylor,Noor Ali Zadran,0,0,0,na,na,na,na,na,na,na,na,na
1st innings,2.7,Asghar Stanikzai,JE Taylor,Noor Ali Zadran,0,0,0,na,na,na,na,na,na,na,na,na
1st innings,3.1,Noor Ali Zadran,S Badree,Asghar Stanikzai,0,0,0,na,na,na,na,na,na,na,na,na
1st innings,3.2,Noor Ali Zadran,S Badree,Asghar Stanikzai,2,2,0,na,na,na,na,na,na,na,na,na
1st innings,3.3,Noor Ali Zadran,S Badree,Asghar Stanikzai,1,1,0,na,na,na,na,na,na,na,na,na
1st innings,3.4,Asghar Stanikzai,S Badree,Noor Ali Zadran,6,6,0,na,na,na,na,na,na,na,na,na
1st innings,3.5,Asghar Stanikzai,S Badree,Noor Ali Zadran,0,0,0,na,na,na,na,na,na,na,na,na
1st innings,3.6,Asghar Stanikzai,S Badree,Noor Ali Zadran,4,4,0,na,na,na,na,na,na,na,na,na
1st innings,4.1,Noor Ali Zadran,KOK Williams,Asghar Stanikzai,0,0,0,na,na,na,na,na,na,na,na,na
1st innings,4.2,Noor Ali Zadran,KOK Williams,Asghar Stanikzai,0,0,0,na,na,na,na,na,na,na,na,na
1st innings,4.3,Noor Ali Zadran,KOK Williams,Asghar Stanikzai,4,4,0,na,na,na,na,na,na,na,na,na
1st innings,4.4,Noor Ali Zadran,KOK Williams,Asghar Stanikzai,0,0,0,na,na,na,na,na,na,na,na,na
1st innings,4.5,Noor Ali Zadran,KOK Williams,Asghar Stanikzai,1,0,1,1,na,na,na,na,na,na,na,na
1st innings,4.6,Asghar Stanikzai,KOK Williams,Noor Ali Zadran,0,0,0,na,na,na,na,na,bowled,na,na,Noor Ali Zadran
1st innings,5.1,Mohammad Nabi,CR Brathwaite,Asghar Stanikzai,0,0,0,na,na,na,na,na,na,na,na,na
1st innings,5.2,Mohammad Nabi,CR Brathwaite,Asghar Stanikzai,0,0,0,na,na,na,na,na,na,na,na,na
1st innings,5.3,Mohammad Nabi,CR Brathwaite,Asghar Stanikzai,1,1,0,na,na,na,na,na,na,na,na,na
1st innings,5.4,Asghar Stanikzai,CR Brathwaite,Mohammad Nabi,2,2,0,na,na,na,na,na,na,na,na,na
1st innings,5.5,Asghar Stanikzai,CR Brathwaite,Mohammad Nabi,0,0,0,na,na,na,na,na,na,na,na,na
1st innings,5.6,Asghar Stanikzai,CR Brathwaite,Mohammad Nabi,0,0,0,na,na,na,na,na,na,na,na,na
1st innings,6.1,Mohammad Nabi,KOK Williams,Asghar Stanikzai,1,1,0,na,na,na,na,na,na,na,na,na
1st innings,6.2,Asghar Stanikzai,KOK Williams,Mohammad Nabi,1,1,0,na,na,na,na,na,na,na,na,na
1st innings,6.3,Mohammad Nabi,KOK Williams,Asghar Stanikzai,0,0,0,na,na,na,na,na,na,na,na,na
1st innings,6.4,Mohammad Nabi,KOK Williams,Asghar Stanikzai,0,0,0,na,na,na,na,na,na,na,na,na
1st innings,6.5,Mohammad Nabi,KOK Williams,Asghar Stanikzai,0,0,0,na,na,na,na,na,na,na,na,na
1st innings,6.6,Mohammad Nabi,KOK Williams,Asghar Stanikzai,1,1,0,na,na,na,na,na,na,na,na,na
1st innings,7.1,Mohammad Nabi,S Badree,Asghar Stanikzai,1,1,0,na,na,na,na,na,na,na,na,na
1st innings,7.2,Asghar Stanikzai,S Badree,Mohammad Nabi,0,0,0,na,na,na,na,na,na,na,na,na
1st innings,7.3,Asghar Stanikzai,S Badree,Mohammad Nabi,1,1,0,na,na,na,na,na,na,na,na,na
1st innings,7.4,Mohammad Nabi,S Badree,Asghar Stanikzai,0,0,0,na,na,na,na,na,na,na,na,na
1st innings,7.5,Mohammad Nabi,S Badree,Asghar Stanikzai,0,0,0,na,na,na,na,na,na,na,na,na
1st innings,7.6,Mohammad Nabi,S Badree,Asghar Stanikzai,1,0,1,na,na,1,na,na,na,na,na,na
1st innings,7.7,Mohammad Nabi,S Badree,Asghar Stanikzai,1,1,0,na,na,na,na,na,na,na,na,na
1st innings,8.1,Mohammad Nabi,R Powell,Asghar Stanikzai,1,1,0,na,na,na,na,na,na,na,na,na
1st innings,8.2,Asghar Stanikzai,R Powell,Mohammad Nabi,1,1,0,na,na,na,na,na,na,na,na,na
1st innings,8.3,Mohammad Nabi,R Powell,Asghar Stanikzai,0,0,0,na,na,na,na,na,caught,KOK Williams,na,Asghar Stanikzai
1st innings,8.4,Mohammad Nabi,R Powell,Karim Janat,1,1,0,na,na,na,na,na,na,na,na,na
1st innings,8.5,Karim Janat,R Powell,Mohammad Nabi,0,0,0,na,na,na,na,na,na,na,na,na
1st innings,8.6,Karim Janat,R Powell,Mohammad Nabi,1,1,0,na,na,na,na,na,na,na,na,na
1st innings,9.1,Karim Janat,S Badree,Mohammad Nabi,0,0,0,na,na,na,na,na,na,na,na,na
1st innings,9.2,Karim Janat,S Badree,Mohammad Nabi,1,1,0,na,na,na,na,na,na,na,na,na
1st innings,9.3,Mohammad Nabi,S Badree,Karim Janat,0,0,0,na,na,na,na,na,na,na,na,na
1st innings,9.4,Mohammad Nabi,S Badree,Karim Janat,0,0,0,na,na,na,na,na,na,na,na,na
1st innings,9.5,Mohammad Nabi,S Badree,Karim Janat,0,0,0,na,na,na,na,na,na,na,na,na
1st innings,9.6,Mohammad Nabi,S Badree,Karim Janat,1,1,0,na,na,na,na,na,na,na,na,na
1st innings,10.1,Mohammad Nabi,R Powell,Karim Janat,1,1,0,na,na,na,na,na,na,na,na,na
1st innings,10.2,Karim Janat,R Powell,Mohammad Nabi,0,0,0,na,na,na,na,na,na,na,na,na
1st innings,10.3,Karim Janat,R Powell,Mohammad Nabi,1,1,0,na,na,na,na,na,na,na,na,na
1st innings,10.4,Mohammad Nabi,R Powell,Karim Janat,0,0,0,na,na,na,na,na,na,na,na,na
1st innings,10.5,Mohammad Nabi,R Powell,Karim Janat,0,0,0,na,na,na,na,na,na,na,na,na
1st innings,10.6,Mohammad Nabi,R Powell,Karim Janat,0,0,0,na,na,na,na,na,na,na,na,na
1st innings,11.1,Karim Janat,SP Narine,Mohammad Nabi,1,1,0,na,na,na,na,na,na,na,na,na
1st innings,11.2,Mohammad Nabi,SP Narine,Karim Janat,0,0,0,na,na,na,na,na,na,na,na,na
1st innings,11.3,Mohammad Nabi,SP Narine,Karim Janat,1,1,0,na,na,na,na,na,na,na,na,na
1st innings,11.4,Karim Janat,SP Narine,Mohammad Nabi,0,0,0,na,na,na,na,na,na,na,na,na
1st innings,11.5,Karim Janat,SP Narine,Mohammad Nabi,0,0,0,na,na,na,na,na,na,na,na,na
1st innings,11.6,Karim Janat,SP Narine,Mohammad Nabi,1,1,0,na,na,na,na,na,na,na,na,na
1st innings,12.1,Karim Janat,R Powell,Mohammad Nabi,0,0,0,na,na,na,na,na,na,na,na,na
1st innings,12.2,Karim Janat,R Powell,Mohammad Nabi,6,6,0,na,na,na,na,na,na,na,na,na
1st innings,12.3,Karim Janat,R Powell,Mohammad Nabi,2,2,0,na,na,na,na,na,na,na,na,na
1st innings,12.4,Karim Janat,R Powell,Mohammad Nabi,4,4,0,na,na,na,na,na,na,na,na,na
1st innings,12.5,Karim Janat,R Powell,Mohammad Nabi,0,0,0,na,na,na,na,na,na,na,na,na
1st innings,12.6,Karim Janat,R Powell,Mohammad Nabi,2,2,0,na,na,na,na,na,na,na,na,na
1st innings,13.1,Mohammad Nabi,SP Narine,Karim Janat,1,1,0,na,na,na,na,na,na,na,na,na
1st innings,13.2,Karim Janat,SP Narine,Mohammad Nabi,2,2,0,na,na,na,na,na,na,na,na,na
1st innings,13.3,Karim Janat,SP Narine,Mohammad Nabi,0,0,0,na,na,na,na,na,na,na,na,na
1st innings,13.4,Karim Janat,SP Narine,Mohammad Nabi,1,1,0,na,na,na,na,na,na,na,na,na
1st innings,13.5,Mohammad Nabi,SP Narine,Karim Janat,1,1,0,na,na,na,na,na,na,na,na,na
1st innings,13.6,Karim Janat,SP Narine,Mohammad Nabi,1,1,0,na,na,na,na,na,na,na,na,na
1st innings,14.1,Karim Janat,KOK Williams,Mohammad Nabi,6,6,0,na,na,na,na,na,na,na,na,na
1st innings,14.2,Karim Janat,KOK Williams,Mohammad Nabi,4,4,0,na,na,na,na,na,na,na,na,na
1st innings,14.3,Karim Janat,KOK Williams,Mohammad Nabi,0,0,0,na,na,na,na,na,caught,R Powell,na,Mohammad Nabi
1st innings,14.4,Karim Janat,KOK Williams,Shafiqullah,0,0,0,na,na,na,na,na,na,na,na,na
1st innings,14.5,Karim Janat,KOK Williams,Shafiqullah,0,0,0,na,na,na,na,na,na,na,na,na
1st innings,14.6,Karim Janat,KOK Williams,Shafiqullah,1,1,0,na,na,na,na,na,na,na,na,na
1st innings,15.1,Karim Janat,SP Narine,Shafiqullah,5,0,5,na,na,5,na,na,na,na,na,na
1st innings,15.2,Karim Janat,SP Narine,Shafiqullah,0,0,0,na,na,na,na,na,na,na,na,na
1st innings,15.3,Karim Janat,SP Narine,Shafiqullah,1,1,0,na,na,na,na,na,na,na,na,na
1st innings,15.4,Shafiqullah,SP Narine,Karim Janat,1,1,0,na,na,na,na,na,na,na,na,na
1st innings,15.5,Karim Janat,SP Narine,Shafiqullah,0,0,0,na,na,na,na,na,na,na,na,na
1st innings,15.6,Karim Janat,SP Narine,Shafiqullah,3,3,0,na,na,na,na,na,na,na,na,na
1st innings,15.7,Shafiqullah,SP Narine,Karim Janat,1,1,0,na,na,na,na,na,na,na,na,na
1st innings,16.1,Shafiqullah,JE Taylor,Karim Janat,0,0,0,na,na,na,na,na,na,na,na,na
1st innings,16.2,Shafiqullah,JE Taylor,Karim Janat,0,0,0,na,na,na,na,na,caught,E Lewis,na,Karim Janat
1st innings,16.3,Najibullah Zadran,JE Taylor,Shafiqullah,4,4,0,na,na,na,na,na,na,na,na,na
1st innings,16.4,Najibullah Zadran,JE Taylor,Shafiqullah,1,1,0,na,na,na,na,na,na,na,na,na
1st innings,16.5,Shafiqullah,JE Taylor,Najibullah Zadran,0,0,0,na,na,na,na,na,na,na,na,na
1st innings,16.6,Shafiqullah,JE Taylor,Najibullah Zadran,1,1,0,na,na,na,na,na,na,na,na,na
1st innings,17.1,Shafiqullah,SP Narine,Najibullah Zadran,0,0,0,na,na,na,na,na,na,na,na,na
1st innings,17.2,Shafiqullah,SP Narine,Najibullah Zadran,0,0,0,na,na,na,na,na,na,na,na,na
1st innings,17.3,Shafiqullah,SP Narine,Najibullah Zadran,1,1,0,na,na,na,na,na,na,na,na,na
1st innings,17.4,Najibullah Zadran,SP Narine,Shafiqullah,1,0,1,1,na,na,na,na,na,na,na,na
1st innings,17.5,Shafiqullah,SP Narine,Najibullah Zadran,2,2,0,na,na,na,na,na,na,na,na,na
1st innings,17.6,Shafiqullah,SP Narine,Najibullah Zadran,4,4,0,na,na,na,na,na,na,na,na,na
1st innings,18.1,Najibullah Zadran,KOK Williams,Shafiqullah,1,1,0,na,na,na,na,na,na,na,na,na
1st innings,18.2,Shafiqullah,KOK Williams,Najibullah Zadran,1,1,0,na,na,na,na,na,na,na,na,na
1st innings,18.3,Najibullah Zadran,KOK Williams,Shafiqullah,6,6,0,na,na,na,na,na,na,na,na,na
1st innings,18.4,Najibullah Zadran,KOK Williams,Shafiqullah,4,4,0,na,na,na,na,na,na,na,na,na
1st innings,18.5,Najibullah Zadran,KOK Williams,Shafiqullah,4,4,0,na,na,na,na,na,na,na,na,na
1st innings,18.6,Najibullah Zadran,KOK Williams,Shafiqullah,0,0,0,na,na,na,na,na,bowled,na,na,Shafiqullah
1st innings,19.1,Gulbadin Naib,JE Taylor,Najibullah Zadran,1,1,0,na,na,na,na,na,na,na,na,na
1st innings,19.2,Najibullah Zadran,JE Taylor,Gulbadin Naib,0,0,0,na,na,na,na,na,na,na,na,na
1st innings,19.3,Najibullah Zadran,JE Taylor,Gulbadin Naib,0,0,0,na,na,na,na,na,na,na,na,na
1st innings,19.4,Najibullah Zadran,JE Taylor,Gulbadin Naib,6,6,0,na,na,na,na,na,na,na,na,na
1st innings,19.5,Najibullah Zadran,JE Taylor,Gulbadin Naib,0,0,0,na,na,na,na,na,na,na,na,na
1st innings,19.6,Najibullah Zadran,JE Taylor,Gulbadin Naib,1,1,0,na,na,na,na,na,na,na,na,na
2nd innings,0.1,E Lewis,Shapoor Zadran,CAK Walton,0,0,0,na,na,na,na,na,na,na,na,na
2nd innings,0.2,E Lewis,Shapoor Zadran,CAK Walton,0,0,0,na,na,na,na,na,caught,Samiullah Shenwari (sub),na,CAK Walton
2nd innings,0.3,E Lewis,Shapoor Zadran,MN Samuels,4,4,0,na,na,na,na,na,na,na,na,na
2nd innings,0.4,E Lewis,Shapoor Zadran,MN Samuels,0,0,0,na,na,na,na,na,na,na,na,na
2nd innings,0.5,E Lewis,Shapoor Zadran,MN Samuels,0,0,0,na,na,na,na,na,na,na,na,na
2nd innings,0.6,E Lewis,Shapoor Zadran,MN Samuels,1,1,0,na,na,na,na,na,na,na,na,na
2nd innings,1.1,E Lewis,Mohammad Nabi,MN Samuels,0,0,0,na,na,na,na,na,na,na,na,na
2nd innings,1.2,E Lewis,Mohammad Nabi,MN Samuels,1,1,0,na,na,na,na,na,na,na,na,na
2nd innings,1.3,MN Samuels,Mohammad Nabi,E Lewis,0,0,0,na,na,na,na,na,na,na,na,na
2nd innings,1.4,MN Samuels,Mohammad Nabi,E Lewis,0,0,0,na,na,na,na,na,na,na,na,na
2nd innings,1.5,MN Samuels,Mohammad Nabi,E Lewis,0,0,0,na,na,na,na,na,na,na,na,na
2nd innings,1.6,MN Samuels,Mohammad Nabi,E Lewis,1,1,0,na,na,na,na,na,na,na,na,na
2nd innings,2.1,MN Samuels,Shapoor Zadran,E Lewis,1,0,1,na,na,1,na,na,na,na,na,na
2nd innings,2.2,MN Samuels,Shapoor Zadran,E Lewis,0,0,0,na,na,na,na,na,na,na,na,na
2nd innings,2.3,MN Samuels,Shapoor Zadran,E Lewis,1,1,0,na,na,na,na,na,na,na,na,na
2nd innings,2.4,E Lewis,Shapoor Zadran,MN Samuels,4,4,0,na,na,na,na,na,na,na,na,na
2nd innings,2.5,E Lewis,Shapoor Zadran,MN Samuels,0,0,0,na,na,na,na,na,na,na,na,na
2nd innings,2.6,E Lewis,Shapoor Zadran,MN Samuels,0,0,0,na,na,na,na,na,na,na,na,na
2nd innings,2.7,E Lewis,Shapoor Zadran,MN Samuels,1,1,0,na,na,na,na,na,na,na,na,na
2nd innings,3.1,E Lewis,Mohammad Nabi,MN Samuels,0,0,0,na,na,na,na,na,na,na,na,na
2nd innings,3.2,E Lewis,Mohammad Nabi,MN Samuels,0,0,0,na,na,na,na,na,na,na,na,na
2nd innings,3.3,E Lewis,Mohammad Nabi,MN Samuels,0,0,0,na,na,na,na,na,na,na,na,na
2nd innings,3.4,E Lewis,Mohammad Nabi,MN Samuels,4,4,0,na,na,na,na,na,na,na,na,na
2nd innings,3.5,E Lewis,Mohammad Nabi,MN Samuels,4,4,0,na,na,na,na,na,na,na,na,na
2nd innings,3.6,E Lewis,Mohammad Nabi,MN Samuels,1,1,0,na,na,na,na,na,na,na,na,na
2nd innings,4.1,E Lewis,Amir Hamza,MN Samuels,0,0,0,na,na,na,na,na,na,na,na,na
2nd innings,4.2,E Lewis,Amir Hamza,MN Samuels,0,0,0,na,na,na,na,na,na,na,na,na
2nd innings,4.3,E Lewis,Amir Hamza,MN Samuels,0,0,0,na,na,na,na,na,na,na,na,na
2nd innings,4.4,E Lewis,Amir Hamza,MN Samuels,4,4,0,na,na,na,na,na,na,na,na,na
2nd innings,4.5,E Lewis,Amir Hamza,MN Samuels,1,1,0,na,na,na,na,na,na,na,na,na
2nd innings,4.6,MN Samuels,Amir Hamza,E Lewis,0,0,0,na,na,na,na,na,na,na,na,na
2nd innings,5.1,E Lewis,Karim Janat,MN Samuels,1,1,0,na,na,na,na,na,na,na,na,na
2nd innings,5.2,MN Samuels,Karim Janat,E Lewis,6,6,0,na,na,na,na,na,na,na,na,na
2nd innings,5.3,MN Samuels,Karim Janat,E Lewis,0,0,0,na,na,na,na,na,na,na,na,na
2nd innings,5.4,MN Samuels,Karim Janat,E Lewis,1,1,0,na,na,na,na,na,na,na,na,na
2nd innings,5.5,E Lewis,Karim Janat,MN Samuels,1,1,0,na,na,na,na,na,na,na,na,na
2nd innings,5.6,MN Samuels,Karim Janat,E Lewis,1,1,0,na,na,na,na,na,na,na,na,na
2nd innings,6.1,MN Samuels,Amir Hamza,E Lewis,1,1,0,na,na,na,na,na,na,na,na,na
2nd innings,6.2,E Lewis,Amir Hamza,MN Samuels,0,0,0,na,na,na,na,na,na,na,na,na
2nd innings,6.3,E Lewis,Amir Hamza,MN Samuels,1,1,0,na,na,na,na,na,na,na,na,na
2nd innings,6.4,MN Samuels,Amir Hamza,E Lewis,0,0,0,na,na,na,na,na,na,na,na,na
2nd innings,6.5,MN Samuels,Amir Hamza,E Lewis,1,1,0,na,na,na,na,na,na,na,na,na
2nd innings,6.6,E Lewis,Amir Hamza,MN Samuels,0,0,0,na,na,na,na,na,na,na,na,na
2nd innings,7.1,MN Samuels,Karim Janat,E Lewis,1,1,0,na,na,na,na,na,na,na,na,na
2nd innings,7.2,E Lewis,Karim Janat,MN Samuels,1,1,0,na,na,na,na,na,na,na,na,na
2nd innings,7.3,MN Samuels,Karim Janat,E Lewis,0,0,0,na,na,na,na,na,na,na,na,na
2nd innings,7.4,MN Samuels,Karim Janat,E Lewis,4,4,0,na,na,na,na,na,na,na,na,na
2nd innings,7.5,MN Samuels,Karim Janat,E Lewis,1,1,0,na,na,na,na,na,na,na,na,na
2nd innings,7.6,E Lewis,Karim Janat,MN Samuels,1,1,0,na,na,na,na,na,na,na,na,na
2nd innings,8.1,E Lewis,Amir Hamza,MN Samuels,4,4,0,na,na,na,na,na,na,na,na,na
2nd innings,8.2,E Lewis,Amir Hamza,MN Samuels,1,1,0,na,na,na,na,na,na,na,na,na
2nd innings,8.3,MN Samuels,Amir Hamza,E Lewis,1,1,0,na,na,na,na,na,na,na,na,na
2nd innings,8.4,E Lewis,Amir Hamza,MN Samuels,1,1,0,na,na,na,na,na,na,na,na,na
2nd innings,8.5,MN Samuels,Amir Hamza,E Lewis,0,0,0,na,na,na,na,na,na,na,na,na
2nd innings,8.6,MN Samuels,Amir Hamza,E Lewis,0,0,0,na,na,na,na,na,na,na,na,na
2nd innings,9.1,E Lewis,Mohammad Nabi,MN Samuels,4,4,0,na,na,na,na,na,na,na,na,na
2nd innings,9.2,E Lewis,Mohammad Nabi,MN Samuels,0,0,0,na,na,na,na,na,na,na,na,na
2nd innings,9.3,E Lewis,Mohammad Nabi,MN Samuels,0,0,0,na,na,na,na,na,na,na,na,na
2nd innings,9.4,E Lewis,Mohammad Nabi,MN Samuels,1,1,0,na,na,na,na,na,na,na,na,na
2nd innings,9.5,MN Samuels,Mohammad Nabi,E Lewis,0,0,0,na,na,na,na,na,lbw,na,na,E Lewis
2nd innings,9.6,MN Samuels,Mohammad Nabi,LMP Simmons,1,1,0,na,na,na,na,na,na,na,na,na
2nd innings,10.1,MN Samuels,Rashid Khan,LMP Simmons,1,1,0,na,na,na,na,na,na,na,na,na
2nd innings,10.2,LMP Simmons,Rashid Khan,MN Samuels,0,0,0,na,na,na,na,na,na,na,na,na
2nd innings,10.3,LMP Simmons,Rashid Khan,MN Samuels,1,1,0,na,na,na,na,na,na,na,na,na
2nd innings,10.4,MN Samuels,Rashid Khan,LMP Simmons,0,0,0,na,na,na,na,na,na,na,na,na
2nd innings,10.5,MN Samuels,Rashid Khan,LMP Simmons,2,2,0,na,na,na,na,na,na,na,na,na
2nd innings,10.6,MN Samuels,Rashid Khan,LMP Simmons,0,0,0,na,na,na,na,na,na,na,na,na
2nd innings,11.1,LMP Simmons,Amir Hamza,MN Samuels,2,2,0,na,na,na,na,na,na,na,na,na
2nd innings,11.2,LMP Simmons,Amir Hamza,MN Samuels,1,1,0,na,na,na,na,na,na,na,na,na
2nd innings,11.3,MN Samuels,Amir Hamza,LMP Simmons,4,4,0,na,na,na,na,na,na,na,na,na
2nd innings,11.4,MN Samuels,Amir Hamza,LMP Simmons,1,1,0,na,na,na,na,na,na,na,na,na
2nd innings,11.5,LMP Simmons,Amir Hamza,MN Samuels,1,1,0,na,na,na,na,na,na,na,na,na
2nd innings,11.6,MN Samuels,Amir Hamza,LMP Simmons,0,0,0,na,na,na,na,na,na,na,na,na
2nd innings,12.1,LMP Simmons,Rashid Khan,MN Samuels,0,0,0,na,na,na,na,na,na,na,na,na
2nd innings,12.2,LMP Simmons,Rashid Khan,MN Samuels,0,0,0,na,na,na,na,na,na,na,na,na
2nd innings,12.3,LMP Simmons,Rashid Khan,MN Samuels,1,1,0,na,na,na,na,na,na,na,na,na
2nd innings,12.4,MN Samuels,Rashid Khan,LMP Simmons,6,6,0,na,na,na,na,na,na,na,na,na
2nd innings,12.5,MN Samuels,Rashid Khan,LMP Simmons,0,0,0,na,na,na,na,na,caught,Najibullah Zadran,na,LMP Simmons
2nd innings,12.6,MN Samuels,Rashid Khan,JN Mohammed,1,1,0,na,na,na,na,na,na,na,na,na
2nd innings,13.1,MN Samuels,Karim Janat,JN Mohammed,1,1,0,na,na,na,na,na,na,na,na,na
2nd innings,13.2,JN Mohammed,Karim Janat,MN Samuels,0,0,0,na,na,na,na,na,na,na,na,na
2nd innings,13.3,JN Mohammed,Karim Janat,MN Samuels,1,1,0,na,na,na,na,na,na,na,na,na
2nd innings,13.4,MN Samuels,Karim Janat,JN Mohammed,1,1,0,na,na,na,na,na,na,na,na,na
2nd innings,13.5,JN Mohammed,Karim Janat,MN Samuels,4,4,0,na,na,na,na,na,na,na,na,na
2nd innings,13.6,JN Mohammed,Karim Janat,MN Samuels,1,1,0,na,na,na,na,na,na,na,na,na
2nd innings,14.1,JN Mohammed,Shapoor Zadran,MN Samuels,2,2,0,na,na,na,na,na,na,na,na,na
2nd innings,14.2,JN Mohammed,Shapoor Zadran,MN Samuels,4,4,0,na,na,na,na,na,na,na,na,na
2nd innings,14.3,JN Mohammed,Shapoor Zadran,MN Samuels,1,1,0,na,na,na,na,na,na,na,na,na
2nd innings,14.4,MN Samuels,Shapoor Zadran,JN Mohammed,1,1,0,na,na,na,na,na,na,na,na,na
2nd innings,14.5,JN Mohammed,Shapoor Zadran,MN Samuels,1,1,0,na,na,na,na,na,na,na,na,na
2nd innings,14.6,MN Samuels,Shapoor Zadran,JN Mohammed,4,4,0,na,na,na,na,na,na,na,na,na
2nd innings,15.1,JN Mohammed,Mohammad Nabi,MN Samuels,2,2,0,na,na,na,na,na,na,na,na,na
2nd innings,15.2,JN Mohammed,Mohammad Nabi,MN Samuels,6,6,0,na,na,na,na,na,na,na,na,na
2nd innings,15.3,JN Mohammed,Mohammad Nabi,MN Samuels,6,6,0,na,na,na,na,na,na,na,na,na
2nd innings,15.4,JN Mohammed,Mohammad Nabi,MN Samuels,0,0,0,na,na,na,na,na,na,na,na,na
2nd innings,15.5,JN Mohammed,Mohammad Nabi,MN Samuels,1,1,0,na,na,na,na,na,na,na,na,na
2nd innings,15.6,MN Samuels,Mohammad Nabi,JN Mohammed,1,1,0,na,na,na,na,na,na,na,na,na
2nd innings,16.1,MN Samuels,Rashid Khan,JN Mohammed,1,1,0,na,na,na,na,na,na,na,na,na
2nd innings,16.2,JN Mohammed,Rashid Khan,MN Samuels,1,1,0,na,na,na,na,na,na,na,na,na
2nd innings,16.3,MN Samuels,Rashid Khan,JN Mohammed,1,1,0,na,na,na,na,na,na,na,na,na
2nd innings,16.4,JN Mohammed,Rashid Khan,MN Samuels,0,0,0,na,na,na,na,na,na,na,na,na
2nd innings,16.5,JN Mohammed,Rashid Khan,MN Samuels,1,1,0,na,na,na,na,na,na,na,na,na
2nd innings,16.6,MN Samuels,Rashid Khan,JN Mohammed,0,0,0,na,na,na,na,na,na,na,na,na
2nd innings,17.1,JN Mohammed,Karim Janat,MN Samuels,0,0,0,na,na,na,na,na,na,na,na,na
2nd innings,17.2,JN Mohammed,Karim Janat,MN Samuels,1,1,0,na,na,na,na,na,na,na,na,na
2nd innings,17.3,MN Samuels,Karim Janat,JN Mohammed,6,6,0,na,na,na,na,na,na,na,na,na
2nd innings,17.4,MN Samuels,Karim Janat,JN Mohammed,1,1,0,na,na,na,na,na,na,na,na,na
2nd innings,17.5,JN Mohammed,Karim Janat,MN Samuels,6,6,0,na,na,na,na,na,na,na,na,na
2nd innings,17.6,JN Mohammed,Karim Janat,MN Samuels,1,1,0,na,na,na,na,na,na,na,na,na
2nd innings,18.1,JN Mohammed,Rashid Khan,MN Samuels,1,1,0,na,na,na,na,na,na,na,na,na
2nd innings,18.2,MN Samuels,Rashid Khan,JN Mohammed,0,0,0,na,na,na,na,na,na,na,na,na
2nd innings,18.3,MN Samuels,Rashid Khan,JN Mohammed,2,2,0,na,na,na,na,na,na,na,na,na
2nd innings,18.4,MN Samuels,Rashid Khan,JN Mohammed,1,1,0,na,na,na,na,na,na,na,na,na
2nd innings,18.5,JN Mohammed,Rashid Khan,MN Samuels,1,1,0,na,na,na,na,na,na,na,na,na
2nd innings,18.6,MN Samuels,Rashid Khan,JN Mohammed,1,1,0,na,na,na,na,na,na,na,na,na
2nd innings,19.1,MN Samuels,Shapoor Zadran,JN Mohammed,1,1,0,na,na,na,na,na,na,na,na,na
2nd innings,19.2,JN Mohammed,Shapoor Zadran,MN Samuels,1,1,0,na,na,na,na,na,na,na,na,na
