inngs,deliveries,non_striker,bowler,batsman,totalruns,batsman_runs,extra_runs,legbyes,byes,wides,noballs,penalty,wicket_kind,fielder1,fielder2,player_out
1st innings,0.1,C Munro,SS Cottrell,MJ Guptill,0,0,0,na,na,na,na,na,na,na,na,na
1st innings,0.2,C Munro,SS Cottrell,MJ Guptill,2,2,0,na,na,na,na,na,na,na,na,na
1st innings,0.3,C Munro,SS Cottrell,MJ Guptill,0,0,0,na,na,na,na,na,na,na,na,na
1st innings,0.4,C Munro,SS Cottrell,MJ Guptill,1,0,1,na,na,1,na,na,na,na,na,na
1st innings,0.5,C Munro,SS Cottrell,MJ Guptill,0,0,0,na,na,na,na,na,caught,CAK Walton,na,MJ Guptill
1st innings,0.6,C Munro,SS Cottrell,KS Williamson,0,0,0,na,na,na,na,na,na,na,na,na
1st innings,0.7,C Munro,SS Cottrell,KS Williamson,1,1,0,na,na,na,na,na,na,na,na,na
1st innings,1.1,C Munro,S Badree,KS Williamson,2,2,0,na,na,na,na,na,na,na,na,na
1st innings,1.2,C Munro,S Badree,KS Williamson,1,1,0,na,na,na,na,na,na,na,na,na
1st innings,1.3,KS Williamson,S Badree,C Munro,0,0,0,na,na,na,na,na,na,na,na,na
1st innings,1.4,KS Williamson,S Badree,C Munro,4,4,0,na,na,na,na,na,na,na,na,na
1st innings,1.5,KS Williamson,S Badree,C Munro,0,0,0,na,na,na,na,na,na,na,na,na
1st innings,1.6,KS Williamson,S Badree,C Munro,4,4,0,na,na,na,na,na,na,na,na,na
1st innings,2.1,C Munro,SS Cottrell,KS Williamson,1,1,0,na,na,na,na,na,na,na,na,na
1st innings,2.2,KS Williamson,SS Cottrell,C Munro,6,6,0,na,na,na,na,na,na,na,na,na
1st innings,2.3,KS Williamson,SS Cottrell,C Munro,2,2,0,na,na,na,na,na,na,na,na,na
1st innings,2.4,KS Williamson,SS Cottrell,C Munro,6,6,0,na,na,na,na,na,na,na,na,na
1st innings,2.5,KS Williamson,SS Cottrell,C Munro,1,1,0,na,na,na,na,na,na,na,na,na
1st innings,2.6,C Munro,SS Cottrell,KS Williamson,1,1,0,na,na,na,na,na,na,na,na,na
1st innings,3.1,C Munro,S Badree,KS Williamson,1,1,0,na,na,na,na,na,na,na,na,na
1st innings,3.2,KS Williamson,S Badree,C Munro,4,4,0,na,na,na,na,na,na,na,na,na
1st innings,3.3,KS Williamson,S Badree,C Munro,0,0,0,na,na,na,na,na,na,na,na,na
1st innings,3.4,KS Williamson,S Badree,C Munro,0,0,0,na,na,na,na,na,na,na,na,na
1st innings,3.5,KS Williamson,S Badree,C Munro,4,4,0,na,na,na,na,na,na,na,na,na
1st innings,3.6,KS Williamson,S Badree,C Munro,0,0,0,na,na,na,na,na,na,na,na,na
1st innings,4.1,C Munro,CR Brathwaite,KS Williamson,1,1,0,na,na,na,na,na,na,na,na,na
1st innings,4.2,KS Williamson,CR Brathwaite,C Munro,6,6,0,na,na,na,na,na,na,na,na,na
1st innings,4.3,KS Williamson,CR Brathwaite,C Munro,4,4,0,na,na,na,na,na,na,na,na,na
1st innings,4.4,KS Williamson,CR Brathwaite,C Munro,4,4,0,na,na,na,na,na,na,na,na,na
1st innings,4.5,KS Williamson,CR Brathwaite,C Munro,1,0,1,na,na,1,na,na,na,na,na,na
1st innings,4.6,KS Williamson,CR Brathwaite,C Munro,4,4,0,na,na,na,na,na,na,na,na,na
1st innings,4.7,KS Williamson,CR Brathwaite,C Munro,1,1,0,na,na,na,na,na,na,na,na,na
1st innings,5.1,KS Williamson,KOK Williams,C Munro,4,4,0,na,na,na,na,na,na,na,na,na
1st innings,5.2,KS Williamson,KOK Williams,C Munro,4,4,0,na,na,na,na,na,na,na,na,na
1st innings,5.3,KS Williamson,KOK Williams,C Munro,4,4,0,na,na,na,na,na,na,na,na,na
1st innings,5.4,KS Williamson,KOK Williams,C Munro,4,4,0,na,na,na,na,na,na,na,na,na
1st innings,5.5,KS Williamson,KOK Williams,C Munro,0,0,0,na,na,na,na,na,caught,R Powell,na,C Munro
1st innings,5.6,GD Phillips,KOK Williams,KS Williamson,2,1,1,na,na,na,1,na,na,na,na,na
1st innings,5.7,KS Williamson,KOK Williams,GD Phillips,6,6,0,na,na,na,na,na,na,na,na,na
1st innings,6.1,GD Phillips,AR Nurse,KS Williamson,1,1,0,na,na,na,na,na,na,na,na,na
1st innings,6.2,KS Williamson,AR Nurse,GD Phillips,1,1,0,na,na,na,na,na,na,na,na,na
1st innings,6.3,GD Phillips,AR Nurse,KS Williamson,0,0,0,na,na,na,na,na,na,na,na,na
1st innings,6.4,GD Phillips,AR Nurse,KS Williamson,1,1,0,na,na,na,na,na,na,na,na,na
1st innings,6.5,KS Williamson,AR Nurse,GD Phillips,2,2,0,na,na,na,na,na,na,na,na,na
1st innings,6.6,KS Williamson,AR Nurse,GD Phillips,1,1,0,na,na,na,na,na,na,na,na,na
1st innings,7.1,KS Williamson,S Badree,GD Phillips,0,0,0,na,na,na,na,na,lbw,na,na,GD Phillips
1st innings,7.2,KS Williamson,S Badree,TC Bruce,0,0,0,na,na,na,na,na,na,na,na,na
1st innings,7.3,KS Williamson,S Badree,TC Bruce,0,0,0,na,na,na,na,na,na,na,na,na
1st innings,7.4,KS Williamson,S Badree,TC Bruce,0,0,0,na,na,na,na,na,na,na,na,na
1st innings,7.5,KS Williamson,S Badree,TC Bruce,1,1,0,na,na,na,na,na,na,na,na,na
1st innings,7.6,TC Bruce,S Badree,KS Williamson,2,2,0,na,na,na,na,na,na,na,na,na
1st innings,8.1,KS Williamson,AR Nurse,TC Bruce,0,0,0,na,na,na,na,na,na,na,na,na
1st innings,8.2,KS Williamson,AR Nurse,TC Bruce,2,2,0,na,na,na,na,na,na,na,na,na
1st innings,8.3,KS Williamson,AR Nurse,TC Bruce,0,0,0,na,na,na,na,na,caught,CR Brathwaite,na,TC Bruce
1st innings,8.4,KS Williamson,AR Nurse,AK Kitchen,1,1,0,na,na,na,na,na,na,na,na,na
1st innings,8.5,AK Kitchen,AR Nurse,KS Williamson,0,0,0,na,na,na,na,na,na,na,na,na
1st innings,8.6,AK Kitchen,AR Nurse,KS Williamson,4,4,0,na,na,na,na,na,na,na,na,na
