inngs,deliveries,non_striker,bowler,batsman,totalruns,batsman_runs,extra_runs,legbyes,byes,wides,noballs,penalty,wicket_kind,fielder1,fielder2,player_out
1st innings,0.1,Ahmed Shehzad,TA Boult,Fakhar Zaman,0,0,0,na,na,na,na,na,na,na,na,na
1st innings,0.2,Ahmed Shehzad,TA Boult,Fakhar Zaman,0,0,0,na,na,na,na,na,na,na,na,na
1st innings,0.3,Ahmed Shehzad,TA Boult,Fakhar Zaman,4,4,0,na,na,na,na,na,na,na,na,na
1st innings,0.4,Ahmed Shehzad,TA Boult,Fakhar Zaman,1,1,0,na,na,na,na,na,na,na,na,na
1st innings,0.5,Fakhar Zaman,TA Boult,Ahmed Shehzad,0,0,0,na,na,na,na,na,na,na,na,na
1st innings,0.6,Fakhar Zaman,TA Boult,Ahmed Shehzad,1,1,0,na,na,na,na,na,na,na,na,na
1st innings,1.1,Fakhar Zaman,SHA Rance,Ahmed Shehzad,0,0,0,na,na,na,na,na,na,na,na,na
1st innings,1.2,Fakhar Zaman,SHA Rance,Ahmed Shehzad,4,4,0,na,na,na,na,na,na,na,na,na
1st innings,1.3,Fakhar Zaman,SHA Rance,Ahmed Shehzad,3,3,0,na,na,na,na,na,na,na,na,na
1st innings,1.4,Ahmed Shehzad,SHA Rance,Fakhar Zaman,1,1,0,na,na,na,na,na,na,na,na,na
1st innings,1.5,Fakhar Zaman,SHA Rance,Ahmed Shehzad,4,4,0,na,na,na,na,na,na,na,na,na
1st innings,1.6,Fakhar Zaman,SHA Rance,Ahmed Shehzad,0,0,0,na,na,na,na,na,na,na,na,na
1st innings,2.1,Ahmed Shehzad,TA Boult,Fakhar Zaman,1,1,0,na,na,na,na,na,na,na,na,na
1st innings,2.2,Fakhar Zaman,TA Boult,Ahmed Shehzad,4,4,0,na,na,na,na,na,na,na,na,na
1st innings,2.3,Fakhar Zaman,TA Boult,Ahmed Shehzad,0,0,0,na,na,na,na,na,na,na,na,na
1st innings,2.4,Fakhar Zaman,TA Boult,Ahmed Shehzad,1,1,0,na,na,na,na,na,na,na,na,na
1st innings,2.5,Ahmed Shehzad,TA Boult,Fakhar Zaman,0,0,0,na,na,na,na,na,na,na,na,na
1st innings,2.6,Ahmed Shehzad,TA Boult,Fakhar Zaman,1,1,0,na,na,na,na,na,na,na,na,na
1st innings,3.1,Ahmed Shehzad,BM Wheeler,Fakhar Zaman,4,4,0,na,na,na,na,na,na,na,na,na
1st innings,3.2,Ahmed Shehzad,BM Wheeler,Fakhar Zaman,0,0,0,na,na,na,na,na,na,na,na,na
1st innings,3.3,Ahmed Shehzad,BM Wheeler,Fakhar Zaman,1,1,0,na,na,na,na,na,na,na,na,na
1st innings,3.4,Fakhar Zaman,BM Wheeler,Ahmed Shehzad,0,0,0,na,na,na,na,na,na,na,na,na
1st innings,3.5,Fakhar Zaman,BM Wheeler,Ahmed Shehzad,0,0,0,na,na,na,na,na,na,na,na,na
1st innings,3.6,Fakhar Zaman,BM Wheeler,Ahmed Shehzad,0,0,0,na,na,na,na,na,na,na,na,na
1st innings,4.1,Ahmed Shehzad,SHA Rance,Fakhar Zaman,4,4,0,na,na,na,na,na,na,na,na,na
1st innings,4.2,Ahmed Shehzad,SHA Rance,Fakhar Zaman,1,1,0,na,na,na,na,na,na,na,na,na
1st innings,4.3,Fakhar Zaman,SHA Rance,Ahmed Shehzad,4,4,0,na,na,na,na,na,na,na,na,na
1st innings,4.4,Fakhar Zaman,SHA Rance,Ahmed Shehzad,0,0,0,na,na,na,na,na,na,na,na,na
1st innings,4.5,Fakhar Zaman,SHA Rance,Ahmed Shehzad,1,1,0,na,na,na,na,na,na,na,na,na
1st innings,4.6,Ahmed Shehzad,SHA Rance,Fakhar Zaman,4,4,0,na,na,na,na,na,na,na,na,na
1st innings,5.1,Fakhar Zaman,BM Wheeler,Ahmed Shehzad,0,0,0,na,na,na,na,na,na,na,na,na
1st innings,5.2,Fakhar Zaman,BM Wheeler,Ahmed Shehzad,4,4,0,na,na,na,na,na,na,na,na,na
1st innings,5.3,Fakhar Zaman,BM Wheeler,Ahmed Shehzad,4,4,0,na,na,na,na,na,na,na,na,na
1st innings,5.4,Fakhar Zaman,BM Wheeler,Ahmed Shehzad,1,1,0,na,na,na,na,na,na,na,na,na
1st innings,5.5,Ahmed Shehzad,BM Wheeler,Fakhar Zaman,4,4,0,na,na,na,na,na,na,na,na,na
1st innings,5.6,Ahmed Shehzad,BM Wheeler,Fakhar Zaman,0,0,0,na,na,na,na,na,na,na,na,na
1st innings,6.1,Fakhar Zaman,IS Sodhi,Ahmed Shehzad,0,0,0,na,na,na,na,na,na,na,na,na
1st innings,6.2,Fakhar Zaman,IS Sodhi,Ahmed Shehzad,1,1,0,na,na,na,na,na,na,na,na,na
1st innings,6.3,Ahmed Shehzad,IS Sodhi,Fakhar Zaman,1,1,0,na,na,na,na,na,na,na,na,na
1st innings,6.4,Fakhar Zaman,IS Sodhi,Ahmed Shehzad,0,0,0,na,na,na,na,na,na,na,na,na
1st innings,6.5,Fakhar Zaman,IS Sodhi,Ahmed Shehzad,1,1,0,na,na,na,na,na,na,na,na,na
1st innings,6.6,Ahmed Shehzad,IS Sodhi,Fakhar Zaman,1,1,0,na,na,na,na,na,na,na,na,na
1st innings,7.1,Ahmed Shehzad,MJ Santner,Fakhar Zaman,1,1,0,na,na,na,na,na,na,na,na,na
1st innings,7.2,Fakhar Zaman,MJ Santner,Ahmed Shehzad,1,1,0,na,na,na,na,na,na,na,na,na
1st innings,7.3,Ahmed Shehzad,MJ Santner,Fakhar Zaman,6,6,0,na,na,na,na,na,na,na,na,na
1st innings,7.4,Ahmed Shehzad,MJ Santner,Fakhar Zaman,6,6,0,na,na,na,na,na,na,na,na,na
1st innings,7.5,Ahmed Shehzad,MJ Santner,Fakhar Zaman,2,2,0,na,na,na,na,na,na,na,na,na
1st innings,7.6,Ahmed Shehzad,MJ Santner,Fakhar Zaman,6,6,0,na,na,na,na,na,na,na,na,na
1st innings,8.1,Fakhar Zaman,IS Sodhi,Ahmed Shehzad,2,2,0,na,na,na,na,na,na,na,na,na
1st innings,8.2,Fakhar Zaman,IS Sodhi,Ahmed Shehzad,0,0,0,na,na,na,na,na,na,na,na,na
1st innings,8.3,Fakhar Zaman,IS Sodhi,Ahmed Shehzad,0,0,0,na,na,na,na,na,na,na,na,na
1st innings,8.4,Fakhar Zaman,IS Sodhi,Ahmed Shehzad,1,1,0,na,na,na,na,na,na,na,na,na
1st innings,8.5,Ahmed Shehzad,IS Sodhi,Fakhar Zaman,0,0,0,na,na,na,na,na,na,na,na,na
1st innings,8.6,Ahmed Shehzad,IS Sodhi,Fakhar Zaman,0,0,0,na,na,na,na,na,na,na,na,na
1st innings,9.1,Fakhar Zaman,SHA Rance,Ahmed Shehzad,0,0,0,na,na,na,na,na,na,na,na,na
1st innings,9.2,Fakhar Zaman,SHA Rance,Ahmed Shehzad,0,0,0,na,na,na,na,na,na,na,na,na
1st innings,9.3,Fakhar Zaman,SHA Rance,Ahmed Shehzad,1,1,0,na,na,na,na,na,na,na,na,na
1st innings,9.4,Ahmed Shehzad,SHA Rance,Fakhar Zaman,1,1,0,na,na,na,na,na,na,na,na,na
1st innings,9.5,Fakhar Zaman,SHA Rance,Ahmed Shehzad,6,6,0,na,na,na,na,na,na,na,na,na
1st innings,9.6,Fakhar Zaman,SHA Rance,Ahmed Shehzad,0,0,0,na,na,na,na,na,caught,C de Grandhomme,na,Ahmed Shehzad
1st innings,10.1,Babar Azam,C de Grandhomme,Fakhar Zaman,1,0,1,1,na,na,na,na,na,na,na,na
1st innings,10.2,Fakhar Zaman,C de Grandhomme,Babar Azam,1,1,0,na,na,na,na,na,na,na,na,na
1st innings,10.3,Babar Azam,C de Grandhomme,Fakhar Zaman,0,0,0,na,na,na,na,na,caught,IS Sodhi,na,Fakhar Zaman
1st innings,10.4,Babar Azam,C de Grandhomme,Sarfraz Ahmed,1,1,0,na,na,na,na,na,na,na,na,na
1st innings,10.5,Sarfraz Ahmed,C de Grandhomme,Babar Azam,2,2,0,na,na,na,na,na,na,na,na,na
1st innings,10.6,Sarfraz Ahmed,C de Grandhomme,Babar Azam,1,1,0,na,na,na,na,na,na,na,na,na
1st innings,11.1,Sarfraz Ahmed,MJ Santner,Babar Azam,1,1,0,na,na,na,na,na,na,na,na,na
1st innings,11.2,Babar Azam,MJ Santner,Sarfraz Ahmed,1,1,0,na,na,na,na,na,na,na,na,na
1st innings,11.3,Sarfraz Ahmed,MJ Santner,Babar Azam,1,0,1,na,na,1,na,na,na,na,na,na
1st innings,11.4,Sarfraz Ahmed,MJ Santner,Babar Azam,1,0,1,na,na,1,na,na,na,na,na,na
1st innings,11.5,Sarfraz Ahmed,MJ Santner,Babar Azam,1,1,0,na,na,na,na,na,na,na,na,na
1st innings,11.6,Babar Azam,MJ Santner,Sarfraz Ahmed,1,1,0,na,na,na,na,na,na,na,na,na
1st innings,11.7,Sarfraz Ahmed,MJ Santner,Babar Azam,1,1,0,na,na,na,na,na,na,na,na,na
1st innings,11.8,Babar Azam,MJ Santner,Sarfraz Ahmed,1,1,0,na,na,na,na,na,na,na,na,na
1st innings,12.1,Babar Azam,C de Grandhomme,Sarfraz Ahmed,4,4,0,na,na,na,na,na,na,na,na,na
1st innings,12.2,Babar Azam,C de Grandhomme,Sarfraz Ahmed,1,0,1,na,na,1,na,na,na,na,na,na
1st innings,12.3,Babar Azam,C de Grandhomme,Sarfraz Ahmed,1,1,0,na,na,na,na,na,na,na,na,na
1st innings,12.4,Sarfraz Ahmed,C de Grandhomme,Babar Azam,4,4,0,na,na,na,na,na,na,na,na,na
1st innings,12.5,Sarfraz Ahmed,C de Grandhomme,Babar Azam,1,1,0,na,na,na,na,na,na,na,na,na
1st innings,12.6,Babar Azam,C de Grandhomme,Sarfraz Ahmed,1,1,0,na,na,na,na,na,na,na,na,na
1st innings,12.7,Sarfraz Ahmed,C de Grandhomme,Babar Azam,1,1,0,na,na,na,na,na,na,na,na,na
1st innings,13.1,Sarfraz Ahmed,BM Wheeler,Babar Azam,1,1,0,na,na,na,na,na,na,na,na,na
1st innings,13.2,Babar Azam,BM Wheeler,Sarfraz Ahmed,1,1,0,na,na,na,na,na,na,na,na,na
1st innings,13.3,Sarfraz Ahmed,BM Wheeler,Babar Azam,1,1,0,na,na,na,na,na,na,na,na,na
1st innings,13.4,Babar Azam,BM Wheeler,Sarfraz Ahmed,1,0,1,na,na,1,na,na,na,na,na,na
1st innings,13.5,Babar Azam,BM Wheeler,Sarfraz Ahmed,1,1,0,na,na,na,na,na,na,na,na,na
1st innings,13.6,Sarfraz Ahmed,BM Wheeler,Babar Azam,0,0,0,na,na,na,na,na,na,na,na,na
1st innings,13.7,Sarfraz Ahmed,BM Wheeler,Babar Azam,4,4,0,na,na,na,na,na,na,na,na,na
1st innings,14.1,Babar Azam,IS Sodhi,Sarfraz Ahmed,1,1,0,na,na,na,na,na,na,na,na,na
1st innings,14.2,Sarfraz Ahmed,IS Sodhi,Babar Azam,1,1,0,na,na,na,na,na,na,na,na,na
1st innings,14.3,Babar Azam,IS Sodhi,Sarfraz Ahmed,1,1,0,na,na,na,na,na,na,na,na,na
1st innings,14.4,Sarfraz Ahmed,IS Sodhi,Babar Azam,2,2,0,na,na,na,na,na,na,na,na,na
1st innings,14.5,Sarfraz Ahmed,IS Sodhi,Babar Azam,1,1,0,na,na,na,na,na,na,na,na,na
1st innings,14.6,Babar Azam,IS Sodhi,Sarfraz Ahmed,1,1,0,na,na,na,na,na,na,na,na,na
1st innings,15.1,Babar Azam,TA Boult,Sarfraz Ahmed,6,6,0,na,na,na,na,na,na,na,na,na
1st innings,15.2,Babar Azam,TA Boult,Sarfraz Ahmed,0,0,0,na,na,na,na,na,na,na,na,na
1st innings,15.3,Babar Azam,TA Boult,Sarfraz Ahmed,0,0,0,na,na,na,na,na,na,na,na,na
1st innings,15.4,Babar Azam,TA Boult,Sarfraz Ahmed,1,0,1,na,na,1,na,na,na,na,na,na
1st innings,15.5,Babar Azam,TA Boult,Sarfraz Ahmed,1,1,0,na,na,na,na,na,na,na,na,na
1st innings,15.6,Sarfraz Ahmed,TA Boult,Babar Azam,4,4,0,na,na,na,na,na,na,na,na,na
1st innings,15.7,Sarfraz Ahmed,TA Boult,Babar Azam,1,1,0,na,na,na,na,na,na,na,na,na
1st innings,16.1,Sarfraz Ahmed,IS Sodhi,Babar Azam,4,4,0,na,na,na,na,na,na,na,na,na
1st innings,16.2,Sarfraz Ahmed,IS Sodhi,Babar Azam,1,1,0,na,na,na,na,na,na,na,na,na
1st innings,16.3,Babar Azam,IS Sodhi,Sarfraz Ahmed,4,4,0,na,na,na,na,na,na,na,na,na
1st innings,16.4,Babar Azam,IS Sodhi,Sarfraz Ahmed,6,6,0,na,na,na,na,na,na,na,na,na
1st innings,16.5,Babar Azam,IS Sodhi,Sarfraz Ahmed,1,0,1,na,na,1,na,na,na,na,na,na
1st innings,16.6,Babar Azam,IS Sodhi,Sarfraz Ahmed,1,1,0,na,na,na,na,na,na,na,na,na
1st innings,16.7,Sarfraz Ahmed,IS Sodhi,Babar Azam,1,1,0,na,na,na,na,na,na,na,na,na
1st innings,17.1,Sarfraz Ahmed,SHA Rance,Babar Azam,1,0,1,na,na,1,na,na,na,na,na,na
1st innings,17.2,Sarfraz Ahmed,SHA Rance,Babar Azam,1,1,0,na,na,na,na,na,na,na,na,na
1st innings,17.3,Babar Azam,SHA Rance,Sarfraz Ahmed,1,1,0,na,na,na,na,na,na,na,na,na
1st innings,17.4,Sarfraz Ahmed,SHA Rance,Babar Azam,1,0,1,na,na,1,na,na,na,na,na,na
1st innings,17.5,Sarfraz Ahmed,SHA Rance,Babar Azam,6,6,0,na,na,na,na,na,na,na,na,na
1st innings,17.6,Sarfraz Ahmed,SHA Rance,Babar Azam,1,0,1,na,na,1,na,na,na,na,na,na
1st innings,17.7,Sarfraz Ahmed,SHA Rance,Babar Azam,1,1,0,na,na,na,na,na,na,na,na,na
1st innings,17.8,Babar Azam,SHA Rance,Sarfraz Ahmed,1,1,0,na,na,na,na,na,na,na,na,na
1st innings,17.9,Sarfraz Ahmed,SHA Rance,Babar Azam,0,0,0,na,na,na,na,na,na,na,na,na
1st innings,18.1,Babar Azam,BM Wheeler,Sarfraz Ahmed,0,0,0,na,na,na,na,na,na,na,na,na
1st innings,18.2,Babar Azam,BM Wheeler,Sarfraz Ahmed,6,6,0,na,na,na,na,na,na,na,na,na
1st innings,18.3,Babar Azam,BM Wheeler,Sarfraz Ahmed,0,0,0,na,na,na,na,na,caught,C Munro,na,Sarfraz Ahmed
1st innings,18.4,Faheem Ashraf,BM Wheeler,Babar Azam,1,1,0,na,na,na,na,na,na,na,na,na
1st innings,18.5,Babar Azam,BM Wheeler,Faheem Ashraf,0,0,0,na,na,na,na,na,caught,MJ Santner,na,Faheem Ashraf
1st innings,18.6,Hasan Ali,BM Wheeler,Babar Azam,2,2,0,na,na,na,na,na,na,na,na,na
1st innings,19.1,Babar Azam,TA Boult,Hasan Ali,1,1,0,na,na,na,na,na,na,na,na,na
1st innings,19.2,Hasan Ali,TA Boult,Babar Azam,1,1,0,na,na,na,na,na,na,na,na,na
1st innings,19.3,Babar Azam,TA Boult,Hasan Ali,4,4,0,na,na,na,na,na,na,na,na,na
1st innings,19.4,Babar Azam,TA Boult,Hasan Ali,0,0,0,na,na,na,na,na,na,na,na,na
1st innings,19.5,Babar Azam,TA Boult,Hasan Ali,1,1,0,na,na,na,na,na,na,na,na,na
1st innings,19.6,Hasan Ali,TA Boult,Babar Azam,4,4,0,na,na,na,na,na,na,na,na,na
2nd innings,0.1,C Munro,Mohammad Amir,MJ Guptill,4,0,4,4,na,na,na,na,na,na,na,na
2nd innings,0.2,C Munro,Mohammad Amir,MJ Guptill,0,0,0,na,na,na,na,na,na,na,na,na
2nd innings,0.3,C Munro,Mohammad Amir,MJ Guptill,0,0,0,na,na,na,na,na,na,na,na,na
2nd innings,0.4,C Munro,Mohammad Amir,MJ Guptill,0,0,0,na,na,na,na,na,na,na,na,na
2nd innings,0.5,C Munro,Mohammad Amir,MJ Guptill,0,0,0,na,na,na,na,na,na,na,na,na
2nd innings,0.6,C Munro,Mohammad Amir,MJ Guptill,1,1,0,na,na,na,na,na,na,na,na,na
2nd innings,1.1,C Munro,Rumman Raees,MJ Guptill,0,0,0,na,na,na,na,na,na,na,na,na
2nd innings,1.2,C Munro,Rumman Raees,MJ Guptill,2,2,0,na,na,na,na,na,na,na,na,na
2nd innings,1.3,C Munro,Rumman Raees,MJ Guptill,0,0,0,na,na,na,na,na,na,na,na,na
2nd innings,1.4,C Munro,Rumman Raees,MJ Guptill,1,0,1,na,na,1,na,na,na,na,na,na
2nd innings,1.5,C Munro,Rumman Raees,MJ Guptill,1,1,0,na,na,na,na,na,na,na,na,na
2nd innings,1.6,MJ Guptill,Rumman Raees,C Munro,2,1,1,na,na,na,1,na,na,na,na,na
2nd innings,1.7,C Munro,Rumman Raees,MJ Guptill,4,4,0,na,na,na,na,na,na,na,na,na
2nd innings,1.8,C Munro,Rumman Raees,MJ Guptill,1,1,0,na,na,na,na,na,na,na,na,na
2nd innings,2.1,C Munro,Mohammad Amir,MJ Guptill,2,2,0,na,na,na,na,na,na,na,na,na
2nd innings,2.2,C Munro,Mohammad Amir,MJ Guptill,0,0,0,na,na,na,na,na,na,na,na,na
2nd innings,2.3,C Munro,Mohammad Amir,MJ Guptill,6,6,0,na,na,na,na,na,na,na,na,na
2nd innings,2.4,C Munro,Mohammad Amir,MJ Guptill,0,0,0,na,na,na,na,na,na,na,na,na
2nd innings,2.5,C Munro,Mohammad Amir,MJ Guptill,1,1,0,na,na,na,na,na,na,na,na,na
2nd innings,2.6,MJ Guptill,Mohammad Amir,C Munro,0,0,0,na,na,na,na,na,lbw,na,na,C Munro
2nd innings,3.1,KS Williamson,Rumman Raees,MJ Guptill,2,2,0,na,na,na,na,na,na,na,na,na
2nd innings,3.2,KS Williamson,Rumman Raees,MJ Guptill,1,1,0,na,na,na,na,na,na,na,na,na
2nd innings,3.3,MJ Guptill,Rumman Raees,KS Williamson,0,0,0,na,na,na,na,na,caught,Haris Sohail,na,KS Williamson
2nd innings,3.4,MJ Guptill,Rumman Raees,TC Bruce,1,1,0,na,na,na,na,na,na,na,na,na
2nd innings,3.5,TC Bruce,Rumman Raees,MJ Guptill,1,1,0,na,na,na,na,na,na,na,na,na
2nd innings,3.6,MJ Guptill,Rumman Raees,TC Bruce,0,0,0,na,na,na,na,na,na,na,na,na
2nd innings,4.1,TC Bruce,Faheem Ashraf,MJ Guptill,1,0,1,na,na,1,na,na,na,na,na,na
2nd innings,4.2,TC Bruce,Faheem Ashraf,MJ Guptill,1,1,0,na,na,na,na,na,na,na,na,na
2nd innings,4.3,MJ Guptill,Faheem Ashraf,TC Bruce,4,4,0,na,na,na,na,na,na,na,na,na
2nd innings,4.4,MJ Guptill,Faheem Ashraf,TC Bruce,6,6,0,na,na,na,na,na,na,na,na,na
2nd innings,4.5,MJ Guptill,Faheem Ashraf,TC Bruce,0,0,0,na,na,na,na,na,na,na,na,na
2nd innings,4.6,MJ Guptill,Faheem Ashraf,TC Bruce,0,0,0,na,na,na,na,na,na,na,na,na
2nd innings,4.7,MJ Guptill,Faheem Ashraf,TC Bruce,4,0,4,na,4,na,na,na,na,na,na,na
2nd innings,5.1,TC Bruce,Hasan Ali,MJ Guptill,0,0,0,na,na,na,na,na,na,na,na,na
2nd innings,5.2,TC Bruce,Hasan Ali,MJ Guptill,0,0,0,na,na,na,na,na,na,na,na,na
2nd innings,5.3,TC Bruce,Hasan Ali,MJ Guptill,1,1,0,na,na,na,na,na,na,na,na,na
2nd innings,5.4,MJ Guptill,Hasan Ali,TC Bruce,0,0,0,na,na,na,na,na,run out,na,na,TC Bruce
2nd innings,5.5,GD Phillips,Hasan Ali,MJ Guptill,1,1,0,na,na,na,na,na,na,na,na,na
2nd innings,5.6,MJ Guptill,Hasan Ali,GD Phillips,1,1,0,na,na,na,na,na,na,na,na,na
2nd innings,6.1,MJ Guptill,Shadab Khan,GD Phillips,0,0,0,na,na,na,na,na,na,na,na,na
2nd innings,6.2,MJ Guptill,Shadab Khan,GD Phillips,1,1,0,na,na,na,na,na,na,na,na,na
2nd innings,6.3,GD Phillips,Shadab Khan,MJ Guptill,1,1,0,na,na,na,na,na,na,na,na,na
2nd innings,6.4,MJ Guptill,Shadab Khan,GD Phillips,1,1,0,na,na,na,na,na,na,na,na,na
2nd innings,6.5,GD Phillips,Shadab Khan,MJ Guptill,0,0,0,na,na,na,na,na,caught,Umar Amin,na,MJ Guptill
2nd innings,6.6,GD Phillips,Shadab Khan,C de Grandhomme,4,4,0,na,na,na,na,na,na,na,na,na
2nd innings,7.1,C de Grandhomme,Faheem Ashraf,GD Phillips,0,0,0,na,na,na,na,na,na,na,na,na
2nd innings,7.2,C de Grandhomme,Faheem Ashraf,GD Phillips,0,0,0,na,na,na,na,na,na,na,na,na
2nd innings,7.3,C de Grandhomme,Faheem Ashraf,GD Phillips,2,2,0,na,na,na,na,na,na,na,na,na
2nd innings,7.4,C de Grandhomme,Faheem Ashraf,GD Phillips,0,0,0,na,na,na,na,na,na,na,na,na
2nd innings,7.5,C de Grandhomme,Faheem Ashraf,GD Phillips,0,0,0,na,na,na,na,na,caught,Haris Sohail,na,GD Phillips
2nd innings,7.6,C de Grandhomme,Faheem Ashraf,MJ Santner,0,0,0,na,na,na,na,na,na,na,na,na
2nd innings,8.1,MJ Santner,Shadab Khan,C de Grandhomme,6,6,0,na,na,na,na,na,na,na,na,na
2nd innings,8.2,MJ Santner,Shadab Khan,C de Grandhomme,0,0,0,na,na,na,na,na,stumped,Sarfraz Ahmed,na,C de Grandhomme
2nd innings,8.3,MJ Santner,Shadab Khan,BM Wheeler,1,1,0,na,na,na,na,na,na,na,na,na
2nd innings,8.4,BM Wheeler,Shadab Khan,MJ Santner,0,0,0,na,na,na,na,na,na,na,na,na
2nd innings,8.5,BM Wheeler,Shadab Khan,MJ Santner,0,0,0,na,na,na,na,na,na,na,na,na
2nd innings,8.6,BM Wheeler,Shadab Khan,MJ Santner,1,1,0,na,na,na,na,na,na,na,na,na
2nd innings,9.1,BM Wheeler,Faheem Ashraf,MJ Santner,0,0,0,na,na,na,na,na,na,na,na,na
2nd innings,9.2,BM Wheeler,Faheem Ashraf,MJ Santner,2,2,0,na,na,na,na,na,na,na,na,na
2nd innings,9.3,BM Wheeler,Faheem Ashraf,MJ Santner,1,1,0,na,na,na,na,na,na,na,na,na
2nd innings,9.4,MJ Santner,Faheem Ashraf,BM Wheeler,4,4,0,na,na,na,na,na,na,na,na,na
2nd innings,9.5,MJ Santner,Faheem Ashraf,BM Wheeler,0,0,0,na,na,na,na,na,na,na,na,na
2nd innings,9.6,MJ Santner,Faheem Ashraf,BM Wheeler,1,1,0,na,na,na,na,na,na,na,na,na
2nd innings,10.1,MJ Santner,Shadab Khan,BM Wheeler,1,1,0,na,na,na,na,na,na,na,na,na
2nd innings,10.2,BM Wheeler,Shadab Khan,MJ Santner,3,3,0,na,na,na,na,na,na,na,na,na
2nd innings,10.3,MJ Santner,Shadab Khan,BM Wheeler,0,0,0,na,na,na,na,na,na,na,na,na
2nd innings,10.4,MJ Santner,Shadab Khan,BM Wheeler,0,0,0,na,na,na,na,na,na,na,na,na
2nd innings,10.5,MJ Santner,Shadab Khan,BM Wheeler,1,1,0,na,na,na,na,na,na,na,na,na
2nd innings,10.6,BM Wheeler,Shadab Khan,MJ Santner,1,1,0,na,na,na,na,na,na,na,na,na
2nd innings,11.1,BM Wheeler,Hasan Ali,MJ Santner,0,0,0,na,na,na,na,na,na,na,na,na
2nd innings,11.2,BM Wheeler,Hasan Ali,MJ Santner,4,4,0,na,na,na,na,na,na,na,na,na
2nd innings,11.3,BM Wheeler,Hasan Ali,MJ Santner,1,1,0,na,na,na,na,na,na,na,na,na
2nd innings,11.4,MJ Santner,Hasan Ali,BM Wheeler,1,1,0,na,na,na,na,na,na,na,na,na
2nd innings,11.5,BM Wheeler,Hasan Ali,MJ Santner,2,2,0,na,na,na,na,na,na,na,na,na
2nd innings,11.6,BM Wheeler,Hasan Ali,MJ Santner,0,0,0,na,na,na,na,na,na,na,na,na
2nd innings,12.1,MJ Santner,Shadab Khan,BM Wheeler,1,0,1,na,na,1,na,na,na,na,na,na
2nd innings,12.2,MJ Santner,Shadab Khan,BM Wheeler,1,0,1,na,na,1,na,na,na,na,na,na
2nd innings,12.3,MJ Santner,Shadab Khan,BM Wheeler,1,1,0,na,na,na,na,na,na,na,na,na
2nd innings,12.4,BM Wheeler,Shadab Khan,MJ Santner,4,4,0,na,na,na,na,na,na,na,na,na
2nd innings,12.5,BM Wheeler,Shadab Khan,MJ Santner,1,1,0,na,na,na,na,na,na,na,na,na
2nd innings,12.6,MJ Santner,Shadab Khan,BM Wheeler,6,6,0,na,na,na,na,na,na,na,na,na
2nd innings,12.7,MJ Santner,Shadab Khan,BM Wheeler,1,1,0,na,na,na,na,na,na,na,na,na
2nd innings,12.8,BM Wheeler,Shadab Khan,MJ Santner,1,1,0,na,na,na,na,na,na,na,na,na
2nd innings,13.1,BM Wheeler,Mohammad Amir,MJ Santner,1,1,0,na,na,na,na,na,na,na,na,na
2nd innings,13.2,MJ Santner,Mohammad Amir,BM Wheeler,6,6,0,na,na,na,na,na,na,na,na,na
2nd innings,13.3,MJ Santner,Mohammad Amir,BM Wheeler,2,2,0,na,na,na,na,na,na,na,na,na
2nd innings,13.4,MJ Santner,Mohammad Amir,BM Wheeler,0,0,0,na,na,na,na,na,na,na,na,na
2nd innings,13.5,MJ Santner,Mohammad Amir,BM Wheeler,0,0,0,na,na,na,na,na,na,na,na,na
2nd innings,13.6,MJ Santner,Mohammad Amir,BM Wheeler,1,1,0,na,na,na,na,na,na,na,na,na
2nd innings,14.1,MJ Santner,Hasan Ali,BM Wheeler,0,0,0,na,na,na,na,na,na,na,na,na
2nd innings,14.2,MJ Santner,Hasan Ali,BM Wheeler,4,4,0,na,na,na,na,na,na,na,na,na
2nd innings,14.3,MJ Santner,Hasan Ali,BM Wheeler,0,0,0,na,na,na,na,na,bowled,na,na,BM Wheeler
2nd innings,14.4,MJ Santner,Hasan Ali,IS Sodhi,4,0,4,4,na,na,na,na,na,na,na,na
2nd innings,14.5,MJ Santner,Hasan Ali,IS Sodhi,1,1,0,na,na,na,na,na,na,na,na,na
2nd innings,14.6,IS Sodhi,Hasan Ali,MJ Santner,1,1,0,na,na,na,na,na,na,na,na,na
2nd innings,15.1,IS Sodhi,Rumman Raees,MJ Santner,4,4,0,na,na,na,na,na,na,na,na,na
2nd innings,15.2,IS Sodhi,Rumman Raees,MJ Santner,1,1,0,na,na,na,na,na,na,na,na,na
2nd innings,15.3,MJ Santner,Rumman Raees,IS Sodhi,0,0,0,na,na,na,na,na,na,na,na,na
2nd innings,15.4,MJ Santner,Rumman Raees,IS Sodhi,1,1,0,na,na,na,na,na,na,na,na,na
2nd innings,15.5,IS Sodhi,Rumman Raees,MJ Santner,4,4,0,na,na,na,na,na,na,na,na,na
2nd innings,15.6,IS Sodhi,Rumman Raees,MJ Santner,1,1,0,na,na,na,na,na,na,na,na,na
2nd innings,16.1,IS Sodhi,Hasan Ali,MJ Santner,1,1,0,na,na,na,na,na,na,na,na,na
2nd innings,16.2,MJ Santner,Hasan Ali,IS Sodhi,1,1,0,na,na,na,na,na,na,na,na,na
2nd innings,16.3,IS Sodhi,Hasan Ali,MJ Santner,1,1,0,na,na,na,na,na,na,na,na,na
2nd innings,16.4,MJ Santner,Hasan Ali,IS Sodhi,6,6,0,na,na,na,na,na,na,na,na,na
2nd innings,16.5,MJ Santner,Hasan Ali,IS Sodhi,0,0,0,na,na,na,na,na,na,na,na,na
2nd innings,16.6,MJ Santner,Hasan Ali,IS Sodhi,1,1,0,na,na,na,na,na,na,na,na,na
2nd innings,17.1,MJ Santner,Mohammad Amir,IS Sodhi,4,4,0,na,na,na,na,na,na,na,na,na
2nd innings,17.2,MJ Santner,Mohammad Amir,IS Sodhi,1,1,0,na,na,na,na,na,na,na,na,na
2nd innings,17.3,IS Sodhi,Mohammad Amir,MJ Santner,2,2,0,na,na,na,na,na,na,na,na,na
2nd innings,17.4,IS Sodhi,Mohammad Amir,MJ Santner,0,0,0,na,na,na,na,na,na,na,na,na
2nd innings,17.5,IS Sodhi,Mohammad Amir,MJ Santner,0,0,0,na,na,na,na,na,caught,Sarfraz Ahmed,na,MJ Santner
2nd innings,17.6,IS Sodhi,Mohammad Amir,SHA Rance,1,1,0,na,na,na,na,na,na,na,na,na
2nd innings,18.1,IS Sodhi,Faheem Ashraf,SHA Rance,0,0,0,na,na,na,na,na,caught,Fakhar Zaman,na,SHA Rance
2nd innings,18.2,TA Boult,Faheem Ashraf,IS Sodhi,0,0,0,na,na,na,na,na,na,na,na,na
2nd innings,18.3,TA Boult,Faheem Ashraf,IS Sodhi,0,0,0,na,na,na,na,na,caught,Babar Azam,na,IS Sodhi
