inngs,deliveries,non_striker,bowler,batsman,totalruns,batsman_runs,extra_runs,legbyes,byes,wides,noballs,penalty,wicket_kind,fielder1,fielder2,player_out
1st innings,0.1,AJ Finch,B Kumar,DA Warner,0,0,0,na,na,na,na,na,na,na,na,na
1st innings,0.2,AJ Finch,B Kumar,DA Warner,0,0,0,na,na,na,na,na,na,na,na,na
1st innings,0.3,AJ Finch,B Kumar,DA Warner,4,4,0,na,na,na,na,na,na,na,na,na
1st innings,0.4,AJ Finch,B Kumar,DA Warner,4,4,0,na,na,na,na,na,na,na,na,na
1st innings,0.5,AJ Finch,B Kumar,DA Warner,0,0,0,na,na,na,na,na,bowled,na,na,DA Warner
1st innings,0.6,AJ Finch,B Kumar,GJ Maxwell,0,0,0,na,na,na,na,na,na,na,na,na
1st innings,1.1,GJ Maxwell,JJ Bumrah,AJ Finch,0,0,0,na,na,na,na,na,na,na,na,na
1st innings,1.2,GJ Maxwell,JJ Bumrah,AJ Finch,0,0,0,na,na,na,na,na,na,na,na,na
1st innings,1.3,GJ Maxwell,JJ Bumrah,AJ Finch,4,4,0,na,na,na,na,na,na,na,na,na
1st innings,1.4,GJ Maxwell,JJ Bumrah,AJ Finch,1,1,0,na,na,na,na,na,na,na,na,na
1st innings,1.5,AJ Finch,JJ Bumrah,GJ Maxwell,1,1,0,na,na,na,na,na,na,na,na,na
1st innings,1.6,GJ Maxwell,JJ Bumrah,AJ Finch,1,1,0,na,na,na,na,na,na,na,na,na
1st innings,2.1,GJ Maxwell,HH Pandya,AJ Finch,0,0,0,na,na,na,na,na,na,na,na,na
1st innings,2.2,GJ Maxwell,HH Pandya,AJ Finch,2,2,0,na,na,na,na,na,na,na,na,na
1st innings,2.3,GJ Maxwell,HH Pandya,AJ Finch,0,0,0,na,na,na,na,na,na,na,na,na
1st innings,2.4,GJ Maxwell,HH Pandya,AJ Finch,0,0,0,na,na,na,na,na,na,na,na,na
1st innings,2.5,GJ Maxwell,HH Pandya,AJ Finch,4,4,0,na,na,na,na,na,na,na,na,na
1st innings,2.6,GJ Maxwell,HH Pandya,AJ Finch,4,4,0,na,na,na,na,na,na,na,na,na
1st innings,3.1,AJ Finch,B Kumar,GJ Maxwell,0,0,0,na,na,na,na,na,na,na,na,na
1st innings,3.2,AJ Finch,B Kumar,GJ Maxwell,1,1,0,na,na,na,na,na,na,na,na,na
1st innings,3.3,GJ Maxwell,B Kumar,AJ Finch,1,1,0,na,na,na,na,na,na,na,na,na
1st innings,3.4,AJ Finch,B Kumar,GJ Maxwell,0,0,0,na,na,na,na,na,na,na,na,na
1st innings,3.5,AJ Finch,B Kumar,GJ Maxwell,0,0,0,na,na,na,na,na,na,na,na,na
1st innings,3.6,AJ Finch,B Kumar,GJ Maxwell,1,1,0,na,na,na,na,na,na,na,na,na
1st innings,4.1,AJ Finch,JJ Bumrah,GJ Maxwell,0,0,0,na,na,na,na,na,na,na,na,na
1st innings,4.2,AJ Finch,JJ Bumrah,GJ Maxwell,1,1,0,na,na,na,na,na,na,na,na,na
1st innings,4.3,GJ Maxwell,JJ Bumrah,AJ Finch,1,1,0,na,na,na,na,na,na,na,na,na
1st innings,4.4,AJ Finch,JJ Bumrah,GJ Maxwell,1,0,1,na,na,1,na,na,na,na,na,na
1st innings,4.5,AJ Finch,JJ Bumrah,GJ Maxwell,1,1,0,na,na,na,na,na,na,na,na,na
1st innings,4.6,GJ Maxwell,JJ Bumrah,AJ Finch,2,2,0,na,na,na,na,na,na,na,na,na
1st innings,4.7,GJ Maxwell,JJ Bumrah,AJ Finch,2,2,0,na,na,na,na,na,na,na,na,na
1st innings,5.1,AJ Finch,HH Pandya,GJ Maxwell,4,4,0,na,na,na,na,na,na,na,na,na
1st innings,5.2,AJ Finch,HH Pandya,GJ Maxwell,1,1,0,na,na,na,na,na,na,na,na,na
1st innings,5.3,GJ Maxwell,HH Pandya,AJ Finch,2,2,0,na,na,na,na,na,na,na,na,na
1st innings,5.4,GJ Maxwell,HH Pandya,AJ Finch,4,4,0,na,na,na,na,na,na,na,na,na
1st innings,5.5,GJ Maxwell,HH Pandya,AJ Finch,1,1,0,na,na,na,na,na,na,na,na,na
1st innings,5.6,AJ Finch,HH Pandya,GJ Maxwell,1,1,0,na,na,na,na,na,na,na,na,na
1st innings,6.1,AJ Finch,YS Chahal,GJ Maxwell,2,2,0,na,na,na,na,na,na,na,na,na
1st innings,6.2,AJ Finch,YS Chahal,GJ Maxwell,4,4,0,na,na,na,na,na,na,na,na,na
1st innings,6.3,AJ Finch,YS Chahal,GJ Maxwell,0,0,0,na,na,na,na,na,caught,JJ Bumrah,na,GJ Maxwell
1st innings,6.4,AJ Finch,YS Chahal,TM Head,1,1,0,na,na,na,na,na,na,na,na,na
1st innings,6.5,TM Head,YS Chahal,AJ Finch,1,1,0,na,na,na,na,na,na,na,na,na
1st innings,6.6,AJ Finch,YS Chahal,TM Head,0,0,0,na,na,na,na,na,na,na,na,na
1st innings,7.1,TM Head,Kuldeep Yadav,AJ Finch,0,0,0,na,na,na,na,na,na,na,na,na
1st innings,7.2,TM Head,Kuldeep Yadav,AJ Finch,1,1,0,na,na,na,na,na,na,na,na,na
1st innings,7.3,AJ Finch,Kuldeep Yadav,TM Head,1,1,0,na,na,na,na,na,na,na,na,na
1st innings,7.4,TM Head,Kuldeep Yadav,AJ Finch,1,1,0,na,na,na,na,na,na,na,na,na
1st innings,7.5,AJ Finch,Kuldeep Yadav,TM Head,1,1,0,na,na,na,na,na,na,na,na,na
1st innings,7.6,TM Head,Kuldeep Yadav,AJ Finch,1,1,0,na,na,na,na,na,na,na,na,na
1st innings,8.1,TM Head,YS Chahal,AJ Finch,0,0,0,na,na,na,na,na,na,na,na,na
1st innings,8.2,TM Head,YS Chahal,AJ Finch,6,6,0,na,na,na,na,na,na,na,na,na
1st innings,8.3,TM Head,YS Chahal,AJ Finch,1,1,0,na,na,na,na,na,na,na,na,na
1st innings,8.4,AJ Finch,YS Chahal,TM Head,1,0,1,1,na,na,na,na,na,na,na,na
1st innings,8.5,TM Head,YS Chahal,AJ Finch,1,0,1,na,na,1,na,na,na,na,na,na
1st innings,8.6,TM Head,YS Chahal,AJ Finch,0,0,0,na,na,na,na,na,na,na,na,na
1st innings,8.7,TM Head,YS Chahal,AJ Finch,1,1,0,na,na,na,na,na,na,na,na,na
1st innings,9.1,TM Head,Kuldeep Yadav,AJ Finch,1,1,0,na,na,na,na,na,na,na,na,na
1st innings,9.2,AJ Finch,Kuldeep Yadav,TM Head,2,2,0,na,na,na,na,na,na,na,na,na
1st innings,9.3,AJ Finch,Kuldeep Yadav,TM Head,0,0,0,na,na,na,na,na,na,na,na,na
1st innings,9.4,AJ Finch,Kuldeep Yadav,TM Head,1,1,0,na,na,na,na,na,na,na,na,na
1st innings,9.5,TM Head,Kuldeep Yadav,AJ Finch,0,0,0,na,na,na,na,na,bowled,na,na,AJ Finch
1st innings,9.6,TM Head,Kuldeep Yadav,MC Henriques,1,1,0,na,na,na,na,na,na,na,na,na
1st innings,10.1,TM Head,YS Chahal,MC Henriques,1,1,0,na,na,na,na,na,na,na,na,na
1st innings,10.2,MC Henriques,YS Chahal,TM Head,0,0,0,na,na,na,na,na,na,na,na,na
1st innings,10.3,MC Henriques,YS Chahal,TM Head,1,1,0,na,na,na,na,na,na,na,na,na
1st innings,10.4,TM Head,YS Chahal,MC Henriques,0,0,0,na,na,na,na,na,na,na,na,na
1st innings,10.5,TM Head,YS Chahal,MC Henriques,1,1,0,na,na,na,na,na,na,na,na,na
1st innings,10.6,MC Henriques,YS Chahal,TM Head,0,0,0,na,na,na,na,na,na,na,na,na
1st innings,11.1,TM Head,HH Pandya,MC Henriques,1,1,0,na,na,na,na,na,na,na,na,na
1st innings,11.2,MC Henriques,HH Pandya,TM Head,0,0,0,na,na,na,na,na,na,na,na,na
1st innings,11.3,MC Henriques,HH Pandya,TM Head,1,1,0,na,na,na,na,na,na,na,na,na
1st innings,11.4,TM Head,HH Pandya,MC Henriques,0,0,0,na,na,na,na,na,na,na,na,na
1st innings,11.5,TM Head,HH Pandya,MC Henriques,4,4,0,na,na,na,na,na,na,na,na,na
1st innings,11.6,TM Head,HH Pandya,MC Henriques,0,0,0,na,na,na,na,na,na,na,na,na
1st innings,12.1,MC Henriques,Kuldeep Yadav,TM Head,1,1,0,na,na,na,na,na,na,na,na,na
1st innings,12.2,TM Head,Kuldeep Yadav,MC Henriques,0,0,0,na,na,na,na,na,bowled,na,na,MC Henriques
1st innings,12.3,TM Head,Kuldeep Yadav,DT Christian,0,0,0,na,na,na,na,na,na,na,na,na
1st innings,12.4,TM Head,Kuldeep Yadav,DT Christian,0,0,0,na,na,na,na,na,na,na,na,na
1st innings,12.5,TM Head,Kuldeep Yadav,DT Christian,1,1,0,na,na,na,na,na,na,na,na,na
1st innings,12.6,DT Christian,Kuldeep Yadav,TM Head,0,0,0,na,na,na,na,na,na,na,na,na
1st innings,13.1,TM Head,HH Pandya,DT Christian,0,0,0,na,na,na,na,na,na,na,na,na
1st innings,13.2,TM Head,HH Pandya,DT Christian,1,1,0,na,na,na,na,na,na,na,na,na
1st innings,13.3,DT Christian,HH Pandya,TM Head,0,0,0,na,na,na,na,na,bowled,na,na,TM Head
1st innings,13.4,DT Christian,HH Pandya,TD Paine,1,1,0,na,na,na,na,na,na,na,na,na
1st innings,13.5,TD Paine,HH Pandya,DT Christian,1,1,0,na,na,na,na,na,na,na,na,na
1st innings,13.6,DT Christian,HH Pandya,TD Paine,1,1,0,na,na,na,na,na,na,na,na,na
1st innings,14.1,DT Christian,YS Chahal,TD Paine,0,0,0,na,na,na,na,na,na,na,na,na
1st innings,14.2,DT Christian,YS Chahal,TD Paine,0,0,0,na,na,na,na,na,na,na,na,na
1st innings,14.3,DT Christian,YS Chahal,TD Paine,1,1,0,na,na,na,na,na,na,na,na,na
1st innings,14.4,TD Paine,YS Chahal,DT Christian,1,1,0,na,na,na,na,na,na,na,na,na
1st innings,14.5,DT Christian,YS Chahal,TD Paine,0,0,0,na,na,na,na,na,na,na,na,na
1st innings,14.6,DT Christian,YS Chahal,TD Paine,1,1,0,na,na,na,na,na,na,na,na,na
1st innings,15.1,DT Christian,Kuldeep Yadav,TD Paine,0,0,0,na,na,na,na,na,na,na,na,na
1st innings,15.2,DT Christian,Kuldeep Yadav,TD Paine,1,1,0,na,na,na,na,na,na,na,na,na
1st innings,15.3,TD Paine,Kuldeep Yadav,DT Christian,1,1,0,na,na,na,na,na,na,na,na,na
1st innings,15.4,DT Christian,Kuldeep Yadav,TD Paine,0,0,0,na,na,na,na,na,na,na,na,na
1st innings,15.5,DT Christian,Kuldeep Yadav,TD Paine,1,1,0,na,na,na,na,na,na,na,na,na
1st innings,15.6,TD Paine,Kuldeep Yadav,DT Christian,1,1,0,na,na,na,na,na,na,na,na,na
1st innings,16.1,TD Paine,B Kumar,DT Christian,0,0,0,na,na,na,na,na,na,na,na,na
1st innings,16.2,TD Paine,B Kumar,DT Christian,1,1,0,na,na,na,na,na,na,na,na,na
1st innings,16.3,DT Christian,B Kumar,TD Paine,4,4,0,na,na,na,na,na,na,na,na,na
1st innings,16.4,DT Christian,B Kumar,TD Paine,0,0,0,na,na,na,na,na,na,na,na,na
1st innings,16.5,DT Christian,B Kumar,TD Paine,6,6,0,na,na,na,na,na,na,na,na,na
1st innings,16.6,DT Christian,B Kumar,TD Paine,1,1,0,na,na,na,na,na,na,na,na,na
1st innings,17.1,DT Christian,JJ Bumrah,TD Paine,0,0,0,na,na,na,na,na,bowled,na,na,TD Paine
1st innings,17.2,DT Christian,JJ Bumrah,NM Coulter-Nile,1,1,0,na,na,na,na,na,na,na,na,na
1st innings,17.3,NM Coulter-Nile,JJ Bumrah,DT Christian,1,1,0,na,na,na,na,na,na,na,na,na
1st innings,17.4,DT Christian,JJ Bumrah,NM Coulter-Nile,0,0,0,na,na,na,na,na,bowled,na,na,NM Coulter-Nile
1st innings,17.5,DT Christian,JJ Bumrah,AJ Tye,0,0,0,na,na,na,na,na,na,na,na,na
1st innings,17.6,DT Christian,JJ Bumrah,AJ Tye,0,0,0,na,na,na,na,na,na,na,na,na
1st innings,18.1,AJ Tye,B Kumar,DT Christian,1,1,0,na,na,na,na,na,run out,na,na,DT Christian
1st innings,18.2,AJ Tye,B Kumar,A Zampa,0,0,0,na,na,na,na,na,na,na,na,na
1st innings,18.3,AJ Tye,B Kumar,A Zampa,4,4,0,na,na,na,na,na,na,na,na,na
1st innings,18.4,AJ Tye,B Kumar,A Zampa,0,0,0,na,na,na,na,na,na,na,na,na
2nd innings,0.1,S Dhawan,JP Behrendorff,RG Sharma,4,4,0,na,na,na,na,na,na,na,na,na
2nd innings,0.2,S Dhawan,JP Behrendorff,RG Sharma,0,0,0,na,na,na,na,na,na,na,na,na
2nd innings,0.3,S Dhawan,JP Behrendorff,RG Sharma,0,0,0,na,na,na,na,na,na,na,na,na
2nd innings,0.4,S Dhawan,JP Behrendorff,RG Sharma,0,0,0,na,na,na,na,na,na,na,na,na
2nd innings,0.5,S Dhawan,JP Behrendorff,RG Sharma,1,1,0,na,na,na,na,na,na,na,na,na
2nd innings,0.6,RG Sharma,JP Behrendorff,S Dhawan,0,0,0,na,na,na,na,na,na,na,na,na
2nd innings,1.1,S Dhawan,NM Coulter-Nile,RG Sharma,6,6,0,na,na,na,na,na,na,na,na,na
2nd innings,1.2,S Dhawan,NM Coulter-Nile,RG Sharma,0,0,0,na,na,na,na,na,bowled,na,na,RG Sharma
2nd innings,1.3,S Dhawan,NM Coulter-Nile,V Kohli,0,0,0,na,na,na,na,na,na,na,na,na
2nd innings,1.4,S Dhawan,NM Coulter-Nile,V Kohli,1,1,0,na,na,na,na,na,na,na,na,na
2nd innings,1.5,V Kohli,NM Coulter-Nile,S Dhawan,0,0,0,na,na,na,na,na,na,na,na,na
2nd innings,1.6,V Kohli,NM Coulter-Nile,S Dhawan,4,4,0,na,na,na,na,na,na,na,na,na
2nd innings,2.1,S Dhawan,AJ Tye,V Kohli,4,4,0,na,na,na,na,na,na,na,na,na
2nd innings,2.2,S Dhawan,AJ Tye,V Kohli,1,1,0,na,na,na,na,na,na,na,na,na
2nd innings,2.3,V Kohli,AJ Tye,S Dhawan,4,4,0,na,na,na,na,na,na,na,na,na
2nd innings,2.4,V Kohli,AJ Tye,S Dhawan,1,0,1,1,na,na,na,na,na,na,na,na
2nd innings,2.5,S Dhawan,AJ Tye,V Kohli,0,0,0,na,na,na,na,na,na,na,na,na
2nd innings,2.6,S Dhawan,AJ Tye,V Kohli,1,1,0,na,na,na,na,na,na,na,na,na
2nd innings,3.1,S Dhawan,NM Coulter-Nile,V Kohli,1,1,0,na,na,na,na,na,na,na,na,na
2nd innings,3.2,V Kohli,NM Coulter-Nile,S Dhawan,4,4,0,na,na,na,na,na,na,na,na,na
2nd innings,3.3,V Kohli,NM Coulter-Nile,S Dhawan,1,1,0,na,na,na,na,na,na,na,na,na
2nd innings,3.4,S Dhawan,NM Coulter-Nile,V Kohli,2,2,0,na,na,na,na,na,na,na,na,na
2nd innings,3.5,S Dhawan,NM Coulter-Nile,V Kohli,1,1,0,na,na,na,na,na,na,na,na,na
2nd innings,3.6,V Kohli,NM Coulter-Nile,S Dhawan,0,0,0,na,na,na,na,na,na,na,na,na
2nd innings,4.1,S Dhawan,A Zampa,V Kohli,4,4,0,na,na,na,na,na,na,na,na,na
2nd innings,4.2,S Dhawan,A Zampa,V Kohli,1,1,0,na,na,na,na,na,na,na,na,na
2nd innings,4.3,V Kohli,A Zampa,S Dhawan,0,0,0,na,na,na,na,na,na,na,na,na
2nd innings,4.4,V Kohli,A Zampa,S Dhawan,0,0,0,na,na,na,na,na,na,na,na,na
2nd innings,4.5,V Kohli,A Zampa,S Dhawan,1,1,0,na,na,na,na,na,na,na,na,na
2nd innings,4.6,S Dhawan,A Zampa,V Kohli,0,0,0,na,na,na,na,na,na,na,na,na
2nd innings,5.1,V Kohli,DT Christian,S Dhawan,1,1,0,na,na,na,na,na,na,na,na,na
2nd innings,5.2,S Dhawan,DT Christian,V Kohli,2,2,0,na,na,na,na,na,na,na,na,na
2nd innings,5.3,S Dhawan,DT Christian,V Kohli,4,4,0,na,na,na,na,na,na,na,na,na
