inngs,deliveries,non_striker,bowler,batsman,totalruns,batsman_runs,extra_runs,legbyes,byes,wides,noballs,penalty,wicket_kind,fielder1,fielder2,player_out
1st innings,0.1,BKG Mendis,Shakib Al Hasan,MD Gunathilaka,0,0,0,na,na,na,na,na,na,na,na,na
1st innings,0.2,BKG Mendis,Shakib Al Hasan,MD Gunathilaka,0,0,0,na,na,na,na,na,na,na,na,na
1st innings,0.3,BKG Mendis,Shakib Al Hasan,MD Gunathilaka,0,0,0,na,na,na,na,na,na,na,na,na
1st innings,0.4,BKG Mendis,Shakib Al Hasan,MD Gunathilaka,1,1,0,na,na,na,na,na,na,na,na,na
1st innings,0.5,MD Gunathilaka,Shakib Al Hasan,BKG Mendis,1,0,1,na,na,1,na,na,na,na,na,na
1st innings,0.6,MD Gunathilaka,Shakib Al Hasan,BKG Mendis,0,0,0,na,na,na,na,na,na,na,na,na
1st innings,0.7,MD Gunathilaka,Shakib Al Hasan,BKG Mendis,1,1,0,na,na,na,na,na,na,na,na,na
1st innings,1.1,MD Gunathilaka,Rubel Hossain,BKG Mendis,1,1,0,na,na,na,na,na,na,na,na,na
1st innings,1.2,BKG Mendis,Rubel Hossain,MD Gunathilaka,2,2,0,na,na,na,na,na,na,na,na,na
1st innings,1.3,BKG Mendis,Rubel Hossain,MD Gunathilaka,1,1,0,na,na,na,na,na,na,na,na,na
1st innings,1.4,MD Gunathilaka,Rubel Hossain,BKG Mendis,0,0,0,na,na,na,na,na,na,na,na,na
1st innings,1.5,MD Gunathilaka,Rubel Hossain,BKG Mendis,4,4,0,na,na,na,na,na,na,na,na,na
1st innings,1.6,MD Gunathilaka,Rubel Hossain,BKG Mendis,4,4,0,na,na,na,na,na,na,na,na,na
1st innings,2.1,BKG Mendis,Shakib Al Hasan,MD Gunathilaka,0,0,0,na,na,na,na,na,caught,Sabbir Rahman,na,MD Gunathilaka
1st innings,2.2,MDKJ Perera,Shakib Al Hasan,BKG Mendis,1,1,0,na,na,na,na,na,na,na,na,na
1st innings,2.3,BKG Mendis,Shakib Al Hasan,MDKJ Perera,4,4,0,na,na,na,na,na,na,na,na,na
1st innings,2.4,BKG Mendis,Shakib Al Hasan,MDKJ Perera,1,1,0,na,na,na,na,na,na,na,na,na
1st innings,2.5,MDKJ Perera,Shakib Al Hasan,BKG Mendis,0,0,0,na,na,na,na,na,na,na,na,na
1st innings,2.6,MDKJ Perera,Shakib Al Hasan,BKG Mendis,0,0,0,na,na,na,na,na,na,na,na,na
1st innings,3.1,BKG Mendis,Mustafizur Rahman,MDKJ Perera,1,0,1,1,na,na,na,na,na,na,na,na
1st innings,3.2,MDKJ Perera,Mustafizur Rahman,BKG Mendis,0,0,0,na,na,na,na,na,na,na,na,na
1st innings,3.3,MDKJ Perera,Mustafizur Rahman,BKG Mendis,0,0,0,na,na,na,na,na,na,na,na,na
1st innings,3.4,MDKJ Perera,Mustafizur Rahman,BKG Mendis,0,0,0,na,na,na,na,na,na,na,na,na
1st innings,3.5,MDKJ Perera,Mustafizur Rahman,BKG Mendis,0,0,0,na,na,na,na,na,na,na,na,na
1st innings,3.6,MDKJ Perera,Mustafizur Rahman,BKG Mendis,0,0,0,na,na,na,na,na,caught,Soumya Sarkar,na,BKG Mendis
1st innings,4.1,WU Tharanga,Mehedi Hasan Miraz,MDKJ Perera,1,1,0,na,na,na,na,na,na,na,na,na
1st innings,4.2,MDKJ Perera,Mehedi Hasan Miraz,WU Tharanga,1,1,0,na,na,na,na,na,na,na,na,na
1st innings,4.3,WU Tharanga,Mehedi Hasan Miraz,MDKJ Perera,1,1,0,na,na,na,na,na,na,na,na,na
1st innings,4.4,MDKJ Perera,Mehedi Hasan Miraz,WU Tharanga,0,0,0,na,na,na,na,na,na,na,na,na
1st innings,4.5,MDKJ Perera,Mehedi Hasan Miraz,WU Tharanga,0,0,0,na,na,na,na,na,na,na,na,na
1st innings,4.6,MDKJ Perera,Mehedi Hasan Miraz,WU Tharanga,4,4,0,na,na,na,na,na,na,na,na,na
1st innings,5.1,WU Tharanga,Mustafizur Rahman,MDKJ Perera,1,0,1,na,na,1,na,na,na,na,na,na
1st innings,5.2,WU Tharanga,Mustafizur Rahman,MDKJ Perera,1,1,0,na,na,na,na,na,na,na,na,na
1st innings,5.3,MDKJ Perera,Mustafizur Rahman,WU Tharanga,0,0,0,na,na,na,na,na,run out,na,na,WU Tharanga
1st innings,5.4,MD Shanaka,Mustafizur Rahman,MDKJ Perera,1,1,0,na,na,na,na,na,na,na,na,na
1st innings,5.5,MDKJ Perera,Mustafizur Rahman,MD Shanaka,0,0,0,na,na,na,na,na,caught,Mushfiqur Rahim,na,MD Shanaka
1st innings,5.6,MDKJ Perera,Mustafizur Rahman,BMAJ Mendis,0,0,0,na,na,na,na,na,na,na,na,na
1st innings,5.7,MDKJ Perera,Mustafizur Rahman,BMAJ Mendis,1,0,1,na,na,1,na,na,na,na,na,na
1st innings,5.8,MDKJ Perera,Mustafizur Rahman,BMAJ Mendis,2,0,2,2,na,na,na,na,na,na,na,na
1st innings,6.1,BMAJ Mendis,Mehedi Hasan Miraz,MDKJ Perera,0,0,0,na,na,na,na,na,na,na,na,na
1st innings,6.2,BMAJ Mendis,Mehedi Hasan Miraz,MDKJ Perera,0,0,0,na,na,na,na,na,na,na,na,na
1st innings,6.3,BMAJ Mendis,Mehedi Hasan Miraz,MDKJ Perera,1,1,0,na,na,na,na,na,na,na,na,na
1st innings,6.4,MDKJ Perera,Mehedi Hasan Miraz,BMAJ Mendis,0,0,0,na,na,na,na,na,na,na,na,na
1st innings,6.5,MDKJ Perera,Mehedi Hasan Miraz,BMAJ Mendis,0,0,0,na,na,na,na,na,na,na,na,na
1st innings,6.6,MDKJ Perera,Mehedi Hasan Miraz,BMAJ Mendis,1,1,0,na,na,na,na,na,na,na,na,na
1st innings,7.1,MDKJ Perera,Mahmudullah,BMAJ Mendis,1,1,0,na,na,na,na,na,na,na,na,na
1st innings,7.2,BMAJ Mendis,Mahmudullah,MDKJ Perera,1,1,0,na,na,na,na,na,na,na,na,na
1st innings,7.3,MDKJ Perera,Mahmudullah,BMAJ Mendis,1,0,1,na,na,1,na,na,na,na,na,na
1st innings,7.4,MDKJ Perera,Mahmudullah,BMAJ Mendis,0,0,0,na,na,na,na,na,na,na,na,na
1st innings,7.5,MDKJ Perera,Mahmudullah,BMAJ Mendis,0,0,0,na,na,na,na,na,na,na,na,na
1st innings,7.6,MDKJ Perera,Mahmudullah,BMAJ Mendis,0,0,0,na,na,na,na,na,na,na,na,na
1st innings,7.7,MDKJ Perera,Mahmudullah,BMAJ Mendis,1,1,0,na,na,na,na,na,na,na,na,na
1st innings,8.1,MDKJ Perera,Mehedi Hasan Miraz,BMAJ Mendis,0,0,0,na,na,na,na,na,caught,Mustafizur Rahman,na,BMAJ Mendis
1st innings,8.2,MDKJ Perera,Mehedi Hasan Miraz,NLTC Perera,1,1,0,na,na,na,na,na,na,na,na,na
1st innings,8.3,NLTC Perera,Mehedi Hasan Miraz,MDKJ Perera,1,1,0,na,na,na,na,na,na,na,na,na
1st innings,8.4,MDKJ Perera,Mehedi Hasan Miraz,NLTC Perera,0,0,0,na,na,na,na,na,na,na,na,na
1st innings,8.5,MDKJ Perera,Mehedi Hasan Miraz,NLTC Perera,0,0,0,na,na,na,na,na,na,na,na,na
1st innings,8.6,MDKJ Perera,Mehedi Hasan Miraz,NLTC Perera,0,0,0,na,na,na,na,na,na,na,na,na
1st innings,9.1,NLTC Perera,Mahmudullah,MDKJ Perera,4,4,0,na,na,na,na,na,na,na,na,na
1st innings,9.2,NLTC Perera,Mahmudullah,MDKJ Perera,1,1,0,na,na,na,na,na,na,na,na,na
1st innings,9.3,MDKJ Perera,Mahmudullah,NLTC Perera,1,1,0,na,na,na,na,na,na,na,na,na
1st innings,9.4,NLTC Perera,Mahmudullah,MDKJ Perera,1,1,0,na,na,na,na,na,na,na,na,na
1st innings,9.5,MDKJ Perera,Mahmudullah,NLTC Perera,2,2,0,na,na,na,na,na,na,na,na,na
1st innings,9.6,MDKJ Perera,Mahmudullah,NLTC Perera,1,1,0,na,na,na,na,na,na,na,na,na
1st innings,10.1,MDKJ Perera,Rubel Hossain,NLTC Perera,0,0,0,na,na,na,na,na,na,na,na,na
1st innings,10.2,MDKJ Perera,Rubel Hossain,NLTC Perera,0,0,0,na,na,na,na,na,na,na,na,na
1st innings,10.3,MDKJ Perera,Rubel Hossain,NLTC Perera,1,1,0,na,na,na,na,na,na,na,na,na
1st innings,10.4,NLTC Perera,Rubel Hossain,MDKJ Perera,4,4,0,na,na,na,na,na,na,na,na,na
1st innings,10.5,NLTC Perera,Rubel Hossain,MDKJ Perera,4,4,0,na,na,na,na,na,na,na,na,na
1st innings,10.6,NLTC Perera,Rubel Hossain,MDKJ Perera,1,1,0,na,na,na,na,na,na,na,na,na
1st innings,11.1,NLTC Perera,Mehedi Hasan Miraz,MDKJ Perera,1,1,0,na,na,na,na,na,na,na,na,na
1st innings,11.2,MDKJ Perera,Mehedi Hasan Miraz,NLTC Perera,0,0,0,na,na,na,na,na,na,na,na,na
1st innings,11.3,MDKJ Perera,Mehedi Hasan Miraz,NLTC Perera,2,2,0,na,na,na,na,na,na,na,na,na
1st innings,11.4,MDKJ Perera,Mehedi Hasan Miraz,NLTC Perera,1,1,0,na,na,na,na,na,na,na,na,na
1st innings,11.5,NLTC Perera,Mehedi Hasan Miraz,MDKJ Perera,0,0,0,na,na,na,na,na,na,na,na,na
1st innings,11.6,NLTC Perera,Mehedi Hasan Miraz,MDKJ Perera,1,1,0,na,na,na,na,na,na,na,na,na
1st innings,12.1,NLTC Perera,Mustafizur Rahman,MDKJ Perera,2,2,0,na,na,na,na,na,na,na,na,na
1st innings,12.2,NLTC Perera,Mustafizur Rahman,MDKJ Perera,6,6,0,na,na,na,na,na,na,na,na,na
1st innings,12.3,NLTC Perera,Mustafizur Rahman,MDKJ Perera,4,4,0,na,na,na,na,na,na,na,na,na
1st innings,12.4,NLTC Perera,Mustafizur Rahman,MDKJ Perera,1,1,0,na,na,na,na,na,na,na,na,na
1st innings,12.5,MDKJ Perera,Mustafizur Rahman,NLTC Perera,4,4,0,na,na,na,na,na,na,na,na,na
1st innings,12.6,MDKJ Perera,Mustafizur Rahman,NLTC Perera,1,1,0,na,na,na,na,na,na,na,na,na
1st innings,13.1,MDKJ Perera,Mahmudullah,NLTC Perera,1,1,0,na,na,na,na,na,na,na,na,na
1st innings,13.2,NLTC Perera,Mahmudullah,MDKJ Perera,0,0,0,na,na,na,na,na,na,na,na,na
1st innings,13.3,NLTC Perera,Mahmudullah,MDKJ Perera,2,2,0,na,na,na,na,na,na,na,na,na
1st innings,13.4,NLTC Perera,Mahmudullah,MDKJ Perera,0,0,0,na,na,na,na,na,na,na,na,na
1st innings,13.5,NLTC Perera,Mahmudullah,MDKJ Perera,0,0,0,na,na,na,na,na,na,na,na,na
1st innings,13.6,NLTC Perera,Mahmudullah,MDKJ Perera,1,1,0,na,na,na,na,na,na,na,na,na
1st innings,14.1,NLTC Perera,Soumya Sarkar,MDKJ Perera,4,4,0,na,na,na,na,na,na,na,na,na
1st innings,14.2,NLTC Perera,Soumya Sarkar,MDKJ Perera,1,1,0,na,na,na,na,na,na,na,na,na
1st innings,14.3,MDKJ Perera,Soumya Sarkar,NLTC Perera,0,0,0,na,na,na,na,na,na,na,na,na
1st innings,14.4,MDKJ Perera,Soumya Sarkar,NLTC Perera,2,2,0,na,na,na,na,na,na,na,na,na
1st innings,14.5,MDKJ Perera,Soumya Sarkar,NLTC Perera,1,1,0,na,na,na,na,na,na,na,na,na
1st innings,14.6,NLTC Perera,Soumya Sarkar,MDKJ Perera,1,1,0,na,na,na,na,na,na,na,na,na
1st innings,15.1,NLTC Perera,Mahmudullah,MDKJ Perera,2,2,0,na,na,na,na,na,na,na,na,na
1st innings,15.2,NLTC Perera,Mahmudullah,MDKJ Perera,4,4,0,na,na,na,na,na,na,na,na,na
1st innings,15.3,NLTC Perera,Mahmudullah,MDKJ Perera,1,1,0,na,na,na,na,na,na,na,na,na
1st innings,15.4,MDKJ Perera,Mahmudullah,NLTC Perera,2,2,0,na,na,na,na,na,na,na,na,na
1st innings,15.5,MDKJ Perera,Mahmudullah,NLTC Perera,1,1,0,na,na,na,na,na,na,na,na,na
1st innings,15.6,NLTC Perera,Mahmudullah,MDKJ Perera,1,1,0,na,na,na,na,na,na,na,na,na
1st innings,16.1,NLTC Perera,Mustafizur Rahman,MDKJ Perera,1,1,0,na,na,na,na,na,na,na,na,na
1st innings,16.2,MDKJ Perera,Mustafizur Rahman,NLTC Perera,2,2,0,na,na,na,na,na,na,na,na,na
1st innings,16.3,MDKJ Perera,Mustafizur Rahman,NLTC Perera,6,6,0,na,na,na,na,na,na,na,na,na
1st innings,16.4,MDKJ Perera,Mustafizur Rahman,NLTC Perera,6,6,0,na,na,na,na,na,na,na,na,na
1st innings,16.5,MDKJ Perera,Mustafizur Rahman,NLTC Perera,2,2,0,na,na,na,na,na,na,na,na,na
1st innings,16.6,MDKJ Perera,Mustafizur Rahman,NLTC Perera,0,0,0,na,na,na,na,na,na,na,na,na
1st innings,17.1,NLTC Perera,Rubel Hossain,MDKJ Perera,1,1,0,na,na,na,na,na,na,na,na,na
1st innings,17.2,MDKJ Perera,Rubel Hossain,NLTC Perera,4,4,0,na,na,na,na,na,na,na,na,na
1st innings,17.3,MDKJ Perera,Rubel Hossain,NLTC Perera,2,2,0,na,na,na,na,na,na,na,na,na
1st innings,17.4,MDKJ Perera,Rubel Hossain,NLTC Perera,2,2,0,na,na,na,na,na,na,na,na,na
1st innings,17.5,MDKJ Perera,Rubel Hossain,NLTC Perera,0,0,0,na,na,na,na,na,na,na,na,na
1st innings,17.6,MDKJ Perera,Rubel Hossain,NLTC Perera,1,1,0,na,na,na,na,na,na,na,na,na
1st innings,18.1,MDKJ Perera,Soumya Sarkar,NLTC Perera,1,0,1,1,na,na,na,na,na,na,na,na
1st innings,18.2,NLTC Perera,Soumya Sarkar,MDKJ Perera,0,0,0,na,na,na,na,na,caught,Mehedi Hasan Miraz,na,MDKJ Perera
1st innings,18.3,I Udana,Soumya Sarkar,NLTC Perera,6,6,0,na,na,na,na,na,na,na,na,na
1st innings,18.4,I Udana,Soumya Sarkar,NLTC Perera,1,1,0,na,na,na,na,na,na,na,na,na
1st innings,18.5,NLTC Perera,Soumya Sarkar,I Udana,3,3,0,na,na,na,na,na,na,na,na,na
1st innings,18.6,I Udana,Soumya Sarkar,NLTC Perera,1,0,1,na,na,1,na,na,na,na,na,na
1st innings,18.7,I Udana,Soumya Sarkar,NLTC Perera,1,1,0,na,na,na,na,na,na,na,na,na
1st innings,19.1,I Udana,Rubel Hossain,NLTC Perera,4,4,0,na,na,na,na,na,na,na,na,na
1st innings,19.2,I Udana,Rubel Hossain,NLTC Perera,0,0,0,na,na,na,na,na,caught,Tamim Iqbal,na,NLTC Perera
1st innings,19.3,A Dananjaya,Rubel Hossain,I Udana,2,2,0,na,na,na,na,na,na,na,na,na
1st innings,19.4,A Dananjaya,Rubel Hossain,I Udana,1,1,0,na,na,na,na,na,na,na,na,na
1st innings,19.5,I Udana,Rubel Hossain,A Dananjaya,1,1,0,na,na,na,na,na,na,na,na,na
1st innings,19.6,A Dananjaya,Rubel Hossain,I Udana,1,1,0,na,na,na,na,na,na,na,na,na
2nd innings,0.1,Liton Das,N Pradeep,Tamim Iqbal,0,0,0,na,na,na,na,na,na,na,na,na
2nd innings,0.2,Liton Das,N Pradeep,Tamim Iqbal,4,4,0,na,na,na,na,na,na,na,na,na
2nd innings,0.3,Liton Das,N Pradeep,Tamim Iqbal,0,0,0,na,na,na,na,na,na,na,na,na
2nd innings,0.4,Liton Das,N Pradeep,Tamim Iqbal,4,4,0,na,na,na,na,na,na,na,na,na
2nd innings,0.5,Liton Das,N Pradeep,Tamim Iqbal,1,1,0,na,na,na,na,na,na,na,na,na
2nd innings,0.6,Tamim Iqbal,N Pradeep,Liton Das,1,0,1,na,na,1,na,na,na,na,na,na
2nd innings,0.7,Tamim Iqbal,N Pradeep,Liton Das,0,0,0,na,na,na,na,na,na,na,na,na
2nd innings,1.1,Liton Das,A Dananjaya,Tamim Iqbal,0,0,0,na,na,na,na,na,na,na,na,na
2nd innings,1.2,Liton Das,A Dananjaya,Tamim Iqbal,1,1,0,na,na,na,na,na,na,na,na,na
2nd innings,1.3,Tamim Iqbal,A Dananjaya,Liton Das,0,0,0,na,na,na,na,na,na,na,na,na
2nd innings,1.4,Tamim Iqbal,A Dananjaya,Liton Das,0,0,0,na,na,na,na,na,caught,NLTC Perera,na,Liton Das
2nd innings,1.5,Tamim Iqbal,A Dananjaya,Sabbir Rahman,4,4,0,na,na,na,na,na,na,na,na,na
2nd innings,1.6,Tamim Iqbal,A Dananjaya,Sabbir Rahman,4,4,0,na,na,na,na,na,na,na,na,na
2nd innings,2.1,Sabbir Rahman,MA Aponso,Tamim Iqbal,1,1,0,na,na,na,na,na,na,na,na,na
2nd innings,2.2,Tamim Iqbal,MA Aponso,Sabbir Rahman,0,0,0,na,na,na,na,na,na,na,na,na
2nd innings,2.3,Tamim Iqbal,MA Aponso,Sabbir Rahman,1,1,0,na,na,na,na,na,na,na,na,na
2nd innings,2.4,Sabbir Rahman,MA Aponso,Tamim Iqbal,4,4,0,na,na,na,na,na,na,na,na,na
2nd innings,2.5,Sabbir Rahman,MA Aponso,Tamim Iqbal,1,1,0,na,na,na,na,na,na,na,na,na
2nd innings,2.6,Tamim Iqbal,MA Aponso,Sabbir Rahman,0,0,0,na,na,na,na,na,na,na,na,na
2nd innings,3.1,Sabbir Rahman,A Dananjaya,Tamim Iqbal,2,2,0,na,na,na,na,na,na,na,na,na
2nd innings,3.2,Sabbir Rahman,A Dananjaya,Tamim Iqbal,1,1,0,na,na,na,na,na,na,na,na,na
2nd innings,3.3,Tamim Iqbal,A Dananjaya,Sabbir Rahman,4,4,0,na,na,na,na,na,na,na,na,na
2nd innings,3.4,Tamim Iqbal,A Dananjaya,Sabbir Rahman,0,0,0,na,na,na,na,na,na,na,na,na
2nd innings,3.5,Tamim Iqbal,A Dananjaya,Sabbir Rahman,0,0,0,na,na,na,na,na,stumped,MDKJ Perera,na,Sabbir Rahman
2nd innings,3.6,Tamim Iqbal,A Dananjaya,Mushfiqur Rahim,1,1,0,na,na,na,na,na,na,na,na,na
2nd innings,4.1,Tamim Iqbal,MA Aponso,Mushfiqur Rahim,0,0,0,na,na,na,na,na,na,na,na,na
2nd innings,4.2,Tamim Iqbal,MA Aponso,Mushfiqur Rahim,2,2,0,na,na,na,na,na,na,na,na,na
2nd innings,4.3,Tamim Iqbal,MA Aponso,Mushfiqur Rahim,4,4,0,na,na,na,na,na,na,na,na,na
2nd innings,4.4,Tamim Iqbal,MA Aponso,Mushfiqur Rahim,0,0,0,na,na,na,na,na,na,na,na,na
2nd innings,4.5,Tamim Iqbal,MA Aponso,Mushfiqur Rahim,0,0,0,na,na,na,na,na,na,na,na,na
2nd innings,4.6,Tamim Iqbal,MA Aponso,Mushfiqur Rahim,1,1,0,na,na,na,na,na,na,na,na,na
2nd innings,5.1,Tamim Iqbal,NLTC Perera,Mushfiqur Rahim,1,1,0,na,na,na,na,na,na,na,na,na
2nd innings,5.2,Mushfiqur Rahim,NLTC Perera,Tamim Iqbal,0,0,0,na,na,na,na,na,na,na,na,na
2nd innings,5.3,Mushfiqur Rahim,NLTC Perera,Tamim Iqbal,1,1,0,na,na,na,na,na,na,na,na,na
2nd innings,5.4,Tamim Iqbal,NLTC Perera,Mushfiqur Rahim,2,2,0,na,na,na,na,na,na,na,na,na
2nd innings,5.5,Tamim Iqbal,NLTC Perera,Mushfiqur Rahim,1,1,0,na,na,na,na,na,na,na,na,na
2nd innings,5.6,Mushfiqur Rahim,NLTC Perera,Tamim Iqbal,4,4,0,na,na,na,na,na,na,na,na,na
2nd innings,6.1,Tamim Iqbal,MD Gunathilaka,Mushfiqur Rahim,1,1,0,na,na,na,na,na,na,na,na,na
2nd innings,6.2,Mushfiqur Rahim,MD Gunathilaka,Tamim Iqbal,0,0,0,na,na,na,na,na,na,na,na,na
2nd innings,6.3,Mushfiqur Rahim,MD Gunathilaka,Tamim Iqbal,0,0,0,na,na,na,na,na,na,na,na,na
2nd innings,6.4,Mushfiqur Rahim,MD Gunathilaka,Tamim Iqbal,1,0,1,na,na,1,na,na,na,na,na,na
2nd innings,6.5,Mushfiqur Rahim,MD Gunathilaka,Tamim Iqbal,5,0,5,na,na,5,na,na,na,na,na,na
2nd innings,6.6,Mushfiqur Rahim,MD Gunathilaka,Tamim Iqbal,0,0,0,na,na,na,na,na,na,na,na,na
2nd innings,6.7,Mushfiqur Rahim,MD Gunathilaka,Tamim Iqbal,1,1,0,na,na,na,na,na,na,na,na,na
2nd innings,6.8,Tamim Iqbal,MD Gunathilaka,Mushfiqur Rahim,1,1,0,na,na,na,na,na,na,na,na,na
2nd innings,7.1,Tamim Iqbal,A Dananjaya,Mushfiqur Rahim,1,1,0,na,na,na,na,na,na,na,na,na
2nd innings,7.2,Mushfiqur Rahim,A Dananjaya,Tamim Iqbal,1,1,0,na,na,na,na,na,na,na,na,na
2nd innings,7.3,Tamim Iqbal,A Dananjaya,Mushfiqur Rahim,1,1,0,na,na,na,na,na,na,na,na,na
2nd innings,7.4,Mushfiqur Rahim,A Dananjaya,Tamim Iqbal,6,6,0,na,na,na,na,na,na,na,na,na
2nd innings,7.5,Mushfiqur Rahim,A Dananjaya,Tamim Iqbal,1,1,0,na,na,na,na,na,na,na,na,na
2nd innings,7.6,Tamim Iqbal,A Dananjaya,Mushfiqur Rahim,0,0,0,na,na,na,na,na,na,na,na,na
2nd innings,8.1,Mushfiqur Rahim,BMAJ Mendis,Tamim Iqbal,0,0,0,na,na,na,na,na,na,na,na,na
2nd innings,8.2,Mushfiqur Rahim,BMAJ Mendis,Tamim Iqbal,0,0,0,na,na,na,na,na,na,na,na,na
2nd innings,8.3,Mushfiqur Rahim,BMAJ Mendis,Tamim Iqbal,0,0,0,na,na,na,na,na,na,na,na,na
2nd innings,8.4,Mushfiqur Rahim,BMAJ Mendis,Tamim Iqbal,1,1,0,na,na,na,na,na,na,na,na,na
2nd innings,8.5,Tamim Iqbal,BMAJ Mendis,Mushfiqur Rahim,1,1,0,na,na,na,na,na,na,na,na,na
2nd innings,8.6,Mushfiqur Rahim,BMAJ Mendis,Tamim Iqbal,1,1,0,na,na,na,na,na,na,na,na,na
2nd innings,9.1,Mushfiqur Rahim,I Udana,Tamim Iqbal,1,1,0,na,na,na,na,na,na,na,na,na
2nd innings,9.2,Tamim Iqbal,I Udana,Mushfiqur Rahim,4,4,0,na,na,na,na,na,na,na,na,na
2nd innings,9.3,Tamim Iqbal,I Udana,Mushfiqur Rahim,1,1,0,na,na,na,na,na,na,na,na,na
2nd innings,9.4,Mushfiqur Rahim,I Udana,Tamim Iqbal,0,0,0,na,na,na,na,na,na,na,na,na
2nd innings,9.5,Mushfiqur Rahim,I Udana,Tamim Iqbal,1,1,0,na,na,na,na,na,na,na,na,na
2nd innings,9.6,Tamim Iqbal,I Udana,Mushfiqur Rahim,1,1,0,na,na,na,na,na,na,na,na,na
2nd innings,10.1,Tamim Iqbal,BMAJ Mendis,Mushfiqur Rahim,1,1,0,na,na,na,na,na,na,na,na,na
2nd innings,10.2,Mushfiqur Rahim,BMAJ Mendis,Tamim Iqbal,1,1,0,na,na,na,na,na,na,na,na,na
2nd innings,10.3,Tamim Iqbal,BMAJ Mendis,Mushfiqur Rahim,1,1,0,na,na,na,na,na,na,na,na,na
2nd innings,10.4,Mushfiqur Rahim,BMAJ Mendis,Tamim Iqbal,0,0,0,na,na,na,na,na,na,na,na,na
2nd innings,10.5,Mushfiqur Rahim,BMAJ Mendis,Tamim Iqbal,1,1,0,na,na,na,na,na,na,na,na,na
2nd innings,10.6,Tamim Iqbal,BMAJ Mendis,Mushfiqur Rahim,1,1,0,na,na,na,na,na,na,na,na,na
2nd innings,11.1,Tamim Iqbal,A Dananjaya,Mushfiqur Rahim,1,1,0,na,na,na,na,na,na,na,na,na
2nd innings,11.2,Mushfiqur Rahim,A Dananjaya,Tamim Iqbal,0,0,0,na,na,na,na,na,na,na,na,na
2nd innings,11.3,Mushfiqur Rahim,A Dananjaya,Tamim Iqbal,0,0,0,na,na,na,na,na,na,na,na,na
2nd innings,11.4,Mushfiqur Rahim,A Dananjaya,Tamim Iqbal,0,0,0,na,na,na,na,na,na,na,na,na
2nd innings,11.5,Mushfiqur Rahim,A Dananjaya,Tamim Iqbal,1,0,1,na,na,1,na,na,na,na,na,na
2nd innings,11.6,Mushfiqur Rahim,A Dananjaya,Tamim Iqbal,2,2,0,na,na,na,na,na,na,na,na,na
2nd innings,11.7,Mushfiqur Rahim,A Dananjaya,Tamim Iqbal,6,6,0,na,na,na,na,na,na,na,na,na
2nd innings,12.1,Tamim Iqbal,MA Aponso,Mushfiqur Rahim,1,1,0,na,na,na,na,na,na,na,na,na
2nd innings,12.2,Mushfiqur Rahim,MA Aponso,Tamim Iqbal,1,1,0,na,na,na,na,na,na,na,na,na
2nd innings,12.3,Tamim Iqbal,MA Aponso,Mushfiqur Rahim,0,0,0,na,na,na,na,na,caught,NLTC Perera,na,Mushfiqur Rahim
2nd innings,12.4,Tamim Iqbal,MA Aponso,Soumya Sarkar,1,1,0,na,na,na,na,na,na,na,na,na
2nd innings,12.5,Soumya Sarkar,MA Aponso,Tamim Iqbal,1,1,0,na,na,na,na,na,na,na,na,na
2nd innings,12.6,Tamim Iqbal,MA Aponso,Soumya Sarkar,1,1,0,na,na,na,na,na,na,na,na,na
2nd innings,13.1,Tamim Iqbal,MD Gunathilaka,Soumya Sarkar,0,0,0,na,na,na,na,na,na,na,na,na
2nd innings,13.2,Tamim Iqbal,MD Gunathilaka,Soumya Sarkar,2,2,0,na,na,na,na,na,na,na,na,na
2nd innings,13.3,Tamim Iqbal,MD Gunathilaka,Soumya Sarkar,1,1,0,na,na,na,na,na,na,na,na,na
2nd innings,13.4,Soumya Sarkar,MD Gunathilaka,Tamim Iqbal,1,1,0,na,na,na,na,na,na,na,na,na
2nd innings,13.5,Tamim Iqbal,MD Gunathilaka,Soumya Sarkar,1,1,0,na,na,na,na,na,na,na,na,na
2nd innings,13.6,Soumya Sarkar,MD Gunathilaka,Tamim Iqbal,0,0,0,na,na,na,na,na,caught,MDKJ Perera,na,Tamim Iqbal
2nd innings,14.1,Mahmudullah,BMAJ Mendis,Soumya Sarkar,0,0,0,na,na,na,na,na,na,na,na,na
2nd innings,14.2,Mahmudullah,BMAJ Mendis,Soumya Sarkar,2,2,0,na,na,na,na,na,na,na,na,na
2nd innings,14.3,Mahmudullah,BMAJ Mendis,Soumya Sarkar,2,2,0,na,na,na,na,na,na,na,na,na
2nd innings,14.4,Mahmudullah,BMAJ Mendis,Soumya Sarkar,0,0,0,na,na,na,na,na,na,na,na,na
2nd innings,14.5,Mahmudullah,BMAJ Mendis,Soumya Sarkar,0,0,0,na,na,na,na,na,caught,MDKJ Perera,na,Soumya Sarkar
2nd innings,14.6,Mahmudullah,BMAJ Mendis,Shakib Al Hasan,1,1,0,na,na,na,na,na,na,na,na,na
2nd innings,15.1,Mahmudullah,MD Gunathilaka,Shakib Al Hasan,0,0,0,na,na,na,na,na,na,na,na,na
2nd innings,15.2,Mahmudullah,MD Gunathilaka,Shakib Al Hasan,1,0,1,na,na,1,na,na,na,na,na,na
2nd innings,15.3,Mahmudullah,MD Gunathilaka,Shakib Al Hasan,1,1,0,na,na,na,na,na,na,na,na,na
2nd innings,15.4,Shakib Al Hasan,MD Gunathilaka,Mahmudullah,4,4,0,na,na,na,na,na,na,na,na,na
2nd innings,15.5,Shakib Al Hasan,MD Gunathilaka,Mahmudullah,1,1,0,na,na,na,na,na,na,na,na,na
2nd innings,15.6,Mahmudullah,MD Gunathilaka,Shakib Al Hasan,1,1,0,na,na,na,na,na,na,na,na,na
2nd innings,15.7,Shakib Al Hasan,MD Gunathilaka,Mahmudullah,2,2,0,na,na,na,na,na,na,na,na,na
2nd innings,16.1,Mahmudullah,BMAJ Mendis,Shakib Al Hasan,1,1,0,na,na,na,na,na,na,na,na,na
2nd innings,16.2,Shakib Al Hasan,BMAJ Mendis,Mahmudullah,0,0,0,na,na,na,na,na,na,na,na,na
2nd innings,16.3,Shakib Al Hasan,BMAJ Mendis,Mahmudullah,2,2,0,na,na,na,na,na,na,na,na,na
2nd innings,16.4,Shakib Al Hasan,BMAJ Mendis,Mahmudullah,6,6,0,na,na,na,na,na,na,na,na,na
2nd innings,16.5,Shakib Al Hasan,BMAJ Mendis,Mahmudullah,1,1,0,na,na,na,na,na,na,na,na,na
2nd innings,16.6,Mahmudullah,BMAJ Mendis,Shakib Al Hasan,1,1,0,na,na,na,na,na,na,na,na,na
2nd innings,17.1,Mahmudullah,I Udana,Shakib Al Hasan,1,1,0,na,na,na,na,na,na,na,na,na
2nd innings,17.2,Shakib Al Hasan,I Udana,Mahmudullah,1,1,0,na,na,na,na,na,na,na,na,na
2nd innings,17.3,Mahmudullah,I Udana,Shakib Al Hasan,1,1,0,na,na,na,na,na,na,na,na,na
2nd innings,17.4,Shakib Al Hasan,I Udana,Mahmudullah,2,2,0,na,na,na,na,na,na,na,na,na
2nd innings,17.5,Shakib Al Hasan,I Udana,Mahmudullah,1,1,0,na,na,na,na,na,na,na,na,na
2nd innings,17.6,Mahmudullah,I Udana,Shakib Al Hasan,0,0,0,na,na,na,na,na,caught,A Dananjaya,na,Shakib Al Hasan
2nd innings,18.1,Mehedi Hasan Miraz,NLTC Perera,Mahmudullah,2,2,0,na,na,na,na,na,na,na,na,na
2nd innings,18.2,Mehedi Hasan Miraz,NLTC Perera,Mahmudullah,0,0,0,na,na,na,na,na,na,na,na,na
2nd innings,18.3,Mehedi Hasan Miraz,NLTC Perera,Mahmudullah,2,2,0,na,na,na,na,na,na,na,na,na
2nd innings,18.4,Mehedi Hasan Miraz,NLTC Perera,Mahmudullah,4,4,0,na,na,na,na,na,na,na,na,na
2nd innings,18.5,Mehedi Hasan Miraz,NLTC Perera,Mahmudullah,3,3,0,na,na,na,na,na,na,na,na,na
2nd innings,18.6,Mahmudullah,NLTC Perera,Mehedi Hasan Miraz,0,0,0,na,na,na,na,na,run out,na,na,Mehedi Hasan Miraz
2nd innings,19.1,Mahmudullah,I Udana,Mustafizur Rahman,0,0,0,na,na,na,na,na,na,na,na,na
2nd innings,19.2,Mahmudullah,I Udana,Mustafizur Rahman,0,0,0,na,na,na,na,na,run out,na,na,Mustafizur Rahman
2nd innings,19.3,Rubel Hossain,I Udana,Mahmudullah,4,4,0,na,na,na,na,na,na,na,na,na
2nd innings,19.4,Rubel Hossain,I Udana,Mahmudullah,2,2,0,na,na,na,na,na,na,na,na,na
2nd innings,19.5,Rubel Hossain,I Udana,Mahmudullah,6,6,0,na,na,na,na,na,na,na,na,na
