inngs,deliveries,non_striker,bowler,batsman,totalruns,batsman_runs,extra_runs,legbyes,byes,wides,noballs,penalty,wicket_kind,fielder1,fielder2,player_out
1st innings,0.1,JNK Shannon,MRJ Watt,PR Stirling,0,0,0,na,na,na,na,na,na,na,na,na
1st innings,0.2,JNK Shannon,MRJ Watt,PR Stirling,4,4,0,na,na,na,na,na,na,na,na,na
1st innings,0.3,JNK Shannon,MRJ Watt,PR Stirling,4,4,0,na,na,na,na,na,na,na,na,na
1st innings,0.4,JNK Shannon,MRJ Watt,PR Stirling,4,4,0,na,na,na,na,na,na,na,na,na
1st innings,0.5,JNK Shannon,MRJ Watt,PR Stirling,0,0,0,na,na,na,na,na,na,na,na,na
1st innings,0.6,JNK Shannon,MRJ Watt,PR Stirling,1,1,0,na,na,na,na,na,na,na,na,na
1st innings,1.1,JNK Shannon,CB Sole,PR Stirling,2,2,0,na,na,na,na,na,na,na,na,na
1st innings,1.2,JNK Shannon,CB Sole,PR Stirling,1,1,0,na,na,na,na,na,na,na,na,na
1st innings,1.3,PR Stirling,CB Sole,JNK Shannon,1,1,0,na,na,na,na,na,na,na,na,na
1st innings,1.4,JNK Shannon,CB Sole,PR Stirling,0,0,0,na,na,na,na,na,na,na,na,na
1st innings,1.5,JNK Shannon,CB Sole,PR Stirling,0,0,0,na,na,na,na,na,na,na,na,na
1st innings,1.6,JNK Shannon,CB Sole,PR Stirling,4,4,0,na,na,na,na,na,na,na,na,na
1st innings,2.1,PR Stirling,AC Evans,JNK Shannon,4,4,0,na,na,na,na,na,na,na,na,na
1st innings,2.2,PR Stirling,AC Evans,JNK Shannon,0,0,0,na,na,na,na,na,caught,DE Budge,na,JNK Shannon
1st innings,2.3,A Balbirnie,AC Evans,PR Stirling,0,0,0,na,na,na,na,na,na,na,na,na
1st innings,2.4,A Balbirnie,AC Evans,PR Stirling,4,4,0,na,na,na,na,na,na,na,na,na
1st innings,2.5,A Balbirnie,AC Evans,PR Stirling,0,0,0,na,na,na,na,na,na,na,na,na
1st innings,2.6,A Balbirnie,AC Evans,PR Stirling,4,4,0,na,na,na,na,na,na,na,na,na
1st innings,3.1,PR Stirling,CB Sole,A Balbirnie,0,0,0,na,na,na,na,na,na,na,na,na
1st innings,3.2,PR Stirling,CB Sole,A Balbirnie,1,1,0,na,na,na,na,na,na,na,na,na
1st innings,3.3,A Balbirnie,CB Sole,PR Stirling,0,0,0,na,na,na,na,na,na,na,na,na
1st innings,3.4,A Balbirnie,CB Sole,PR Stirling,4,4,0,na,na,na,na,na,na,na,na,na
1st innings,3.5,A Balbirnie,CB Sole,PR Stirling,4,4,0,na,na,na,na,na,na,na,na,na
1st innings,3.6,A Balbirnie,CB Sole,PR Stirling,1,1,0,na,na,na,na,na,na,na,na,na
1st innings,4.1,A Balbirnie,AC Evans,PR Stirling,1,0,1,na,na,1,na,na,na,na,na,na
1st innings,4.2,A Balbirnie,AC Evans,PR Stirling,1,1,0,na,na,na,na,na,na,na,na,na
1st innings,4.3,PR Stirling,AC Evans,A Balbirnie,0,0,0,na,na,na,na,na,na,na,na,na
1st innings,4.4,PR Stirling,AC Evans,A Balbirnie,4,4,0,na,na,na,na,na,na,na,na,na
1st innings,4.5,PR Stirling,AC Evans,A Balbirnie,1,0,1,na,na,1,na,na,na,na,na,na
1st innings,4.6,PR Stirling,AC Evans,A Balbirnie,4,4,0,na,na,na,na,na,na,na,na,na
1st innings,4.7,PR Stirling,AC Evans,A Balbirnie,1,1,0,na,na,na,na,na,na,na,na,na
1st innings,4.8,A Balbirnie,AC Evans,PR Stirling,2,2,0,na,na,na,na,na,na,na,na,na
1st innings,5.1,PR Stirling,SG Whittingham,A Balbirnie,4,4,0,na,na,na,na,na,na,na,na,na
1st innings,5.2,PR Stirling,SG Whittingham,A Balbirnie,1,1,0,na,na,na,na,na,na,na,na,na
1st innings,5.3,A Balbirnie,SG Whittingham,PR Stirling,2,2,0,na,na,na,na,na,na,na,na,na
1st innings,5.4,A Balbirnie,SG Whittingham,PR Stirling,0,0,0,na,na,na,na,na,na,na,na,na
1st innings,5.5,A Balbirnie,SG Whittingham,PR Stirling,4,4,0,na,na,na,na,na,na,na,na,na
1st innings,5.6,A Balbirnie,SG Whittingham,PR Stirling,0,0,0,na,na,na,na,na,na,na,na,na
1st innings,6.1,PR Stirling,MA Leask,A Balbirnie,1,1,0,na,na,na,na,na,na,na,na,na
1st innings,6.2,A Balbirnie,MA Leask,PR Stirling,1,0,1,na,na,1,na,na,na,na,na,na
1st innings,6.3,A Balbirnie,MA Leask,PR Stirling,1,1,0,na,na,na,na,na,na,na,na,na
1st innings,6.4,PR Stirling,MA Leask,A Balbirnie,1,1,0,na,na,na,na,na,na,na,na,na
1st innings,6.5,A Balbirnie,MA Leask,PR Stirling,4,4,0,na,na,na,na,na,na,na,na,na
1st innings,6.6,A Balbirnie,MA Leask,PR Stirling,0,0,0,na,na,na,na,na,na,na,na,na
1st innings,6.7,A Balbirnie,MA Leask,PR Stirling,0,0,0,na,na,na,na,na,caught,CB Sole,na,PR Stirling
1st innings,7.1,Simi Singh,SG Whittingham,A Balbirnie,1,1,0,na,na,na,na,na,na,na,na,na
1st innings,7.2,A Balbirnie,SG Whittingham,Simi Singh,0,0,0,na,na,na,na,na,na,na,na,na
1st innings,7.3,A Balbirnie,SG Whittingham,Simi Singh,0,0,0,na,na,na,na,na,run out,na,na,Simi Singh
1st innings,7.4,GC Wilson,SG Whittingham,A Balbirnie,0,0,0,na,na,na,na,na,na,na,na,na
1st innings,7.5,GC Wilson,SG Whittingham,A Balbirnie,0,0,0,na,na,na,na,na,na,na,na,na
1st innings,7.6,GC Wilson,SG Whittingham,A Balbirnie,4,4,0,na,na,na,na,na,na,na,na,na
1st innings,8.1,A Balbirnie,MA Leask,GC Wilson,0,0,0,na,na,na,na,na,na,na,na,na
1st innings,8.2,A Balbirnie,MA Leask,GC Wilson,1,1,0,na,na,na,na,na,na,na,na,na
1st innings,8.3,GC Wilson,MA Leask,A Balbirnie,3,3,0,na,na,na,na,na,na,na,na,na
1st innings,8.4,A Balbirnie,MA Leask,GC Wilson,0,0,0,na,na,na,na,na,na,na,na,na
1st innings,8.5,A Balbirnie,MA Leask,GC Wilson,1,1,0,na,na,na,na,na,na,na,na,na
1st innings,8.6,GC Wilson,MA Leask,A Balbirnie,2,2,0,na,na,na,na,na,na,na,na,na
1st innings,9.1,A Balbirnie,MRJ Watt,GC Wilson,1,1,0,na,na,na,na,na,na,na,na,na
1st innings,9.2,GC Wilson,MRJ Watt,A Balbirnie,0,0,0,na,na,na,na,na,na,na,na,na
1st innings,9.3,GC Wilson,MRJ Watt,A Balbirnie,4,4,0,na,na,na,na,na,na,na,na,na
1st innings,9.4,GC Wilson,MRJ Watt,A Balbirnie,4,4,0,na,na,na,na,na,na,na,na,na
1st innings,9.5,GC Wilson,MRJ Watt,A Balbirnie,0,0,0,na,na,na,na,na,na,na,na,na
1st innings,9.6,GC Wilson,MRJ Watt,A Balbirnie,4,4,0,na,na,na,na,na,na,na,na,na
1st innings,10.1,A Balbirnie,SG Whittingham,GC Wilson,0,0,0,na,na,na,na,na,na,na,na,na
1st innings,10.2,A Balbirnie,SG Whittingham,GC Wilson,2,2,0,na,na,na,na,na,na,na,na,na
1st innings,10.3,A Balbirnie,SG Whittingham,GC Wilson,1,1,0,na,na,na,na,na,na,na,na,na
1st innings,10.4,GC Wilson,SG Whittingham,A Balbirnie,1,1,0,na,na,na,na,na,na,na,na,na
1st innings,10.5,A Balbirnie,SG Whittingham,GC Wilson,1,1,0,na,na,na,na,na,na,na,na,na
1st innings,10.6,GC Wilson,SG Whittingham,A Balbirnie,1,1,0,na,na,na,na,na,na,na,na,na
1st innings,11.1,GC Wilson,RD Berrington,A Balbirnie,1,1,0,na,na,na,na,na,na,na,na,na
1st innings,11.2,A Balbirnie,RD Berrington,GC Wilson,1,1,0,na,na,na,na,na,na,na,na,na
1st innings,11.3,GC Wilson,RD Berrington,A Balbirnie,4,4,0,na,na,na,na,na,na,na,na,na
1st innings,11.4,GC Wilson,RD Berrington,A Balbirnie,4,4,0,na,na,na,na,na,na,na,na,na
1st innings,11.5,GC Wilson,RD Berrington,A Balbirnie,1,1,0,na,na,na,na,na,na,na,na,na
1st innings,11.6,A Balbirnie,RD Berrington,GC Wilson,0,0,0,na,na,na,na,na,na,na,na,na
1st innings,12.1,GC Wilson,MA Leask,A Balbirnie,1,1,0,na,na,na,na,na,na,na,na,na
1st innings,12.2,A Balbirnie,MA Leask,GC Wilson,2,2,0,na,na,na,na,na,na,na,na,na
1st innings,12.3,A Balbirnie,MA Leask,GC Wilson,1,1,0,na,na,na,na,na,na,na,na,na
1st innings,12.4,GC Wilson,MA Leask,A Balbirnie,1,1,0,na,na,na,na,na,na,na,na,na
1st innings,12.5,A Balbirnie,MA Leask,GC Wilson,1,1,0,na,na,na,na,na,na,na,na,na
1st innings,12.6,GC Wilson,MA Leask,A Balbirnie,1,1,0,na,na,na,na,na,na,na,na,na
1st innings,13.1,GC Wilson,MRJ Watt,A Balbirnie,0,0,0,na,na,na,na,na,na,na,na,na
1st innings,13.2,GC Wilson,MRJ Watt,A Balbirnie,2,0,2,2,na,na,na,na,na,na,na,na
1st innings,13.3,GC Wilson,MRJ Watt,A Balbirnie,4,4,0,na,na,na,na,na,na,na,na,na
1st innings,13.4,GC Wilson,MRJ Watt,A Balbirnie,1,1,0,na,na,na,na,na,na,na,na,na
1st innings,13.5,A Balbirnie,MRJ Watt,GC Wilson,4,4,0,na,na,na,na,na,na,na,na,na
1st innings,13.6,A Balbirnie,MRJ Watt,GC Wilson,1,1,0,na,na,na,na,na,na,na,na,na
1st innings,14.1,A Balbirnie,MA Leask,GC Wilson,1,1,0,na,na,na,na,na,na,na,na,na
1st innings,14.2,GC Wilson,MA Leask,A Balbirnie,6,6,0,na,na,na,na,na,na,na,na,na
1st innings,14.3,GC Wilson,MA Leask,A Balbirnie,1,0,1,na,na,1,na,na,na,na,na,na
1st innings,14.4,GC Wilson,MA Leask,A Balbirnie,1,1,0,na,na,na,na,na,na,na,na,na
1st innings,14.5,A Balbirnie,MA Leask,GC Wilson,1,1,0,na,na,na,na,na,na,na,na,na
1st innings,14.6,GC Wilson,MA Leask,A Balbirnie,2,2,0,na,na,na,na,na,na,na,na,na
1st innings,14.7,GC Wilson,MA Leask,A Balbirnie,4,4,0,na,na,na,na,na,na,na,na,na
1st innings,15.1,A Balbirnie,CB Sole,GC Wilson,2,2,0,na,na,na,na,na,na,na,na,na
1st innings,15.2,A Balbirnie,CB Sole,GC Wilson,2,2,0,na,na,na,na,na,na,na,na,na
1st innings,15.3,A Balbirnie,CB Sole,GC Wilson,0,0,0,na,na,na,na,na,na,na,na,na
1st innings,15.4,A Balbirnie,CB Sole,GC Wilson,6,6,0,na,na,na,na,na,na,na,na,na
1st innings,15.5,A Balbirnie,CB Sole,GC Wilson,1,0,1,1,na,na,na,na,na,na,na,na
1st innings,15.6,GC Wilson,CB Sole,A Balbirnie,1,0,1,na,na,1,na,na,na,na,na,na
1st innings,15.7,GC Wilson,CB Sole,A Balbirnie,2,2,0,na,na,na,na,na,na,na,na,na
1st innings,16.1,A Balbirnie,SG Whittingham,GC Wilson,1,1,0,na,na,na,na,na,na,na,na,na
1st innings,16.2,GC Wilson,SG Whittingham,A Balbirnie,0,0,0,na,na,na,na,na,caught,MRJ Watt,na,A Balbirnie
1st innings,16.3,KJ O'Brien,SG Whittingham,GC Wilson,2,2,0,na,na,na,na,na,na,na,na,na
1st innings,16.4,KJ O'Brien,SG Whittingham,GC Wilson,1,1,0,na,na,na,na,na,na,na,na,na
1st innings,16.5,GC Wilson,SG Whittingham,KJ O'Brien,1,1,0,na,na,na,na,na,na,na,na,na
1st innings,16.6,KJ O'Brien,SG Whittingham,GC Wilson,0,0,0,na,na,na,na,na,na,na,na,na
1st innings,17.1,GC Wilson,AC Evans,KJ O'Brien,1,1,0,na,na,na,na,na,na,na,na,na
1st innings,17.2,KJ O'Brien,AC Evans,GC Wilson,4,4,0,na,na,na,na,na,na,na,na,na
1st innings,17.3,KJ O'Brien,AC Evans,GC Wilson,1,1,0,na,na,na,na,na,na,na,na,na
1st innings,17.4,GC Wilson,AC Evans,KJ O'Brien,1,1,0,na,na,na,na,na,na,na,na,na
1st innings,17.5,KJ O'Brien,AC Evans,GC Wilson,0,0,0,na,na,na,na,na,na,na,na,na
1st innings,17.6,KJ O'Brien,AC Evans,GC Wilson,4,4,0,na,na,na,na,na,na,na,na,na
1st innings,18.1,GC Wilson,CB Sole,KJ O'Brien,1,1,0,na,na,na,na,na,na,na,na,na
1st innings,18.2,KJ O'Brien,CB Sole,GC Wilson,1,1,0,na,na,na,na,na,na,na,na,na
1st innings,18.3,GC Wilson,CB Sole,KJ O'Brien,2,2,0,na,na,na,na,na,na,na,na,na
1st innings,18.4,GC Wilson,CB Sole,KJ O'Brien,1,0,1,1,na,na,na,na,na,na,na,na
1st innings,18.5,KJ O'Brien,CB Sole,GC Wilson,2,2,0,na,na,na,na,na,na,na,na,na
1st innings,18.6,KJ O'Brien,CB Sole,GC Wilson,1,1,0,na,na,na,na,na,na,na,na,na
1st innings,19.1,KJ O'Brien,AC Evans,GC Wilson,4,4,0,na,na,na,na,na,na,na,na,na
1st innings,19.2,KJ O'Brien,AC Evans,GC Wilson,2,2,0,na,na,na,na,na,na,na,na,na
1st innings,19.3,KJ O'Brien,AC Evans,GC Wilson,6,6,0,na,na,na,na,na,na,na,na,na
1st innings,19.4,KJ O'Brien,AC Evans,GC Wilson,0,0,0,na,na,na,na,na,caught,MH Cross,na,GC Wilson
1st innings,19.5,SR Thompson,AC Evans,KJ O'Brien,1,1,0,na,na,na,na,na,na,na,na,na
1st innings,19.6,KJ O'Brien,AC Evans,SR Thompson,1,1,0,na,na,na,na,na,na,na,na,na
2nd innings,0.1,KJ Coetzer,Simi Singh,HG Munsey,1,1,0,na,na,na,na,na,na,na,na,na
2nd innings,0.2,HG Munsey,Simi Singh,KJ Coetzer,1,1,0,na,na,na,na,na,na,na,na,na
2nd innings,0.3,KJ Coetzer,Simi Singh,HG Munsey,0,0,0,na,na,na,na,na,na,na,na,na
2nd innings,0.4,KJ Coetzer,Simi Singh,HG Munsey,1,1,0,na,na,na,na,na,na,na,na,na
2nd innings,0.5,HG Munsey,Simi Singh,KJ Coetzer,0,0,0,na,na,na,na,na,na,na,na,na
2nd innings,0.6,HG Munsey,Simi Singh,KJ Coetzer,4,4,0,na,na,na,na,na,na,na,na,na
2nd innings,1.1,KJ Coetzer,PKD Chase,HG Munsey,0,0,0,na,na,na,na,na,na,na,na,na
2nd innings,1.2,KJ Coetzer,PKD Chase,HG Munsey,4,4,0,na,na,na,na,na,na,na,na,na
2nd innings,1.3,KJ Coetzer,PKD Chase,HG Munsey,1,1,0,na,na,na,na,na,na,na,na,na
2nd innings,1.4,HG Munsey,PKD Chase,KJ Coetzer,0,0,0,na,na,na,na,na,na,na,na,na
2nd innings,1.5,HG Munsey,PKD Chase,KJ Coetzer,0,0,0,na,na,na,na,na,na,na,na,na
2nd innings,1.6,HG Munsey,PKD Chase,KJ Coetzer,0,0,0,na,na,na,na,na,na,na,na,na
2nd innings,2.1,KJ Coetzer,Simi Singh,HG Munsey,1,1,0,na,na,na,na,na,na,na,na,na
2nd innings,2.2,HG Munsey,Simi Singh,KJ Coetzer,4,4,0,na,na,na,na,na,na,na,na,na
2nd innings,2.3,HG Munsey,Simi Singh,KJ Coetzer,0,0,0,na,na,na,na,na,na,na,na,na
2nd innings,2.4,HG Munsey,Simi Singh,KJ Coetzer,2,2,0,na,na,na,na,na,na,na,na,na
2nd innings,2.5,HG Munsey,Simi Singh,KJ Coetzer,4,4,0,na,na,na,na,na,na,na,na,na
2nd innings,2.6,HG Munsey,Simi Singh,KJ Coetzer,1,1,0,na,na,na,na,na,na,na,na,na
2nd innings,3.1,HG Munsey,BJ McCarthy,KJ Coetzer,4,4,0,na,na,na,na,na,na,na,na,na
2nd innings,3.2,HG Munsey,BJ McCarthy,KJ Coetzer,0,0,0,na,na,na,na,na,na,na,na,na
2nd innings,3.3,HG Munsey,BJ McCarthy,KJ Coetzer,1,0,1,na,na,1,na,na,na,na,na,na
2nd innings,3.4,HG Munsey,BJ McCarthy,KJ Coetzer,1,0,1,na,na,1,na,na,na,na,na,na
2nd innings,3.5,HG Munsey,BJ McCarthy,KJ Coetzer,1,1,0,na,na,na,na,na,na,na,na,na
2nd innings,3.6,KJ Coetzer,BJ McCarthy,HG Munsey,0,0,0,na,na,na,na,na,na,na,na,na
2nd innings,3.7,KJ Coetzer,BJ McCarthy,HG Munsey,1,1,0,na,na,na,na,na,na,na,na,na
2nd innings,3.8,HG Munsey,BJ McCarthy,KJ Coetzer,0,0,0,na,na,na,na,na,na,na,na,na
2nd innings,4.1,KJ Coetzer,PKD Chase,HG Munsey,6,6,0,na,na,na,na,na,na,na,na,na
2nd innings,4.2,KJ Coetzer,PKD Chase,HG Munsey,2,2,0,na,na,na,na,na,na,na,na,na
2nd innings,4.3,KJ Coetzer,PKD Chase,HG Munsey,0,0,0,na,na,na,na,na,na,na,na,na
2nd innings,4.4,KJ Coetzer,PKD Chase,HG Munsey,4,4,0,na,na,na,na,na,na,na,na,na
2nd innings,4.5,KJ Coetzer,PKD Chase,HG Munsey,4,4,0,na,na,na,na,na,na,na,na,na
2nd innings,4.6,KJ Coetzer,PKD Chase,HG Munsey,0,0,0,na,na,na,na,na,na,na,na,na
2nd innings,5.1,HG Munsey,SR Thompson,KJ Coetzer,2,2,0,na,na,na,na,na,na,na,na,na
2nd innings,5.2,HG Munsey,SR Thompson,KJ Coetzer,0,0,0,na,na,na,na,na,na,na,na,na
2nd innings,5.3,HG Munsey,SR Thompson,KJ Coetzer,1,1,0,na,na,na,na,na,na,na,na,na
2nd innings,5.4,KJ Coetzer,SR Thompson,HG Munsey,1,1,0,na,na,na,na,na,na,na,na,na
2nd innings,5.5,HG Munsey,SR Thompson,KJ Coetzer,4,4,0,na,na,na,na,na,na,na,na,na
2nd innings,5.6,HG Munsey,SR Thompson,KJ Coetzer,4,4,0,na,na,na,na,na,na,na,na,na
2nd innings,6.1,KJ Coetzer,GH Dockrell,HG Munsey,1,1,0,na,na,na,na,na,na,na,na,na
2nd innings,6.2,HG Munsey,GH Dockrell,KJ Coetzer,1,1,0,na,na,na,na,na,na,na,na,na
2nd innings,6.3,KJ Coetzer,GH Dockrell,HG Munsey,2,2,0,na,na,na,na,na,na,na,na,na
2nd innings,6.4,KJ Coetzer,GH Dockrell,HG Munsey,1,1,0,na,na,na,na,na,na,na,na,na
2nd innings,6.5,HG Munsey,GH Dockrell,KJ Coetzer,0,0,0,na,na,na,na,na,lbw,na,na,KJ Coetzer
2nd innings,6.6,HG Munsey,GH Dockrell,RD Berrington,1,1,0,na,na,na,na,na,na,na,na,na
2nd innings,7.1,HG Munsey,BJ McCarthy,RD Berrington,1,1,0,na,na,na,na,na,na,na,na,na
2nd innings,7.2,RD Berrington,BJ McCarthy,HG Munsey,0,0,0,na,na,na,na,na,na,na,na,na
2nd innings,7.3,RD Berrington,BJ McCarthy,HG Munsey,1,1,0,na,na,na,na,na,na,na,na,na
2nd innings,7.4,HG Munsey,BJ McCarthy,RD Berrington,1,1,0,na,na,na,na,na,na,na,na,na
2nd innings,7.5,RD Berrington,BJ McCarthy,HG Munsey,4,4,0,na,na,na,na,na,na,na,na,na
2nd innings,7.6,RD Berrington,BJ McCarthy,HG Munsey,6,6,0,na,na,na,na,na,na,na,na,na
2nd innings,8.1,HG Munsey,GH Dockrell,RD Berrington,2,2,0,na,na,na,na,na,na,na,na,na
2nd innings,8.2,HG Munsey,GH Dockrell,RD Berrington,1,1,0,na,na,na,na,na,na,na,na,na
2nd innings,8.3,RD Berrington,GH Dockrell,HG Munsey,0,0,0,na,na,na,na,na,caught,PKD Chase,na,HG Munsey
2nd innings,8.4,CS MacLeod,GH Dockrell,RD Berrington,1,1,0,na,na,na,na,na,na,na,na,na
2nd innings,8.5,RD Berrington,GH Dockrell,CS MacLeod,0,0,0,na,na,na,na,na,na,na,na,na
2nd innings,8.6,RD Berrington,GH Dockrell,CS MacLeod,1,1,0,na,na,na,na,na,na,na,na,na
2nd innings,9.1,RD Berrington,SR Thompson,CS MacLeod,0,0,0,na,na,na,na,na,na,na,na,na
2nd innings,9.2,RD Berrington,SR Thompson,CS MacLeod,1,1,0,na,na,na,na,na,na,na,na,na
2nd innings,9.3,CS MacLeod,SR Thompson,RD Berrington,1,1,0,na,na,na,na,na,na,na,na,na
2nd innings,9.4,RD Berrington,SR Thompson,CS MacLeod,4,4,0,na,na,na,na,na,na,na,na,na
2nd innings,9.5,RD Berrington,SR Thompson,CS MacLeod,0,0,0,na,na,na,na,na,na,na,na,na
2nd innings,9.6,RD Berrington,SR Thompson,CS MacLeod,1,1,0,na,na,na,na,na,na,na,na,na
2nd innings,10.1,RD Berrington,GH Dockrell,CS MacLeod,1,1,0,na,na,na,na,na,na,na,na,na
2nd innings,10.2,CS MacLeod,GH Dockrell,RD Berrington,1,1,0,na,na,na,na,na,na,na,na,na
2nd innings,10.3,RD Berrington,GH Dockrell,CS MacLeod,1,1,0,na,na,na,na,na,na,na,na,na
2nd innings,10.4,CS MacLeod,GH Dockrell,RD Berrington,0,0,0,na,na,na,na,na,na,na,na,na
2nd innings,10.5,CS MacLeod,GH Dockrell,RD Berrington,0,0,0,na,na,na,na,na,na,na,na,na
2nd innings,10.6,CS MacLeod,GH Dockrell,RD Berrington,1,1,0,na,na,na,na,na,na,na,na,na
2nd innings,11.1,CS MacLeod,PR Stirling,RD Berrington,1,1,0,na,na,na,na,na,na,na,na,na
2nd innings,11.2,RD Berrington,PR Stirling,CS MacLeod,2,2,0,na,na,na,na,na,na,na,na,na
2nd innings,11.3,RD Berrington,PR Stirling,CS MacLeod,1,1,0,na,na,na,na,na,na,na,na,na
2nd innings,11.4,CS MacLeod,PR Stirling,RD Berrington,1,1,0,na,na,na,na,na,na,na,na,na
2nd innings,11.5,RD Berrington,PR Stirling,CS MacLeod,0,0,0,na,na,na,na,na,na,na,na,na
2nd innings,11.6,RD Berrington,PR Stirling,CS MacLeod,0,0,0,na,na,na,na,na,caught,SR Thompson,na,CS MacLeod
2nd innings,12.1,RD Berrington,Simi Singh,DE Budge,1,1,0,na,na,na,na,na,na,na,na,na
2nd innings,12.2,DE Budge,Simi Singh,RD Berrington,1,1,0,na,na,na,na,na,na,na,na,na
2nd innings,12.3,RD Berrington,Simi Singh,DE Budge,0,0,0,na,na,na,na,na,na,na,na,na
2nd innings,12.4,RD Berrington,Simi Singh,DE Budge,0,0,0,na,na,na,na,na,na,na,na,na
2nd innings,12.5,RD Berrington,Simi Singh,DE Budge,2,2,0,na,na,na,na,na,na,na,na,na
2nd innings,12.6,RD Berrington,Simi Singh,DE Budge,0,0,0,na,na,na,na,na,na,na,na,na
2nd innings,13.1,DE Budge,PR Stirling,RD Berrington,1,1,0,na,na,na,na,na,na,na,na,na
2nd innings,13.2,RD Berrington,PR Stirling,DE Budge,1,1,0,na,na,na,na,na,na,na,na,na
2nd innings,13.3,DE Budge,PR Stirling,RD Berrington,1,1,0,na,na,na,na,na,na,na,na,na
2nd innings,13.4,RD Berrington,PR Stirling,DE Budge,1,1,0,na,na,na,na,na,na,na,na,na
2nd innings,13.5,DE Budge,PR Stirling,RD Berrington,1,1,0,na,na,na,na,na,na,na,na,na
2nd innings,13.6,RD Berrington,PR Stirling,DE Budge,1,1,0,na,na,na,na,na,na,na,na,na
2nd innings,14.1,RD Berrington,SR Thompson,DE Budge,1,0,1,na,na,1,na,na,na,na,na,na
2nd innings,14.2,RD Berrington,SR Thompson,DE Budge,1,1,0,na,na,na,na,na,na,na,na,na
2nd innings,14.3,DE Budge,SR Thompson,RD Berrington,2,1,1,na,na,na,1,na,na,na,na,na
2nd innings,14.4,RD Berrington,SR Thompson,DE Budge,1,1,0,na,na,na,na,na,na,na,na,na
2nd innings,14.5,DE Budge,SR Thompson,RD Berrington,0,0,0,na,na,na,na,na,na,na,na,na
2nd innings,14.6,DE Budge,SR Thompson,RD Berrington,4,4,0,na,na,na,na,na,na,na,na,na
2nd innings,14.7,DE Budge,SR Thompson,RD Berrington,1,0,1,na,na,1,na,na,na,na,na,na
2nd innings,14.8,DE Budge,SR Thompson,RD Berrington,6,6,0,na,na,na,na,na,na,na,na,na
2nd innings,14.9,DE Budge,SR Thompson,RD Berrington,1,0,1,na,na,1,na,na,na,na,na,na
2nd innings,14.1,DE Budge,SR Thompson,RD Berrington,1,1,0,na,na,na,na,na,na,na,na,na
2nd innings,15.1,DE Budge,Simi Singh,RD Berrington,1,1,0,na,na,na,na,na,na,na,na,na
2nd innings,15.2,RD Berrington,Simi Singh,DE Budge,1,1,0,na,na,na,na,na,na,na,na,na
2nd innings,15.3,DE Budge,Simi Singh,RD Berrington,0,0,0,na,na,na,na,na,na,na,na,na
2nd innings,15.4,DE Budge,Simi Singh,RD Berrington,0,0,0,na,na,na,na,na,na,na,na,na
2nd innings,15.5,DE Budge,Simi Singh,RD Berrington,0,0,0,na,na,na,na,na,caught,GH Dockrell,na,RD Berrington
2nd innings,15.6,MA Leask,Simi Singh,DE Budge,0,0,0,na,na,na,na,na,na,na,na,na
2nd innings,16.1,DE Budge,BJ McCarthy,MA Leask,4,4,0,na,na,na,na,na,na,na,na,na
2nd innings,16.2,DE Budge,BJ McCarthy,MA Leask,1,1,0,na,na,na,na,na,na,na,na,na
2nd innings,16.3,MA Leask,BJ McCarthy,DE Budge,1,0,1,na,na,1,na,na,na,na,na,na
2nd innings,16.4,MA Leask,BJ McCarthy,DE Budge,1,1,0,na,na,na,na,na,na,na,na,na
2nd innings,16.5,DE Budge,BJ McCarthy,MA Leask,0,0,0,na,na,na,na,na,caught,KJ O'Brien,na,MA Leask
2nd innings,16.6,MH Cross,BJ McCarthy,DE Budge,0,0,0,na,na,na,na,na,na,na,na,na
2nd innings,16.7,MH Cross,BJ McCarthy,DE Budge,1,0,1,na,na,1,na,na,na,na,na,na
2nd innings,16.8,MH Cross,BJ McCarthy,DE Budge,1,0,1,na,na,1,na,na,na,na,na,na
2nd innings,16.9,MH Cross,BJ McCarthy,DE Budge,4,4,0,na,na,na,na,na,na,na,na,na
2nd innings,17.1,DE Budge,PKD Chase,MH Cross,1,1,0,na,na,na,na,na,na,na,na,na
2nd innings,17.2,MH Cross,PKD Chase,DE Budge,6,6,0,na,na,na,na,na,na,na,na,na
2nd innings,17.3,MH Cross,PKD Chase,DE Budge,1,1,0,na,na,na,na,na,na,na,na,na
2nd innings,17.4,DE Budge,PKD Chase,MH Cross,0,0,0,na,na,na,na,na,na,na,na,na
2nd innings,17.5,DE Budge,PKD Chase,MH Cross,2,2,0,na,na,na,na,na,na,na,na,na
2nd innings,17.6,DE Budge,PKD Chase,MH Cross,1,1,0,na,na,na,na,na,na,na,na,na
2nd innings,18.1,DE Budge,BJ McCarthy,MH Cross,1,1,0,na,na,na,na,na,na,na,na,na
2nd innings,18.2,MH Cross,BJ McCarthy,DE Budge,1,1,0,na,na,na,na,na,na,na,na,na
2nd innings,18.3,DE Budge,BJ McCarthy,MH Cross,0,0,0,na,na,na,na,na,na,na,na,na
2nd innings,18.4,DE Budge,BJ McCarthy,MH Cross,0,0,0,na,na,na,na,na,na,na,na,na
2nd innings,18.5,DE Budge,BJ McCarthy,MH Cross,0,0,0,na,na,na,na,na,na,na,na,na
2nd innings,18.6,DE Budge,BJ McCarthy,MH Cross,1,1,0,na,na,na,na,na,na,na,na,na
2nd innings,19.1,DE Budge,PKD Chase,MH Cross,0,0,0,na,na,na,na,na,na,na,na,na
2nd innings,19.2,DE Budge,PKD Chase,MH Cross,0,0,0,na,na,na,na,na,na,na,na,na
2nd innings,19.3,DE Budge,PKD Chase,MH Cross,0,0,0,na,na,na,na,na,na,na,na,na
2nd innings,19.4,DE Budge,PKD Chase,MH Cross,1,1,0,na,na,na,na,na,na,na,na,na
2nd innings,19.5,MH Cross,PKD Chase,DE Budge,0,0,0,na,na,na,na,na,na,na,na,na
2nd innings,19.6,MH Cross,PKD Chase,DE Budge,1,1,0,na,na,na,na,na,na,na,na,na
