inngs,deliveries,non_striker,bowler,batsman,totalruns,batsman_runs,extra_runs,legbyes,byes,wides,noballs,penalty,wicket_kind,fielder1,fielder2,player_out
1st innings,0.1,Tamim Iqbal,Mujeeb Ur Rahman,Liton Das,0,0,0,na,na,na,na,na,na,na,na,na
1st innings,0.2,Tamim Iqbal,Mujeeb Ur Rahman,Liton Das,1,1,0,na,na,na,na,na,na,na,na,na
1st innings,0.3,Liton Das,Mujeeb Ur Rahman,Tamim Iqbal,0,0,0,na,na,na,na,na,na,na,na,na
1st innings,0.4,Liton Das,Mujeeb Ur Rahman,Tamim Iqbal,0,0,0,na,na,na,na,na,na,na,na,na
1st innings,0.5,Liton Das,Mujeeb Ur Rahman,Tamim Iqbal,0,0,0,na,na,na,na,na,na,na,na,na
1st innings,0.6,Liton Das,Mujeeb Ur Rahman,Tamim Iqbal,0,0,0,na,na,na,na,na,na,na,na,na
1st innings,1.1,Tamim Iqbal,Shapoor Zadran,Liton Das,0,0,0,na,na,na,na,na,caught,Rashid Khan,na,Liton Das
1st innings,1.2,Sabbir Rahman,Shapoor Zadran,Tamim Iqbal,1,0,1,na,na,1,na,na,na,na,na,na
1st innings,1.3,Sabbir Rahman,Shapoor Zadran,Tamim Iqbal,2,2,0,na,na,na,na,na,na,na,na,na
1st innings,1.4,Sabbir Rahman,Shapoor Zadran,Tamim Iqbal,4,4,0,na,na,na,na,na,na,na,na,na
1st innings,1.5,Sabbir Rahman,Shapoor Zadran,Tamim Iqbal,1,1,0,na,na,na,na,na,na,na,na,na
1st innings,1.6,Tamim Iqbal,Shapoor Zadran,Sabbir Rahman,0,0,0,na,na,na,na,na,na,na,na,na
1st innings,1.7,Tamim Iqbal,Shapoor Zadran,Sabbir Rahman,0,0,0,na,na,na,na,na,na,na,na,na
1st innings,2.1,Sabbir Rahman,Mujeeb Ur Rahman,Tamim Iqbal,1,1,0,na,na,na,na,na,na,na,na,na
1st innings,2.2,Tamim Iqbal,Mujeeb Ur Rahman,Sabbir Rahman,0,0,0,na,na,na,na,na,na,na,na,na
1st innings,2.3,Tamim Iqbal,Mujeeb Ur Rahman,Sabbir Rahman,0,0,0,na,na,na,na,na,na,na,na,na
1st innings,2.4,Tamim Iqbal,Mujeeb Ur Rahman,Sabbir Rahman,1,1,0,na,na,na,na,na,na,na,na,na
1st innings,2.5,Sabbir Rahman,Mujeeb Ur Rahman,Tamim Iqbal,0,0,0,na,na,na,na,na,na,na,na,na
1st innings,2.6,Sabbir Rahman,Mujeeb Ur Rahman,Tamim Iqbal,1,1,0,na,na,na,na,na,na,na,na,na
1st innings,3.1,Sabbir Rahman,Shapoor Zadran,Tamim Iqbal,4,4,0,na,na,na,na,na,na,na,na,na
1st innings,3.2,Sabbir Rahman,Shapoor Zadran,Tamim Iqbal,0,0,0,na,na,na,na,na,na,na,na,na
1st innings,3.3,Sabbir Rahman,Shapoor Zadran,Tamim Iqbal,1,1,0,na,na,na,na,na,na,na,na,na
1st innings,3.4,Tamim Iqbal,Shapoor Zadran,Sabbir Rahman,4,4,0,na,na,na,na,na,na,na,na,na
1st innings,3.5,Tamim Iqbal,Shapoor Zadran,Sabbir Rahman,4,4,0,na,na,na,na,na,na,na,na,na
1st innings,3.6,Tamim Iqbal,Shapoor Zadran,Sabbir Rahman,4,4,0,na,na,na,na,na,na,na,na,na
1st innings,4.1,Sabbir Rahman,Mohammad Nabi,Tamim Iqbal,0,0,0,na,na,na,na,na,na,na,na,na
1st innings,4.2,Sabbir Rahman,Mohammad Nabi,Tamim Iqbal,1,1,0,na,na,na,na,na,na,na,na,na
1st innings,4.3,Tamim Iqbal,Mohammad Nabi,Sabbir Rahman,0,0,0,na,na,na,na,na,caught,Samiullah Shenwari,na,Sabbir Rahman
1st innings,4.4,Tamim Iqbal,Mohammad Nabi,Mushfiqur Rahim,1,1,0,na,na,na,na,na,na,na,na,na
1st innings,4.5,Mushfiqur Rahim,Mohammad Nabi,Tamim Iqbal,1,1,0,na,na,na,na,na,na,na,na,na
1st innings,4.6,Tamim Iqbal,Mohammad Nabi,Mushfiqur Rahim,1,1,0,na,na,na,na,na,na,na,na,na
1st innings,5.1,Tamim Iqbal,Mujeeb Ur Rahman,Mushfiqur Rahim,0,0,0,na,na,na,na,na,na,na,na,na
1st innings,5.2,Tamim Iqbal,Mujeeb Ur Rahman,Mushfiqur Rahim,4,4,0,na,na,na,na,na,na,na,na,na
1st innings,5.3,Tamim Iqbal,Mujeeb Ur Rahman,Mushfiqur Rahim,0,0,0,na,na,na,na,na,na,na,na,na
1st innings,5.4,Tamim Iqbal,Mujeeb Ur Rahman,Mushfiqur Rahim,0,0,0,na,na,na,na,na,na,na,na,na
1st innings,5.5,Tamim Iqbal,Mujeeb Ur Rahman,Mushfiqur Rahim,1,1,0,na,na,na,na,na,na,na,na,na
1st innings,5.6,Mushfiqur Rahim,Mujeeb Ur Rahman,Tamim Iqbal,4,4,0,na,na,na,na,na,na,na,na,na
1st innings,6.1,Tamim Iqbal,Karim Janat,Mushfiqur Rahim,2,2,0,na,na,na,na,na,na,na,na,na
1st innings,6.2,Tamim Iqbal,Karim Janat,Mushfiqur Rahim,1,1,0,na,na,na,na,na,na,na,na,na
1st innings,6.3,Mushfiqur Rahim,Karim Janat,Tamim Iqbal,1,1,0,na,na,na,na,na,na,na,na,na
1st innings,6.4,Tamim Iqbal,Karim Janat,Mushfiqur Rahim,1,1,0,na,na,na,na,na,na,na,na,na
1st innings,6.5,Mushfiqur Rahim,Karim Janat,Tamim Iqbal,0,0,0,na,na,na,na,na,na,na,na,na
1st innings,6.6,Mushfiqur Rahim,Karim Janat,Tamim Iqbal,4,4,0,na,na,na,na,na,na,na,na,na
1st innings,7.1,Tamim Iqbal,Mohammad Nabi,Mushfiqur Rahim,0,0,0,na,na,na,na,na,na,na,na,na
1st innings,7.2,Tamim Iqbal,Mohammad Nabi,Mushfiqur Rahim,1,1,0,na,na,na,na,na,na,na,na,na
1st innings,7.3,Mushfiqur Rahim,Mohammad Nabi,Tamim Iqbal,1,1,0,na,na,na,na,na,na,na,na,na
1st innings,7.4,Tamim Iqbal,Mohammad Nabi,Mushfiqur Rahim,1,1,0,na,na,na,na,na,na,na,na,na
1st innings,7.5,Mushfiqur Rahim,Mohammad Nabi,Tamim Iqbal,0,0,0,na,na,na,na,na,na,na,na,na
1st innings,7.6,Mushfiqur Rahim,Mohammad Nabi,Tamim Iqbal,1,1,0,na,na,na,na,na,na,na,na,na
1st innings,8.1,Mushfiqur Rahim,Karim Janat,Tamim Iqbal,0,0,0,na,na,na,na,na,na,na,na,na
1st innings,8.2,Mushfiqur Rahim,Karim Janat,Tamim Iqbal,1,1,0,na,na,na,na,na,na,na,na,na
1st innings,8.3,Tamim Iqbal,Karim Janat,Mushfiqur Rahim,6,6,0,na,na,na,na,na,na,na,na,na
1st innings,8.4,Tamim Iqbal,Karim Janat,Mushfiqur Rahim,1,1,0,na,na,na,na,na,na,na,na,na
1st innings,8.5,Mushfiqur Rahim,Karim Janat,Tamim Iqbal,4,0,4,na,4,na,na,na,na,na,na,na
1st innings,8.6,Mushfiqur Rahim,Karim Janat,Tamim Iqbal,4,4,0,na,na,na,na,na,na,na,na,na
1st innings,9.1,Tamim Iqbal,Mohammad Nabi,Mushfiqur Rahim,1,1,0,na,na,na,na,na,na,na,na,na
1st innings,9.2,Mushfiqur Rahim,Mohammad Nabi,Tamim Iqbal,1,1,0,na,na,na,na,na,na,na,na,na
1st innings,9.3,Tamim Iqbal,Mohammad Nabi,Mushfiqur Rahim,1,1,0,na,na,na,na,na,na,na,na,na
1st innings,9.4,Mushfiqur Rahim,Mohammad Nabi,Tamim Iqbal,1,1,0,na,na,na,na,na,na,na,na,na
1st innings,9.5,Tamim Iqbal,Mohammad Nabi,Mushfiqur Rahim,0,0,0,na,na,na,na,na,stumped,Mohammad Shahzad,na,Mushfiqur Rahim
1st innings,9.6,Tamim Iqbal,Mohammad Nabi,Mahmudullah,6,6,0,na,na,na,na,na,na,na,na,na
1st innings,10.1,Mahmudullah,Rashid Khan,Tamim Iqbal,1,1,0,na,na,na,na,na,na,na,na,na
1st innings,10.2,Tamim Iqbal,Rashid Khan,Mahmudullah,1,1,0,na,na,na,na,na,na,na,na,na
1st innings,10.3,Mahmudullah,Rashid Khan,Tamim Iqbal,1,1,0,na,na,na,na,na,na,na,na,na
1st innings,10.4,Tamim Iqbal,Rashid Khan,Mahmudullah,0,0,0,na,na,na,na,na,na,na,na,na
1st innings,10.5,Tamim Iqbal,Rashid Khan,Mahmudullah,1,1,0,na,na,na,na,na,na,na,na,na
1st innings,10.6,Mahmudullah,Rashid Khan,Tamim Iqbal,0,0,0,na,na,na,na,na,na,na,na,na
1st innings,11.1,Tamim Iqbal,Karim Janat,Mahmudullah,1,1,0,na,na,na,na,na,na,na,na,na
1st innings,11.2,Mahmudullah,Karim Janat,Tamim Iqbal,1,1,0,na,na,na,na,na,na,na,na,na
1st innings,11.3,Tamim Iqbal,Karim Janat,Mahmudullah,1,1,0,na,na,na,na,na,na,na,na,na
1st innings,11.4,Mahmudullah,Karim Janat,Tamim Iqbal,1,1,0,na,na,na,na,na,na,na,na,na
1st innings,11.5,Tamim Iqbal,Karim Janat,Mahmudullah,4,4,0,na,na,na,na,na,na,na,na,na
1st innings,11.6,Tamim Iqbal,Karim Janat,Mahmudullah,0,0,0,na,na,na,na,na,bowled,na,na,Mahmudullah
1st innings,12.1,Shakib Al Hasan,Mohammad Nabi,Tamim Iqbal,0,0,0,na,na,na,na,na,na,na,na,na
1st innings,12.2,Shakib Al Hasan,Mohammad Nabi,Tamim Iqbal,0,0,0,na,na,na,na,na,na,na,na,na
1st innings,12.3,Shakib Al Hasan,Mohammad Nabi,Tamim Iqbal,0,0,0,na,na,na,na,na,na,na,na,na
1st innings,12.4,Shakib Al Hasan,Mohammad Nabi,Tamim Iqbal,1,1,0,na,na,na,na,na,na,na,na,na
1st innings,12.5,Tamim Iqbal,Mohammad Nabi,Shakib Al Hasan,0,0,0,na,na,na,na,na,na,na,na,na
1st innings,12.6,Tamim Iqbal,Mohammad Nabi,Shakib Al Hasan,0,0,0,na,na,na,na,na,na,na,na,na
1st innings,13.1,Shakib Al Hasan,Rashid Khan,Tamim Iqbal,1,1,0,na,na,na,na,na,na,na,na,na
1st innings,13.2,Tamim Iqbal,Rashid Khan,Shakib Al Hasan,1,1,0,na,na,na,na,na,na,na,na,na
1st innings,13.3,Shakib Al Hasan,Rashid Khan,Tamim Iqbal,1,1,0,na,na,na,na,na,na,na,na,na
1st innings,13.4,Tamim Iqbal,Rashid Khan,Shakib Al Hasan,1,1,0,na,na,na,na,na,na,na,na,na
1st innings,13.5,Shakib Al Hasan,Rashid Khan,Tamim Iqbal,0,0,0,na,na,na,na,na,na,na,na,na
1st innings,13.6,Shakib Al Hasan,Rashid Khan,Tamim Iqbal,1,1,0,na,na,na,na,na,na,na,na,na
1st innings,14.1,Shakib Al Hasan,Mujeeb Ur Rahman,Tamim Iqbal,0,0,0,na,na,na,na,na,na,na,na,na
1st innings,14.2,Shakib Al Hasan,Mujeeb Ur Rahman,Tamim Iqbal,0,0,0,na,na,na,na,na,na,na,na,na
1st innings,14.3,Shakib Al Hasan,Mujeeb Ur Rahman,Tamim Iqbal,1,1,0,na,na,na,na,na,na,na,na,na
1st innings,14.4,Tamim Iqbal,Mujeeb Ur Rahman,Shakib Al Hasan,0,0,0,na,na,na,na,na,na,na,na,na
1st innings,14.5,Tamim Iqbal,Mujeeb Ur Rahman,Shakib Al Hasan,1,1,0,na,na,na,na,na,na,na,na,na
1st innings,14.6,Shakib Al Hasan,Mujeeb Ur Rahman,Tamim Iqbal,0,0,0,na,na,na,na,na,na,na,na,na
1st innings,15.1,Tamim Iqbal,Rashid Khan,Shakib Al Hasan,0,0,0,na,na,na,na,na,caught,Najibullah Zadran,na,Shakib Al Hasan
1st innings,15.2,Tamim Iqbal,Rashid Khan,Soumya Sarkar,1,0,1,na,na,1,na,na,na,na,na,na
1st innings,15.3,Tamim Iqbal,Rashid Khan,Soumya Sarkar,1,1,0,na,na,na,na,na,na,na,na,na
1st innings,15.4,Soumya Sarkar,Rashid Khan,Tamim Iqbal,0,0,0,na,na,na,na,na,na,na,na,na
1st innings,15.5,Soumya Sarkar,Rashid Khan,Tamim Iqbal,0,0,0,na,na,na,na,na,bowled,na,na,Tamim Iqbal
1st innings,15.6,Soumya Sarkar,Rashid Khan,Mosaddek Hossain,0,0,0,na,na,na,na,na,lbw,na,na,Mosaddek Hossain
1st innings,15.7,Soumya Sarkar,Rashid Khan,Abu Hider,0,0,0,na,na,na,na,na,na,na,na,na
1st innings,16.1,Abu Hider,Shapoor Zadran,Soumya Sarkar,1,1,0,na,na,na,na,na,na,na,na,na
1st innings,16.2,Soumya Sarkar,Shapoor Zadran,Abu Hider,1,1,0,na,na,na,na,na,na,na,na,na
1st innings,16.3,Abu Hider,Shapoor Zadran,Soumya Sarkar,0,0,0,na,na,na,na,na,na,na,na,na
1st innings,16.4,Abu Hider,Shapoor Zadran,Soumya Sarkar,1,1,0,na,na,na,na,na,na,na,na,na
1st innings,16.5,Soumya Sarkar,Shapoor Zadran,Abu Hider,1,1,0,na,na,na,na,na,na,na,na,na
1st innings,16.6,Abu Hider,Shapoor Zadran,Soumya Sarkar,0,0,0,na,na,na,na,na,na,na,na,na
1st innings,17.1,Soumya Sarkar,Rashid Khan,Abu Hider,1,1,0,na,na,na,na,na,na,na,na,na
1st innings,17.2,Abu Hider,Rashid Khan,Soumya Sarkar,0,0,0,na,na,na,na,na,na,na,na,na
1st innings,17.3,Abu Hider,Rashid Khan,Soumya Sarkar,0,0,0,na,na,na,na,na,na,na,na,na
1st innings,17.4,Abu Hider,Rashid Khan,Soumya Sarkar,0,0,0,na,na,na,na,na,na,na,na,na
1st innings,17.5,Abu Hider,Rashid Khan,Soumya Sarkar,0,0,0,na,na,na,na,na,caught,Asghar Stanikzai,na,Soumya Sarkar
1st innings,17.6,Nazmul Islam,Rashid Khan,Abu Hider,0,0,0,na,na,na,na,na,na,na,na,na
1st innings,18.1,Abu Hider,Karim Janat,Nazmul Islam,1,1,0,na,na,na,na,na,na,na,na,na
1st innings,18.2,Nazmul Islam,Karim Janat,Abu Hider,0,0,0,na,na,na,na,na,na,na,na,na
1st innings,18.3,Nazmul Islam,Karim Janat,Abu Hider,2,0,2,2,na,na,na,na,na,na,na,na
1st innings,18.4,Nazmul Islam,Karim Janat,Abu Hider,6,6,0,na,na,na,na,na,na,na,na,na
1st innings,18.5,Nazmul Islam,Karim Janat,Abu Hider,4,4,0,na,na,na,na,na,na,na,na,na
1st innings,18.6,Nazmul Islam,Karim Janat,Abu Hider,0,0,0,na,na,na,na,na,na,na,na,na
1st innings,19.1,Abu Hider,Shapoor Zadran,Nazmul Islam,4,4,0,na,na,na,na,na,na,na,na,na
1st innings,19.2,Abu Hider,Shapoor Zadran,Nazmul Islam,1,1,0,na,na,na,na,na,na,na,na,na
1st innings,19.3,Nazmul Islam,Shapoor Zadran,Abu Hider,2,2,0,na,na,na,na,na,na,na,na,na
1st innings,19.4,Nazmul Islam,Shapoor Zadran,Abu Hider,0,0,0,na,na,na,na,na,na,na,na,na
1st innings,19.5,Nazmul Islam,Shapoor Zadran,Abu Hider,6,6,0,na,na,na,na,na,na,na,na,na
1st innings,19.6,Nazmul Islam,Shapoor Zadran,Abu Hider,0,0,0,na,na,na,na,na,na,na,na,na
2nd innings,0.1,Usman Ghani,Nazmul Islam,Mohammad Shahzad,0,0,0,na,na,na,na,na,na,na,na,na
2nd innings,0.2,Usman Ghani,Nazmul Islam,Mohammad Shahzad,0,0,0,na,na,na,na,na,na,na,na,na
2nd innings,0.3,Usman Ghani,Nazmul Islam,Mohammad Shahzad,0,0,0,na,na,na,na,na,na,na,na,na
2nd innings,0.4,Usman Ghani,Nazmul Islam,Mohammad Shahzad,0,0,0,na,na,na,na,na,na,na,na,na
2nd innings,0.5,Usman Ghani,Nazmul Islam,Mohammad Shahzad,0,0,0,na,na,na,na,na,na,na,na,na
2nd innings,0.6,Usman Ghani,Nazmul Islam,Mohammad Shahzad,0,0,0,na,na,na,na,na,na,na,na,na
2nd innings,1.1,Mohammad Shahzad,Shakib Al Hasan,Usman Ghani,0,0,0,na,na,na,na,na,na,na,na,na
2nd innings,1.2,Mohammad Shahzad,Shakib Al Hasan,Usman Ghani,4,4,0,na,na,na,na,na,na,na,na,na
2nd innings,1.3,Mohammad Shahzad,Shakib Al Hasan,Usman Ghani,1,1,0,na,na,na,na,na,na,na,na,na
2nd innings,1.4,Usman Ghani,Shakib Al Hasan,Mohammad Shahzad,4,4,0,na,na,na,na,na,na,na,na,na
2nd innings,1.5,Usman Ghani,Shakib Al Hasan,Mohammad Shahzad,1,1,0,na,na,na,na,na,na,na,na,na
2nd innings,1.6,Mohammad Shahzad,Shakib Al Hasan,Usman Ghani,1,1,0,na,na,na,na,na,na,na,na,na
2nd innings,2.1,Mohammad Shahzad,Nazmul Islam,Usman Ghani,0,0,0,na,na,na,na,na,na,na,na,na
2nd innings,2.2,Mohammad Shahzad,Nazmul Islam,Usman Ghani,0,0,0,na,na,na,na,na,na,na,na,na
2nd innings,2.3,Mohammad Shahzad,Nazmul Islam,Usman Ghani,0,0,0,na,na,na,na,na,na,na,na,na
2nd innings,2.4,Mohammad Shahzad,Nazmul Islam,Usman Ghani,0,0,0,na,na,na,na,na,na,na,na,na
2nd innings,2.5,Mohammad Shahzad,Nazmul Islam,Usman Ghani,0,0,0,na,na,na,na,na,na,na,na,na
2nd innings,2.6,Mohammad Shahzad,Nazmul Islam,Usman Ghani,0,0,0,na,na,na,na,na,na,na,na,na
2nd innings,3.1,Usman Ghani,Rubel Hossain,Mohammad Shahzad,0,0,0,na,na,na,na,na,na,na,na,na
2nd innings,3.2,Usman Ghani,Rubel Hossain,Mohammad Shahzad,4,4,0,na,na,na,na,na,na,na,na,na
2nd innings,3.3,Usman Ghani,Rubel Hossain,Mohammad Shahzad,4,4,0,na,na,na,na,na,na,na,na,na
2nd innings,3.4,Usman Ghani,Rubel Hossain,Mohammad Shahzad,1,0,1,1,na,na,na,na,na,na,na,na
2nd innings,3.5,Mohammad Shahzad,Rubel Hossain,Usman Ghani,1,1,0,na,na,na,na,na,na,na,na,na
2nd innings,3.6,Usman Ghani,Rubel Hossain,Mohammad Shahzad,0,0,0,na,na,na,na,na,na,na,na,na
2nd innings,4.1,Mohammad Shahzad,Shakib Al Hasan,Usman Ghani,1,1,0,na,na,na,na,na,na,na,na,na
2nd innings,4.2,Usman Ghani,Shakib Al Hasan,Mohammad Shahzad,4,4,0,na,na,na,na,na,na,na,na,na
2nd innings,4.3,Usman Ghani,Shakib Al Hasan,Mohammad Shahzad,0,0,0,na,na,na,na,na,na,na,na,na
2nd innings,4.4,Usman Ghani,Shakib Al Hasan,Mohammad Shahzad,1,1,0,na,na,na,na,na,na,na,na,na
2nd innings,4.5,Mohammad Shahzad,Shakib Al Hasan,Usman Ghani,1,1,0,na,na,na,na,na,na,na,na,na
2nd innings,4.6,Usman Ghani,Shakib Al Hasan,Mohammad Shahzad,6,6,0,na,na,na,na,na,na,na,na,na
2nd innings,5.1,Mohammad Shahzad,Abu Hider,Usman Ghani,2,2,0,na,na,na,na,na,na,na,na,na
2nd innings,5.2,Mohammad Shahzad,Abu Hider,Usman Ghani,0,0,0,na,na,na,na,na,na,na,na,na
2nd innings,5.3,Mohammad Shahzad,Abu Hider,Usman Ghani,0,0,0,na,na,na,na,na,na,na,na,na
2nd innings,5.4,Mohammad Shahzad,Abu Hider,Usman Ghani,2,0,2,na,na,2,na,na,na,na,na,na
2nd innings,5.5,Usman Ghani,Abu Hider,Mohammad Shahzad,0,0,0,na,na,na,na,na,lbw,na,na,Mohammad Shahzad
2nd innings,5.6,Usman Ghani,Abu Hider,Samiullah Shenwari,0,0,0,na,na,na,na,na,na,na,na,na
2nd innings,5.7,Usman Ghani,Abu Hider,Samiullah Shenwari,0,0,0,na,na,na,na,na,na,na,na,na
2nd innings,6.1,Samiullah Shenwari,Nazmul Islam,Usman Ghani,1,1,0,na,na,na,na,na,na,na,na,na
2nd innings,6.2,Usman Ghani,Nazmul Islam,Samiullah Shenwari,1,1,0,na,na,na,na,na,na,na,na,na
2nd innings,6.3,Samiullah Shenwari,Nazmul Islam,Usman Ghani,1,1,0,na,na,na,na,na,na,na,na,na
2nd innings,6.4,Usman Ghani,Nazmul Islam,Samiullah Shenwari,1,1,0,na,na,na,na,na,na,na,na,na
2nd innings,6.5,Samiullah Shenwari,Nazmul Islam,Usman Ghani,1,1,0,na,na,na,na,na,na,na,na,na
2nd innings,6.6,Usman Ghani,Nazmul Islam,Samiullah Shenwari,0,0,0,na,na,na,na,na,na,na,na,na
2nd innings,7.1,Samiullah Shenwari,Abu Hider,Usman Ghani,0,0,0,na,na,na,na,na,na,na,na,na
2nd innings,7.2,Samiullah Shenwari,Abu Hider,Usman Ghani,2,2,0,na,na,na,na,na,na,na,na,na
2nd innings,7.3,Samiullah Shenwari,Abu Hider,Usman Ghani,1,0,1,na,na,1,na,na,na,na,na,na
2nd innings,7.4,Samiullah Shenwari,Abu Hider,Usman Ghani,1,1,0,na,na,na,na,na,na,na,na,na
2nd innings,7.5,Usman Ghani,Abu Hider,Samiullah Shenwari,1,1,0,na,na,na,na,na,na,na,na,na
2nd innings,7.6,Samiullah Shenwari,Abu Hider,Usman Ghani,1,1,0,na,na,na,na,na,na,na,na,na
2nd innings,7.7,Usman Ghani,Abu Hider,Samiullah Shenwari,0,0,0,na,na,na,na,na,na,na,na,na
2nd innings,8.1,Samiullah Shenwari,Rubel Hossain,Usman Ghani,0,0,0,na,na,na,na,na,na,na,na,na
2nd innings,8.2,Samiullah Shenwari,Rubel Hossain,Usman Ghani,0,0,0,na,na,na,na,na,na,na,na,na
2nd innings,8.3,Samiullah Shenwari,Rubel Hossain,Usman Ghani,1,1,0,na,na,na,na,na,na,na,na,na
2nd innings,8.4,Usman Ghani,Rubel Hossain,Samiullah Shenwari,2,2,0,na,na,na,na,na,na,na,na,na
2nd innings,8.5,Usman Ghani,Rubel Hossain,Samiullah Shenwari,0,0,0,na,na,na,na,na,na,na,na,na
2nd innings,8.6,Usman Ghani,Rubel Hossain,Samiullah Shenwari,0,0,0,na,na,na,na,na,na,na,na,na
2nd innings,9.1,Samiullah Shenwari,Abu Hider,Usman Ghani,0,0,0,na,na,na,na,na,na,na,na,na
2nd innings,9.2,Samiullah Shenwari,Abu Hider,Usman Ghani,1,1,0,na,na,na,na,na,na,na,na,na
2nd innings,9.3,Usman Ghani,Abu Hider,Samiullah Shenwari,1,1,0,na,na,na,na,na,na,na,na,na
2nd innings,9.4,Samiullah Shenwari,Abu Hider,Usman Ghani,0,0,0,na,na,na,na,na,na,na,na,na
2nd innings,9.5,Samiullah Shenwari,Abu Hider,Usman Ghani,1,1,0,na,na,na,na,na,na,na,na,na
2nd innings,9.6,Usman Ghani,Abu Hider,Samiullah Shenwari,1,1,0,na,na,na,na,na,na,na,na,na
2nd innings,10.1,Usman Ghani,Rubel Hossain,Samiullah Shenwari,0,0,0,na,na,na,na,na,na,na,na,na
2nd innings,10.2,Usman Ghani,Rubel Hossain,Samiullah Shenwari,1,1,0,na,na,na,na,na,na,na,na,na
2nd innings,10.3,Samiullah Shenwari,Rubel Hossain,Usman Ghani,0,0,0,na,na,na,na,na,caught,Soumya Sarkar,na,Usman Ghani
2nd innings,10.4,Asghar Stanikzai,Rubel Hossain,Samiullah Shenwari,4,4,0,na,na,na,na,na,na,na,na,na
2nd innings,10.5,Asghar Stanikzai,Rubel Hossain,Samiullah Shenwari,0,0,0,na,na,na,na,na,na,na,na,na
2nd innings,10.6,Asghar Stanikzai,Rubel Hossain,Samiullah Shenwari,1,1,0,na,na,na,na,na,na,na,na,na
2nd innings,11.1,Asghar Stanikzai,Mahmudullah,Samiullah Shenwari,1,1,0,na,na,na,na,na,na,na,na,na
2nd innings,11.2,Samiullah Shenwari,Mahmudullah,Asghar Stanikzai,0,0,0,na,na,na,na,na,na,na,na,na
2nd innings,11.3,Samiullah Shenwari,Mahmudullah,Asghar Stanikzai,1,1,0,na,na,na,na,na,na,na,na,na
2nd innings,11.4,Asghar Stanikzai,Mahmudullah,Samiullah Shenwari,0,0,0,na,na,na,na,na,na,na,na,na
2nd innings,11.5,Asghar Stanikzai,Mahmudullah,Samiullah Shenwari,6,6,0,na,na,na,na,na,na,na,na,na
2nd innings,11.6,Asghar Stanikzai,Mahmudullah,Samiullah Shenwari,1,1,0,na,na,na,na,na,na,na,na,na
2nd innings,12.1,Asghar Stanikzai,Shakib Al Hasan,Samiullah Shenwari,1,1,0,na,na,na,na,na,na,na,na,na
2nd innings,12.2,Samiullah Shenwari,Shakib Al Hasan,Asghar Stanikzai,2,2,0,na,na,na,na,na,na,na,na,na
2nd innings,12.3,Samiullah Shenwari,Shakib Al Hasan,Asghar Stanikzai,0,0,0,na,na,na,na,na,na,na,na,na
2nd innings,12.4,Samiullah Shenwari,Shakib Al Hasan,Asghar Stanikzai,1,1,0,na,na,na,na,na,na,na,na,na
2nd innings,12.5,Asghar Stanikzai,Shakib Al Hasan,Samiullah Shenwari,1,1,0,na,na,na,na,na,na,na,na,na
2nd innings,12.6,Samiullah Shenwari,Shakib Al Hasan,Asghar Stanikzai,0,0,0,na,na,na,na,na,na,na,na,na
2nd innings,13.1,Asghar Stanikzai,Mosaddek Hossain,Samiullah Shenwari,1,1,0,na,na,na,na,na,na,na,na,na
2nd innings,13.2,Samiullah Shenwari,Mosaddek Hossain,Asghar Stanikzai,1,0,1,1,na,na,na,na,na,na,na,na
2nd innings,13.3,Asghar Stanikzai,Mosaddek Hossain,Samiullah Shenwari,1,1,0,na,na,na,na,na,na,na,na,na
2nd innings,13.4,Samiullah Shenwari,Mosaddek Hossain,Asghar Stanikzai,0,0,0,na,na,na,na,na,stumped,Mushfiqur Rahim,na,Asghar Stanikzai
2nd innings,13.5,Samiullah Shenwari,Mosaddek Hossain,Mohammad Nabi,0,0,0,na,na,na,na,na,na,na,na,na
2nd innings,13.6,Samiullah Shenwari,Mosaddek Hossain,Mohammad Nabi,1,1,0,na,na,na,na,na,na,na,na,na
2nd innings,14.1,Samiullah Shenwari,Nazmul Islam,Mohammad Nabi,1,1,0,na,na,na,na,na,na,na,na,na
2nd innings,14.2,Mohammad Nabi,Nazmul Islam,Samiullah Shenwari,1,0,1,na,na,1,na,na,na,na,na,na
2nd innings,14.3,Mohammad Nabi,Nazmul Islam,Samiullah Shenwari,1,1,0,na,na,na,na,na,na,na,na,na
2nd innings,14.4,Samiullah Shenwari,Nazmul Islam,Mohammad Nabi,4,4,0,na,na,na,na,na,na,na,na,na
2nd innings,14.5,Samiullah Shenwari,Nazmul Islam,Mohammad Nabi,0,0,0,na,na,na,na,na,na,na,na,na
2nd innings,14.6,Samiullah Shenwari,Nazmul Islam,Mohammad Nabi,1,1,0,na,na,na,na,na,na,na,na,na
2nd innings,14.7,Mohammad Nabi,Nazmul Islam,Samiullah Shenwari,1,1,0,na,na,na,na,na,na,na,na,na
2nd innings,15.1,Mohammad Nabi,Mosaddek Hossain,Samiullah Shenwari,0,0,0,na,na,na,na,na,na,na,na,na
2nd innings,15.2,Mohammad Nabi,Mosaddek Hossain,Samiullah Shenwari,1,1,0,na,na,na,na,na,na,na,na,na
2nd innings,15.3,Samiullah Shenwari,Mosaddek Hossain,Mohammad Nabi,1,1,0,na,na,na,na,na,na,na,na,na
2nd innings,15.4,Mohammad Nabi,Mosaddek Hossain,Samiullah Shenwari,0,0,0,na,na,na,na,na,na,na,na,na
2nd innings,15.5,Mohammad Nabi,Mosaddek Hossain,Samiullah Shenwari,6,6,0,na,na,na,na,na,na,na,na,na
2nd innings,15.6,Mohammad Nabi,Mosaddek Hossain,Samiullah Shenwari,1,1,0,na,na,na,na,na,na,na,na,na
2nd innings,16.1,Mohammad Nabi,Shakib Al Hasan,Samiullah Shenwari,1,1,0,na,na,na,na,na,na,na,na,na
2nd innings,16.2,Samiullah Shenwari,Shakib Al Hasan,Mohammad Nabi,1,1,0,na,na,na,na,na,na,na,na,na
2nd innings,16.3,Mohammad Nabi,Shakib Al Hasan,Samiullah Shenwari,2,2,0,na,na,na,na,na,na,na,na,na
2nd innings,16.4,Mohammad Nabi,Shakib Al Hasan,Samiullah Shenwari,0,0,0,na,na,na,na,na,na,na,na,na
2nd innings,16.5,Mohammad Nabi,Shakib Al Hasan,Samiullah Shenwari,0,0,0,na,na,na,na,na,na,na,na,na
2nd innings,16.6,Mohammad Nabi,Shakib Al Hasan,Samiullah Shenwari,4,4,0,na,na,na,na,na,na,na,na,na
2nd innings,17.1,Samiullah Shenwari,Mosaddek Hossain,Mohammad Nabi,1,1,0,na,na,na,na,na,na,na,na,na
2nd innings,17.2,Mohammad Nabi,Mosaddek Hossain,Samiullah Shenwari,0,0,0,na,na,na,na,na,na,na,na,na
2nd innings,17.3,Mohammad Nabi,Mosaddek Hossain,Samiullah Shenwari,1,1,0,na,na,na,na,na,na,na,na,na
2nd innings,17.4,Samiullah Shenwari,Mosaddek Hossain,Mohammad Nabi,1,1,0,na,na,na,na,na,na,na,na,na
2nd innings,17.5,Mohammad Nabi,Mosaddek Hossain,Samiullah Shenwari,6,6,0,na,na,na,na,na,na,na,na,na
2nd innings,17.6,Mohammad Nabi,Mosaddek Hossain,Samiullah Shenwari,0,0,0,na,na,na,na,na,bowled,na,na,Samiullah Shenwari
2nd innings,18.1,Shafiqullah,Rubel Hossain,Mohammad Nabi,4,4,0,na,na,na,na,na,na,na,na,na
2nd innings,18.2,Shafiqullah,Rubel Hossain,Mohammad Nabi,6,6,0,na,na,na,na,na,na,na,na,na
2nd innings,18.3,Shafiqullah,Rubel Hossain,Mohammad Nabi,0,0,0,na,na,na,na,na,na,na,na,na
2nd innings,18.4,Shafiqullah,Rubel Hossain,Mohammad Nabi,4,4,0,na,na,na,na,na,na,na,na,na
2nd innings,18.5,Shafiqullah,Rubel Hossain,Mohammad Nabi,6,6,0,na,na,na,na,na,na,na,na,na
