inngs,deliveries,non_striker,bowler,batsman,totalruns,batsman_runs,extra_runs,legbyes,byes,wides,noballs,penalty,wicket_kind,fielder1,fielder2,player_out
1st innings,0.1,C Munro,B Kumar,TL Seifert,2,2,0,na,na,na,na,na,na,na,na,na
1st innings,0.2,C Munro,B Kumar,TL Seifert,1,1,0,na,na,na,na,na,na,na,na,na
1st innings,0.3,TL Seifert,B Kumar,C Munro,6,6,0,na,na,na,na,na,na,na,na,na
1st innings,0.4,TL Seifert,B Kumar,C Munro,1,1,0,na,na,na,na,na,na,na,na,na
1st innings,0.5,C Munro,B Kumar,TL Seifert,0,0,0,na,na,na,na,na,na,na,na,na
1st innings,0.6,C Munro,B Kumar,TL Seifert,1,1,0,na,na,na,na,na,na,na,na,na
1st innings,1.1,C Munro,KK Ahmed,TL Seifert,1,1,0,na,na,na,na,na,na,na,na,na
1st innings,1.2,TL Seifert,KK Ahmed,C Munro,1,1,0,na,na,na,na,na,na,na,na,na
1st innings,1.3,C Munro,KK Ahmed,TL Seifert,0,0,0,na,na,na,na,na,na,na,na,na
1st innings,1.4,C Munro,KK Ahmed,TL Seifert,4,4,0,na,na,na,na,na,na,na,na,na
1st innings,1.5,C Munro,KK Ahmed,TL Seifert,1,1,0,na,na,na,na,na,na,na,na,na
1st innings,1.6,TL Seifert,KK Ahmed,C Munro,1,1,0,na,na,na,na,na,na,na,na,na
1st innings,2.1,TL Seifert,B Kumar,C Munro,0,0,0,na,na,na,na,na,na,na,na,na
1st innings,2.2,TL Seifert,B Kumar,C Munro,1,0,1,na,na,1,na,na,na,na,na,na
1st innings,2.3,TL Seifert,B Kumar,C Munro,0,0,0,na,na,na,na,na,na,na,na,na
1st innings,2.4,TL Seifert,B Kumar,C Munro,1,1,0,na,na,na,na,na,na,na,na,na
1st innings,2.5,C Munro,B Kumar,TL Seifert,0,0,0,na,na,na,na,na,na,na,na,na
1st innings,2.6,C Munro,B Kumar,TL Seifert,0,0,0,na,na,na,na,na,na,na,na,na
1st innings,2.7,C Munro,B Kumar,TL Seifert,1,1,0,na,na,na,na,na,na,na,na,na
1st innings,3.1,C Munro,KK Ahmed,TL Seifert,0,0,0,na,na,na,na,na,na,na,na,na
1st innings,3.2,C Munro,KK Ahmed,TL Seifert,4,4,0,na,na,na,na,na,na,na,na,na
1st innings,3.3,C Munro,KK Ahmed,TL Seifert,6,6,0,na,na,na,na,na,na,na,na,na
1st innings,3.4,C Munro,KK Ahmed,TL Seifert,1,1,0,na,na,na,na,na,na,na,na,na
1st innings,3.5,TL Seifert,KK Ahmed,C Munro,1,1,0,na,na,na,na,na,na,na,na,na
1st innings,3.6,C Munro,KK Ahmed,TL Seifert,4,4,0,na,na,na,na,na,na,na,na,na
1st innings,4.1,TL Seifert,HH Pandya,C Munro,1,1,0,na,na,na,na,na,na,na,na,na
1st innings,4.2,C Munro,HH Pandya,TL Seifert,1,1,0,na,na,na,na,na,na,na,na,na
1st innings,4.3,TL Seifert,HH Pandya,C Munro,4,4,0,na,na,na,na,na,na,na,na,na
1st innings,4.4,TL Seifert,HH Pandya,C Munro,2,2,0,na,na,na,na,na,na,na,na,na
1st innings,4.5,TL Seifert,HH Pandya,C Munro,0,0,0,na,na,na,na,na,na,na,na,na
1st innings,4.6,TL Seifert,HH Pandya,C Munro,0,0,0,na,na,na,na,na,na,na,na,na
1st innings,5.1,C Munro,KH Pandya,TL Seifert,1,1,0,na,na,na,na,na,na,na,na,na
1st innings,5.2,TL Seifert,KH Pandya,C Munro,6,6,0,na,na,na,na,na,na,na,na,na
1st innings,5.3,TL Seifert,KH Pandya,C Munro,4,4,0,na,na,na,na,na,na,na,na,na
1st innings,5.4,TL Seifert,KH Pandya,C Munro,1,1,0,na,na,na,na,na,na,na,na,na
1st innings,5.5,C Munro,KH Pandya,TL Seifert,6,6,0,na,na,na,na,na,na,na,na,na
1st innings,5.6,C Munro,KH Pandya,TL Seifert,2,2,0,na,na,na,na,na,na,na,na,na
1st innings,6.1,TL Seifert,HH Pandya,C Munro,4,4,0,na,na,na,na,na,na,na,na,na
1st innings,6.2,TL Seifert,HH Pandya,C Munro,1,1,0,na,na,na,na,na,na,na,na,na
1st innings,6.3,C Munro,HH Pandya,TL Seifert,6,6,0,na,na,na,na,na,na,na,na,na
1st innings,6.4,C Munro,HH Pandya,TL Seifert,0,0,0,na,na,na,na,na,na,na,na,na
1st innings,6.5,C Munro,HH Pandya,TL Seifert,1,1,0,na,na,na,na,na,na,na,na,na
1st innings,6.6,TL Seifert,HH Pandya,C Munro,1,1,0,na,na,na,na,na,na,na,na,na
1st innings,7.1,TL Seifert,Kuldeep Yadav,C Munro,0,0,0,na,na,na,na,na,na,na,na,na
1st innings,7.2,TL Seifert,Kuldeep Yadav,C Munro,1,1,0,na,na,na,na,na,na,na,na,na
1st innings,7.3,C Munro,Kuldeep Yadav,TL Seifert,0,0,0,na,na,na,na,na,na,na,na,na
1st innings,7.4,C Munro,Kuldeep Yadav,TL Seifert,0,0,0,na,na,na,na,na,stumped,MS Dhoni,na,TL Seifert
1st innings,7.5,C Munro,Kuldeep Yadav,KS Williamson,2,2,0,na,na,na,na,na,na,na,na,na
1st innings,7.6,C Munro,Kuldeep Yadav,KS Williamson,1,1,0,na,na,na,na,na,na,na,na,na
1st innings,8.1,C Munro,KH Pandya,KS Williamson,1,1,0,na,na,na,na,na,na,na,na,na
1st innings,8.2,KS Williamson,KH Pandya,C Munro,1,1,0,na,na,na,na,na,na,na,na,na
1st innings,8.3,C Munro,KH Pandya,KS Williamson,1,1,0,na,na,na,na,na,na,na,na,na
1st innings,8.4,KS Williamson,KH Pandya,C Munro,0,0,0,na,na,na,na,na,na,na,na,na
1st innings,8.5,KS Williamson,KH Pandya,C Munro,1,1,0,na,na,na,na,na,na,na,na,na
1st innings,8.6,C Munro,KH Pandya,KS Williamson,0,0,0,na,na,na,na,na,na,na,na,na
1st innings,9.1,KS Williamson,Kuldeep Yadav,C Munro,1,1,0,na,na,na,na,na,na,na,na,na
1st innings,9.2,C Munro,Kuldeep Yadav,KS Williamson,0,0,0,na,na,na,na,na,na,na,na,na
1st innings,9.3,C Munro,Kuldeep Yadav,KS Williamson,1,1,0,na,na,na,na,na,na,na,na,na
1st innings,9.4,KS Williamson,Kuldeep Yadav,C Munro,6,6,0,na,na,na,na,na,na,na,na,na
1st innings,9.5,KS Williamson,Kuldeep Yadav,C Munro,1,1,0,na,na,na,na,na,na,na,na,na
1st innings,9.6,C Munro,Kuldeep Yadav,KS Williamson,0,0,0,na,na,na,na,na,na,na,na,na
1st innings,10.1,KS Williamson,KH Pandya,C Munro,6,6,0,na,na,na,na,na,na,na,na,na
1st innings,10.2,KS Williamson,KH Pandya,C Munro,1,1,0,na,na,na,na,na,na,na,na,na
1st innings,10.3,C Munro,KH Pandya,KS Williamson,1,1,0,na,na,na,na,na,na,na,na,na
1st innings,10.4,KS Williamson,KH Pandya,C Munro,1,1,0,na,na,na,na,na,na,na,na,na
1st innings,10.5,C Munro,KH Pandya,KS Williamson,1,1,0,na,na,na,na,na,na,na,na,na
1st innings,10.6,KS Williamson,KH Pandya,C Munro,4,4,0,na,na,na,na,na,na,na,na,na
1st innings,11.1,C Munro,Kuldeep Yadav,KS Williamson,1,1,0,na,na,na,na,na,na,na,na,na
1st innings,11.2,KS Williamson,Kuldeep Yadav,C Munro,1,1,0,na,na,na,na,na,na,na,na,na
1st innings,11.3,C Munro,Kuldeep Yadav,KS Williamson,1,1,0,na,na,na,na,na,na,na,na,na
1st innings,11.4,KS Williamson,Kuldeep Yadav,C Munro,1,1,0,na,na,na,na,na,na,na,na,na
1st innings,11.5,C Munro,Kuldeep Yadav,KS Williamson,4,4,0,na,na,na,na,na,na,na,na,na
1st innings,11.6,C Munro,Kuldeep Yadav,KS Williamson,0,0,0,na,na,na,na,na,na,na,na,na
1st innings,12.1,KS Williamson,HH Pandya,C Munro,1,1,0,na,na,na,na,na,na,na,na,na
1st innings,12.2,C Munro,HH Pandya,KS Williamson,1,1,0,na,na,na,na,na,na,na,na,na
1st innings,12.3,KS Williamson,HH Pandya,C Munro,4,4,0,na,na,na,na,na,na,na,na,na
1st innings,12.4,KS Williamson,HH Pandya,C Munro,6,6,0,na,na,na,na,na,na,na,na,na
1st innings,12.5,KS Williamson,HH Pandya,C Munro,4,0,4,4,na,na,na,na,na,na,na,na
1st innings,12.6,KS Williamson,HH Pandya,C Munro,1,1,0,na,na,na,na,na,na,na,na,na
1st innings,13.1,KS Williamson,Kuldeep Yadav,C Munro,0,0,0,na,na,na,na,na,na,na,na,na
1st innings,13.2,KS Williamson,Kuldeep Yadav,C Munro,0,0,0,na,na,na,na,na,caught,HH Pandya,na,C Munro
1st innings,13.3,C de Grandhomme,Kuldeep Yadav,KS Williamson,1,1,0,na,na,na,na,na,na,na,na,na
1st innings,13.4,KS Williamson,Kuldeep Yadav,C de Grandhomme,2,2,0,na,na,na,na,na,na,na,na,na
1st innings,13.5,KS Williamson,Kuldeep Yadav,C de Grandhomme,1,1,0,na,na,na,na,na,na,na,na,na
1st innings,13.6,C de Grandhomme,Kuldeep Yadav,KS Williamson,1,1,0,na,na,na,na,na,na,na,na,na
1st innings,14.1,C de Grandhomme,KK Ahmed,KS Williamson,4,4,0,na,na,na,na,na,na,na,na,na
1st innings,14.2,C de Grandhomme,KK Ahmed,KS Williamson,2,2,0,na,na,na,na,na,na,na,na,na
1st innings,14.3,C de Grandhomme,KK Ahmed,KS Williamson,4,4,0,na,na,na,na,na,na,na,na,na
1st innings,14.4,C de Grandhomme,KK Ahmed,KS Williamson,0,0,0,na,na,na,na,na,caught,Kuldeep Yadav,na,KS Williamson
1st innings,14.5,C de Grandhomme,KK Ahmed,DJ Mitchell,1,1,0,na,na,na,na,na,na,na,na,na
1st innings,14.6,DJ Mitchell,KK Ahmed,C de Grandhomme,0,0,0,na,na,na,na,na,na,na,na,na
1st innings,15.1,C de Grandhomme,KH Pandya,DJ Mitchell,1,1,0,na,na,na,na,na,na,na,na,na
1st innings,15.2,DJ Mitchell,KH Pandya,C de Grandhomme,6,6,0,na,na,na,na,na,na,na,na,na
1st innings,15.3,DJ Mitchell,KH Pandya,C de Grandhomme,1,0,1,na,na,1,na,na,na,na,na,na
1st innings,15.4,DJ Mitchell,KH Pandya,C de Grandhomme,0,0,0,na,na,na,na,na,na,na,na,na
1st innings,15.5,DJ Mitchell,KH Pandya,C de Grandhomme,2,2,0,na,na,na,na,na,na,na,na,na
1st innings,15.6,DJ Mitchell,KH Pandya,C de Grandhomme,4,4,0,na,na,na,na,na,na,na,na,na
1st innings,15.7,DJ Mitchell,KH Pandya,C de Grandhomme,1,0,1,na,na,1,na,na,na,na,na,na
1st innings,15.8,DJ Mitchell,KH Pandya,C de Grandhomme,1,1,0,na,na,na,na,na,na,na,na,na
1st innings,16.1,DJ Mitchell,B Kumar,C de Grandhomme,4,4,0,na,na,na,na,na,na,na,na,na
1st innings,16.2,DJ Mitchell,B Kumar,C de Grandhomme,4,4,0,na,na,na,na,na,na,na,na,na
1st innings,16.3,DJ Mitchell,B Kumar,C de Grandhomme,1,1,0,na,na,na,na,na,na,na,na,na
1st innings,16.4,C de Grandhomme,B Kumar,DJ Mitchell,1,1,0,na,na,na,na,na,na,na,na,na
1st innings,16.5,DJ Mitchell,B Kumar,C de Grandhomme,1,1,0,na,na,na,na,na,na,na,na,na
1st innings,16.6,C de Grandhomme,B Kumar,DJ Mitchell,4,4,0,na,na,na,na,na,na,na,na,na
1st innings,17.1,DJ Mitchell,HH Pandya,C de Grandhomme,1,1,0,na,na,na,na,na,na,na,na,na
1st innings,17.2,C de Grandhomme,HH Pandya,DJ Mitchell,4,4,0,na,na,na,na,na,na,na,na,na
1st innings,17.3,C de Grandhomme,HH Pandya,DJ Mitchell,1,1,0,na,na,na,na,na,na,na,na,na
1st innings,17.4,DJ Mitchell,HH Pandya,C de Grandhomme,3,3,0,na,na,na,na,na,na,na,na,na
1st innings,17.5,C de Grandhomme,HH Pandya,DJ Mitchell,1,1,0,na,na,na,na,na,na,na,na,na
1st innings,17.6,DJ Mitchell,HH Pandya,C de Grandhomme,0,0,0,na,na,na,na,na,na,na,na,na
1st innings,18.1,C de Grandhomme,B Kumar,DJ Mitchell,1,1,0,na,na,na,na,na,na,na,na,na
1st innings,18.2,DJ Mitchell,B Kumar,C de Grandhomme,0,0,0,na,na,na,na,na,caught,MS Dhoni,na,C de Grandhomme
1st innings,18.3,DJ Mitchell,B Kumar,LRPL Taylor,2,2,0,na,na,na,na,na,na,na,na,na
1st innings,18.4,DJ Mitchell,B Kumar,LRPL Taylor,1,1,0,na,na,na,na,na,na,na,na,na
1st innings,18.5,LRPL Taylor,B Kumar,DJ Mitchell,4,4,0,na,na,na,na,na,na,na,na,na
1st innings,18.6,LRPL Taylor,B Kumar,DJ Mitchell,0,0,0,na,na,na,na,na,na,na,na,na
1st innings,19.1,DJ Mitchell,KK Ahmed,LRPL Taylor,6,6,0,na,na,na,na,na,na,na,na,na
1st innings,19.2,DJ Mitchell,KK Ahmed,LRPL Taylor,0,0,0,na,na,na,na,na,na,na,na,na
1st innings,19.3,DJ Mitchell,KK Ahmed,LRPL Taylor,0,0,0,na,na,na,na,na,na,na,na,na
1st innings,19.4,DJ Mitchell,KK Ahmed,LRPL Taylor,1,1,0,na,na,na,na,na,na,na,na,na
1st innings,19.5,LRPL Taylor,KK Ahmed,DJ Mitchell,1,1,0,na,na,na,na,na,na,na,na,na
1st innings,19.6,DJ Mitchell,KK Ahmed,LRPL Taylor,4,4,0,na,na,na,na,na,na,na,na,na
2nd innings,0.1,RG Sharma,MJ Santner,S Dhawan,0,0,0,na,na,na,na,na,na,na,na,na
2nd innings,0.2,RG Sharma,MJ Santner,S Dhawan,4,4,0,na,na,na,na,na,na,na,na,na
2nd innings,0.3,RG Sharma,MJ Santner,S Dhawan,1,1,0,na,na,na,na,na,na,na,na,na
2nd innings,0.4,S Dhawan,MJ Santner,RG Sharma,1,1,0,na,na,na,na,na,na,na,na,na
2nd innings,0.5,RG Sharma,MJ Santner,S Dhawan,0,0,0,na,na,na,na,na,caught,DJ Mitchell,na,S Dhawan
2nd innings,0.6,RG Sharma,MJ Santner,V Shankar,5,0,5,na,na,5,na,na,na,na,na,na
2nd innings,0.7,RG Sharma,MJ Santner,V Shankar,0,0,0,na,na,na,na,na,na,na,na,na
2nd innings,1.1,V Shankar,TG Southee,RG Sharma,1,1,0,na,na,na,na,na,na,na,na,na
2nd innings,1.2,RG Sharma,TG Southee,V Shankar,0,0,0,na,na,na,na,na,na,na,na,na
2nd innings,1.3,RG Sharma,TG Southee,V Shankar,1,1,0,na,na,na,na,na,na,na,na,na
2nd innings,1.4,V Shankar,TG Southee,RG Sharma,0,0,0,na,na,na,na,na,na,na,na,na
2nd innings,1.5,V Shankar,TG Southee,RG Sharma,4,4,0,na,na,na,na,na,na,na,na,na
2nd innings,1.6,V Shankar,TG Southee,RG Sharma,1,1,0,na,na,na,na,na,na,na,na,na
2nd innings,2.1,V Shankar,SC Kuggeleijn,RG Sharma,1,1,0,na,na,na,na,na,na,na,na,na
2nd innings,2.2,RG Sharma,SC Kuggeleijn,V Shankar,1,1,0,na,na,na,na,na,na,na,na,na
2nd innings,2.3,V Shankar,SC Kuggeleijn,RG Sharma,1,1,0,na,na,na,na,na,na,na,na,na
2nd innings,2.4,RG Sharma,SC Kuggeleijn,V Shankar,4,4,0,na,na,na,na,na,na,na,na,na
2nd innings,2.5,RG Sharma,SC Kuggeleijn,V Shankar,0,0,0,na,na,na,na,na,na,na,na,na
2nd innings,2.6,RG Sharma,SC Kuggeleijn,V Shankar,4,4,0,na,na,na,na,na,na,na,na,na
2nd innings,3.1,V Shankar,BM Tickner,RG Sharma,1,1,0,na,na,na,na,na,na,na,na,na
2nd innings,3.2,RG Sharma,BM Tickner,V Shankar,0,0,0,na,na,na,na,na,na,na,na,na
2nd innings,3.3,RG Sharma,BM Tickner,V Shankar,0,0,0,na,na,na,na,na,na,na,na,na
2nd innings,3.4,RG Sharma,BM Tickner,V Shankar,2,2,0,na,na,na,na,na,na,na,na,na
2nd innings,3.5,RG Sharma,BM Tickner,V Shankar,1,0,1,na,na,1,na,na,na,na,na,na
2nd innings,3.6,RG Sharma,BM Tickner,V Shankar,4,4,0,na,na,na,na,na,na,na,na,na
2nd innings,3.7,RG Sharma,BM Tickner,V Shankar,1,1,0,na,na,na,na,na,na,na,na,na
2nd innings,4.1,RG Sharma,TG Southee,V Shankar,0,0,0,na,na,na,na,na,na,na,na,na
2nd innings,4.2,RG Sharma,TG Southee,V Shankar,1,1,0,na,na,na,na,na,na,na,na,na
2nd innings,4.3,V Shankar,TG Southee,RG Sharma,1,1,0,na,na,na,na,na,na,na,na,na
2nd innings,4.4,RG Sharma,TG Southee,V Shankar,1,1,0,na,na,na,na,na,na,na,na,na
2nd innings,4.5,V Shankar,TG Southee,RG Sharma,4,4,0,na,na,na,na,na,na,na,na,na
2nd innings,4.6,V Shankar,TG Southee,RG Sharma,4,4,0,na,na,na,na,na,na,na,na,na
2nd innings,5.1,RG Sharma,SC Kuggeleijn,V Shankar,0,0,0,na,na,na,na,na,na,na,na,na
2nd innings,5.2,RG Sharma,SC Kuggeleijn,V Shankar,4,4,0,na,na,na,na,na,na,na,na,na
2nd innings,5.3,RG Sharma,SC Kuggeleijn,V Shankar,1,1,0,na,na,na,na,na,na,na,na,na
2nd innings,5.4,V Shankar,SC Kuggeleijn,RG Sharma,2,2,0,na,na,na,na,na,na,na,na,na
2nd innings,5.5,V Shankar,SC Kuggeleijn,RG Sharma,0,0,0,na,na,na,na,na,na,na,na,na
2nd innings,5.6,V Shankar,SC Kuggeleijn,RG Sharma,1,1,0,na,na,na,na,na,na,na,na,na
2nd innings,6.1,V Shankar,MJ Santner,RG Sharma,1,1,0,na,na,na,na,na,na,na,na,na
2nd innings,6.2,RG Sharma,MJ Santner,V Shankar,0,0,0,na,na,na,na,na,na,na,na,na
2nd innings,6.3,RG Sharma,MJ Santner,V Shankar,1,1,0,na,na,na,na,na,na,na,na,na
2nd innings,6.4,V Shankar,MJ Santner,RG Sharma,0,0,0,na,na,na,na,na,na,na,na,na
2nd innings,6.5,V Shankar,MJ Santner,RG Sharma,1,0,1,na,na,1,na,na,na,na,na,na
2nd innings,6.6,V Shankar,MJ Santner,RG Sharma,1,1,0,na,na,na,na,na,na,na,na,na
2nd innings,6.7,RG Sharma,MJ Santner,V Shankar,1,1,0,na,na,na,na,na,na,na,na,na
2nd innings,7.1,RG Sharma,IS Sodhi,V Shankar,1,1,0,na,na,na,na,na,na,na,na,na
2nd innings,7.2,V Shankar,IS Sodhi,RG Sharma,1,1,0,na,na,na,na,na,na,na,na,na
2nd innings,7.3,RG Sharma,IS Sodhi,V Shankar,0,0,0,na,na,na,na,na,na,na,na,na
2nd innings,7.4,RG Sharma,IS Sodhi,V Shankar,6,6,0,na,na,na,na,na,na,na,na,na
2nd innings,7.5,RG Sharma,IS Sodhi,V Shankar,6,6,0,na,na,na,na,na,na,na,na,na
2nd innings,7.6,RG Sharma,IS Sodhi,V Shankar,0,0,0,na,na,na,na,na,na,na,na,na
2nd innings,8.1,V Shankar,MJ Santner,RG Sharma,1,1,0,na,na,na,na,na,na,na,na,na
2nd innings,8.2,RG Sharma,MJ Santner,V Shankar,4,4,0,na,na,na,na,na,na,na,na,na
2nd innings,8.3,RG Sharma,MJ Santner,V Shankar,0,0,0,na,na,na,na,na,caught,C de Grandhomme,na,V Shankar
2nd innings,8.4,RR Pant,MJ Santner,RG Sharma,1,1,0,na,na,na,na,na,na,na,na,na
2nd innings,8.5,RG Sharma,MJ Santner,RR Pant,4,4,0,na,na,na,na,na,na,na,na,na
2nd innings,8.6,RG Sharma,MJ Santner,RR Pant,6,6,0,na,na,na,na,na,na,na,na,na
2nd innings,9.1,RR Pant,IS Sodhi,RG Sharma,1,1,0,na,na,na,na,na,na,na,na,na
2nd innings,9.2,RG Sharma,IS Sodhi,RR Pant,1,0,1,na,na,1,na,na,na,na,na,na
2nd innings,9.3,RG Sharma,IS Sodhi,RR Pant,6,6,0,na,na,na,na,na,na,na,na,na
2nd innings,9.4,RG Sharma,IS Sodhi,RR Pant,0,0,0,na,na,na,na,na,na,na,na,na
2nd innings,9.5,RG Sharma,IS Sodhi,RR Pant,1,1,0,na,na,na,na,na,na,na,na,na
2nd innings,9.6,RR Pant,IS Sodhi,RG Sharma,1,1,0,na,na,na,na,na,na,na,na,na
2nd innings,9.7,RG Sharma,IS Sodhi,RR Pant,6,6,0,na,na,na,na,na,na,na,na,na
2nd innings,10.1,RR Pant,BM Tickner,RG Sharma,1,1,0,na,na,na,na,na,na,na,na,na
2nd innings,10.2,RG Sharma,BM Tickner,RR Pant,2,2,0,na,na,na,na,na,na,na,na,na
2nd innings,10.3,RG Sharma,BM Tickner,RR Pant,1,1,0,na,na,na,na,na,na,na,na,na
2nd innings,10.4,RR Pant,BM Tickner,RG Sharma,2,2,0,na,na,na,na,na,na,na,na,na
2nd innings,10.5,RR Pant,BM Tickner,RG Sharma,0,0,0,na,na,na,na,na,na,na,na,na
2nd innings,10.6,RR Pant,BM Tickner,RG Sharma,1,1,0,na,na,na,na,na,na,na,na,na
2nd innings,11.1,RR Pant,DJ Mitchell,RG Sharma,1,1,0,na,na,na,na,na,na,na,na,na
2nd innings,11.2,RG Sharma,DJ Mitchell,RR Pant,0,0,0,na,na,na,na,na,na,na,na,na
2nd innings,11.3,RG Sharma,DJ Mitchell,RR Pant,1,1,0,na,na,na,na,na,na,na,na,na
2nd innings,11.4,RR Pant,DJ Mitchell,RG Sharma,1,1,0,na,na,na,na,na,na,na,na,na
2nd innings,11.5,RG Sharma,DJ Mitchell,RR Pant,1,1,0,na,na,na,na,na,na,na,na,na
2nd innings,11.6,RR Pant,DJ Mitchell,RG Sharma,1,1,0,na,na,na,na,na,na,na,na,na
2nd innings,12.1,RR Pant,BM Tickner,RG Sharma,1,1,0,na,na,na,na,na,na,na,na,na
2nd innings,12.2,RG Sharma,BM Tickner,RR Pant,0,0,0,na,na,na,na,na,caught,KS Williamson,na,RR Pant
2nd innings,12.3,RG Sharma,BM Tickner,HH Pandya,6,6,0,na,na,na,na,na,na,na,na,na
2nd innings,12.4,RG Sharma,BM Tickner,HH Pandya,0,0,0,na,na,na,na,na,na,na,na,na
2nd innings,12.5,RG Sharma,BM Tickner,HH Pandya,0,0,0,na,na,na,na,na,na,na,na,na
2nd innings,12.6,RG Sharma,BM Tickner,HH Pandya,1,1,0,na,na,na,na,na,na,na,na,na
2nd innings,13.1,RG Sharma,DJ Mitchell,HH Pandya,1,1,0,na,na,na,na,na,na,na,na,na
2nd innings,13.2,HH Pandya,DJ Mitchell,RG Sharma,1,1,0,na,na,na,na,na,na,na,na,na
2nd innings,13.3,RG Sharma,DJ Mitchell,HH Pandya,4,4,0,na,na,na,na,na,na,na,na,na
2nd innings,13.4,RG Sharma,DJ Mitchell,HH Pandya,6,6,0,na,na,na,na,na,na,na,na,na
2nd innings,13.5,RG Sharma,DJ Mitchell,HH Pandya,1,1,0,na,na,na,na,na,na,na,na,na
2nd innings,13.6,HH Pandya,DJ Mitchell,RG Sharma,0,0,0,na,na,na,na,na,caught,TL Seifert,na,RG Sharma
2nd innings,14.1,MS Dhoni,SC Kuggeleijn,HH Pandya,1,1,0,na,na,na,na,na,na,na,na,na
2nd innings,14.2,HH Pandya,SC Kuggeleijn,MS Dhoni,1,1,0,na,na,na,na,na,na,na,na,na
2nd innings,14.3,MS Dhoni,SC Kuggeleijn,HH Pandya,1,1,0,na,na,na,na,na,na,na,na,na
2nd innings,14.4,HH Pandya,SC Kuggeleijn,MS Dhoni,1,1,0,na,na,na,na,na,na,na,na,na
2nd innings,14.5,MS Dhoni,SC Kuggeleijn,HH Pandya,0,0,0,na,na,na,na,na,caught,KS Williamson,na,HH Pandya
2nd innings,14.6,MS Dhoni,SC Kuggeleijn,KD Karthik,0,0,0,na,na,na,na,na,na,na,na,na
2nd innings,15.1,KD Karthik,DJ Mitchell,MS Dhoni,0,0,0,na,na,na,na,na,na,na,na,na
2nd innings,15.2,KD Karthik,DJ Mitchell,MS Dhoni,0,0,0,na,na,na,na,na,caught,TG Southee,na,MS Dhoni
2nd innings,15.3,KH Pandya,DJ Mitchell,KD Karthik,2,2,0,na,na,na,na,na,na,na,na,na
2nd innings,15.4,KH Pandya,DJ Mitchell,KD Karthik,6,6,0,na,na,na,na,na,na,na,na,na
2nd innings,15.5,KH Pandya,DJ Mitchell,KD Karthik,0,0,0,na,na,na,na,na,na,na,na,na
2nd innings,15.6,KH Pandya,DJ Mitchell,KD Karthik,1,1,0,na,na,na,na,na,na,na,na,na
2nd innings,16.1,KH Pandya,BM Tickner,KD Karthik,6,6,0,na,na,na,na,na,na,na,na,na
2nd innings,16.2,KH Pandya,BM Tickner,KD Karthik,1,0,1,1,na,na,na,na,na,na,na,na
2nd innings,16.3,KD Karthik,BM Tickner,KH Pandya,1,1,0,na,na,na,na,na,na,na,na,na
2nd innings,16.4,KH Pandya,BM Tickner,KD Karthik,1,1,0,na,na,na,na,na,na,na,na,na
2nd innings,16.5,KD Karthik,BM Tickner,KH Pandya,1,0,1,na,na,1,na,na,na,na,na,na
2nd innings,16.6,KD Karthik,BM Tickner,KH Pandya,0,0,0,na,na,na,na,na,na,na,na,na
2nd innings,16.7,KD Karthik,BM Tickner,KH Pandya,1,1,0,na,na,na,na,na,na,na,na,na
2nd innings,17.1,KD Karthik,TG Southee,KH Pandya,1,0,1,na,na,1,na,na,na,na,na,na
2nd innings,17.2,KD Karthik,TG Southee,KH Pandya,6,6,0,na,na,na,na,na,na,na,na,na
2nd innings,17.3,KD Karthik,TG Southee,KH Pandya,4,4,0,na,na,na,na,na,na,na,na,na
2nd innings,17.4,KD Karthik,TG Southee,KH Pandya,4,4,0,na,na,na,na,na,na,na,na,na
2nd innings,17.5,KD Karthik,TG Southee,KH Pandya,1,1,0,na,na,na,na,na,na,na,na,na
2nd innings,17.6,KH Pandya,TG Southee,KD Karthik,1,1,0,na,na,na,na,na,na,na,na,na
2nd innings,17.7,KD Karthik,TG Southee,KH Pandya,1,1,0,na,na,na,na,na,na,na,na,na
2nd innings,18.1,KD Karthik,SC Kuggeleijn,KH Pandya,0,0,0,na,na,na,na,na,na,na,na,na
2nd innings,18.2,KD Karthik,SC Kuggeleijn,KH Pandya,1,1,0,na,na,na,na,na,na,na,na,na
2nd innings,18.3,KH Pandya,SC Kuggeleijn,KD Karthik,6,6,0,na,na,na,na,na,na,na,na,na
2nd innings,18.4,KH Pandya,SC Kuggeleijn,KD Karthik,1,1,0,na,na,na,na,na,na,na,na,na
2nd innings,18.5,KD Karthik,SC Kuggeleijn,KH Pandya,0,0,0,na,na,na,na,na,na,na,na,na
2nd innings,18.6,KD Karthik,SC Kuggeleijn,KH Pandya,6,6,0,na,na,na,na,na,na,na,na,na
2nd innings,19.1,KH Pandya,TG Southee,KD Karthik,2,2,0,na,na,na,na,na,na,na,na,na
2nd innings,19.2,KH Pandya,TG Southee,KD Karthik,0,0,0,na,na,na,na,na,na,na,na,na
2nd innings,19.3,KH Pandya,TG Southee,KD Karthik,0,0,0,na,na,na,na,na,na,na,na,na
2nd innings,19.4,KH Pandya,TG Southee,KD Karthik,1,1,0,na,na,na,na,na,na,na,na,na
2nd innings,19.5,KD Karthik,TG Southee,KH Pandya,1,1,0,na,na,na,na,na,na,na,na,na
2nd innings,19.6,KH Pandya,TG Southee,KD Karthik,1,0,1,na,na,1,na,na,na,na,na,na
2nd innings,19.7,KH Pandya,TG Southee,KD Karthik,6,6,0,na,na,na,na,na,na,na,na,na
