inngs,deliveries,non_striker,bowler,batsman,totalruns,batsman_runs,extra_runs,legbyes,byes,wides,noballs,penalty,wicket_kind,fielder1,fielder2,player_out
1st innings,0.1,SD Hope,Abu Hider,E Lewis,0,0,0,na,na,na,na,na,na,na,na,na
1st innings,0.2,SD Hope,Abu Hider,E Lewis,2,2,0,na,na,na,na,na,na,na,na,na
1st innings,0.3,SD Hope,Abu Hider,E Lewis,1,0,1,na,na,1,na,na,na,na,na,na
1st innings,0.4,SD Hope,Abu Hider,E Lewis,4,4,0,na,na,na,na,na,na,na,na,na
1st innings,0.5,SD Hope,Abu Hider,E Lewis,0,0,0,na,na,na,na,na,na,na,na,na
1st innings,0.6,SD Hope,Abu Hider,E Lewis,4,4,0,na,na,na,na,na,na,na,na,na
1st innings,0.7,SD Hope,Abu Hider,E Lewis,1,1,0,na,na,na,na,na,na,na,na,na
1st innings,1.1,SD Hope,Mohammad Saifuddin,E Lewis,1,0,1,na,na,1,na,na,na,na,na,na
1st innings,1.2,SD Hope,Mohammad Saifuddin,E Lewis,1,1,0,na,na,na,na,na,na,na,na,na
1st innings,1.3,E Lewis,Mohammad Saifuddin,SD Hope,0,0,0,na,na,na,na,na,na,na,na,na
1st innings,1.4,E Lewis,Mohammad Saifuddin,SD Hope,0,0,0,na,na,na,na,na,na,na,na,na
1st innings,1.5,E Lewis,Mohammad Saifuddin,SD Hope,4,4,0,na,na,na,na,na,na,na,na,na
1st innings,1.6,E Lewis,Mohammad Saifuddin,SD Hope,2,2,0,na,na,na,na,na,na,na,na,na
1st innings,1.7,E Lewis,Mohammad Saifuddin,SD Hope,0,0,0,na,na,na,na,na,na,na,na,na
1st innings,2.1,SD Hope,Abu Hider,E Lewis,6,6,0,na,na,na,na,na,na,na,na,na
1st innings,2.2,SD Hope,Abu Hider,E Lewis,6,6,0,na,na,na,na,na,na,na,na,na
1st innings,2.3,SD Hope,Abu Hider,E Lewis,1,0,1,na,na,1,na,na,na,na,na,na
1st innings,2.4,SD Hope,Abu Hider,E Lewis,6,6,0,na,na,na,na,na,na,na,na,na
1st innings,2.5,SD Hope,Abu Hider,E Lewis,2,2,0,na,na,na,na,na,na,na,na,na
1st innings,2.6,SD Hope,Abu Hider,E Lewis,0,0,0,na,na,na,na,na,na,na,na,na
1st innings,2.7,SD Hope,Abu Hider,E Lewis,6,6,0,na,na,na,na,na,na,na,na,na
1st innings,3.1,E Lewis,Mehedi Hasan Miraz,SD Hope,4,4,0,na,na,na,na,na,na,na,na,na
1st innings,3.2,E Lewis,Mehedi Hasan Miraz,SD Hope,1,1,0,na,na,na,na,na,na,na,na,na
1st innings,3.3,SD Hope,Mehedi Hasan Miraz,E Lewis,0,0,0,na,na,na,na,na,na,na,na,na
1st innings,3.4,SD Hope,Mehedi Hasan Miraz,E Lewis,6,6,0,na,na,na,na,na,na,na,na,na
1st innings,3.5,SD Hope,Mehedi Hasan Miraz,E Lewis,4,4,0,na,na,na,na,na,na,na,na,na
1st innings,3.6,SD Hope,Mehedi Hasan Miraz,E Lewis,1,1,0,na,na,na,na,na,na,na,na,na
1st innings,4.1,SD Hope,Shakib Al Hasan,E Lewis,1,1,0,na,na,na,na,na,na,na,na,na
1st innings,4.2,E Lewis,Shakib Al Hasan,SD Hope,2,2,0,na,na,na,na,na,na,na,na,na
1st innings,4.3,E Lewis,Shakib Al Hasan,SD Hope,6,6,0,na,na,na,na,na,na,na,na,na
1st innings,4.4,E Lewis,Shakib Al Hasan,SD Hope,0,0,0,na,na,na,na,na,na,na,na,na
1st innings,4.5,E Lewis,Shakib Al Hasan,SD Hope,4,4,0,na,na,na,na,na,na,na,na,na
1st innings,4.6,E Lewis,Shakib Al Hasan,SD Hope,0,0,0,na,na,na,na,na,bowled,na,na,SD Hope
1st innings,5.1,KMA Paul,Mohammad Saifuddin,E Lewis,0,0,0,na,na,na,na,na,na,na,na,na
1st innings,5.2,KMA Paul,Mohammad Saifuddin,E Lewis,2,2,0,na,na,na,na,na,na,na,na,na
1st innings,5.3,KMA Paul,Mohammad Saifuddin,E Lewis,0,0,0,na,na,na,na,na,na,na,na,na
1st innings,5.4,KMA Paul,Mohammad Saifuddin,E Lewis,0,0,0,na,na,na,na,na,na,na,na,na
1st innings,5.5,KMA Paul,Mohammad Saifuddin,E Lewis,4,4,0,na,na,na,na,na,na,na,na,na
1st innings,5.6,KMA Paul,Mohammad Saifuddin,E Lewis,6,6,0,na,na,na,na,na,na,na,na,na
1st innings,6.1,E Lewis,Mustafizur Rahman,KMA Paul,2,2,0,na,na,na,na,na,na,na,na,na
1st innings,6.2,E Lewis,Mustafizur Rahman,KMA Paul,0,0,0,na,na,na,na,na,na,na,na,na
1st innings,6.3,E Lewis,Mustafizur Rahman,KMA Paul,0,0,0,na,na,na,na,na,caught,Ariful Haque,na,KMA Paul
1st innings,6.4,R Powell,Mustafizur Rahman,E Lewis,6,6,0,na,na,na,na,na,na,na,na,na
1st innings,6.5,R Powell,Mustafizur Rahman,E Lewis,1,1,0,na,na,na,na,na,na,na,na,na
1st innings,6.6,E Lewis,Mustafizur Rahman,R Powell,1,1,0,na,na,na,na,na,na,na,na,na
1st innings,7.1,E Lewis,Mehedi Hasan Miraz,R Powell,2,2,0,na,na,na,na,na,na,na,na,na
1st innings,7.2,E Lewis,Mehedi Hasan Miraz,R Powell,0,0,0,na,na,na,na,na,na,na,na,na
1st innings,7.3,E Lewis,Mehedi Hasan Miraz,R Powell,0,0,0,na,na,na,na,na,na,na,na,na
1st innings,7.4,E Lewis,Mehedi Hasan Miraz,R Powell,1,1,0,na,na,na,na,na,na,na,na,na
1st innings,7.5,R Powell,Mehedi Hasan Miraz,E Lewis,6,6,0,na,na,na,na,na,na,na,na,na
1st innings,7.6,R Powell,Mehedi Hasan Miraz,E Lewis,1,1,0,na,na,na,na,na,na,na,na,na
1st innings,8.1,R Powell,Mustafizur Rahman,E Lewis,1,0,1,na,na,1,na,na,na,na,na,na
1st innings,8.2,R Powell,Mustafizur Rahman,E Lewis,4,4,0,na,na,na,na,na,na,na,na,na
1st innings,8.3,R Powell,Mustafizur Rahman,E Lewis,4,4,0,na,na,na,na,na,na,na,na,na
1st innings,8.4,R Powell,Mustafizur Rahman,E Lewis,0,0,0,na,na,na,na,na,na,na,na,na
1st innings,8.5,R Powell,Mustafizur Rahman,E Lewis,2,2,0,na,na,na,na,na,na,na,na,na
1st innings,8.6,R Powell,Mustafizur Rahman,E Lewis,0,0,0,na,na,na,na,na,na,na,na,na
1st innings,8.7,R Powell,Mustafizur Rahman,E Lewis,1,1,0,na,na,na,na,na,na,na,na,na
1st innings,9.1,R Powell,Mahmudullah,E Lewis,2,2,0,na,na,na,na,na,na,na,na,na
1st innings,9.2,R Powell,Mahmudullah,E Lewis,0,0,0,na,na,na,na,na,bowled,na,na,E Lewis
1st innings,9.3,R Powell,Mahmudullah,SO Hetmyer,0,0,0,na,na,na,na,na,lbw,na,na,SO Hetmyer
1st innings,9.4,R Powell,Mahmudullah,N Pooran,0,0,0,na,na,na,na,na,na,na,na,na
1st innings,9.5,R Powell,Mahmudullah,N Pooran,0,0,0,na,na,na,na,na,na,na,na,na
1st innings,9.6,R Powell,Mahmudullah,N Pooran,1,1,0,na,na,na,na,na,na,na,na,na
1st innings,10.1,R Powell,Shakib Al Hasan,N Pooran,6,6,0,na,na,na,na,na,na,na,na,na
1st innings,10.2,R Powell,Shakib Al Hasan,N Pooran,0,0,0,na,na,na,na,na,na,na,na,na
1st innings,10.3,R Powell,Shakib Al Hasan,N Pooran,0,0,0,na,na,na,na,na,na,na,na,na
1st innings,10.4,R Powell,Shakib Al Hasan,N Pooran,0,0,0,na,na,na,na,na,na,na,na,na
1st innings,10.5,R Powell,Shakib Al Hasan,N Pooran,0,0,0,na,na,na,na,na,na,na,na,na
1st innings,10.6,R Powell,Shakib Al Hasan,N Pooran,0,0,0,na,na,na,na,na,na,na,na,na
1st innings,11.1,N Pooran,Mahmudullah,R Powell,0,0,0,na,na,na,na,na,na,na,na,na
1st innings,11.2,N Pooran,Mahmudullah,R Powell,1,1,0,na,na,na,na,na,na,na,na,na
1st innings,11.3,R Powell,Mahmudullah,N Pooran,1,1,0,na,na,na,na,na,na,na,na,na
1st innings,11.4,N Pooran,Mahmudullah,R Powell,1,1,0,na,na,na,na,na,na,na,na,na
1st innings,11.5,R Powell,Mahmudullah,N Pooran,1,1,0,na,na,na,na,na,na,na,na,na
1st innings,11.6,N Pooran,Mahmudullah,R Powell,1,1,0,na,na,na,na,na,na,na,na,na
1st innings,12.1,N Pooran,Shakib Al Hasan,R Powell,0,0,0,na,na,na,na,na,na,na,na,na
1st innings,12.2,N Pooran,Shakib Al Hasan,R Powell,6,6,0,na,na,na,na,na,na,na,na,na
1st innings,12.3,N Pooran,Shakib Al Hasan,R Powell,0,0,0,na,na,na,na,na,na,na,na,na
1st innings,12.4,N Pooran,Shakib Al Hasan,R Powell,1,1,0,na,na,na,na,na,na,na,na,na
1st innings,12.5,R Powell,Shakib Al Hasan,N Pooran,6,6,0,na,na,na,na,na,na,na,na,na
1st innings,12.6,R Powell,Shakib Al Hasan,N Pooran,4,4,0,na,na,na,na,na,na,na,na,na
1st innings,13.1,N Pooran,Mahmudullah,R Powell,1,0,1,na,na,1,na,na,na,na,na,na
1st innings,13.2,N Pooran,Mahmudullah,R Powell,4,4,0,na,na,na,na,na,na,na,na,na
1st innings,13.3,N Pooran,Mahmudullah,R Powell,1,1,0,na,na,na,na,na,na,na,na,na
1st innings,13.4,R Powell,Mahmudullah,N Pooran,1,1,0,na,na,na,na,na,na,na,na,na
1st innings,13.5,N Pooran,Mahmudullah,R Powell,1,0,1,na,na,1,na,na,na,na,na,na
1st innings,13.6,N Pooran,Mahmudullah,R Powell,0,0,0,na,na,na,na,na,caught,Liton Das,na,R Powell
1st innings,13.7,N Pooran,Mahmudullah,CR Brathwaite,1,1,0,na,na,na,na,na,na,na,na,na
1st innings,13.8,CR Brathwaite,Mahmudullah,N Pooran,0,0,0,na,na,na,na,na,na,na,na,na
1st innings,14.1,N Pooran,Mustafizur Rahman,CR Brathwaite,1,1,0,na,na,na,na,na,na,na,na,na
1st innings,14.2,CR Brathwaite,Mustafizur Rahman,N Pooran,0,0,0,na,na,na,na,na,na,na,na,na
1st innings,14.3,CR Brathwaite,Mustafizur Rahman,N Pooran,0,0,0,na,na,na,na,na,na,na,na,na
1st innings,14.4,CR Brathwaite,Mustafizur Rahman,N Pooran,2,2,0,na,na,na,na,na,na,na,na,na
1st innings,14.5,CR Brathwaite,Mustafizur Rahman,N Pooran,4,4,0,na,na,na,na,na,na,na,na,na
1st innings,14.6,CR Brathwaite,Mustafizur Rahman,N Pooran,1,1,0,na,na,na,na,na,na,na,na,na
1st innings,15.1,CR Brathwaite,Mohammad Saifuddin,N Pooran,0,0,0,na,na,na,na,na,na,na,na,na
1st innings,15.2,CR Brathwaite,Mohammad Saifuddin,N Pooran,1,1,0,na,na,na,na,na,na,na,na,na
1st innings,15.3,N Pooran,Mohammad Saifuddin,CR Brathwaite,1,0,1,na,na,1,na,na,na,na,na,na
1st innings,15.4,N Pooran,Mohammad Saifuddin,CR Brathwaite,1,1,0,na,na,na,na,na,na,na,na,na
1st innings,15.5,CR Brathwaite,Mohammad Saifuddin,N Pooran,1,1,0,na,na,na,na,na,na,na,na,na
1st innings,15.6,N Pooran,Mohammad Saifuddin,CR Brathwaite,4,4,0,na,na,na,na,na,na,na,na,na
1st innings,15.7,N Pooran,Mohammad Saifuddin,CR Brathwaite,0,0,0,na,na,na,na,na,na,na,na,na
1st innings,16.1,CR Brathwaite,Mustafizur Rahman,N Pooran,0,0,0,na,na,na,na,na,caught,Abu Hider,na,N Pooran
1st innings,16.2,SE Rutherford,Mustafizur Rahman,CR Brathwaite,1,1,0,na,na,na,na,na,na,na,na,na
1st innings,16.3,CR Brathwaite,Mustafizur Rahman,SE Rutherford,0,0,0,na,na,na,na,na,na,na,na,na
1st innings,16.4,CR Brathwaite,Mustafizur Rahman,SE Rutherford,1,1,0,na,na,na,na,na,na,na,na,na
1st innings,16.5,SE Rutherford,Mustafizur Rahman,CR Brathwaite,0,0,0,na,na,na,na,na,caught,Mehedi Hasan Miraz,na,CR Brathwaite
1st innings,16.6,SE Rutherford,Mustafizur Rahman,FA Allen,1,1,0,na,na,na,na,na,na,na,na,na
1st innings,17.1,SE Rutherford,Mohammad Saifuddin,FA Allen,0,0,0,na,na,na,na,na,na,na,na,na
1st innings,17.2,SE Rutherford,Mohammad Saifuddin,FA Allen,1,1,0,na,na,na,na,na,na,na,na,na
1st innings,17.3,FA Allen,Mohammad Saifuddin,SE Rutherford,1,1,0,na,na,na,na,na,na,na,na,na
1st innings,17.4,SE Rutherford,Mohammad Saifuddin,FA Allen,4,4,0,na,na,na,na,na,na,na,na,na
1st innings,17.5,SE Rutherford,Mohammad Saifuddin,FA Allen,0,0,0,na,na,na,na,na,na,na,na,na
1st innings,17.6,SE Rutherford,Mohammad Saifuddin,FA Allen,2,2,0,na,na,na,na,na,na,na,na,na
1st innings,18.1,FA Allen,Shakib Al Hasan,SE Rutherford,1,0,1,na,1,na,na,na,na,na,na,na
1st innings,18.2,SE Rutherford,Shakib Al Hasan,FA Allen,0,0,0,na,na,na,na,na,stumped,Mushfiqur Rahim,na,FA Allen
1st innings,18.3,SE Rutherford,Shakib Al Hasan,SS Cottrell,1,1,0,na,na,na,na,na,na,na,na,na
1st innings,18.4,SS Cottrell,Shakib Al Hasan,SE Rutherford,0,0,0,na,na,na,na,na,na,na,na,na
1st innings,18.5,SS Cottrell,Shakib Al Hasan,SE Rutherford,0,0,0,na,na,na,na,na,caught,Mushfiqur Rahim,na,SE Rutherford
1st innings,18.6,SS Cottrell,Shakib Al Hasan,O Thomas,0,0,0,na,na,na,na,na,na,na,na,na
1st innings,19.1,O Thomas,Mahmudullah,SS Cottrell,1,1,0,na,na,na,na,na,na,na,na,na
1st innings,19.2,SS Cottrell,Mahmudullah,O Thomas,0,0,0,na,na,na,na,na,run out,na,na,O Thomas
2nd innings,0.1,Liton Das,SS Cottrell,Tamim Iqbal,0,0,0,na,na,na,na,na,na,na,na,na
2nd innings,0.2,Liton Das,SS Cottrell,Tamim Iqbal,1,1,0,na,na,na,na,na,na,na,na,na
2nd innings,0.3,Tamim Iqbal,SS Cottrell,Liton Das,0,0,0,na,na,na,na,na,na,na,na,na
2nd innings,0.4,Tamim Iqbal,SS Cottrell,Liton Das,1,0,1,na,na,1,na,na,na,na,na,na
2nd innings,0.5,Tamim Iqbal,SS Cottrell,Liton Das,1,1,0,na,na,na,na,na,na,na,na,na
2nd innings,0.6,Liton Das,SS Cottrell,Tamim Iqbal,6,6,0,na,na,na,na,na,na,na,na,na
2nd innings,0.7,Liton Das,SS Cottrell,Tamim Iqbal,1,0,1,na,1,na,na,na,na,na,na,na
2nd innings,1.1,Liton Das,O Thomas,Tamim Iqbal,1,0,1,na,na,na,1,na,na,na,na,na
2nd innings,1.2,Liton Das,O Thomas,Tamim Iqbal,1,1,0,na,na,na,na,na,na,na,na,na
2nd innings,1.3,Tamim Iqbal,O Thomas,Liton Das,0,0,0,na,na,na,na,na,na,na,na,na
2nd innings,1.4,Tamim Iqbal,O Thomas,Liton Das,1,0,1,na,na,na,1,na,na,na,na,na
2nd innings,1.5,Tamim Iqbal,O Thomas,Liton Das,6,6,0,na,na,na,na,na,na,na,na,na
2nd innings,1.6,Tamim Iqbal,O Thomas,Liton Das,1,0,1,na,na,1,na,na,na,na,na,na
2nd innings,1.7,Tamim Iqbal,O Thomas,Liton Das,2,2,0,na,na,na,na,na,run out,na,na,Tamim Iqbal
2nd innings,1.8,Liton Das,O Thomas,Soumya Sarkar,1,1,0,na,na,na,na,na,na,na,na,na
2nd innings,1.9,Soumya Sarkar,O Thomas,Liton Das,4,4,0,na,na,na,na,na,na,na,na,na
2nd innings,2.1,Liton Das,SS Cottrell,Soumya Sarkar,0,0,0,na,na,na,na,na,na,na,na,na
2nd innings,2.2,Liton Das,SS Cottrell,Soumya Sarkar,1,0,1,na,na,1,na,na,na,na,na,na
2nd innings,2.3,Liton Das,SS Cottrell,Soumya Sarkar,0,0,0,na,na,na,na,na,na,na,na,na
2nd innings,2.4,Liton Das,SS Cottrell,Soumya Sarkar,0,0,0,na,na,na,na,na,na,na,na,na
2nd innings,2.5,Liton Das,SS Cottrell,Soumya Sarkar,1,0,1,na,na,1,na,na,na,na,na,na
2nd innings,2.6,Liton Das,SS Cottrell,Soumya Sarkar,0,0,0,na,na,na,na,na,na,na,na,na
2nd innings,2.7,Liton Das,SS Cottrell,Soumya Sarkar,0,0,0,na,na,na,na,na,na,na,na,na
2nd innings,2.8,Liton Das,SS Cottrell,Soumya Sarkar,1,0,1,na,na,na,1,na,na,na,na,na
2nd innings,2.9,Liton Das,SS Cottrell,Soumya Sarkar,2,2,0,na,na,na,na,na,na,na,na,na
2nd innings,3.1,Soumya Sarkar,O Thomas,Liton Das,6,6,0,na,na,na,na,na,na,na,na,na
2nd innings,3.2,Soumya Sarkar,O Thomas,Liton Das,0,0,0,na,na,na,na,na,na,na,na,na
2nd innings,3.3,Soumya Sarkar,O Thomas,Liton Das,4,4,0,na,na,na,na,na,na,na,na,na
2nd innings,3.4,Soumya Sarkar,O Thomas,Liton Das,0,0,0,na,na,na,na,na,na,na,na,na
2nd innings,3.5,Soumya Sarkar,O Thomas,Liton Das,5,4,1,na,na,na,1,na,na,na,na,na
2nd innings,3.6,Soumya Sarkar,O Thomas,Liton Das,6,6,0,na,na,na,na,na,na,na,na,na
2nd innings,3.7,Soumya Sarkar,O Thomas,Liton Das,1,0,1,na,na,1,na,na,na,na,na,na
2nd innings,3.8,Soumya Sarkar,O Thomas,Liton Das,2,1,1,na,na,na,1,na,na,na,na,na
2nd innings,3.9,Liton Das,O Thomas,Soumya Sarkar,6,6,0,na,na,na,na,na,na,na,na,na
2nd innings,4.1,Soumya Sarkar,FA Allen,Liton Das,3,3,0,na,na,na,na,na,na,na,na,na
2nd innings,4.2,Liton Das,FA Allen,Soumya Sarkar,0,0,0,na,na,na,na,na,caught,SS Cottrell,na,Soumya Sarkar
2nd innings,4.3,Liton Das,FA Allen,Shakib Al Hasan,0,0,0,na,na,na,na,na,caught,SS Cottrell,na,Shakib Al Hasan
2nd innings,4.4,Liton Das,FA Allen,Mushfiqur Rahim,0,0,0,na,na,na,na,na,na,na,na,na
2nd innings,4.5,Liton Das,FA Allen,Mushfiqur Rahim,1,1,0,na,na,na,na,na,na,na,na,na
2nd innings,4.6,Mushfiqur Rahim,FA Allen,Liton Das,0,0,0,na,na,na,na,na,na,na,na,na
2nd innings,5.1,Liton Das,KMA Paul,Mushfiqur Rahim,0,0,0,na,na,na,na,na,na,na,na,na
2nd innings,5.2,Liton Das,KMA Paul,Mushfiqur Rahim,0,0,0,na,na,na,na,na,na,na,na,na
2nd innings,5.3,Liton Das,KMA Paul,Mushfiqur Rahim,0,0,0,na,na,na,na,na,caught,FA Allen,na,Mushfiqur Rahim
2nd innings,5.4,Liton Das,KMA Paul,Mahmudullah,0,0,0,na,na,na,na,na,na,na,na,na
2nd innings,5.5,Liton Das,KMA Paul,Mahmudullah,4,4,0,na,na,na,na,na,na,na,na,na
2nd innings,5.6,Liton Das,KMA Paul,Mahmudullah,0,0,0,na,na,na,na,na,na,na,na,na
2nd innings,6.1,Mahmudullah,FA Allen,Liton Das,1,1,0,na,na,na,na,na,na,na,na,na
2nd innings,6.2,Liton Das,FA Allen,Mahmudullah,4,4,0,na,na,na,na,na,na,na,na,na
2nd innings,6.3,Liton Das,FA Allen,Mahmudullah,0,0,0,na,na,na,na,na,na,na,na,na
2nd innings,6.4,Liton Das,FA Allen,Mahmudullah,1,1,0,na,na,na,na,na,na,na,na,na
2nd innings,6.5,Mahmudullah,FA Allen,Liton Das,1,1,0,na,na,na,na,na,na,na,na,na
2nd innings,6.6,Liton Das,FA Allen,Mahmudullah,1,1,0,na,na,na,na,na,na,na,na,na
2nd innings,7.1,Liton Das,KMA Paul,Mahmudullah,1,1,0,na,na,na,na,na,na,na,na,na
2nd innings,7.2,Mahmudullah,KMA Paul,Liton Das,1,1,0,na,na,na,na,na,na,na,na,na
2nd innings,7.3,Liton Das,KMA Paul,Mahmudullah,0,0,0,na,na,na,na,na,caught,CR Brathwaite,na,Mahmudullah
2nd innings,7.4,Liton Das,KMA Paul,Mehedi Hasan Miraz,0,0,0,na,na,na,na,na,na,na,na,na
2nd innings,7.5,Liton Das,KMA Paul,Mehedi Hasan Miraz,0,0,0,na,na,na,na,na,na,na,na,na
2nd innings,7.6,Liton Das,KMA Paul,Mehedi Hasan Miraz,0,0,0,na,na,na,na,na,na,na,na,na
2nd innings,8.1,Mehedi Hasan Miraz,FA Allen,Liton Das,2,2,0,na,na,na,na,na,na,na,na,na
2nd innings,8.2,Mehedi Hasan Miraz,FA Allen,Liton Das,0,0,0,na,na,na,na,na,na,na,na,na
2nd innings,8.3,Mehedi Hasan Miraz,FA Allen,Liton Das,0,0,0,na,na,na,na,na,na,na,na,na
2nd innings,8.4,Mehedi Hasan Miraz,FA Allen,Liton Das,0,0,0,na,na,na,na,na,na,na,na,na
2nd innings,8.5,Mehedi Hasan Miraz,FA Allen,Liton Das,1,1,0,na,na,na,na,na,na,na,na,na
2nd innings,8.6,Liton Das,FA Allen,Mehedi Hasan Miraz,1,1,0,na,na,na,na,na,na,na,na,na
2nd innings,9.1,Liton Das,KMA Paul,Mehedi Hasan Miraz,4,4,0,na,na,na,na,na,na,na,na,na
2nd innings,9.2,Liton Das,KMA Paul,Mehedi Hasan Miraz,1,1,0,na,na,na,na,na,na,na,na,na
2nd innings,9.3,Mehedi Hasan Miraz,KMA Paul,Liton Das,0,0,0,na,na,na,na,na,caught,CR Brathwaite,na,Liton Das
2nd innings,9.4,Mehedi Hasan Miraz,KMA Paul,Ariful Haque,0,0,0,na,na,na,na,na,caught,SE Rutherford,na,Ariful Haque
2nd innings,9.5,Mehedi Hasan Miraz,KMA Paul,Mohammad Saifuddin,0,0,0,na,na,na,na,na,na,na,na,na
2nd innings,9.6,Mehedi Hasan Miraz,KMA Paul,Mohammad Saifuddin,0,0,0,na,na,na,na,na,na,na,na,na
2nd innings,10.1,Mohammad Saifuddin,FA Allen,Mehedi Hasan Miraz,1,0,1,na,na,1,na,na,na,na,na,na
2nd innings,10.2,Mohammad Saifuddin,FA Allen,Mehedi Hasan Miraz,0,0,0,na,na,na,na,na,na,na,na,na
2nd innings,10.3,Mohammad Saifuddin,FA Allen,Mehedi Hasan Miraz,0,0,0,na,na,na,na,na,na,na,na,na
2nd innings,10.4,Mohammad Saifuddin,FA Allen,Mehedi Hasan Miraz,0,0,0,na,na,na,na,na,na,na,na,na
2nd innings,10.5,Mohammad Saifuddin,FA Allen,Mehedi Hasan Miraz,0,0,0,na,na,na,na,na,na,na,na,na
2nd innings,10.6,Mohammad Saifuddin,FA Allen,Mehedi Hasan Miraz,1,1,0,na,na,na,na,na,na,na,na,na
2nd innings,10.7,Mehedi Hasan Miraz,FA Allen,Mohammad Saifuddin,1,1,0,na,na,na,na,na,na,na,na,na
2nd innings,11.1,Mehedi Hasan Miraz,KMA Paul,Mohammad Saifuddin,0,0,0,na,na,na,na,na,na,na,na,na
2nd innings,11.2,Mehedi Hasan Miraz,KMA Paul,Mohammad Saifuddin,4,4,0,na,na,na,na,na,na,na,na,na
2nd innings,11.3,Mehedi Hasan Miraz,KMA Paul,Mohammad Saifuddin,0,0,0,na,na,na,na,na,na,na,na,na
2nd innings,11.4,Mehedi Hasan Miraz,KMA Paul,Mohammad Saifuddin,0,0,0,na,na,na,na,na,caught,SD Hope,na,Mohammad Saifuddin
2nd innings,11.5,Mehedi Hasan Miraz,KMA Paul,Abu Hider,0,0,0,na,na,na,na,na,na,na,na,na
2nd innings,11.6,Mehedi Hasan Miraz,KMA Paul,Abu Hider,0,0,0,na,na,na,na,na,na,na,na,na
2nd innings,12.1,Abu Hider,O Thomas,Mehedi Hasan Miraz,0,0,0,na,na,na,na,na,na,na,na,na
2nd innings,12.2,Abu Hider,O Thomas,Mehedi Hasan Miraz,1,1,0,na,na,na,na,na,na,na,na,na
2nd innings,12.3,Mehedi Hasan Miraz,O Thomas,Abu Hider,1,1,0,na,na,na,na,na,na,na,na,na
2nd innings,12.4,Abu Hider,O Thomas,Mehedi Hasan Miraz,0,0,0,na,na,na,na,na,na,na,na,na
2nd innings,12.5,Abu Hider,O Thomas,Mehedi Hasan Miraz,3,3,0,na,na,na,na,na,na,na,na,na
2nd innings,12.6,Mehedi Hasan Miraz,O Thomas,Abu Hider,4,4,0,na,na,na,na,na,na,na,na,na
2nd innings,13.1,Abu Hider,SS Cottrell,Mehedi Hasan Miraz,6,6,0,na,na,na,na,na,na,na,na,na
2nd innings,13.2,Abu Hider,SS Cottrell,Mehedi Hasan Miraz,1,1,0,na,na,na,na,na,na,na,na,na
2nd innings,13.3,Mehedi Hasan Miraz,SS Cottrell,Abu Hider,6,6,0,na,na,na,na,na,na,na,na,na
2nd innings,13.4,Mehedi Hasan Miraz,SS Cottrell,Abu Hider,0,0,0,na,na,na,na,na,na,na,na,na
2nd innings,13.5,Mehedi Hasan Miraz,SS Cottrell,Abu Hider,0,0,0,na,na,na,na,na,na,na,na,na
2nd innings,13.6,Mehedi Hasan Miraz,SS Cottrell,Abu Hider,4,4,0,na,na,na,na,na,na,na,na,na
2nd innings,14.1,Abu Hider,CR Brathwaite,Mehedi Hasan Miraz,1,1,0,na,na,na,na,na,na,na,na,na
2nd innings,14.2,Mehedi Hasan Miraz,CR Brathwaite,Abu Hider,0,0,0,na,na,na,na,na,na,na,na,na
2nd innings,14.3,Mehedi Hasan Miraz,CR Brathwaite,Abu Hider,4,4,0,na,na,na,na,na,na,na,na,na
2nd innings,14.4,Mehedi Hasan Miraz,CR Brathwaite,Abu Hider,2,2,0,na,na,na,na,na,na,na,na,na
2nd innings,14.5,Mehedi Hasan Miraz,CR Brathwaite,Abu Hider,0,0,0,na,na,na,na,na,na,na,na,na
2nd innings,14.6,Mehedi Hasan Miraz,CR Brathwaite,Abu Hider,0,0,0,na,na,na,na,na,na,na,na,na
2nd innings,15.1,Abu Hider,SS Cottrell,Mehedi Hasan Miraz,0,0,0,na,na,na,na,na,caught,FA Allen,na,Mehedi Hasan Miraz
2nd innings,15.2,Abu Hider,SS Cottrell,Mustafizur Rahman,0,0,0,na,na,na,na,na,na,na,na,na
2nd innings,15.3,Abu Hider,SS Cottrell,Mustafizur Rahman,0,0,0,na,na,na,na,na,na,na,na,na
2nd innings,15.4,Abu Hider,SS Cottrell,Mustafizur Rahman,1,0,1,1,na,na,na,na,na,na,na,na
2nd innings,15.5,Mustafizur Rahman,SS Cottrell,Abu Hider,0,0,0,na,na,na,na,na,na,na,na,na
2nd innings,15.6,Mustafizur Rahman,SS Cottrell,Abu Hider,0,0,0,na,na,na,na,na,na,na,na,na
2nd innings,16.1,Abu Hider,CR Brathwaite,Mustafizur Rahman,6,6,0,na,na,na,na,na,na,na,na,na
2nd innings,16.2,Abu Hider,CR Brathwaite,Mustafizur Rahman,0,0,0,na,na,na,na,na,na,na,na,na
2nd innings,16.3,Abu Hider,CR Brathwaite,Mustafizur Rahman,1,1,0,na,na,na,na,na,na,na,na,na
2nd innings,16.4,Mustafizur Rahman,CR Brathwaite,Abu Hider,2,0,2,2,na,na,na,na,na,na,na,na
2nd innings,16.5,Mustafizur Rahman,CR Brathwaite,Abu Hider,1,1,0,na,na,na,na,na,na,na,na,na
2nd innings,16.6,Abu Hider,CR Brathwaite,Mustafizur Rahman,0,0,0,na,na,na,na,na,bowled,na,na,Mustafizur Rahman
