inngs,deliveries,non_striker,bowler,batsman,totalruns,batsman_runs,extra_runs,legbyes,byes,wides,noballs,penalty,wicket_kind,fielder1,fielder2,player_out
1st innings,0.1,CH Gayle,DJ Willey,SD Hope,4,4,0,na,na,na,na,na,na,na,na,na
1st innings,0.2,CH Gayle,DJ Willey,SD Hope,0,0,0,na,na,na,na,na,na,na,na,na
1st innings,0.3,CH Gayle,DJ Willey,SD Hope,1,1,0,na,na,na,na,na,na,na,na,na
1st innings,0.4,SD Hope,DJ Willey,CH Gayle,0,0,0,na,na,na,na,na,na,na,na,na
1st innings,0.5,SD Hope,DJ Willey,CH Gayle,0,0,0,na,na,na,na,na,na,na,na,na
1st innings,0.6,SD Hope,DJ Willey,CH Gayle,0,0,0,na,na,na,na,na,na,na,na,na
1st innings,1.1,CH Gayle,TK Curran,SD Hope,1,1,0,na,na,na,na,na,na,na,na,na
1st innings,1.2,SD Hope,TK Curran,CH Gayle,1,1,0,na,na,na,na,na,na,na,na,na
1st innings,1.3,CH Gayle,TK Curran,SD Hope,0,0,0,na,na,na,na,na,caught,JE Root,na,SD Hope
1st innings,1.4,CH Gayle,TK Curran,SO Hetmyer,0,0,0,na,na,na,na,na,na,na,na,na
1st innings,1.5,CH Gayle,TK Curran,SO Hetmyer,0,0,0,na,na,na,na,na,na,na,na,na
1st innings,1.6,CH Gayle,TK Curran,SO Hetmyer,6,6,0,na,na,na,na,na,na,na,na,na
1st innings,2.1,SO Hetmyer,DJ Willey,CH Gayle,1,0,1,na,na,1,na,na,na,na,na,na
1st innings,2.2,SO Hetmyer,DJ Willey,CH Gayle,0,0,0,na,na,na,na,na,na,na,na,na
1st innings,2.3,SO Hetmyer,DJ Willey,CH Gayle,0,0,0,na,na,na,na,na,na,na,na,na
1st innings,2.4,SO Hetmyer,DJ Willey,CH Gayle,6,6,0,na,na,na,na,na,na,na,na,na
1st innings,2.5,SO Hetmyer,DJ Willey,CH Gayle,1,1,0,na,na,na,na,na,na,na,na,na
1st innings,2.6,CH Gayle,DJ Willey,SO Hetmyer,1,1,0,na,na,na,na,na,na,na,na,na
1st innings,2.7,SO Hetmyer,DJ Willey,CH Gayle,6,6,0,na,na,na,na,na,na,na,na,na
1st innings,3.1,CH Gayle,CJ Jordan,SO Hetmyer,1,1,0,na,na,na,na,na,na,na,na,na
1st innings,3.2,SO Hetmyer,CJ Jordan,CH Gayle,0,0,0,na,na,na,na,na,na,na,na,na
1st innings,3.3,SO Hetmyer,CJ Jordan,CH Gayle,1,1,0,na,na,na,na,na,na,na,na,na
1st innings,3.4,CH Gayle,CJ Jordan,SO Hetmyer,0,0,0,na,na,na,na,na,na,na,na,na
1st innings,3.5,CH Gayle,CJ Jordan,SO Hetmyer,1,1,0,na,na,na,na,na,na,na,na,na
1st innings,3.6,SO Hetmyer,CJ Jordan,CH Gayle,0,0,0,na,na,na,na,na,caught,AU Rashid,na,CH Gayle
1st innings,4.1,DM Bravo,TK Curran,SO Hetmyer,1,1,0,na,na,na,na,na,na,na,na,na
1st innings,4.2,SO Hetmyer,TK Curran,DM Bravo,0,0,0,na,na,na,na,na,na,na,na,na
1st innings,4.3,SO Hetmyer,TK Curran,DM Bravo,1,1,0,na,na,na,na,na,na,na,na,na
1st innings,4.4,DM Bravo,TK Curran,SO Hetmyer,4,4,0,na,na,na,na,na,na,na,na,na
1st innings,4.5,DM Bravo,TK Curran,SO Hetmyer,0,0,0,na,na,na,na,na,na,na,na,na
1st innings,4.6,DM Bravo,TK Curran,SO Hetmyer,0,0,0,na,na,na,na,na,caught,LE Plunkett,na,SO Hetmyer
1st innings,5.1,DM Bravo,CJ Jordan,N Pooran,1,1,0,na,na,na,na,na,na,na,na,na
1st innings,5.2,N Pooran,CJ Jordan,DM Bravo,0,0,0,na,na,na,na,na,na,na,na,na
1st innings,5.3,N Pooran,CJ Jordan,DM Bravo,0,0,0,na,na,na,na,na,na,na,na,na
1st innings,5.4,N Pooran,CJ Jordan,DM Bravo,1,1,0,na,na,na,na,na,na,na,na,na
1st innings,5.5,DM Bravo,CJ Jordan,N Pooran,0,0,0,na,na,na,na,na,na,na,na,na
1st innings,5.6,DM Bravo,CJ Jordan,N Pooran,4,4,0,na,na,na,na,na,na,na,na,na
1st innings,6.1,N Pooran,AU Rashid,DM Bravo,0,0,0,na,na,na,na,na,na,na,na,na
1st innings,6.2,N Pooran,AU Rashid,DM Bravo,0,0,0,na,na,na,na,na,na,na,na,na
1st innings,6.3,N Pooran,AU Rashid,DM Bravo,0,0,0,na,na,na,na,na,na,na,na,na
1st innings,6.4,N Pooran,AU Rashid,DM Bravo,1,1,0,na,na,na,na,na,na,na,na,na
1st innings,6.5,DM Bravo,AU Rashid,N Pooran,1,1,0,na,na,na,na,na,na,na,na,na
1st innings,6.6,N Pooran,AU Rashid,DM Bravo,1,1,0,na,na,na,na,na,na,na,na,na
1st innings,7.1,N Pooran,LE Plunkett,DM Bravo,1,0,1,na,na,1,na,na,na,na,na,na
1st innings,7.2,N Pooran,LE Plunkett,DM Bravo,1,1,0,na,na,na,na,na,na,na,na,na
1st innings,7.3,DM Bravo,LE Plunkett,N Pooran,0,0,0,na,na,na,na,na,na,na,na,na
1st innings,7.4,DM Bravo,LE Plunkett,N Pooran,0,0,0,na,na,na,na,na,na,na,na,na
1st innings,7.5,DM Bravo,LE Plunkett,N Pooran,1,1,0,na,na,na,na,na,na,na,na,na
1st innings,7.6,N Pooran,LE Plunkett,DM Bravo,1,1,0,na,na,na,na,na,na,na,na,na
1st innings,7.7,DM Bravo,LE Plunkett,N Pooran,1,1,0,na,na,na,na,na,na,na,na,na
1st innings,8.1,DM Bravo,AU Rashid,N Pooran,0,0,0,na,na,na,na,na,na,na,na,na
1st innings,8.2,DM Bravo,AU Rashid,N Pooran,0,0,0,na,na,na,na,na,na,na,na,na
1st innings,8.3,DM Bravo,AU Rashid,N Pooran,1,1,0,na,na,na,na,na,na,na,na,na
1st innings,8.4,N Pooran,AU Rashid,DM Bravo,0,0,0,na,na,na,na,na,na,na,na,na
1st innings,8.5,N Pooran,AU Rashid,DM Bravo,1,1,0,na,na,na,na,na,na,na,na,na
1st innings,8.6,DM Bravo,AU Rashid,N Pooran,0,0,0,na,na,na,na,na,na,na,na,na
1st innings,9.1,N Pooran,LE Plunkett,DM Bravo,4,4,0,na,na,na,na,na,na,na,na,na
1st innings,9.2,N Pooran,LE Plunkett,DM Bravo,1,0,1,na,na,1,na,na,na,na,na,na
1st innings,9.3,N Pooran,LE Plunkett,DM Bravo,0,0,0,na,na,na,na,na,na,na,na,na
1st innings,9.4,N Pooran,LE Plunkett,DM Bravo,6,6,0,na,na,na,na,na,na,na,na,na
1st innings,9.5,N Pooran,LE Plunkett,DM Bravo,0,0,0,na,na,na,na,na,na,na,na,na
1st innings,9.6,N Pooran,LE Plunkett,DM Bravo,1,1,0,na,na,na,na,na,na,na,na,na
1st innings,9.7,DM Bravo,LE Plunkett,N Pooran,2,2,0,na,na,na,na,na,na,na,na,na
1st innings,10.1,N Pooran,JL Denly,DM Bravo,0,0,0,na,na,na,na,na,na,na,na,na
1st innings,10.2,N Pooran,JL Denly,DM Bravo,1,1,0,na,na,na,na,na,na,na,na,na
1st innings,10.3,DM Bravo,JL Denly,N Pooran,6,6,0,na,na,na,na,na,na,na,na,na
1st innings,10.4,DM Bravo,JL Denly,N Pooran,1,1,0,na,na,na,na,na,na,na,na,na
1st innings,10.5,N Pooran,JL Denly,DM Bravo,1,1,0,na,na,na,na,na,na,na,na,na
1st innings,10.6,DM Bravo,JL Denly,N Pooran,0,0,0,na,na,na,na,na,na,na,na,na
1st innings,11.1,N Pooran,LE Plunkett,DM Bravo,1,1,0,na,na,na,na,na,na,na,na,na
1st innings,11.2,DM Bravo,LE Plunkett,N Pooran,6,6,0,na,na,na,na,na,na,na,na,na
1st innings,11.3,DM Bravo,LE Plunkett,N Pooran,0,0,0,na,na,na,na,na,na,na,na,na
1st innings,11.4,DM Bravo,LE Plunkett,N Pooran,1,1,0,na,na,na,na,na,na,na,na,na
1st innings,11.5,N Pooran,LE Plunkett,DM Bravo,0,0,0,na,na,na,na,na,na,na,na,na
1st innings,11.6,N Pooran,LE Plunkett,DM Bravo,6,6,0,na,na,na,na,na,na,na,na,na
1st innings,12.1,DM Bravo,JL Denly,N Pooran,1,1,0,na,na,na,na,na,na,na,na,na
1st innings,12.2,N Pooran,JL Denly,DM Bravo,1,0,1,na,na,1,na,na,na,na,na,na
1st innings,12.3,N Pooran,JL Denly,DM Bravo,0,0,0,na,na,na,na,na,na,na,na,na
1st innings,12.4,N Pooran,JL Denly,DM Bravo,0,0,0,na,na,na,na,na,na,na,na,na
1st innings,12.5,N Pooran,JL Denly,DM Bravo,0,0,0,na,na,na,na,na,na,na,na,na
1st innings,12.6,N Pooran,JL Denly,DM Bravo,1,1,0,na,na,na,na,na,na,na,na,na
1st innings,12.7,DM Bravo,JL Denly,N Pooran,1,1,0,na,na,na,na,na,na,na,na,na
1st innings,13.1,DM Bravo,CJ Jordan,N Pooran,4,4,0,na,na,na,na,na,na,na,na,na
1st innings,13.2,DM Bravo,CJ Jordan,N Pooran,1,0,1,na,na,1,na,na,na,na,na,na
1st innings,13.3,DM Bravo,CJ Jordan,N Pooran,1,1,0,na,na,na,na,na,na,na,na,na
1st innings,13.4,N Pooran,CJ Jordan,DM Bravo,1,0,1,na,na,1,na,na,na,na,na,na
1st innings,13.5,N Pooran,CJ Jordan,DM Bravo,0,0,0,na,na,na,na,na,caught and bowled,na,na,DM Bravo
1st innings,13.6,N Pooran,CJ Jordan,CR Brathwaite,0,0,0,na,na,na,na,na,na,na,na,na
1st innings,13.7,N Pooran,CJ Jordan,CR Brathwaite,0,0,0,na,na,na,na,na,na,na,na,na
1st innings,13.8,N Pooran,CJ Jordan,CR Brathwaite,0,0,0,na,na,na,na,na,na,na,na,na
1st innings,14.1,CR Brathwaite,AU Rashid,N Pooran,1,1,0,na,na,na,na,na,na,na,na,na
1st innings,14.2,N Pooran,AU Rashid,CR Brathwaite,0,0,0,na,na,na,na,na,na,na,na,na
1st innings,14.3,N Pooran,AU Rashid,CR Brathwaite,0,0,0,na,na,na,na,na,na,na,na,na
1st innings,14.4,N Pooran,AU Rashid,CR Brathwaite,0,0,0,na,na,na,na,na,caught,JM Bairstow,na,CR Brathwaite
1st innings,14.5,N Pooran,AU Rashid,FA Allen,0,0,0,na,na,na,na,na,na,na,na,na
1st innings,14.6,N Pooran,AU Rashid,FA Allen,0,0,0,na,na,na,na,na,na,na,na,na
1st innings,15.1,FA Allen,LE Plunkett,N Pooran,4,4,0,na,na,na,na,na,na,na,na,na
1st innings,15.2,FA Allen,LE Plunkett,N Pooran,0,0,0,na,na,na,na,na,na,na,na,na
1st innings,15.3,FA Allen,LE Plunkett,N Pooran,2,2,0,na,na,na,na,na,na,na,na,na
1st innings,15.4,FA Allen,LE Plunkett,N Pooran,1,0,1,na,na,1,na,na,na,na,na,na
1st innings,15.5,FA Allen,LE Plunkett,N Pooran,1,1,0,na,na,na,na,na,na,na,na,na
1st innings,15.6,N Pooran,LE Plunkett,FA Allen,1,1,0,na,na,na,na,na,na,na,na,na
1st innings,15.7,FA Allen,LE Plunkett,N Pooran,2,2,0,na,na,na,na,na,na,na,na,na
1st innings,16.1,N Pooran,JL Denly,FA Allen,1,1,0,na,na,na,na,na,na,na,na,na
1st innings,16.2,FA Allen,JL Denly,N Pooran,6,6,0,na,na,na,na,na,na,na,na,na
1st innings,16.3,FA Allen,JL Denly,N Pooran,1,1,0,na,na,na,na,na,na,na,na,na
1st innings,16.4,N Pooran,JL Denly,FA Allen,6,6,0,na,na,na,na,na,na,na,na,na
1st innings,16.5,N Pooran,JL Denly,FA Allen,0,0,0,na,na,na,na,na,caught,CJ Jordan,na,FA Allen
1st innings,16.6,JO Holder,JL Denly,N Pooran,1,1,0,na,na,na,na,na,na,na,na,na
1st innings,17.1,JO Holder,TK Curran,N Pooran,1,0,1,na,na,1,na,na,na,na,na,na
1st innings,17.2,JO Holder,TK Curran,N Pooran,0,0,0,na,na,na,na,na,na,na,na,na
1st innings,17.3,JO Holder,TK Curran,N Pooran,6,6,0,na,na,na,na,na,na,na,na,na
1st innings,17.4,JO Holder,TK Curran,N Pooran,0,0,0,na,na,na,na,na,na,na,na,na
1st innings,17.5,JO Holder,TK Curran,N Pooran,2,2,0,na,na,na,na,na,na,na,na,na
1st innings,17.6,JO Holder,TK Curran,N Pooran,0,0,0,na,na,na,na,na,bowled,na,na,N Pooran
1st innings,17.7,JO Holder,TK Curran,AR Nurse,1,0,1,na,na,1,na,na,na,na,na,na
1st innings,17.8,JO Holder,TK Curran,AR Nurse,1,1,0,na,na,na,na,na,na,na,na,na
1st innings,18.1,JO Holder,AU Rashid,AR Nurse,1,1,0,na,na,na,na,na,na,na,na,na
1st innings,18.2,AR Nurse,AU Rashid,JO Holder,1,1,0,na,na,na,na,na,na,na,na,na
1st innings,18.3,JO Holder,AU Rashid,AR Nurse,1,0,1,na,na,1,na,na,na,na,na,na
1st innings,18.4,JO Holder,AU Rashid,AR Nurse,4,4,0,na,na,na,na,na,na,na,na,na
1st innings,18.5,JO Holder,AU Rashid,AR Nurse,0,0,0,na,na,na,na,na,na,na,na,na
1st innings,18.6,JO Holder,AU Rashid,AR Nurse,1,1,0,na,na,na,na,na,na,na,na,na
1st innings,18.7,AR Nurse,AU Rashid,JO Holder,1,1,0,na,na,na,na,na,na,na,na,na
1st innings,19.1,AR Nurse,TK Curran,JO Holder,4,4,0,na,na,na,na,na,na,na,na,na
1st innings,19.2,AR Nurse,TK Curran,JO Holder,1,1,0,na,na,na,na,na,na,na,na,na
1st innings,19.3,JO Holder,TK Curran,AR Nurse,2,2,0,na,na,na,na,na,na,na,na,na
1st innings,19.4,JO Holder,TK Curran,AR Nurse,4,4,0,na,na,na,na,na,na,na,na,na
1st innings,19.5,JO Holder,TK Curran,AR Nurse,1,0,1,na,1,na,na,na,na,na,na,na
1st innings,19.6,AR Nurse,TK Curran,JO Holder,0,0,0,na,na,na,na,na,caught,SW Billings,na,JO Holder
2nd innings,0.1,JM Bairstow,SS Cottrell,AD Hales,6,6,0,na,na,na,na,na,na,na,na,na
2nd innings,0.2,JM Bairstow,SS Cottrell,AD Hales,4,4,0,na,na,na,na,na,na,na,na,na
2nd innings,0.3,JM Bairstow,SS Cottrell,AD Hales,4,0,4,4,na,na,na,na,na,na,na,na
2nd innings,0.4,JM Bairstow,SS Cottrell,AD Hales,1,1,0,na,na,na,na,na,na,na,na,na
2nd innings,0.5,AD Hales,SS Cottrell,JM Bairstow,1,1,0,na,na,na,na,na,na,na,na,na
2nd innings,0.6,JM Bairstow,SS Cottrell,AD Hales,1,0,1,na,na,1,na,na,na,na,na,na
2nd innings,0.7,JM Bairstow,SS Cottrell,AD Hales,0,0,0,na,na,na,na,na,bowled,na,na,AD Hales
2nd innings,1.1,JE Root,O Thomas,JM Bairstow,1,0,1,na,na,1,na,na,na,na,na,na
2nd innings,1.2,JE Root,O Thomas,JM Bairstow,4,4,0,na,na,na,na,na,na,na,na,na
2nd innings,1.3,JE Root,O Thomas,JM Bairstow,4,4,0,na,na,na,na,na,na,na,na,na
2nd innings,1.4,JE Root,O Thomas,JM Bairstow,4,4,0,na,na,na,na,na,na,na,na,na
2nd innings,1.5,JE Root,O Thomas,JM Bairstow,0,0,0,na,na,na,na,na,na,na,na,na
2nd innings,1.6,JE Root,O Thomas,JM Bairstow,0,0,0,na,na,na,na,na,na,na,na,na
2nd innings,1.7,JE Root,O Thomas,JM Bairstow,1,1,0,na,na,na,na,na,na,na,na,na
2nd innings,2.1,JE Root,SS Cottrell,JM Bairstow,1,1,0,na,na,na,na,na,na,na,na,na
2nd innings,2.2,JM Bairstow,SS Cottrell,JE Root,0,0,0,na,na,na,na,na,na,na,na,na
2nd innings,2.3,JM Bairstow,SS Cottrell,JE Root,0,0,0,na,na,na,na,na,lbw,na,na,JE Root
2nd innings,2.4,JM Bairstow,SS Cottrell,EJG Morgan,0,0,0,na,na,na,na,na,na,na,na,na
2nd innings,2.5,JM Bairstow,SS Cottrell,EJG Morgan,0,0,0,na,na,na,na,na,na,na,na,na
2nd innings,2.6,JM Bairstow,SS Cottrell,EJG Morgan,1,0,1,na,na,1,na,na,na,na,na,na
2nd innings,2.7,JM Bairstow,SS Cottrell,EJG Morgan,0,0,0,na,na,na,na,na,na,na,na,na
2nd innings,3.1,EJG Morgan,AR Nurse,JM Bairstow,0,0,0,na,na,na,na,na,na,na,na,na
2nd innings,3.2,EJG Morgan,AR Nurse,JM Bairstow,0,0,0,na,na,na,na,na,na,na,na,na
2nd innings,3.3,EJG Morgan,AR Nurse,JM Bairstow,4,4,0,na,na,na,na,na,na,na,na,na
2nd innings,3.4,EJG Morgan,AR Nurse,JM Bairstow,0,0,0,na,na,na,na,na,na,na,na,na
2nd innings,3.5,EJG Morgan,AR Nurse,JM Bairstow,4,4,0,na,na,na,na,na,na,na,na,na
2nd innings,3.6,EJG Morgan,AR Nurse,JM Bairstow,6,6,0,na,na,na,na,na,na,na,na,na
2nd innings,4.1,JM Bairstow,O Thomas,EJG Morgan,4,4,0,na,na,na,na,na,na,na,na,na
2nd innings,4.2,JM Bairstow,O Thomas,EJG Morgan,0,0,0,na,na,na,na,na,na,na,na,na
2nd innings,4.3,JM Bairstow,O Thomas,EJG Morgan,0,0,0,na,na,na,na,na,na,na,na,na
2nd innings,4.4,JM Bairstow,O Thomas,EJG Morgan,4,0,4,na,4,na,na,na,na,na,na,na
2nd innings,4.5,JM Bairstow,O Thomas,EJG Morgan,0,0,0,na,na,na,na,na,na,na,na,na
2nd innings,4.6,JM Bairstow,O Thomas,EJG Morgan,0,0,0,na,na,na,na,na,na,na,na,na
2nd innings,5.1,EJG Morgan,JO Holder,JM Bairstow,1,1,0,na,na,na,na,na,na,na,na,na
2nd innings,5.2,JM Bairstow,JO Holder,EJG Morgan,0,0,0,na,na,na,na,na,na,na,na,na
2nd innings,5.3,JM Bairstow,JO Holder,EJG Morgan,1,1,0,na,na,na,na,na,na,na,na,na
2nd innings,5.4,EJG Morgan,JO Holder,JM Bairstow,2,2,0,na,na,na,na,na,na,na,na,na
2nd innings,5.5,EJG Morgan,JO Holder,JM Bairstow,1,0,1,na,na,1,na,na,na,na,na,na
2nd innings,5.6,EJG Morgan,JO Holder,JM Bairstow,0,0,0,na,na,na,na,na,na,na,na,na
2nd innings,5.7,EJG Morgan,JO Holder,JM Bairstow,1,0,1,na,na,1,na,na,na,na,na,na
2nd innings,5.8,EJG Morgan,JO Holder,JM Bairstow,1,1,0,na,na,na,na,na,na,na,na,na
2nd innings,6.1,EJG Morgan,CR Brathwaite,JM Bairstow,1,1,0,na,na,na,na,na,na,na,na,na
2nd innings,6.2,JM Bairstow,CR Brathwaite,EJG Morgan,0,0,0,na,na,na,na,na,na,na,na,na
2nd innings,6.3,JM Bairstow,CR Brathwaite,EJG Morgan,1,1,0,na,na,na,na,na,na,na,na,na
2nd innings,6.4,EJG Morgan,CR Brathwaite,JM Bairstow,0,0,0,na,na,na,na,na,na,na,na,na
2nd innings,6.5,EJG Morgan,CR Brathwaite,JM Bairstow,0,0,0,na,na,na,na,na,na,na,na,na
2nd innings,6.6,EJG Morgan,CR Brathwaite,JM Bairstow,4,4,0,na,na,na,na,na,na,na,na,na
2nd innings,7.1,JM Bairstow,JO Holder,EJG Morgan,1,1,0,na,na,na,na,na,na,na,na,na
2nd innings,7.2,EJG Morgan,JO Holder,JM Bairstow,4,4,0,na,na,na,na,na,na,na,na,na
2nd innings,7.3,EJG Morgan,JO Holder,JM Bairstow,1,1,0,na,na,na,na,na,na,na,na,na
2nd innings,7.4,JM Bairstow,JO Holder,EJG Morgan,1,1,0,na,na,na,na,na,na,na,na,na
2nd innings,7.5,EJG Morgan,JO Holder,JM Bairstow,0,0,0,na,na,na,na,na,na,na,na,na
2nd innings,7.6,EJG Morgan,JO Holder,JM Bairstow,1,1,0,na,na,na,na,na,na,na,na,na
2nd innings,8.1,EJG Morgan,CR Brathwaite,JM Bairstow,6,6,0,na,na,na,na,na,na,na,na,na
2nd innings,8.2,EJG Morgan,CR Brathwaite,JM Bairstow,1,1,0,na,na,na,na,na,na,na,na,na
2nd innings,8.3,JM Bairstow,CR Brathwaite,EJG Morgan,0,0,0,na,na,na,na,na,caught,CH Gayle,na,EJG Morgan
2nd innings,8.4,JM Bairstow,CR Brathwaite,JL Denly,1,1,0,na,na,na,na,na,na,na,na,na
2nd innings,8.5,JL Denly,CR Brathwaite,JM Bairstow,1,1,0,na,na,na,na,na,na,na,na,na
2nd innings,8.6,JM Bairstow,CR Brathwaite,JL Denly,0,0,0,na,na,na,na,na,na,na,na,na
2nd innings,9.1,JL Denly,AR Nurse,JM Bairstow,0,0,0,na,na,na,na,na,na,na,na,na
2nd innings,9.2,JL Denly,AR Nurse,JM Bairstow,2,2,0,na,na,na,na,na,na,na,na,na
2nd innings,9.3,JL Denly,AR Nurse,JM Bairstow,1,1,0,na,na,na,na,na,na,na,na,na
2nd innings,9.4,JM Bairstow,AR Nurse,JL Denly,1,1,0,na,na,na,na,na,na,na,na,na
2nd innings,9.5,JL Denly,AR Nurse,JM Bairstow,1,1,0,na,na,na,na,na,na,na,na,na
2nd innings,9.6,JM Bairstow,AR Nurse,JL Denly,0,0,0,na,na,na,na,na,na,na,na,na
2nd innings,10.1,JL Denly,CR Brathwaite,JM Bairstow,4,4,0,na,na,na,na,na,na,na,na,na
2nd innings,10.2,JL Denly,CR Brathwaite,JM Bairstow,0,0,0,na,na,na,na,na,na,na,na,na
2nd innings,10.3,JL Denly,CR Brathwaite,JM Bairstow,4,4,0,na,na,na,na,na,na,na,na,na
2nd innings,10.4,JL Denly,CR Brathwaite,JM Bairstow,2,2,0,na,na,na,na,na,na,na,na,na
2nd innings,10.5,JL Denly,CR Brathwaite,JM Bairstow,1,1,0,na,na,na,na,na,na,na,na,na
2nd innings,10.6,JM Bairstow,CR Brathwaite,JL Denly,0,0,0,na,na,na,na,na,na,na,na,na
2nd innings,11.1,JL Denly,AR Nurse,JM Bairstow,1,1,0,na,na,na,na,na,na,na,na,na
2nd innings,11.2,JM Bairstow,AR Nurse,JL Denly,1,1,0,na,na,na,na,na,na,na,na,na
2nd innings,11.3,JL Denly,AR Nurse,JM Bairstow,0,0,0,na,na,na,na,na,caught,CR Brathwaite,na,JM Bairstow
2nd innings,11.4,JL Denly,AR Nurse,SW Billings,1,1,0,na,na,na,na,na,na,na,na,na
2nd innings,11.5,SW Billings,AR Nurse,JL Denly,0,0,0,na,na,na,na,na,na,na,na,na
2nd innings,11.6,SW Billings,AR Nurse,JL Denly,2,2,0,na,na,na,na,na,na,na,na,na
2nd innings,12.1,JL Denly,FA Allen,SW Billings,0,0,0,na,na,na,na,na,na,na,na,na
2nd innings,12.2,JL Denly,FA Allen,SW Billings,1,1,0,na,na,na,na,na,na,na,na,na
2nd innings,12.3,SW Billings,FA Allen,JL Denly,4,4,0,na,na,na,na,na,na,na,na,na
2nd innings,12.4,SW Billings,FA Allen,JL Denly,1,1,0,na,na,na,na,na,na,na,na,na
2nd innings,12.5,JL Denly,FA Allen,SW Billings,2,2,0,na,na,na,na,na,na,na,na,na
2nd innings,12.6,JL Denly,FA Allen,SW Billings,0,0,0,na,na,na,na,na,na,na,na,na
2nd innings,13.1,SW Billings,AR Nurse,JL Denly,1,1,0,na,na,na,na,na,na,na,na,na
2nd innings,13.2,JL Denly,AR Nurse,SW Billings,1,1,0,na,na,na,na,na,na,na,na,na
2nd innings,13.3,SW Billings,AR Nurse,JL Denly,0,0,0,na,na,na,na,na,na,na,na,na
2nd innings,13.4,SW Billings,AR Nurse,JL Denly,4,4,0,na,na,na,na,na,na,na,na,na
2nd innings,13.5,SW Billings,AR Nurse,JL Denly,1,1,0,na,na,na,na,na,na,na,na,na
2nd innings,13.6,JL Denly,AR Nurse,SW Billings,1,1,0,na,na,na,na,na,na,na,na,na
2nd innings,14.1,JL Denly,SS Cottrell,SW Billings,1,0,1,na,na,1,na,na,na,na,na,na
2nd innings,14.2,JL Denly,SS Cottrell,SW Billings,1,1,0,na,na,na,na,na,na,na,na,na
2nd innings,14.3,SW Billings,SS Cottrell,JL Denly,0,0,0,na,na,na,na,na,na,na,na,na
2nd innings,14.4,SW Billings,SS Cottrell,JL Denly,4,4,0,na,na,na,na,na,na,na,na,na
2nd innings,14.5,SW Billings,SS Cottrell,JL Denly,0,0,0,na,na,na,na,na,na,na,na,na
2nd innings,14.6,SW Billings,SS Cottrell,JL Denly,1,1,0,na,na,na,na,na,na,na,na,na
2nd innings,14.7,JL Denly,SS Cottrell,SW Billings,4,4,0,na,na,na,na,na,na,na,na,na
2nd innings,15.1,SW Billings,JO Holder,JL Denly,0,0,0,na,na,na,na,na,na,na,na,na
2nd innings,15.2,SW Billings,JO Holder,JL Denly,2,2,0,na,na,na,na,na,na,na,na,na
2nd innings,15.3,SW Billings,JO Holder,JL Denly,0,0,0,na,na,na,na,na,na,na,na,na
2nd innings,15.4,SW Billings,JO Holder,JL Denly,4,4,0,na,na,na,na,na,na,na,na,na
2nd innings,15.5,SW Billings,JO Holder,JL Denly,1,1,0,na,na,na,na,na,na,na,na,na
2nd innings,15.6,JL Denly,JO Holder,SW Billings,1,1,0,na,na,na,na,na,na,na,na,na
2nd innings,16.1,JL Denly,CR Brathwaite,SW Billings,1,1,0,na,na,na,na,na,na,na,na,na
2nd innings,16.2,SW Billings,CR Brathwaite,JL Denly,1,1,0,na,na,na,na,na,na,na,na,na
2nd innings,16.3,JL Denly,CR Brathwaite,SW Billings,1,0,1,na,na,1,na,na,na,na,na,na
2nd innings,16.4,JL Denly,CR Brathwaite,SW Billings,1,0,1,na,na,1,na,na,na,na,na,na
2nd innings,16.5,JL Denly,CR Brathwaite,SW Billings,2,2,0,na,na,na,na,na,na,na,na,na
2nd innings,16.6,JL Denly,CR Brathwaite,SW Billings,1,1,0,na,na,na,na,na,na,na,na,na
2nd innings,16.7,SW Billings,CR Brathwaite,JL Denly,2,0,2,2,na,na,na,na,na,na,na,na
2nd innings,16.8,SW Billings,CR Brathwaite,JL Denly,1,0,1,1,na,na,na,na,na,na,na,na
2nd innings,17.1,SW Billings,JO Holder,JL Denly,1,1,0,na,na,na,na,na,na,na,na,na
2nd innings,17.2,JL Denly,JO Holder,SW Billings,1,1,0,na,na,na,na,na,na,na,na,na
2nd innings,17.3,SW Billings,JO Holder,JL Denly,0,0,0,na,na,na,na,na,na,na,na,na
2nd innings,17.4,SW Billings,JO Holder,JL Denly,0,0,0,na,na,na,na,na,caught,N Pooran,na,JL Denly
2nd innings,17.5,DJ Willey,JO Holder,SW Billings,1,1,0,na,na,na,na,na,na,na,na,na
2nd innings,17.6,SW Billings,JO Holder,DJ Willey,0,0,0,na,na,na,na,na,na,na,na,na
2nd innings,18.1,DJ Willey,SS Cottrell,SW Billings,0,0,0,na,na,na,na,na,bowled,na,na,SW Billings
2nd innings,18.2,DJ Willey,SS Cottrell,TK Curran,1,1,0,na,na,na,na,na,na,na,na,na
2nd innings,18.3,TK Curran,SS Cottrell,DJ Willey,4,0,4,na,4,na,na,na,na,na,na,na
2nd innings,18.4,TK Curran,SS Cottrell,DJ Willey,1,1,0,na,na,na,na,na,na,na,na,na
2nd innings,18.5,DJ Willey,SS Cottrell,TK Curran,1,1,0,na,na,na,na,na,na,na,na,na
