inngs,deliveries,non_striker,bowler,batsman,totalruns,batsman_runs,extra_runs,legbyes,byes,wides,noballs,penalty,wicket_kind,fielder1,fielder2,player_out
1st innings,0.1,S Dhawan,JP Behrendorff,KL Rahul,1,1,0,na,na,na,na,na,na,na,na,na
1st innings,0.2,KL Rahul,JP Behrendorff,S Dhawan,0,0,0,na,na,na,na,na,na,na,na,na
1st innings,0.3,KL Rahul,JP Behrendorff,S Dhawan,1,0,1,1,na,na,na,na,na,na,na,na
1st innings,0.4,S Dhawan,JP Behrendorff,KL Rahul,0,0,0,na,na,na,na,na,na,na,na,na
1st innings,0.5,S Dhawan,JP Behrendorff,KL Rahul,1,1,0,na,na,na,na,na,na,na,na,na
1st innings,0.6,KL Rahul,JP Behrendorff,S Dhawan,0,0,0,na,na,na,na,na,na,na,na,na
1st innings,1.1,S Dhawan,JA Richardson,KL Rahul,0,0,0,na,na,na,na,na,na,na,na,na
1st innings,1.2,S Dhawan,JA Richardson,KL Rahul,0,0,0,na,na,na,na,na,na,na,na,na
1st innings,1.3,S Dhawan,JA Richardson,KL Rahul,1,1,0,na,na,na,na,na,na,na,na,na
1st innings,1.4,KL Rahul,JA Richardson,S Dhawan,0,0,0,na,na,na,na,na,na,na,na,na
1st innings,1.5,KL Rahul,JA Richardson,S Dhawan,0,0,0,na,na,na,na,na,na,na,na,na
1st innings,1.6,KL Rahul,JA Richardson,S Dhawan,0,0,0,na,na,na,na,na,na,na,na,na
1st innings,2.1,S Dhawan,JP Behrendorff,KL Rahul,4,4,0,na,na,na,na,na,na,na,na,na
1st innings,2.2,S Dhawan,JP Behrendorff,KL Rahul,1,1,0,na,na,na,na,na,na,na,na,na
1st innings,2.3,KL Rahul,JP Behrendorff,S Dhawan,4,4,0,na,na,na,na,na,na,na,na,na
1st innings,2.4,KL Rahul,JP Behrendorff,S Dhawan,1,1,0,na,na,na,na,na,na,na,na,na
1st innings,2.5,S Dhawan,JP Behrendorff,KL Rahul,1,1,0,na,na,na,na,na,na,na,na,na
1st innings,2.6,KL Rahul,JP Behrendorff,S Dhawan,1,1,0,na,na,na,na,na,na,na,na,na
1st innings,3.1,KL Rahul,NM Coulter-Nile,S Dhawan,0,0,0,na,na,na,na,na,na,na,na,na
1st innings,3.2,KL Rahul,NM Coulter-Nile,S Dhawan,0,0,0,na,na,na,na,na,na,na,na,na
1st innings,3.3,KL Rahul,NM Coulter-Nile,S Dhawan,1,0,1,na,na,1,na,na,na,na,na,na
1st innings,3.4,KL Rahul,NM Coulter-Nile,S Dhawan,1,0,1,na,na,1,na,na,na,na,na,na
1st innings,3.5,KL Rahul,NM Coulter-Nile,S Dhawan,1,1,0,na,na,na,na,na,na,na,na,na
1st innings,3.6,S Dhawan,NM Coulter-Nile,KL Rahul,4,4,0,na,na,na,na,na,na,na,na,na
1st innings,3.7,S Dhawan,NM Coulter-Nile,KL Rahul,0,0,0,na,na,na,na,na,na,na,na,na
1st innings,3.8,S Dhawan,NM Coulter-Nile,KL Rahul,1,1,0,na,na,na,na,na,na,na,na,na
1st innings,4.1,S Dhawan,JA Richardson,KL Rahul,0,0,0,na,na,na,na,na,na,na,na,na
1st innings,4.2,S Dhawan,JA Richardson,KL Rahul,1,1,0,na,na,na,na,na,na,na,na,na
1st innings,4.3,KL Rahul,JA Richardson,S Dhawan,1,1,0,na,na,na,na,na,na,na,na,na
1st innings,4.4,S Dhawan,JA Richardson,KL Rahul,6,6,0,na,na,na,na,na,na,na,na,na
1st innings,4.5,S Dhawan,JA Richardson,KL Rahul,6,6,0,na,na,na,na,na,na,na,na,na
1st innings,4.6,S Dhawan,JA Richardson,KL Rahul,1,1,0,na,na,na,na,na,na,na,na,na
1st innings,5.1,S Dhawan,PJ Cummins,KL Rahul,1,1,0,na,na,na,na,na,na,na,na,na
1st innings,5.2,KL Rahul,PJ Cummins,S Dhawan,0,0,0,na,na,na,na,na,na,na,na,na
1st innings,5.3,KL Rahul,PJ Cummins,S Dhawan,1,1,0,na,na,na,na,na,na,na,na,na
1st innings,5.4,S Dhawan,PJ Cummins,KL Rahul,6,6,0,na,na,na,na,na,na,na,na,na
1st innings,5.5,S Dhawan,PJ Cummins,KL Rahul,6,6,0,na,na,na,na,na,na,na,na,na
1st innings,5.6,S Dhawan,PJ Cummins,KL Rahul,0,0,0,na,na,na,na,na,na,na,na,na
1st innings,6.1,KL Rahul,A Zampa,S Dhawan,1,1,0,na,na,na,na,na,na,na,na,na
1st innings,6.2,S Dhawan,A Zampa,KL Rahul,4,4,0,na,na,na,na,na,na,na,na,na
1st innings,6.3,S Dhawan,A Zampa,KL Rahul,1,1,0,na,na,na,na,na,na,na,na,na
1st innings,6.4,KL Rahul,A Zampa,S Dhawan,1,1,0,na,na,na,na,na,na,na,na,na
1st innings,6.5,S Dhawan,A Zampa,KL Rahul,0,0,0,na,na,na,na,na,na,na,na,na
1st innings,6.6,S Dhawan,A Zampa,KL Rahul,1,1,0,na,na,na,na,na,na,na,na,na
1st innings,7.1,S Dhawan,NM Coulter-Nile,KL Rahul,0,0,0,na,na,na,na,na,caught,JA Richardson,na,KL Rahul
1st innings,7.2,S Dhawan,NM Coulter-Nile,V Kohli,1,1,0,na,na,na,na,na,na,na,na,na
1st innings,7.3,V Kohli,NM Coulter-Nile,S Dhawan,0,0,0,na,na,na,na,na,na,na,na,na
1st innings,7.4,V Kohli,NM Coulter-Nile,S Dhawan,1,1,0,na,na,na,na,na,na,na,na,na
1st innings,7.5,S Dhawan,NM Coulter-Nile,V Kohli,1,1,0,na,na,na,na,na,na,na,na,na
1st innings,7.6,V Kohli,NM Coulter-Nile,S Dhawan,1,0,1,1,na,na,na,na,na,na,na,na
1st innings,8.1,V Kohli,A Zampa,S Dhawan,1,1,0,na,na,na,na,na,na,na,na,na
1st innings,8.2,S Dhawan,A Zampa,V Kohli,0,0,0,na,na,na,na,na,na,na,na,na
1st innings,8.3,S Dhawan,A Zampa,V Kohli,0,0,0,na,na,na,na,na,na,na,na,na
1st innings,8.4,S Dhawan,A Zampa,V Kohli,1,1,0,na,na,na,na,na,na,na,na,na
1st innings,8.5,V Kohli,A Zampa,S Dhawan,1,1,0,na,na,na,na,na,na,na,na,na
1st innings,8.6,S Dhawan,A Zampa,V Kohli,2,2,0,na,na,na,na,na,na,na,na,na
1st innings,9.1,V Kohli,JP Behrendorff,S Dhawan,0,0,0,na,na,na,na,na,na,na,na,na
1st innings,9.2,V Kohli,JP Behrendorff,S Dhawan,0,0,0,na,na,na,na,na,caught,MP Stoinis,na,S Dhawan
1st innings,9.3,RR Pant,JP Behrendorff,V Kohli,1,1,0,na,na,na,na,na,na,na,na,na
1st innings,9.4,V Kohli,JP Behrendorff,RR Pant,0,0,0,na,na,na,na,na,na,na,na,na
1st innings,9.5,V Kohli,JP Behrendorff,RR Pant,1,1,0,na,na,na,na,na,na,na,na,na
1st innings,9.6,RR Pant,JP Behrendorff,V Kohli,1,1,0,na,na,na,na,na,na,na,na,na
1st innings,10.1,RR Pant,DJM Short,V Kohli,1,1,0,na,na,na,na,na,na,na,na,na
1st innings,10.2,V Kohli,DJM Short,RR Pant,0,0,0,na,na,na,na,na,na,na,na,na
1st innings,10.3,V Kohli,DJM Short,RR Pant,0,0,0,na,na,na,na,na,na,na,na,na
1st innings,10.4,V Kohli,DJM Short,RR Pant,0,0,0,na,na,na,na,na,na,na,na,na
1st innings,10.5,V Kohli,DJM Short,RR Pant,0,0,0,na,na,na,na,na,caught,JA Richardson,na,RR Pant
1st innings,10.6,V Kohli,DJM Short,MS Dhoni,0,0,0,na,na,na,na,na,na,na,na,na
1st innings,11.1,MS Dhoni,A Zampa,V Kohli,1,1,0,na,na,na,na,na,na,na,na,na
1st innings,11.2,V Kohli,A Zampa,MS Dhoni,0,0,0,na,na,na,na,na,na,na,na,na
1st innings,11.3,V Kohli,A Zampa,MS Dhoni,0,0,0,na,na,na,na,na,na,na,na,na
1st innings,11.4,V Kohli,A Zampa,MS Dhoni,1,1,0,na,na,na,na,na,na,na,na,na
1st innings,11.5,MS Dhoni,A Zampa,V Kohli,4,4,0,na,na,na,na,na,na,na,na,na
1st innings,11.6,MS Dhoni,A Zampa,V Kohli,1,1,0,na,na,na,na,na,na,na,na,na
1st innings,12.1,MS Dhoni,DJM Short,V Kohli,1,1,0,na,na,na,na,na,na,na,na,na
1st innings,12.2,V Kohli,DJM Short,MS Dhoni,0,0,0,na,na,na,na,na,na,na,na,na
1st innings,12.3,V Kohli,DJM Short,MS Dhoni,6,6,0,na,na,na,na,na,na,na,na,na
1st innings,12.4,V Kohli,DJM Short,MS Dhoni,0,0,0,na,na,na,na,na,na,na,na,na
1st innings,12.5,V Kohli,DJM Short,MS Dhoni,1,1,0,na,na,na,na,na,na,na,na,na
1st innings,12.6,MS Dhoni,DJM Short,V Kohli,1,1,0,na,na,na,na,na,na,na,na,na
1st innings,13.1,MS Dhoni,PJ Cummins,V Kohli,2,2,0,na,na,na,na,na,na,na,na,na
1st innings,13.2,MS Dhoni,PJ Cummins,V Kohli,1,1,0,na,na,na,na,na,na,na,na,na
1st innings,13.3,V Kohli,PJ Cummins,MS Dhoni,0,0,0,na,na,na,na,na,na,na,na,na
1st innings,13.4,V Kohli,PJ Cummins,MS Dhoni,4,4,0,na,na,na,na,na,na,na,na,na
1st innings,13.5,V Kohli,PJ Cummins,MS Dhoni,1,1,0,na,na,na,na,na,na,na,na,na
1st innings,13.6,MS Dhoni,PJ Cummins,V Kohli,1,1,0,na,na,na,na,na,na,na,na,na
1st innings,14.1,MS Dhoni,JA Richardson,V Kohli,1,1,0,na,na,na,na,na,na,na,na,na
1st innings,14.2,V Kohli,JA Richardson,MS Dhoni,4,4,0,na,na,na,na,na,na,na,na,na
1st innings,14.3,V Kohli,JA Richardson,MS Dhoni,1,1,0,na,na,na,na,na,na,na,na,na
1st innings,14.4,MS Dhoni,JA Richardson,V Kohli,6,6,0,na,na,na,na,na,na,na,na,na
1st innings,14.5,MS Dhoni,JA Richardson,V Kohli,2,2,0,na,na,na,na,na,na,na,na,na
1st innings,14.6,MS Dhoni,JA Richardson,V Kohli,0,0,0,na,na,na,na,na,na,na,na,na
1st innings,15.1,V Kohli,NM Coulter-Nile,MS Dhoni,2,2,0,na,na,na,na,na,na,na,na,na
1st innings,15.2,V Kohli,NM Coulter-Nile,MS Dhoni,1,1,0,na,na,na,na,na,na,na,na,na
1st innings,15.3,MS Dhoni,NM Coulter-Nile,V Kohli,6,6,0,na,na,na,na,na,na,na,na,na
1st innings,15.4,MS Dhoni,NM Coulter-Nile,V Kohli,6,6,0,na,na,na,na,na,na,na,na,na
1st innings,15.5,MS Dhoni,NM Coulter-Nile,V Kohli,6,6,0,na,na,na,na,na,na,na,na,na
1st innings,15.6,MS Dhoni,NM Coulter-Nile,V Kohli,1,1,0,na,na,na,na,na,na,na,na,na
1st innings,16.1,MS Dhoni,A Zampa,V Kohli,1,1,0,na,na,na,na,na,na,na,na,na
1st innings,16.2,V Kohli,A Zampa,MS Dhoni,1,1,0,na,na,na,na,na,na,na,na,na
1st innings,16.3,MS Dhoni,A Zampa,V Kohli,0,0,0,na,na,na,na,na,na,na,na,na
1st innings,16.4,MS Dhoni,A Zampa,V Kohli,0,0,0,na,na,na,na,na,na,na,na,na
1st innings,16.5,MS Dhoni,A Zampa,V Kohli,1,1,0,na,na,na,na,na,na,na,na,na
1st innings,16.6,V Kohli,A Zampa,MS Dhoni,0,0,0,na,na,na,na,na,na,na,na,na
1st innings,17.1,MS Dhoni,DJM Short,V Kohli,1,1,0,na,na,na,na,na,na,na,na,na
1st innings,17.2,V Kohli,DJM Short,MS Dhoni,6,6,0,na,na,na,na,na,na,na,na,na
1st innings,17.3,V Kohli,DJM Short,MS Dhoni,1,1,0,na,na,na,na,na,na,na,na,na
1st innings,17.4,MS Dhoni,DJM Short,V Kohli,1,1,0,na,na,na,na,na,na,na,na,na
1st innings,17.5,V Kohli,DJM Short,MS Dhoni,6,6,0,na,na,na,na,na,na,na,na,na
1st innings,17.6,V Kohli,DJM Short,MS Dhoni,4,4,0,na,na,na,na,na,na,na,na,na
1st innings,18.1,MS Dhoni,JA Richardson,V Kohli,0,0,0,na,na,na,na,na,na,na,na,na
1st innings,18.2,MS Dhoni,JA Richardson,V Kohli,1,0,1,na,na,1,na,na,na,na,na,na
1st innings,18.3,MS Dhoni,JA Richardson,V Kohli,6,6,0,na,na,na,na,na,na,na,na,na
1st innings,18.4,MS Dhoni,JA Richardson,V Kohli,1,1,0,na,na,na,na,na,na,na,na,na
1st innings,18.5,V Kohli,JA Richardson,MS Dhoni,1,1,0,na,na,na,na,na,na,na,na,na
1st innings,18.6,MS Dhoni,JA Richardson,V Kohli,2,2,0,na,na,na,na,na,na,na,na,na
1st innings,18.7,MS Dhoni,JA Richardson,V Kohli,4,4,0,na,na,na,na,na,na,na,na,na
1st innings,19.1,V Kohli,PJ Cummins,MS Dhoni,1,0,1,na,na,1,na,na,na,na,na,na
1st innings,19.2,V Kohli,PJ Cummins,MS Dhoni,1,0,1,na,na,1,na,na,na,na,na,na
1st innings,19.3,V Kohli,PJ Cummins,MS Dhoni,0,0,0,na,na,na,na,na,caught,AJ Finch,na,MS Dhoni
1st innings,19.4,KD Karthik,PJ Cummins,V Kohli,1,1,0,na,na,na,na,na,na,na,na,na
1st innings,19.5,V Kohli,PJ Cummins,KD Karthik,4,4,0,na,na,na,na,na,na,na,na,na
1st innings,19.6,V Kohli,PJ Cummins,KD Karthik,4,4,0,na,na,na,na,na,na,na,na,na
1st innings,19.7,V Kohli,PJ Cummins,KD Karthik,1,0,1,1,na,na,na,na,na,na,na,na
1st innings,19.8,KD Karthik,PJ Cummins,V Kohli,6,6,0,na,na,na,na,na,na,na,na,na
2nd innings,0.1,MP Stoinis,V Shankar,DJM Short,4,4,0,na,na,na,na,na,na,na,na,na
2nd innings,0.2,MP Stoinis,V Shankar,DJM Short,1,1,0,na,na,na,na,na,na,na,na,na
2nd innings,0.3,DJM Short,V Shankar,MP Stoinis,0,0,0,na,na,na,na,na,na,na,na,na
2nd innings,0.4,DJM Short,V Shankar,MP Stoinis,4,4,0,na,na,na,na,na,na,na,na,na
2nd innings,0.5,DJM Short,V Shankar,MP Stoinis,0,0,0,na,na,na,na,na,na,na,na,na
2nd innings,0.6,DJM Short,V Shankar,MP Stoinis,0,0,0,na,na,na,na,na,na,na,na,na
2nd innings,1.1,MP Stoinis,JJ Bumrah,DJM Short,1,1,0,na,na,na,na,na,na,na,na,na
2nd innings,1.2,DJM Short,JJ Bumrah,MP Stoinis,2,2,0,na,na,na,na,na,na,na,na,na
2nd innings,1.3,DJM Short,JJ Bumrah,MP Stoinis,0,0,0,na,na,na,na,na,na,na,na,na
2nd innings,1.4,DJM Short,JJ Bumrah,MP Stoinis,0,0,0,na,na,na,na,na,na,na,na,na
2nd innings,1.5,DJM Short,JJ Bumrah,MP Stoinis,0,0,0,na,na,na,na,na,na,na,na,na
2nd innings,1.6,DJM Short,JJ Bumrah,MP Stoinis,1,1,0,na,na,na,na,na,na,na,na,na
2nd innings,2.1,DJM Short,S Kaul,MP Stoinis,0,0,0,na,na,na,na,na,na,na,na,na
2nd innings,2.2,DJM Short,S Kaul,MP Stoinis,0,0,0,na,na,na,na,na,bowled,na,na,MP Stoinis
2nd innings,2.3,DJM Short,S Kaul,AJ Finch,0,0,0,na,na,na,na,na,na,na,na,na
2nd innings,2.4,DJM Short,S Kaul,AJ Finch,2,2,0,na,na,na,na,na,na,na,na,na
2nd innings,2.5,DJM Short,S Kaul,AJ Finch,2,2,0,na,na,na,na,na,na,na,na,na
2nd innings,2.6,DJM Short,S Kaul,AJ Finch,0,0,0,na,na,na,na,na,na,na,na,na
2nd innings,3.1,AJ Finch,V Shankar,DJM Short,0,0,0,na,na,na,na,na,na,na,na,na
2nd innings,3.2,AJ Finch,V Shankar,DJM Short,0,0,0,na,na,na,na,na,na,na,na,na
2nd innings,3.3,AJ Finch,V Shankar,DJM Short,1,1,0,na,na,na,na,na,na,na,na,na
2nd innings,3.4,DJM Short,V Shankar,AJ Finch,4,4,0,na,na,na,na,na,na,na,na,na
2nd innings,3.5,DJM Short,V Shankar,AJ Finch,0,0,0,na,na,na,na,na,na,na,na,na
2nd innings,3.6,DJM Short,V Shankar,AJ Finch,0,0,0,na,na,na,na,na,caught,S Dhawan,na,AJ Finch
2nd innings,4.1,GJ Maxwell,JJ Bumrah,DJM Short,0,0,0,na,na,na,na,na,na,na,na,na
2nd innings,4.2,GJ Maxwell,JJ Bumrah,DJM Short,0,0,0,na,na,na,na,na,na,na,na,na
2nd innings,4.3,GJ Maxwell,JJ Bumrah,DJM Short,1,1,0,na,na,na,na,na,na,na,na,na
2nd innings,4.4,DJM Short,JJ Bumrah,GJ Maxwell,1,1,0,na,na,na,na,na,na,na,na,na
2nd innings,4.5,GJ Maxwell,JJ Bumrah,DJM Short,1,1,0,na,na,na,na,na,na,na,na,na
2nd innings,4.6,DJM Short,JJ Bumrah,GJ Maxwell,6,6,0,na,na,na,na,na,na,na,na,na
2nd innings,5.1,GJ Maxwell,S Kaul,DJM Short,0,0,0,na,na,na,na,na,na,na,na,na
2nd innings,5.2,GJ Maxwell,S Kaul,DJM Short,4,4,0,na,na,na,na,na,na,na,na,na
2nd innings,5.3,GJ Maxwell,S Kaul,DJM Short,1,1,0,na,na,na,na,na,na,na,na,na
2nd innings,5.4,DJM Short,S Kaul,GJ Maxwell,1,1,0,na,na,na,na,na,na,na,na,na
2nd innings,5.5,GJ Maxwell,S Kaul,DJM Short,4,4,0,na,na,na,na,na,na,na,na,na
2nd innings,5.6,GJ Maxwell,S Kaul,DJM Short,1,1,0,na,na,na,na,na,na,na,na,na
2nd innings,6.1,GJ Maxwell,V Shankar,DJM Short,1,1,0,na,na,na,na,na,na,na,na,na
2nd innings,6.2,DJM Short,V Shankar,GJ Maxwell,4,4,0,na,na,na,na,na,na,na,na,na
2nd innings,6.3,DJM Short,V Shankar,GJ Maxwell,0,0,0,na,na,na,na,na,na,na,na,na
2nd innings,6.4,DJM Short,V Shankar,GJ Maxwell,1,1,0,na,na,na,na,na,na,na,na,na
2nd innings,6.5,GJ Maxwell,V Shankar,DJM Short,4,4,0,na,na,na,na,na,na,na,na,na
2nd innings,6.6,GJ Maxwell,V Shankar,DJM Short,1,1,0,na,na,na,na,na,na,na,na,na
2nd innings,7.1,GJ Maxwell,YS Chahal,DJM Short,1,1,0,na,na,na,na,na,na,na,na,na
2nd innings,7.2,DJM Short,YS Chahal,GJ Maxwell,4,4,0,na,na,na,na,na,na,na,na,na
2nd innings,7.3,DJM Short,YS Chahal,GJ Maxwell,1,1,0,na,na,na,na,na,na,na,na,na
2nd innings,7.4,GJ Maxwell,YS Chahal,DJM Short,1,0,1,na,na,1,na,na,na,na,na,na
2nd innings,7.5,GJ Maxwell,YS Chahal,DJM Short,1,1,0,na,na,na,na,na,na,na,na,na
2nd innings,7.6,DJM Short,YS Chahal,GJ Maxwell,1,0,1,na,na,1,na,na,na,na,na,na
2nd innings,7.7,DJM Short,YS Chahal,GJ Maxwell,2,2,0,na,na,na,na,na,na,na,na,na
2nd innings,7.8,DJM Short,YS Chahal,GJ Maxwell,1,1,0,na,na,na,na,na,na,na,na,na
2nd innings,8.1,DJM Short,KH Pandya,GJ Maxwell,0,0,0,na,na,na,na,na,na,na,na,na
2nd innings,8.2,DJM Short,KH Pandya,GJ Maxwell,1,1,0,na,na,na,na,na,na,na,na,na
2nd innings,8.3,GJ Maxwell,KH Pandya,DJM Short,4,4,0,na,na,na,na,na,na,na,na,na
2nd innings,8.4,GJ Maxwell,KH Pandya,DJM Short,1,1,0,na,na,na,na,na,na,na,na,na
2nd innings,8.5,DJM Short,KH Pandya,GJ Maxwell,1,1,0,na,na,na,na,na,na,na,na,na
2nd innings,8.6,GJ Maxwell,KH Pandya,DJM Short,4,4,0,na,na,na,na,na,na,na,na,na
2nd innings,9.1,DJM Short,YS Chahal,GJ Maxwell,1,1,0,na,na,na,na,na,na,na,na,na
2nd innings,9.2,GJ Maxwell,YS Chahal,DJM Short,1,1,0,na,na,na,na,na,na,na,na,na
2nd innings,9.3,DJM Short,YS Chahal,GJ Maxwell,6,6,0,na,na,na,na,na,na,na,na,na
2nd innings,9.4,DJM Short,YS Chahal,GJ Maxwell,1,1,0,na,na,na,na,na,na,na,na,na
2nd innings,9.5,GJ Maxwell,YS Chahal,DJM Short,1,1,0,na,na,na,na,na,na,na,na,na
2nd innings,9.6,DJM Short,YS Chahal,GJ Maxwell,1,1,0,na,na,na,na,na,na,na,na,na
2nd innings,10.1,DJM Short,KH Pandya,GJ Maxwell,0,0,0,na,na,na,na,na,na,na,na,na
2nd innings,10.2,DJM Short,KH Pandya,GJ Maxwell,1,1,0,na,na,na,na,na,na,na,na,na
2nd innings,10.3,GJ Maxwell,KH Pandya,DJM Short,1,1,0,na,na,na,na,na,na,na,na,na
2nd innings,10.4,DJM Short,KH Pandya,GJ Maxwell,4,4,0,na,na,na,na,na,na,na,na,na
2nd innings,10.5,DJM Short,KH Pandya,GJ Maxwell,1,1,0,na,na,na,na,na,na,na,na,na
2nd innings,10.6,GJ Maxwell,KH Pandya,DJM Short,1,1,0,na,na,na,na,na,na,na,na,na
2nd innings,11.1,GJ Maxwell,V Shankar,DJM Short,0,0,0,na,na,na,na,na,caught,KL Rahul,na,DJM Short
2nd innings,11.2,PSP Handscomb,V Shankar,GJ Maxwell,0,0,0,na,na,na,na,na,na,na,na,na
2nd innings,11.3,PSP Handscomb,V Shankar,GJ Maxwell,4,4,0,na,na,na,na,na,na,na,na,na
2nd innings,11.4,PSP Handscomb,V Shankar,GJ Maxwell,1,1,0,na,na,na,na,na,na,na,na,na
2nd innings,11.5,GJ Maxwell,V Shankar,PSP Handscomb,1,1,0,na,na,na,na,na,na,na,na,na
2nd innings,11.6,PSP Handscomb,V Shankar,GJ Maxwell,1,0,1,na,na,1,na,na,na,na,na,na
2nd innings,11.7,PSP Handscomb,V Shankar,GJ Maxwell,6,6,0,na,na,na,na,na,na,na,na,na
2nd innings,12.1,GJ Maxwell,KH Pandya,PSP Handscomb,1,1,0,na,na,na,na,na,na,na,na,na
2nd innings,12.2,PSP Handscomb,KH Pandya,GJ Maxwell,1,0,1,1,na,na,na,na,na,na,na,na
2nd innings,12.3,GJ Maxwell,KH Pandya,PSP Handscomb,1,1,0,na,na,na,na,na,na,na,na,na
2nd innings,12.4,PSP Handscomb,KH Pandya,GJ Maxwell,0,0,0,na,na,na,na,na,na,na,na,na
2nd innings,12.5,PSP Handscomb,KH Pandya,GJ Maxwell,1,1,0,na,na,na,na,na,na,na,na,na
2nd innings,12.6,GJ Maxwell,KH Pandya,PSP Handscomb,1,1,0,na,na,na,na,na,na,na,na,na
2nd innings,13.1,GJ Maxwell,YS Chahal,PSP Handscomb,0,0,0,na,na,na,na,na,na,na,na,na
2nd innings,13.2,GJ Maxwell,YS Chahal,PSP Handscomb,1,1,0,na,na,na,na,na,na,na,na,na
2nd innings,13.3,PSP Handscomb,YS Chahal,GJ Maxwell,1,1,0,na,na,na,na,na,na,na,na,na
2nd innings,13.4,GJ Maxwell,YS Chahal,PSP Handscomb,4,4,0,na,na,na,na,na,na,na,na,na
2nd innings,13.5,GJ Maxwell,YS Chahal,PSP Handscomb,1,1,0,na,na,na,na,na,na,na,na,na
2nd innings,13.6,PSP Handscomb,YS Chahal,GJ Maxwell,1,1,0,na,na,na,na,na,na,na,na,na
2nd innings,14.1,PSP Handscomb,KH Pandya,GJ Maxwell,0,0,0,na,na,na,na,na,na,na,na,na
2nd innings,14.2,PSP Handscomb,KH Pandya,GJ Maxwell,1,0,1,na,na,1,na,na,na,na,na,na
2nd innings,14.3,PSP Handscomb,KH Pandya,GJ Maxwell,1,1,0,na,na,na,na,na,na,na,na,na
2nd innings,14.4,GJ Maxwell,KH Pandya,PSP Handscomb,1,1,0,na,na,na,na,na,na,na,na,na
2nd innings,14.5,PSP Handscomb,KH Pandya,GJ Maxwell,0,0,0,na,na,na,na,na,na,na,na,na
2nd innings,14.6,PSP Handscomb,KH Pandya,GJ Maxwell,6,6,0,na,na,na,na,na,na,na,na,na
2nd innings,14.7,PSP Handscomb,KH Pandya,GJ Maxwell,1,1,0,na,na,na,na,na,na,na,na,na
2nd innings,15.1,PSP Handscomb,YS Chahal,GJ Maxwell,2,2,0,na,na,na,na,na,na,na,na,na
2nd innings,15.2,PSP Handscomb,YS Chahal,GJ Maxwell,6,6,0,na,na,na,na,na,na,na,na,na
2nd innings,15.3,PSP Handscomb,YS Chahal,GJ Maxwell,6,6,0,na,na,na,na,na,na,na,na,na
2nd innings,15.4,PSP Handscomb,YS Chahal,GJ Maxwell,1,1,0,na,na,na,na,na,na,na,na,na
2nd innings,15.5,GJ Maxwell,YS Chahal,PSP Handscomb,1,1,0,na,na,na,na,na,na,na,na,na
2nd innings,15.6,PSP Handscomb,YS Chahal,GJ Maxwell,0,0,0,na,na,na,na,na,na,na,na,na
2nd innings,16.1,GJ Maxwell,JJ Bumrah,PSP Handscomb,1,1,0,na,na,na,na,na,na,na,na,na
2nd innings,16.2,PSP Handscomb,JJ Bumrah,GJ Maxwell,4,4,0,na,na,na,na,na,na,na,na,na
2nd innings,16.3,PSP Handscomb,JJ Bumrah,GJ Maxwell,1,1,0,na,na,na,na,na,na,na,na,na
2nd innings,16.4,GJ Maxwell,JJ Bumrah,PSP Handscomb,1,1,0,na,na,na,na,na,na,na,na,na
2nd innings,16.5,PSP Handscomb,JJ Bumrah,GJ Maxwell,4,4,0,na,na,na,na,na,na,na,na,na
2nd innings,16.6,PSP Handscomb,JJ Bumrah,GJ Maxwell,1,1,0,na,na,na,na,na,na,na,na,na
2nd innings,17.1,PSP Handscomb,S Kaul,GJ Maxwell,0,0,0,na,na,na,na,na,na,na,na,na
2nd innings,17.2,PSP Handscomb,S Kaul,GJ Maxwell,6,6,0,na,na,na,na,na,na,na,na,na
2nd innings,17.3,PSP Handscomb,S Kaul,GJ Maxwell,1,1,0,na,na,na,na,na,na,na,na,na
2nd innings,17.4,GJ Maxwell,S Kaul,PSP Handscomb,2,2,0,na,na,na,na,na,na,na,na,na
2nd innings,17.5,GJ Maxwell,S Kaul,PSP Handscomb,1,1,0,na,na,na,na,na,na,na,na,na
2nd innings,17.6,PSP Handscomb,S Kaul,GJ Maxwell,7,6,1,na,na,na,1,na,na,na,na,na
2nd innings,17.7,PSP Handscomb,S Kaul,GJ Maxwell,1,1,0,na,na,na,na,na,na,na,na,na
2nd innings,18.1,PSP Handscomb,JJ Bumrah,GJ Maxwell,1,1,0,na,na,na,na,na,na,na,na,na
2nd innings,18.2,GJ Maxwell,JJ Bumrah,PSP Handscomb,1,1,0,na,na,na,na,na,na,na,na,na
2nd innings,18.3,PSP Handscomb,JJ Bumrah,GJ Maxwell,1,1,0,na,na,na,na,na,na,na,na,na
2nd innings,18.4,GJ Maxwell,JJ Bumrah,PSP Handscomb,0,0,0,na,na,na,na,na,na,na,na,na
2nd innings,18.5,GJ Maxwell,JJ Bumrah,PSP Handscomb,1,1,0,na,na,na,na,na,na,na,na,na
2nd innings,18.6,PSP Handscomb,JJ Bumrah,GJ Maxwell,1,1,0,na,na,na,na,na,na,na,na,na
2nd innings,19.1,PSP Handscomb,S Kaul,GJ Maxwell,1,1,0,na,na,na,na,na,na,na,na,na
2nd innings,19.2,GJ Maxwell,S Kaul,PSP Handscomb,1,1,0,na,na,na,na,na,na,na,na,na
2nd innings,19.3,PSP Handscomb,S Kaul,GJ Maxwell,6,6,0,na,na,na,na,na,na,na,na,na
2nd innings,19.4,PSP Handscomb,S Kaul,GJ Maxwell,4,4,0,na,na,na,na,na,na,na,na,na
