inngs,deliveries,non_striker,bowler,batsman,totalruns,batsman_runs,extra_runs,legbyes,byes,wides,noballs,penalty,wicket_kind,fielder1,fielder2,player_out
1st innings,0.1,KJ O'Brien,SC Williams,PR Stirling,0,0,0,na,na,na,na,na,bowled,na,na,PR Stirling
1st innings,0.2,KJ O'Brien,SC Williams,GC Wilson,0,0,0,na,na,na,na,na,na,na,na,na
1st innings,0.3,KJ O'Brien,SC Williams,GC Wilson,0,0,0,na,na,na,na,na,na,na,na,na
1st innings,0.4,KJ O'Brien,SC Williams,GC Wilson,0,0,0,na,na,na,na,na,na,na,na,na
1st innings,0.5,KJ O'Brien,SC Williams,GC Wilson,0,0,0,na,na,na,na,na,na,na,na,na
1st innings,0.6,KJ O'Brien,SC Williams,GC Wilson,4,4,0,na,na,na,na,na,na,na,na,na
1st innings,1.1,GC Wilson,TL Chatara,KJ O'Brien,4,4,0,na,na,na,na,na,na,na,na,na
1st innings,1.2,GC Wilson,TL Chatara,KJ O'Brien,0,0,0,na,na,na,na,na,na,na,na,na
1st innings,1.3,GC Wilson,TL Chatara,KJ O'Brien,0,0,0,na,na,na,na,na,na,na,na,na
1st innings,1.4,GC Wilson,TL Chatara,KJ O'Brien,0,0,0,na,na,na,na,na,na,na,na,na
1st innings,1.5,GC Wilson,TL Chatara,KJ O'Brien,1,1,0,na,na,na,na,na,na,na,na,na
1st innings,1.6,KJ O'Brien,TL Chatara,GC Wilson,1,1,0,na,na,na,na,na,na,na,na,na
1st innings,2.1,KJ O'Brien,SC Williams,GC Wilson,4,4,0,na,na,na,na,na,na,na,na,na
1st innings,2.2,KJ O'Brien,SC Williams,GC Wilson,1,1,0,na,na,na,na,na,na,na,na,na
1st innings,2.3,GC Wilson,SC Williams,KJ O'Brien,1,1,0,na,na,na,na,na,na,na,na,na
1st innings,2.4,KJ O'Brien,SC Williams,GC Wilson,0,0,0,na,na,na,na,na,na,na,na,na
1st innings,2.5,KJ O'Brien,SC Williams,GC Wilson,0,0,0,na,na,na,na,na,na,na,na,na
1st innings,2.6,KJ O'Brien,SC Williams,GC Wilson,1,1,0,na,na,na,na,na,na,na,na,na
1st innings,3.1,KJ O'Brien,KM Jarvis,GC Wilson,1,0,1,1,na,na,na,na,na,na,na,na
1st innings,3.2,GC Wilson,KM Jarvis,KJ O'Brien,1,1,0,na,na,na,na,na,na,na,na,na
1st innings,3.3,KJ O'Brien,KM Jarvis,GC Wilson,4,4,0,na,na,na,na,na,na,na,na,na
1st innings,3.4,KJ O'Brien,KM Jarvis,GC Wilson,0,0,0,na,na,na,na,na,na,na,na,na
1st innings,3.5,KJ O'Brien,KM Jarvis,GC Wilson,1,1,0,na,na,na,na,na,na,na,na,na
1st innings,3.6,GC Wilson,KM Jarvis,KJ O'Brien,0,0,0,na,na,na,na,na,na,na,na,na
1st innings,4.1,KJ O'Brien,TL Chatara,GC Wilson,2,2,0,na,na,na,na,na,na,na,na,na
1st innings,4.2,KJ O'Brien,TL Chatara,GC Wilson,1,1,0,na,na,na,na,na,na,na,na,na
1st innings,4.3,GC Wilson,TL Chatara,KJ O'Brien,4,4,0,na,na,na,na,na,na,na,na,na
1st innings,4.4,GC Wilson,TL Chatara,KJ O'Brien,6,6,0,na,na,na,na,na,na,na,na,na
1st innings,4.5,GC Wilson,TL Chatara,KJ O'Brien,1,1,0,na,na,na,na,na,na,na,na,na
1st innings,4.6,KJ O'Brien,TL Chatara,GC Wilson,1,1,0,na,na,na,na,na,na,na,na,na
1st innings,5.1,KJ O'Brien,KM Jarvis,GC Wilson,1,1,0,na,na,na,na,na,na,na,na,na
1st innings,5.2,GC Wilson,KM Jarvis,KJ O'Brien,4,4,0,na,na,na,na,na,na,na,na,na
1st innings,5.3,GC Wilson,KM Jarvis,KJ O'Brien,0,0,0,na,na,na,na,na,caught,R Mutumbami,na,KJ O'Brien
1st innings,5.4,L Tucker,KM Jarvis,GC Wilson,1,0,1,1,na,na,na,na,na,na,na,na
1st innings,5.5,GC Wilson,KM Jarvis,L Tucker,0,0,0,na,na,na,na,na,lbw,na,na,L Tucker
1st innings,5.6,GC Wilson,KM Jarvis,GJ Thompson,0,0,0,na,na,na,na,na,na,na,na,na
1st innings,6.1,GJ Thompson,SF Mire,GC Wilson,1,1,0,na,na,na,na,na,na,na,na,na
1st innings,6.2,GC Wilson,SF Mire,GJ Thompson,0,0,0,na,na,na,na,na,na,na,na,na
1st innings,6.3,GC Wilson,SF Mire,GJ Thompson,1,1,0,na,na,na,na,na,na,na,na,na
1st innings,6.4,GJ Thompson,SF Mire,GC Wilson,1,1,0,na,na,na,na,na,na,na,na,na
1st innings,6.5,GC Wilson,SF Mire,GJ Thompson,0,0,0,na,na,na,na,na,na,na,na,na
1st innings,6.6,GC Wilson,SF Mire,GJ Thompson,1,0,1,na,1,na,na,na,na,na,na,na
1st innings,7.1,GC Wilson,CB Mpofu,GJ Thompson,1,1,0,na,na,na,na,na,na,na,na,na
1st innings,7.2,GJ Thompson,CB Mpofu,GC Wilson,0,0,0,na,na,na,na,na,na,na,na,na
1st innings,7.3,GJ Thompson,CB Mpofu,GC Wilson,1,1,0,na,na,na,na,na,na,na,na,na
1st innings,7.4,GC Wilson,CB Mpofu,GJ Thompson,0,0,0,na,na,na,na,na,na,na,na,na
1st innings,7.5,GC Wilson,CB Mpofu,GJ Thompson,1,1,0,na,na,na,na,na,na,na,na,na
1st innings,7.6,GJ Thompson,CB Mpofu,GC Wilson,1,1,0,na,na,na,na,na,na,na,na,na
1st innings,8.1,GJ Thompson,SF Mire,GC Wilson,0,0,0,na,na,na,na,na,na,na,na,na
1st innings,8.2,GJ Thompson,SF Mire,GC Wilson,0,0,0,na,na,na,na,na,na,na,na,na
1st innings,8.3,GJ Thompson,SF Mire,GC Wilson,0,0,0,na,na,na,na,na,na,na,na,na
1st innings,8.4,GJ Thompson,SF Mire,GC Wilson,1,1,0,na,na,na,na,na,na,na,na,na
1st innings,8.5,GC Wilson,SF Mire,GJ Thompson,1,1,0,na,na,na,na,na,na,na,na,na
1st innings,8.6,GJ Thompson,SF Mire,GC Wilson,0,0,0,na,na,na,na,na,na,na,na,na
1st innings,9.1,GC Wilson,CB Mpofu,GJ Thompson,0,0,0,na,na,na,na,na,na,na,na,na
1st innings,9.2,GC Wilson,CB Mpofu,GJ Thompson,0,0,0,na,na,na,na,na,na,na,na,na
1st innings,9.3,GC Wilson,CB Mpofu,GJ Thompson,1,1,0,na,na,na,na,na,na,na,na,na
1st innings,9.4,GJ Thompson,CB Mpofu,GC Wilson,1,1,0,na,na,na,na,na,na,na,na,na
1st innings,9.5,GC Wilson,CB Mpofu,GJ Thompson,1,1,0,na,na,na,na,na,na,na,na,na
1st innings,9.6,GJ Thompson,CB Mpofu,GC Wilson,0,0,0,na,na,na,na,na,na,na,na,na
1st innings,10.1,GC Wilson,SC Williams,GJ Thompson,2,2,0,na,na,na,na,na,na,na,na,na
1st innings,10.2,GC Wilson,SC Williams,GJ Thompson,4,4,0,na,na,na,na,na,na,na,na,na
1st innings,10.3,GC Wilson,SC Williams,GJ Thompson,1,1,0,na,na,na,na,na,na,na,na,na
1st innings,10.4,GJ Thompson,SC Williams,GC Wilson,1,1,0,na,na,na,na,na,na,na,na,na
1st innings,10.5,GC Wilson,SC Williams,GJ Thompson,0,0,0,na,na,na,na,na,na,na,na,na
1st innings,10.6,GC Wilson,SC Williams,GJ Thompson,0,0,0,na,na,na,na,na,na,na,na,na
1st innings,11.1,GJ Thompson,KM Jarvis,GC Wilson,1,1,0,na,na,na,na,na,na,na,na,na
1st innings,11.2,GC Wilson,KM Jarvis,GJ Thompson,0,0,0,na,na,na,na,na,na,na,na,na
1st innings,11.3,GC Wilson,KM Jarvis,GJ Thompson,4,4,0,na,na,na,na,na,na,na,na,na
1st innings,11.4,GC Wilson,KM Jarvis,GJ Thompson,0,0,0,na,na,na,na,na,na,na,na,na
1st innings,11.5,GC Wilson,KM Jarvis,GJ Thompson,2,2,0,na,na,na,na,na,na,na,na,na
1st innings,11.6,GC Wilson,KM Jarvis,GJ Thompson,4,4,0,na,na,na,na,na,na,na,na,na
1st innings,12.1,GJ Thompson,SF Mire,GC Wilson,1,1,0,na,na,na,na,na,na,na,na,na
1st innings,12.2,GC Wilson,SF Mire,GJ Thompson,4,4,0,na,na,na,na,na,na,na,na,na
1st innings,12.3,GC Wilson,SF Mire,GJ Thompson,1,0,1,1,na,na,na,na,na,na,na,na
1st innings,12.4,GJ Thompson,SF Mire,GC Wilson,1,1,0,na,na,na,na,na,na,na,na,na
1st innings,12.5,GC Wilson,SF Mire,GJ Thompson,4,4,0,na,na,na,na,na,na,na,na,na
1st innings,12.6,GC Wilson,SF Mire,GJ Thompson,1,0,1,1,na,na,na,na,na,na,na,na
1st innings,13.1,GC Wilson,TL Chatara,GJ Thompson,0,0,0,na,na,na,na,na,na,na,na,na
1st innings,13.2,GC Wilson,TL Chatara,GJ Thompson,1,1,0,na,na,na,na,na,na,na,na,na
1st innings,13.3,GJ Thompson,TL Chatara,GC Wilson,1,1,0,na,na,na,na,na,na,na,na,na
1st innings,13.4,GC Wilson,TL Chatara,GJ Thompson,0,0,0,na,na,na,na,na,caught and bowled,na,na,GJ Thompson
1st innings,13.5,MR Adair,TL Chatara,GC Wilson,0,0,0,na,na,na,na,na,na,na,na,na
1st innings,13.6,MR Adair,TL Chatara,GC Wilson,1,0,1,1,na,na,na,na,na,na,na,na
1st innings,14.1,MR Adair,SC Williams,GC Wilson,0,0,0,na,na,na,na,na,na,na,na,na
1st innings,14.2,MR Adair,SC Williams,GC Wilson,2,2,0,na,na,na,na,na,na,na,na,na
1st innings,14.3,MR Adair,SC Williams,GC Wilson,6,6,0,na,na,na,na,na,na,na,na,na
1st innings,14.4,MR Adair,SC Williams,GC Wilson,1,1,0,na,na,na,na,na,na,na,na,na
1st innings,14.5,GC Wilson,SC Williams,MR Adair,1,1,0,na,na,na,na,na,na,na,na,na
1st innings,14.6,MR Adair,SC Williams,GC Wilson,4,4,0,na,na,na,na,na,na,na,na,na
1st innings,15.1,GC Wilson,SF Mire,MR Adair,6,6,0,na,na,na,na,na,na,na,na,na
1st innings,15.2,GC Wilson,SF Mire,MR Adair,4,4,0,na,na,na,na,na,na,na,na,na
1st innings,15.3,GC Wilson,SF Mire,MR Adair,0,0,0,na,na,na,na,na,na,na,na,na
1st innings,15.4,GC Wilson,SF Mire,MR Adair,6,6,0,na,na,na,na,na,na,na,na,na
1st innings,15.5,GC Wilson,SF Mire,MR Adair,1,1,0,na,na,na,na,na,na,na,na,na
1st innings,15.6,MR Adair,SF Mire,GC Wilson,1,1,0,na,na,na,na,na,na,na,na,na
1st innings,16.1,MR Adair,CB Mpofu,GC Wilson,1,1,0,na,na,na,na,na,na,na,na,na
1st innings,16.2,GC Wilson,CB Mpofu,MR Adair,1,0,1,na,na,1,na,na,na,na,na,na
1st innings,16.3,GC Wilson,CB Mpofu,MR Adair,0,0,0,na,na,na,na,na,na,na,na,na
1st innings,16.4,GC Wilson,CB Mpofu,MR Adair,0,0,0,na,na,na,na,na,na,na,na,na
1st innings,16.5,GC Wilson,CB Mpofu,MR Adair,4,4,0,na,na,na,na,na,na,na,na,na
1st innings,16.6,GC Wilson,CB Mpofu,MR Adair,1,1,0,na,na,na,na,na,na,na,na,na
1st innings,16.7,MR Adair,CB Mpofu,GC Wilson,0,0,0,na,na,na,na,na,caught,R Mutumbami,na,GC Wilson
1st innings,17.1,SC Getkate,KM Jarvis,MR Adair,6,6,0,na,na,na,na,na,na,na,na,na
1st innings,17.2,SC Getkate,KM Jarvis,MR Adair,6,6,0,na,na,na,na,na,na,na,na,na
1st innings,17.3,SC Getkate,KM Jarvis,MR Adair,2,2,0,na,na,na,na,na,na,na,na,na
1st innings,17.4,SC Getkate,KM Jarvis,MR Adair,1,1,0,na,na,na,na,na,na,na,na,na
1st innings,17.5,MR Adair,KM Jarvis,SC Getkate,1,1,0,na,na,na,na,na,na,na,na,na
1st innings,17.6,SC Getkate,KM Jarvis,MR Adair,0,0,0,na,na,na,na,na,caught,RP Burl,na,MR Adair
1st innings,18.1,SC Getkate,CB Mpofu,GJ Delany,4,4,0,na,na,na,na,na,na,na,na,na
1st innings,18.2,SC Getkate,CB Mpofu,GJ Delany,1,1,0,na,na,na,na,na,na,na,na,na
1st innings,18.3,GJ Delany,CB Mpofu,SC Getkate,6,6,0,na,na,na,na,na,na,na,na,na
1st innings,18.4,GJ Delany,CB Mpofu,SC Getkate,1,1,0,na,na,na,na,na,na,na,na,na
1st innings,18.5,SC Getkate,CB Mpofu,GJ Delany,0,0,0,na,na,na,na,na,na,na,na,na
1st innings,18.6,SC Getkate,CB Mpofu,GJ Delany,0,0,0,na,na,na,na,na,na,na,na,na
1st innings,19.1,GJ Delany,TL Chatara,SC Getkate,4,4,0,na,na,na,na,na,na,na,na,na
1st innings,19.2,GJ Delany,TL Chatara,SC Getkate,0,0,0,na,na,na,na,na,lbw,na,na,SC Getkate
1st innings,19.3,GJ Delany,TL Chatara,GH Dockrell,1,1,0,na,na,na,na,na,na,na,na,na
1st innings,19.4,GH Dockrell,TL Chatara,GJ Delany,6,6,0,na,na,na,na,na,na,na,na,na
1st innings,19.5,GH Dockrell,TL Chatara,GJ Delany,0,0,0,na,na,na,na,na,run out,TL Chatara,na,GH Dockrell
1st innings,19.6,CA Young,TL Chatara,GJ Delany,1,1,0,na,na,na,na,na,run out,SC Williams,SC Williams,GJ Delany
2nd innings,0.1,H Masakadza,CA Young,BRM Taylor,0,0,0,na,na,na,na,na,na,na,na,na
2nd innings,0.2,H Masakadza,CA Young,BRM Taylor,0,0,0,na,na,na,na,na,na,na,na,na
2nd innings,0.3,H Masakadza,CA Young,BRM Taylor,1,1,0,na,na,na,na,na,na,na,na,na
2nd innings,0.4,BRM Taylor,CA Young,H Masakadza,1,0,1,1,na,na,na,na,na,na,na,na
2nd innings,0.5,H Masakadza,CA Young,BRM Taylor,6,6,0,na,na,na,na,na,na,na,na,na
2nd innings,0.6,H Masakadza,CA Young,BRM Taylor,4,4,0,na,na,na,na,na,na,na,na,na
2nd innings,1.1,BRM Taylor,GH Dockrell,H Masakadza,0,0,0,na,na,na,na,na,na,na,na,na
2nd innings,1.2,BRM Taylor,GH Dockrell,H Masakadza,0,0,0,na,na,na,na,na,na,na,na,na
2nd innings,1.3,BRM Taylor,GH Dockrell,H Masakadza,0,0,0,na,na,na,na,na,caught,GJ Thompson,na,H Masakadza
2nd innings,1.4,CR Ervine,GH Dockrell,BRM Taylor,2,2,0,na,na,na,na,na,na,na,na,na
2nd innings,1.5,CR Ervine,GH Dockrell,BRM Taylor,4,4,0,na,na,na,na,na,na,na,na,na
2nd innings,1.6,CR Ervine,GH Dockrell,BRM Taylor,0,0,0,na,na,na,na,na,na,na,na,na
2nd innings,2.1,BRM Taylor,MR Adair,CR Ervine,1,0,1,na,na,na,1,na,na,na,na,na
2nd innings,2.2,BRM Taylor,MR Adair,CR Ervine,4,4,0,na,na,na,na,na,na,na,na,na
2nd innings,2.3,BRM Taylor,MR Adair,CR Ervine,4,4,0,na,na,na,na,na,na,na,na,na
2nd innings,2.4,BRM Taylor,MR Adair,CR Ervine,1,0,1,na,na,1,na,na,na,na,na,na
2nd innings,2.5,BRM Taylor,MR Adair,CR Ervine,0,0,0,na,na,na,na,na,na,na,na,na
2nd innings,2.6,BRM Taylor,MR Adair,CR Ervine,1,1,0,na,na,na,na,na,na,na,na,na
2nd innings,2.7,CR Ervine,MR Adair,BRM Taylor,1,1,0,na,na,na,na,na,na,na,na,na
2nd innings,2.8,BRM Taylor,MR Adair,CR Ervine,0,0,0,na,na,na,na,na,na,na,na,na
2nd innings,3.1,CR Ervine,CA Young,BRM Taylor,1,1,0,na,na,na,na,na,na,na,na,na
2nd innings,3.2,BRM Taylor,CA Young,CR Ervine,0,0,0,na,na,na,na,na,na,na,na,na
2nd innings,3.3,BRM Taylor,CA Young,CR Ervine,4,4,0,na,na,na,na,na,na,na,na,na
2nd innings,3.4,BRM Taylor,CA Young,CR Ervine,0,0,0,na,na,na,na,na,na,na,na,na
2nd innings,3.5,BRM Taylor,CA Young,CR Ervine,0,0,0,na,na,na,na,na,na,na,na,na
2nd innings,3.6,BRM Taylor,CA Young,CR Ervine,0,0,0,na,na,na,na,na,na,na,na,na
2nd innings,4.1,CR Ervine,J Little,BRM Taylor,6,6,0,na,na,na,na,na,na,na,na,na
2nd innings,4.2,CR Ervine,J Little,BRM Taylor,4,4,0,na,na,na,na,na,na,na,na,na
2nd innings,4.3,CR Ervine,J Little,BRM Taylor,0,0,0,na,na,na,na,na,na,na,na,na
2nd innings,4.4,CR Ervine,J Little,BRM Taylor,0,0,0,na,na,na,na,na,na,na,na,na
2nd innings,4.5,CR Ervine,J Little,BRM Taylor,4,4,0,na,na,na,na,na,na,na,na,na
2nd innings,4.6,CR Ervine,J Little,BRM Taylor,1,1,0,na,na,na,na,na,na,na,na,na
2nd innings,5.1,CR Ervine,MR Adair,BRM Taylor,4,4,0,na,na,na,na,na,na,na,na,na
2nd innings,5.2,CR Ervine,MR Adair,BRM Taylor,0,0,0,na,na,na,na,na,na,na,na,na
2nd innings,5.3,CR Ervine,MR Adair,BRM Taylor,1,1,0,na,na,na,na,na,na,na,na,na
2nd innings,5.4,BRM Taylor,MR Adair,CR Ervine,4,4,0,na,na,na,na,na,na,na,na,na
2nd innings,5.5,BRM Taylor,MR Adair,CR Ervine,0,0,0,na,na,na,na,na,na,na,na,na
2nd innings,5.6,BRM Taylor,MR Adair,CR Ervine,1,1,0,na,na,na,na,na,na,na,na,na
2nd innings,6.1,BRM Taylor,SC Getkate,CR Ervine,1,1,0,na,na,na,na,na,na,na,na,na
2nd innings,6.2,CR Ervine,SC Getkate,BRM Taylor,0,0,0,na,na,na,na,na,lbw,na,na,BRM Taylor
2nd innings,6.3,CR Ervine,SC Getkate,SC Williams,1,1,0,na,na,na,na,na,na,na,na,na
2nd innings,6.4,SC Williams,SC Getkate,CR Ervine,1,1,0,na,na,na,na,na,na,na,na,na
2nd innings,6.5,CR Ervine,SC Getkate,SC Williams,4,4,0,na,na,na,na,na,na,na,na,na
2nd innings,6.6,CR Ervine,SC Getkate,SC Williams,2,2,0,na,na,na,na,na,na,na,na,na
2nd innings,7.1,SC Williams,PR Stirling,CR Ervine,0,0,0,na,na,na,na,na,na,na,na,na
2nd innings,7.2,SC Williams,PR Stirling,CR Ervine,2,2,0,na,na,na,na,na,na,na,na,na
2nd innings,7.3,SC Williams,PR Stirling,CR Ervine,6,6,0,na,na,na,na,na,na,na,na,na
2nd innings,7.4,SC Williams,PR Stirling,CR Ervine,1,0,1,1,na,na,na,na,na,na,na,na
2nd innings,7.5,CR Ervine,PR Stirling,SC Williams,4,4,0,na,na,na,na,na,na,na,na,na
2nd innings,7.6,CR Ervine,PR Stirling,SC Williams,0,0,0,na,na,na,na,na,na,na,na,na
2nd innings,8.1,SC Williams,SC Getkate,CR Ervine,0,0,0,na,na,na,na,na,na,na,na,na
2nd innings,8.2,SC Williams,SC Getkate,CR Ervine,4,4,0,na,na,na,na,na,na,na,na,na
2nd innings,8.3,SC Williams,SC Getkate,CR Ervine,6,6,0,na,na,na,na,na,na,na,na,na
2nd innings,8.4,SC Williams,SC Getkate,CR Ervine,0,0,0,na,na,na,na,na,na,na,na,na
2nd innings,8.5,SC Williams,SC Getkate,CR Ervine,1,1,0,na,na,na,na,na,na,na,na,na
2nd innings,8.6,CR Ervine,SC Getkate,SC Williams,1,1,0,na,na,na,na,na,na,na,na,na
2nd innings,9.1,CR Ervine,J Little,SC Williams,6,6,0,na,na,na,na,na,na,na,na,na
2nd innings,9.2,CR Ervine,J Little,SC Williams,0,0,0,na,na,na,na,na,na,na,na,na
2nd innings,9.3,CR Ervine,J Little,SC Williams,1,1,0,na,na,na,na,na,na,na,na,na
2nd innings,9.4,SC Williams,J Little,CR Ervine,1,1,0,na,na,na,na,na,na,na,na,na
2nd innings,9.5,CR Ervine,J Little,SC Williams,4,4,0,na,na,na,na,na,na,na,na,na
2nd innings,9.6,CR Ervine,J Little,SC Williams,1,1,0,na,na,na,na,na,na,na,na,na
2nd innings,10.1,CR Ervine,CA Young,SC Williams,1,1,0,na,na,na,na,na,na,na,na,na
2nd innings,10.2,SC Williams,CA Young,CR Ervine,1,0,1,na,na,1,na,na,na,na,na,na
2nd innings,10.3,SC Williams,CA Young,CR Ervine,1,1,0,na,na,na,na,na,na,na,na,na
2nd innings,10.4,CR Ervine,CA Young,SC Williams,4,4,0,na,na,na,na,na,na,na,na,na
2nd innings,10.5,CR Ervine,CA Young,SC Williams,0,0,0,na,na,na,na,na,na,na,na,na
2nd innings,10.6,CR Ervine,CA Young,SC Williams,2,2,0,na,na,na,na,na,na,na,na,na
2nd innings,10.7,CR Ervine,CA Young,SC Williams,4,4,0,na,na,na,na,na,na,na,na,na
2nd innings,11.1,SC Williams,GJ Delany,CR Ervine,0,0,0,na,na,na,na,na,na,na,na,na
2nd innings,11.2,SC Williams,GJ Delany,CR Ervine,0,0,0,na,na,na,na,na,na,na,na,na
2nd innings,11.3,SC Williams,GJ Delany,CR Ervine,1,1,0,na,na,na,na,na,na,na,na,na
2nd innings,11.4,CR Ervine,GJ Delany,SC Williams,0,0,0,na,na,na,na,na,na,na,na,na
2nd innings,11.5,CR Ervine,GJ Delany,SC Williams,1,1,0,na,na,na,na,na,na,na,na,na
2nd innings,11.6,SC Williams,GJ Delany,CR Ervine,6,6,0,na,na,na,na,na,na,na,na,na
2nd innings,12.1,CR Ervine,SC Getkate,SC Williams,4,4,0,na,na,na,na,na,na,na,na,na
2nd innings,12.2,CR Ervine,SC Getkate,SC Williams,1,1,0,na,na,na,na,na,na,na,na,na
2nd innings,12.3,SC Williams,SC Getkate,CR Ervine,1,1,0,na,na,na,na,na,na,na,na,na
2nd innings,12.4,CR Ervine,SC Getkate,SC Williams,6,6,0,na,na,na,na,na,na,na,na,na
2nd innings,12.5,CR Ervine,SC Getkate,SC Williams,1,1,0,na,na,na,na,na,na,na,na,na
2nd innings,12.6,SC Williams,SC Getkate,CR Ervine,1,1,0,na,na,na,na,na,na,na,na,na
2nd innings,13.1,SC Williams,GH Dockrell,CR Ervine,1,1,0,na,na,na,na,na,na,na,na,na
2nd innings,13.2,CR Ervine,GH Dockrell,SC Williams,1,1,0,na,na,na,na,na,na,na,na,na
2nd innings,13.3,SC Williams,GH Dockrell,CR Ervine,1,1,0,na,na,na,na,na,na,na,na,na
2nd innings,13.4,CR Ervine,GH Dockrell,SC Williams,1,0,1,na,na,1,na,na,na,na,na,na
2nd innings,13.5,CR Ervine,GH Dockrell,SC Williams,1,1,0,na,na,na,na,na,na,na,na,na
2nd innings,13.6,SC Williams,GH Dockrell,CR Ervine,1,1,0,na,na,na,na,na,na,na,na,na
2nd innings,13.7,CR Ervine,GH Dockrell,SC Williams,4,4,0,na,na,na,na,na,na,na,na,na
2nd innings,14.1,SC Williams,MR Adair,CR Ervine,1,0,1,1,na,na,na,na,na,na,na,na
2nd innings,14.2,CR Ervine,MR Adair,SC Williams,1,1,0,na,na,na,na,na,na,na,na,na
2nd innings,14.3,SC Williams,MR Adair,CR Ervine,0,0,0,na,na,na,na,na,na,na,na,na
2nd innings,14.4,SC Williams,MR Adair,CR Ervine,1,1,0,na,na,na,na,na,na,na,na,na
2nd innings,14.5,CR Ervine,MR Adair,SC Williams,1,1,0,na,na,na,na,na,na,na,na,na
2nd innings,14.6,SC Williams,MR Adair,CR Ervine,1,1,0,na,na,na,na,na,na,na,na,na
2nd innings,15.1,SC Williams,CA Young,CR Ervine,6,6,0,na,na,na,na,na,na,na,na,na
2nd innings,15.2,SC Williams,CA Young,CR Ervine,0,0,0,na,na,na,na,na,na,na,na,na
2nd innings,15.3,SC Williams,CA Young,CR Ervine,1,1,0,na,na,na,na,na,na,na,na,na
2nd innings,15.4,CR Ervine,CA Young,SC Williams,0,0,0,na,na,na,na,na,na,na,na,na
2nd innings,15.5,CR Ervine,CA Young,SC Williams,1,1,0,na,na,na,na,na,na,na,na,na
2nd innings,15.6,SC Williams,CA Young,CR Ervine,1,1,0,na,na,na,na,na,na,na,na,na
2nd innings,16.1,SC Williams,MR Adair,CR Ervine,1,1,0,na,na,na,na,na,na,na,na,na
2nd innings,16.2,CR Ervine,MR Adair,SC Williams,1,1,0,na,na,na,na,na,na,na,na,na
2nd innings,16.3,SC Williams,MR Adair,CR Ervine,0,0,0,na,na,na,na,na,na,na,na,na
2nd innings,16.4,SC Williams,MR Adair,CR Ervine,4,4,0,na,na,na,na,na,na,na,na,na
