inngs,deliveries,non_striker,bowler,batsman,totalruns,batsman_runs,extra_runs,legbyes,byes,wides,noballs,penalty,wicket_kind,fielder1,fielder2,player_out
1st innings,0.1,Fakhar Zaman,MA Starc,Babar Azam,1,1,0,na,na,na,na,na,na,na,na,na
1st innings,0.2,Babar Azam,MA Starc,Fakhar Zaman,0,0,0,na,na,na,na,na,caught,SPD Smith,na,Fakhar Zaman
1st innings,0.3,Babar Azam,MA Starc,Haris Sohail,0,0,0,na,na,na,na,na,na,na,na,na
1st innings,0.4,Babar Azam,MA Starc,Haris Sohail,0,0,0,na,na,na,na,na,na,na,na,na
1st innings,0.5,Babar Azam,MA Starc,Haris Sohail,4,4,0,na,na,na,na,na,na,na,na,na
1st innings,0.6,Babar Azam,MA Starc,Haris Sohail,0,0,0,na,na,na,na,na,na,na,na,na
1st innings,1.1,Haris Sohail,KW Richardson,Babar Azam,0,0,0,na,na,na,na,na,na,na,na,na
1st innings,1.2,Haris Sohail,KW Richardson,Babar Azam,4,4,0,na,na,na,na,na,na,na,na,na
1st innings,1.3,Haris Sohail,KW Richardson,Babar Azam,1,1,0,na,na,na,na,na,na,na,na,na
1st innings,1.4,Babar Azam,KW Richardson,Haris Sohail,0,0,0,na,na,na,na,na,na,na,na,na
1st innings,1.5,Babar Azam,KW Richardson,Haris Sohail,0,0,0,na,na,na,na,na,caught,SPD Smith,na,Haris Sohail
1st innings,1.6,Babar Azam,KW Richardson,Mohammad Rizwan,1,1,0,na,na,na,na,na,na,na,na,na
1st innings,2.1,Babar Azam,MA Starc,Mohammad Rizwan,0,0,0,na,na,na,na,na,na,na,na,na
1st innings,2.2,Babar Azam,MA Starc,Mohammad Rizwan,1,1,0,na,na,na,na,na,na,na,na,na
1st innings,2.3,Mohammad Rizwan,MA Starc,Babar Azam,0,0,0,na,na,na,na,na,na,na,na,na
1st innings,2.4,Mohammad Rizwan,MA Starc,Babar Azam,4,4,0,na,na,na,na,na,na,na,na,na
1st innings,2.5,Mohammad Rizwan,MA Starc,Babar Azam,1,1,0,na,na,na,na,na,na,na,na,na
1st innings,2.6,Babar Azam,MA Starc,Mohammad Rizwan,1,1,0,na,na,na,na,na,na,na,na,na
1st innings,3.1,Babar Azam,A Zampa,Mohammad Rizwan,0,0,0,na,na,na,na,na,na,na,na,na
1st innings,3.2,Babar Azam,A Zampa,Mohammad Rizwan,0,0,0,na,na,na,na,na,na,na,na,na
1st innings,3.3,Babar Azam,A Zampa,Mohammad Rizwan,0,0,0,na,na,na,na,na,na,na,na,na
1st innings,3.4,Babar Azam,A Zampa,Mohammad Rizwan,4,4,0,na,na,na,na,na,na,na,na,na
1st innings,3.5,Babar Azam,A Zampa,Mohammad Rizwan,6,6,0,na,na,na,na,na,na,na,na,na
1st innings,3.6,Babar Azam,A Zampa,Mohammad Rizwan,2,2,0,na,na,na,na,na,na,na,na,na
1st innings,4.1,Mohammad Rizwan,PJ Cummins,Babar Azam,1,1,0,na,na,na,na,na,na,na,na,na
1st innings,4.2,Babar Azam,PJ Cummins,Mohammad Rizwan,0,0,0,na,na,na,na,na,na,na,na,na
1st innings,4.3,Babar Azam,PJ Cummins,Mohammad Rizwan,0,0,0,na,na,na,na,na,na,na,na,na
1st innings,4.4,Babar Azam,PJ Cummins,Mohammad Rizwan,1,1,0,na,na,na,na,na,na,na,na,na
1st innings,4.5,Mohammad Rizwan,PJ Cummins,Babar Azam,2,2,0,na,na,na,na,na,na,na,na,na
1st innings,4.6,Mohammad Rizwan,PJ Cummins,Babar Azam,1,1,0,na,na,na,na,na,na,na,na,na
1st innings,5.1,Mohammad Rizwan,KW Richardson,Babar Azam,1,1,0,na,na,na,na,na,na,na,na,na
1st innings,5.2,Babar Azam,KW Richardson,Mohammad Rizwan,0,0,0,na,na,na,na,na,na,na,na,na
1st innings,5.3,Babar Azam,KW Richardson,Mohammad Rizwan,0,0,0,na,na,na,na,na,na,na,na,na
1st innings,5.4,Babar Azam,KW Richardson,Mohammad Rizwan,0,0,0,na,na,na,na,na,na,na,na,na
1st innings,5.5,Babar Azam,KW Richardson,Mohammad Rizwan,1,1,0,na,na,na,na,na,na,na,na,na
1st innings,5.6,Mohammad Rizwan,KW Richardson,Babar Azam,1,1,0,na,na,na,na,na,na,na,na,na
1st innings,6.1,Mohammad Rizwan,AC Agar,Babar Azam,1,1,0,na,na,na,na,na,na,na,na,na
1st innings,6.2,Babar Azam,AC Agar,Mohammad Rizwan,1,1,0,na,na,na,na,na,na,na,na,na
1st innings,6.3,Mohammad Rizwan,AC Agar,Babar Azam,0,0,0,na,na,na,na,na,na,na,na,na
1st innings,6.4,Mohammad Rizwan,AC Agar,Babar Azam,1,1,0,na,na,na,na,na,na,na,na,na
1st innings,6.5,Babar Azam,AC Agar,Mohammad Rizwan,2,2,0,na,na,na,na,na,na,na,na,na
1st innings,6.6,Babar Azam,AC Agar,Mohammad Rizwan,1,1,0,na,na,na,na,na,na,na,na,na
1st innings,7.1,Babar Azam,PJ Cummins,Mohammad Rizwan,2,2,0,na,na,na,na,na,na,na,na,na
1st innings,7.2,Babar Azam,PJ Cummins,Mohammad Rizwan,1,1,0,na,na,na,na,na,na,na,na,na
1st innings,7.3,Babar Azam,PJ Cummins,Mohammad Rizwan,1,1,0,na,na,na,na,na,na,na,na,na
1st innings,7.4,Mohammad Rizwan,PJ Cummins,Babar Azam,1,1,0,na,na,na,na,na,na,na,na,na
1st innings,7.5,Babar Azam,PJ Cummins,Mohammad Rizwan,0,0,0,na,na,na,na,na,na,na,na,na
1st innings,7.6,Babar Azam,PJ Cummins,Mohammad Rizwan,1,1,0,na,na,na,na,na,na,na,na,na
1st innings,8.1,Babar Azam,AC Agar,Mohammad Rizwan,1,1,0,na,na,na,na,na,na,na,na,na
1st innings,8.2,Mohammad Rizwan,AC Agar,Babar Azam,6,6,0,na,na,na,na,na,na,na,na,na
1st innings,8.3,Mohammad Rizwan,AC Agar,Babar Azam,1,1,0,na,na,na,na,na,na,na,na,na
1st innings,8.4,Babar Azam,AC Agar,Mohammad Rizwan,0,0,0,na,na,na,na,na,na,na,na,na
1st innings,8.5,Babar Azam,AC Agar,Mohammad Rizwan,1,1,0,na,na,na,na,na,na,na,na,na
1st innings,8.6,Mohammad Rizwan,AC Agar,Babar Azam,0,0,0,na,na,na,na,na,na,na,na,na
1st innings,9.1,Babar Azam,A Zampa,Mohammad Rizwan,1,1,0,na,na,na,na,na,na,na,na,na
1st innings,9.2,Mohammad Rizwan,A Zampa,Babar Azam,2,2,0,na,na,na,na,na,na,na,na,na
1st innings,9.3,Mohammad Rizwan,A Zampa,Babar Azam,1,1,0,na,na,na,na,na,na,na,na,na
1st innings,9.4,Babar Azam,A Zampa,Mohammad Rizwan,0,0,0,na,na,na,na,na,na,na,na,na
1st innings,9.5,Babar Azam,A Zampa,Mohammad Rizwan,1,1,0,na,na,na,na,na,na,na,na,na
1st innings,9.6,Mohammad Rizwan,A Zampa,Babar Azam,0,0,0,na,na,na,na,na,na,na,na,na
1st innings,10.1,Babar Azam,AC Agar,Mohammad Rizwan,1,1,0,na,na,na,na,na,na,na,na,na
1st innings,10.2,Mohammad Rizwan,AC Agar,Babar Azam,4,4,0,na,na,na,na,na,na,na,na,na
1st innings,10.3,Mohammad Rizwan,AC Agar,Babar Azam,1,1,0,na,na,na,na,na,na,na,na,na
1st innings,10.4,Babar Azam,AC Agar,Mohammad Rizwan,0,0,0,na,na,na,na,na,caught,PJ Cummins,na,Mohammad Rizwan
1st innings,10.5,Asif Ali,AC Agar,Babar Azam,1,1,0,na,na,na,na,na,na,na,na,na
1st innings,10.6,Babar Azam,AC Agar,Asif Ali,1,1,0,na,na,na,na,na,na,na,na,na
1st innings,11.1,Babar Azam,PJ Cummins,Asif Ali,0,0,0,na,na,na,na,na,na,na,na,na
1st innings,11.2,Babar Azam,PJ Cummins,Asif Ali,0,0,0,na,na,na,na,na,na,na,na,na
1st innings,11.3,Babar Azam,PJ Cummins,Asif Ali,1,1,0,na,na,na,na,na,na,na,na,na
1st innings,11.4,Asif Ali,PJ Cummins,Babar Azam,1,1,0,na,na,na,na,na,na,na,na,na
1st innings,11.5,Babar Azam,PJ Cummins,Asif Ali,1,1,0,na,na,na,na,na,na,na,na,na
1st innings,11.6,Asif Ali,PJ Cummins,Babar Azam,1,1,0,na,na,na,na,na,na,na,na,na
1st innings,12.1,Asif Ali,A Zampa,Babar Azam,4,4,0,na,na,na,na,na,na,na,na,na
1st innings,12.2,Asif Ali,A Zampa,Babar Azam,1,1,0,na,na,na,na,na,na,na,na,na
1st innings,12.3,Babar Azam,A Zampa,Asif Ali,6,6,0,na,na,na,na,na,na,na,na,na
1st innings,12.4,Babar Azam,A Zampa,Asif Ali,1,1,0,na,na,na,na,na,na,na,na,na
1st innings,12.5,Asif Ali,A Zampa,Babar Azam,0,0,0,na,na,na,na,na,na,na,na,na
1st innings,12.6,Asif Ali,A Zampa,Babar Azam,1,1,0,na,na,na,na,na,na,na,na,na
1st innings,13.1,Asif Ali,KW Richardson,Babar Azam,1,1,0,na,na,na,na,na,na,na,na,na
1st innings,13.2,Babar Azam,KW Richardson,Asif Ali,0,0,0,na,na,na,na,na,na,na,na,na
1st innings,13.3,Babar Azam,KW Richardson,Asif Ali,1,1,0,na,na,na,na,na,na,na,na,na
1st innings,13.4,Asif Ali,KW Richardson,Babar Azam,1,1,0,na,na,na,na,na,na,na,na,na
1st innings,13.5,Babar Azam,KW Richardson,Asif Ali,0,0,0,na,na,na,na,na,caught,AC Agar,na,Asif Ali
1st innings,13.6,Imad Wasim,KW Richardson,Babar Azam,4,4,0,na,na,na,na,na,na,na,na,na
1st innings,14.1,Babar Azam,MA Starc,Imad Wasim,0,0,0,na,na,na,na,na,caught,SPD Smith,na,Imad Wasim
1st innings,14.2,Iftikhar Ahmed,MA Starc,Babar Azam,1,0,1,1,na,na,na,na,na,na,na,na
1st innings,14.3,Babar Azam,MA Starc,Iftikhar Ahmed,1,1,0,na,na,na,na,na,na,na,na,na
1st innings,14.4,Iftikhar Ahmed,MA Starc,Babar Azam,6,6,0,na,na,na,na,na,na,na,na,na
1st innings,14.5,Iftikhar Ahmed,MA Starc,Babar Azam,2,2,0,na,na,na,na,na,na,na,na,na
1st innings,14.6,Iftikhar Ahmed,MA Starc,Babar Azam,1,1,0,na,na,na,na,na,na,na,na,na
2nd innings,0.1,AJ Finch,Mohammad Irfan,DA Warner,0,0,0,na,na,na,na,na,na,na,na,na
2nd innings,0.2,AJ Finch,Mohammad Irfan,DA Warner,1,1,0,na,na,na,na,na,na,na,na,na
2nd innings,0.3,DA Warner,Mohammad Irfan,AJ Finch,0,0,0,na,na,na,na,na,na,na,na,na
2nd innings,0.4,DA Warner,Mohammad Irfan,AJ Finch,0,0,0,na,na,na,na,na,na,na,na,na
2nd innings,0.5,DA Warner,Mohammad Irfan,AJ Finch,4,4,0,na,na,na,na,na,na,na,na,na
2nd innings,0.6,DA Warner,Mohammad Irfan,AJ Finch,0,0,0,na,na,na,na,na,na,na,na,na
2nd innings,1.1,AJ Finch,Mohammad Amir,DA Warner,1,1,0,na,na,na,na,na,na,na,na,na
2nd innings,1.2,DA Warner,Mohammad Amir,AJ Finch,4,4,0,na,na,na,na,na,na,na,na,na
2nd innings,1.3,DA Warner,Mohammad Amir,AJ Finch,1,1,0,na,na,na,na,na,na,na,na,na
2nd innings,1.4,AJ Finch,Mohammad Amir,DA Warner,1,0,1,1,na,na,na,na,na,na,na,na
2nd innings,1.5,DA Warner,Mohammad Amir,AJ Finch,0,0,0,na,na,na,na,na,na,na,na,na
2nd innings,1.6,DA Warner,Mohammad Amir,AJ Finch,1,1,0,na,na,na,na,na,na,na,na,na
2nd innings,2.1,DA Warner,Mohammad Irfan,AJ Finch,6,6,0,na,na,na,na,na,na,na,na,na
2nd innings,2.2,DA Warner,Mohammad Irfan,AJ Finch,4,4,0,na,na,na,na,na,na,na,na,na
2nd innings,2.3,DA Warner,Mohammad Irfan,AJ Finch,5,4,1,na,na,na,1,na,na,na,na,na
2nd innings,2.4,DA Warner,Mohammad Irfan,AJ Finch,6,6,0,na,na,na,na,na,na,na,na,na
2nd innings,2.5,DA Warner,Mohammad Irfan,AJ Finch,0,0,0,na,na,na,na,na,na,na,na,na
2nd innings,2.6,DA Warner,Mohammad Irfan,AJ Finch,4,4,0,na,na,na,na,na,na,na,na,na
2nd innings,2.7,DA Warner,Mohammad Irfan,AJ Finch,1,1,0,na,na,na,na,na,na,na,na,na
2nd innings,3.1,DA Warner,Mohammad Amir,AJ Finch,2,2,0,na,na,na,na,na,na,na,na,na
