inngs,deliveries,non_striker,bowler,batsman,totalruns,batsman_runs,extra_runs,legbyes,byes,wides,noballs,penalty,wicket_kind,fielder1,fielder2,player_out
1st innings,0.1,BKG Mendis,KW Richardson,MD Gunathilaka,1,1,0,na,na,na,na,na,na,na,na,na
1st innings,0.2,MD Gunathilaka,KW Richardson,BKG Mendis,0,0,0,na,na,na,na,na,na,na,na,na
1st innings,0.3,MD Gunathilaka,KW Richardson,BKG Mendis,0,0,0,na,na,na,na,na,na,na,na,na
1st innings,0.4,MD Gunathilaka,KW Richardson,BKG Mendis,1,0,1,na,na,1,na,na,na,na,na,na
1st innings,0.5,MD Gunathilaka,KW Richardson,BKG Mendis,1,1,0,na,na,na,na,na,na,na,na,na
1st innings,0.6,BKG Mendis,KW Richardson,MD Gunathilaka,1,1,0,na,na,na,na,na,na,na,na,na
1st innings,0.7,MD Gunathilaka,KW Richardson,BKG Mendis,0,0,0,na,na,na,na,na,na,na,na,na
1st innings,1.1,BKG Mendis,B Stanlake,MD Gunathilaka,1,0,1,na,na,1,na,na,na,na,na,na
1st innings,1.2,BKG Mendis,B Stanlake,MD Gunathilaka,0,0,0,na,na,na,na,na,na,na,na,na
1st innings,1.3,BKG Mendis,B Stanlake,MD Gunathilaka,0,0,0,na,na,na,na,na,na,na,na,na
1st innings,1.4,BKG Mendis,B Stanlake,MD Gunathilaka,0,0,0,na,na,na,na,na,na,na,na,na
1st innings,1.5,BKG Mendis,B Stanlake,MD Gunathilaka,0,0,0,na,na,na,na,na,run out,na,na,BKG Mendis
1st innings,1.6,WIA Fernando,B Stanlake,MD Gunathilaka,1,1,0,na,na,na,na,na,na,na,na,na
1st innings,1.7,MD Gunathilaka,B Stanlake,WIA Fernando,0,0,0,na,na,na,na,na,na,na,na,na
1st innings,2.1,WIA Fernando,KW Richardson,MD Gunathilaka,0,0,0,na,na,na,na,na,na,na,na,na
1st innings,2.2,WIA Fernando,KW Richardson,MD Gunathilaka,0,0,0,na,na,na,na,na,na,na,na,na
1st innings,2.3,WIA Fernando,KW Richardson,MD Gunathilaka,0,0,0,na,na,na,na,na,na,na,na,na
1st innings,2.4,WIA Fernando,KW Richardson,MD Gunathilaka,1,1,0,na,na,na,na,na,na,na,na,na
1st innings,2.5,MD Gunathilaka,KW Richardson,WIA Fernando,0,0,0,na,na,na,na,na,na,na,na,na
1st innings,2.6,MD Gunathilaka,KW Richardson,WIA Fernando,2,2,0,na,na,na,na,na,na,na,na,na
1st innings,3.1,WIA Fernando,B Stanlake,MD Gunathilaka,0,0,0,na,na,na,na,na,na,na,na,na
1st innings,3.2,WIA Fernando,B Stanlake,MD Gunathilaka,0,0,0,na,na,na,na,na,na,na,na,na
1st innings,3.3,WIA Fernando,B Stanlake,MD Gunathilaka,4,4,0,na,na,na,na,na,na,na,na,na
1st innings,3.4,WIA Fernando,B Stanlake,MD Gunathilaka,2,2,0,na,na,na,na,na,na,na,na,na
1st innings,3.5,WIA Fernando,B Stanlake,MD Gunathilaka,6,6,0,na,na,na,na,na,na,na,na,na
1st innings,3.6,WIA Fernando,B Stanlake,MD Gunathilaka,0,0,0,na,na,na,na,na,na,na,na,na
1st innings,4.1,MD Gunathilaka,PJ Cummins,WIA Fernando,1,1,0,na,na,na,na,na,na,na,na,na
1st innings,4.2,WIA Fernando,PJ Cummins,MD Gunathilaka,0,0,0,na,na,na,na,na,na,na,na,na
1st innings,4.3,WIA Fernando,PJ Cummins,MD Gunathilaka,0,0,0,na,na,na,na,na,na,na,na,na
1st innings,4.4,WIA Fernando,PJ Cummins,MD Gunathilaka,1,1,0,na,na,na,na,na,na,na,na,na
1st innings,4.5,MD Gunathilaka,PJ Cummins,WIA Fernando,1,1,0,na,na,na,na,na,na,na,na,na
1st innings,4.6,WIA Fernando,PJ Cummins,MD Gunathilaka,4,4,0,na,na,na,na,na,na,na,na,na
1st innings,5.1,MD Gunathilaka,B Stanlake,WIA Fernando,1,1,0,na,na,na,na,na,na,na,na,na
1st innings,5.2,WIA Fernando,B Stanlake,MD Gunathilaka,0,0,0,na,na,na,na,na,bowled,na,na,MD Gunathilaka
1st innings,5.3,WIA Fernando,B Stanlake,MDKJ Perera,4,4,0,na,na,na,na,na,na,na,na,na
1st innings,5.4,WIA Fernando,B Stanlake,MDKJ Perera,1,0,1,1,na,na,na,na,na,na,na,na
1st innings,5.5,MDKJ Perera,B Stanlake,WIA Fernando,2,2,0,na,na,na,na,na,na,na,na,na
1st innings,5.6,MDKJ Perera,B Stanlake,WIA Fernando,0,0,0,na,na,na,na,na,na,na,na,na
1st innings,6.1,WIA Fernando,AC Agar,MDKJ Perera,1,1,0,na,na,na,na,na,na,na,na,na
1st innings,6.2,MDKJ Perera,AC Agar,WIA Fernando,1,1,0,na,na,na,na,na,na,na,na,na
1st innings,6.3,WIA Fernando,AC Agar,MDKJ Perera,1,1,0,na,na,na,na,na,na,na,na,na
1st innings,6.4,MDKJ Perera,AC Agar,WIA Fernando,1,1,0,na,na,na,na,na,na,na,na,na
1st innings,6.5,WIA Fernando,AC Agar,MDKJ Perera,0,0,0,na,na,na,na,na,na,na,na,na
1st innings,6.6,WIA Fernando,AC Agar,MDKJ Perera,1,1,0,na,na,na,na,na,na,na,na,na
1st innings,7.1,WIA Fernando,A Zampa,MDKJ Perera,1,1,0,na,na,na,na,na,na,na,na,na
1st innings,7.2,MDKJ Perera,A Zampa,WIA Fernando,1,1,0,na,na,na,na,na,na,na,na,na
1st innings,7.3,WIA Fernando,A Zampa,MDKJ Perera,0,0,0,na,na,na,na,na,na,na,na,na
1st innings,7.4,WIA Fernando,A Zampa,MDKJ Perera,1,1,0,na,na,na,na,na,na,na,na,na
1st innings,7.5,MDKJ Perera,A Zampa,WIA Fernando,4,4,0,na,na,na,na,na,na,na,na,na
1st innings,7.6,MDKJ Perera,A Zampa,WIA Fernando,1,1,0,na,na,na,na,na,na,na,na,na
1st innings,8.1,MDKJ Perera,AC Agar,WIA Fernando,1,1,0,na,na,na,na,na,na,na,na,na
1st innings,8.2,WIA Fernando,AC Agar,MDKJ Perera,1,1,0,na,na,na,na,na,na,na,na,na
1st innings,8.3,MDKJ Perera,AC Agar,WIA Fernando,1,1,0,na,na,na,na,na,na,na,na,na
1st innings,8.4,WIA Fernando,AC Agar,MDKJ Perera,1,1,0,na,na,na,na,na,na,na,na,na
1st innings,8.5,MDKJ Perera,AC Agar,WIA Fernando,0,0,0,na,na,na,na,na,caught,PJ Cummins,na,WIA Fernando
1st innings,8.6,N Dickwella,AC Agar,MDKJ Perera,1,1,0,na,na,na,na,na,na,na,na,na
1st innings,9.1,N Dickwella,PJ Cummins,MDKJ Perera,4,4,0,na,na,na,na,na,na,na,na,na
1st innings,9.2,N Dickwella,PJ Cummins,MDKJ Perera,1,1,0,na,na,na,na,na,na,na,na,na
1st innings,9.3,MDKJ Perera,PJ Cummins,N Dickwella,4,4,0,na,na,na,na,na,na,na,na,na
1st innings,9.4,MDKJ Perera,PJ Cummins,N Dickwella,1,1,0,na,na,na,na,na,na,na,na,na
1st innings,9.5,N Dickwella,PJ Cummins,MDKJ Perera,1,1,0,na,na,na,na,na,na,na,na,na
1st innings,9.6,MDKJ Perera,PJ Cummins,N Dickwella,0,0,0,na,na,na,na,na,caught,AJ Turner,na,N Dickwella
1st innings,10.1,MD Shanaka,AC Agar,MDKJ Perera,1,1,0,na,na,na,na,na,na,na,na,na
1st innings,10.2,MDKJ Perera,AC Agar,MD Shanaka,1,1,0,na,na,na,na,na,na,na,na,na
1st innings,10.3,MD Shanaka,AC Agar,MDKJ Perera,6,6,0,na,na,na,na,na,na,na,na,na
1st innings,10.4,MD Shanaka,AC Agar,MDKJ Perera,2,2,0,na,na,na,na,na,na,na,na,na
1st innings,10.5,MD Shanaka,AC Agar,MDKJ Perera,0,0,0,na,na,na,na,na,bowled,na,na,MDKJ Perera
1st innings,10.6,MD Shanaka,AC Agar,PWH de Silva,0,0,0,na,na,na,na,na,na,na,na,na
1st innings,11.1,PWH de Silva,B Stanlake,MD Shanaka,0,0,0,na,na,na,na,na,na,na,na,na
1st innings,11.2,PWH de Silva,B Stanlake,MD Shanaka,0,0,0,na,na,na,na,na,caught,AT Carey,na,MD Shanaka
1st innings,11.3,PWH de Silva,B Stanlake,I Udana,0,0,0,na,na,na,na,na,na,na,na,na
1st innings,11.4,PWH de Silva,B Stanlake,I Udana,0,0,0,na,na,na,na,na,na,na,na,na
1st innings,11.5,PWH de Silva,B Stanlake,I Udana,1,1,0,na,na,na,na,na,na,na,na,na
1st innings,11.6,I Udana,B Stanlake,PWH de Silva,1,1,0,na,na,na,na,na,na,na,na,na
1st innings,12.1,I Udana,A Zampa,PWH de Silva,0,0,0,na,na,na,na,na,na,na,na,na
1st innings,12.2,I Udana,A Zampa,PWH de Silva,1,1,0,na,na,na,na,na,na,na,na,na
1st innings,12.3,PWH de Silva,A Zampa,I Udana,0,0,0,na,na,na,na,na,na,na,na,na
1st innings,12.4,PWH de Silva,A Zampa,I Udana,1,1,0,na,na,na,na,na,na,na,na,na
1st innings,12.5,I Udana,A Zampa,PWH de Silva,2,2,0,na,na,na,na,na,na,na,na,na
1st innings,12.6,I Udana,A Zampa,PWH de Silva,1,1,0,na,na,na,na,na,na,na,na,na
1st innings,13.1,I Udana,AC Agar,PWH de Silva,1,1,0,na,na,na,na,na,na,na,na,na
1st innings,13.2,PWH de Silva,AC Agar,I Udana,2,2,0,na,na,na,na,na,na,na,na,na
1st innings,13.3,PWH de Silva,AC Agar,I Udana,1,1,0,na,na,na,na,na,na,na,na,na
1st innings,13.4,I Udana,AC Agar,PWH de Silva,2,2,0,na,na,na,na,na,na,na,na,na
1st innings,13.5,I Udana,AC Agar,PWH de Silva,1,1,0,na,na,na,na,na,na,na,na,na
1st innings,13.6,PWH de Silva,AC Agar,I Udana,0,0,0,na,na,na,na,na,na,na,na,na
1st innings,14.1,I Udana,A Zampa,PWH de Silva,1,1,0,na,na,na,na,na,na,na,na,na
1st innings,14.2,PWH de Silva,A Zampa,I Udana,2,2,0,na,na,na,na,na,na,na,na,na
1st innings,14.3,PWH de Silva,A Zampa,I Udana,1,1,0,na,na,na,na,na,na,na,na,na
1st innings,14.4,I Udana,A Zampa,PWH de Silva,0,0,0,na,na,na,na,na,stumped,AT Carey,na,PWH de Silva
1st innings,14.5,I Udana,A Zampa,PADLR Sandakan,0,0,0,na,na,na,na,na,na,na,na,na
1st innings,14.6,I Udana,A Zampa,PADLR Sandakan,0,0,0,na,na,na,na,na,na,na,na,na
1st innings,15.1,PADLR Sandakan,PJ Cummins,I Udana,0,0,0,na,na,na,na,na,na,na,na,na
1st innings,15.2,PADLR Sandakan,PJ Cummins,I Udana,2,2,0,na,na,na,na,na,na,na,na,na
1st innings,15.3,PADLR Sandakan,PJ Cummins,I Udana,0,0,0,na,na,na,na,na,na,na,na,na
1st innings,15.4,PADLR Sandakan,PJ Cummins,I Udana,0,0,0,na,na,na,na,na,caught,KW Richardson,na,I Udana
1st innings,15.5,SL Malinga,PJ Cummins,PADLR Sandakan,0,0,0,na,na,na,na,na,na,na,na,na
1st innings,15.6,SL Malinga,PJ Cummins,PADLR Sandakan,2,2,0,na,na,na,na,na,na,na,na,na
1st innings,16.1,PADLR Sandakan,KW Richardson,SL Malinga,4,4,0,na,na,na,na,na,na,na,na,na
1st innings,16.2,PADLR Sandakan,KW Richardson,SL Malinga,4,4,0,na,na,na,na,na,na,na,na,na
1st innings,16.3,PADLR Sandakan,KW Richardson,SL Malinga,1,1,0,na,na,na,na,na,na,na,na,na
1st innings,16.4,SL Malinga,KW Richardson,PADLR Sandakan,0,0,0,na,na,na,na,na,na,na,na,na
1st innings,16.5,SL Malinga,KW Richardson,PADLR Sandakan,0,0,0,na,na,na,na,na,na,na,na,na
1st innings,16.6,SL Malinga,KW Richardson,PADLR Sandakan,1,1,0,na,na,na,na,na,na,na,na,na
1st innings,17.1,SL Malinga,A Zampa,PADLR Sandakan,1,1,0,na,na,na,na,na,na,na,na,na
1st innings,17.2,PADLR Sandakan,A Zampa,SL Malinga,0,0,0,na,na,na,na,na,na,na,na,na
1st innings,17.3,PADLR Sandakan,A Zampa,SL Malinga,0,0,0,na,na,na,na,na,stumped,AT Carey,na,SL Malinga
1st innings,17.4,PADLR Sandakan,A Zampa,N Pradeep,0,0,0,na,na,na,na,na,na,na,na,na
1st innings,17.5,PADLR Sandakan,A Zampa,N Pradeep,1,1,0,na,na,na,na,na,na,na,na,na
1st innings,17.6,N Pradeep,A Zampa,PADLR Sandakan,1,1,0,na,na,na,na,na,na,na,na,na
1st innings,18.1,N Pradeep,PJ Cummins,PADLR Sandakan,4,4,0,na,na,na,na,na,na,na,na,na
1st innings,18.2,N Pradeep,PJ Cummins,PADLR Sandakan,1,0,1,na,na,1,na,na,na,na,na,na
1st innings,18.3,N Pradeep,PJ Cummins,PADLR Sandakan,0,0,0,na,na,na,na,na,na,na,na,na
1st innings,18.4,N Pradeep,PJ Cummins,PADLR Sandakan,1,1,0,na,na,na,na,na,na,na,na,na
1st innings,18.5,PADLR Sandakan,PJ Cummins,N Pradeep,1,1,0,na,na,na,na,na,na,na,na,na
1st innings,18.6,N Pradeep,PJ Cummins,PADLR Sandakan,0,0,0,na,na,na,na,na,na,na,na,na
1st innings,18.7,N Pradeep,PJ Cummins,PADLR Sandakan,0,0,0,na,na,na,na,na,run out,na,na,PADLR Sandakan
2nd innings,0.1,AJ Finch,SL Malinga,DA Warner,0,0,0,na,na,na,na,na,na,na,na,na
2nd innings,0.2,AJ Finch,SL Malinga,DA Warner,1,1,0,na,na,na,na,na,na,na,na,na
2nd innings,0.3,DA Warner,SL Malinga,AJ Finch,0,0,0,na,na,na,na,na,caught,MDKJ Perera,na,AJ Finch
2nd innings,0.4,DA Warner,SL Malinga,SPD Smith,0,0,0,na,na,na,na,na,na,na,na,na
2nd innings,0.5,DA Warner,SL Malinga,SPD Smith,0,0,0,na,na,na,na,na,na,na,na,na
2nd innings,0.6,DA Warner,SL Malinga,SPD Smith,0,0,0,na,na,na,na,na,na,na,na,na
2nd innings,1.1,SPD Smith,N Pradeep,DA Warner,3,3,0,na,na,na,na,na,na,na,na,na
2nd innings,1.2,DA Warner,N Pradeep,SPD Smith,1,1,0,na,na,na,na,na,na,na,na,na
2nd innings,1.3,SPD Smith,N Pradeep,DA Warner,1,1,0,na,na,na,na,na,na,na,na,na
2nd innings,1.4,DA Warner,N Pradeep,SPD Smith,4,4,0,na,na,na,na,na,na,na,na,na
2nd innings,1.5,DA Warner,N Pradeep,SPD Smith,4,4,0,na,na,na,na,na,na,na,na,na
2nd innings,1.6,DA Warner,N Pradeep,SPD Smith,1,1,0,na,na,na,na,na,na,na,na,na
2nd innings,2.1,DA Warner,SL Malinga,SPD Smith,1,1,0,na,na,na,na,na,na,na,na,na
2nd innings,2.2,SPD Smith,SL Malinga,DA Warner,0,0,0,na,na,na,na,na,na,na,na,na
2nd innings,2.3,SPD Smith,SL Malinga,DA Warner,2,2,0,na,na,na,na,na,na,na,na,na
2nd innings,2.4,SPD Smith,SL Malinga,DA Warner,1,1,0,na,na,na,na,na,na,na,na,na
2nd innings,2.5,DA Warner,SL Malinga,SPD Smith,2,2,0,na,na,na,na,na,na,na,na,na
2nd innings,2.6,DA Warner,SL Malinga,SPD Smith,4,4,0,na,na,na,na,na,na,na,na,na
2nd innings,3.1,SPD Smith,N Pradeep,DA Warner,1,0,1,1,na,na,na,na,na,na,na,na
2nd innings,3.2,DA Warner,N Pradeep,SPD Smith,1,1,0,na,na,na,na,na,na,na,na,na
2nd innings,3.3,SPD Smith,N Pradeep,DA Warner,1,1,0,na,na,na,na,na,na,na,na,na
2nd innings,3.4,DA Warner,N Pradeep,SPD Smith,3,3,0,na,na,na,na,na,na,na,na,na
2nd innings,3.5,SPD Smith,N Pradeep,DA Warner,0,0,0,na,na,na,na,na,na,na,na,na
2nd innings,3.6,SPD Smith,N Pradeep,DA Warner,4,4,0,na,na,na,na,na,na,na,na,na
2nd innings,4.1,DA Warner,PWH de Silva,SPD Smith,1,1,0,na,na,na,na,na,na,na,na,na
2nd innings,4.2,SPD Smith,PWH de Silva,DA Warner,4,4,0,na,na,na,na,na,na,na,na,na
2nd innings,4.3,SPD Smith,PWH de Silva,DA Warner,0,0,0,na,na,na,na,na,na,na,na,na
2nd innings,4.4,SPD Smith,PWH de Silva,DA Warner,4,4,0,na,na,na,na,na,na,na,na,na
2nd innings,4.5,SPD Smith,PWH de Silva,DA Warner,4,4,0,na,na,na,na,na,na,na,na,na
2nd innings,4.6,SPD Smith,PWH de Silva,DA Warner,4,4,0,na,na,na,na,na,na,na,na,na
2nd innings,5.1,DA Warner,I Udana,SPD Smith,0,0,0,na,na,na,na,na,na,na,na,na
2nd innings,5.2,DA Warner,I Udana,SPD Smith,1,0,1,na,na,1,na,na,na,na,na,na
2nd innings,5.3,DA Warner,I Udana,SPD Smith,2,2,0,na,na,na,na,na,na,na,na,na
2nd innings,5.4,DA Warner,I Udana,SPD Smith,1,1,0,na,na,na,na,na,na,na,na,na
2nd innings,5.5,SPD Smith,I Udana,DA Warner,0,0,0,na,na,na,na,na,na,na,na,na
2nd innings,5.6,SPD Smith,I Udana,DA Warner,1,1,0,na,na,na,na,na,na,na,na,na
2nd innings,5.7,DA Warner,I Udana,SPD Smith,1,1,0,na,na,na,na,na,na,na,na,na
2nd innings,6.1,DA Warner,PADLR Sandakan,SPD Smith,1,1,0,na,na,na,na,na,na,na,na,na
2nd innings,6.2,SPD Smith,PADLR Sandakan,DA Warner,1,1,0,na,na,na,na,na,na,na,na,na
2nd innings,6.3,DA Warner,PADLR Sandakan,SPD Smith,1,1,0,na,na,na,na,na,na,na,na,na
2nd innings,6.4,SPD Smith,PADLR Sandakan,DA Warner,1,1,0,na,na,na,na,na,na,na,na,na
2nd innings,6.5,DA Warner,PADLR Sandakan,SPD Smith,1,1,0,na,na,na,na,na,na,na,na,na
2nd innings,6.6,SPD Smith,PADLR Sandakan,DA Warner,2,2,0,na,na,na,na,na,na,na,na,na
2nd innings,7.1,DA Warner,I Udana,SPD Smith,2,2,0,na,na,na,na,na,na,na,na,na
2nd innings,7.2,DA Warner,I Udana,SPD Smith,1,1,0,na,na,na,na,na,na,na,na,na
2nd innings,7.3,SPD Smith,I Udana,DA Warner,4,4,0,na,na,na,na,na,na,na,na,na
2nd innings,7.4,SPD Smith,I Udana,DA Warner,1,1,0,na,na,na,na,na,na,na,na,na
2nd innings,7.5,DA Warner,I Udana,SPD Smith,1,1,0,na,na,na,na,na,na,na,na,na
2nd innings,7.6,SPD Smith,I Udana,DA Warner,1,1,0,na,na,na,na,na,na,na,na,na
2nd innings,8.1,SPD Smith,PADLR Sandakan,DA Warner,0,0,0,na,na,na,na,na,na,na,na,na
2nd innings,8.2,SPD Smith,PADLR Sandakan,DA Warner,4,4,0,na,na,na,na,na,na,na,na,na
2nd innings,8.3,SPD Smith,PADLR Sandakan,DA Warner,2,2,0,na,na,na,na,na,na,na,na,na
2nd innings,8.4,SPD Smith,PADLR Sandakan,DA Warner,1,1,0,na,na,na,na,na,na,na,na,na
2nd innings,8.5,DA Warner,PADLR Sandakan,SPD Smith,1,1,0,na,na,na,na,na,na,na,na,na
2nd innings,8.6,SPD Smith,PADLR Sandakan,DA Warner,2,2,0,na,na,na,na,na,na,na,na,na
2nd innings,9.1,DA Warner,SL Malinga,SPD Smith,1,1,0,na,na,na,na,na,na,na,na,na
2nd innings,9.2,SPD Smith,SL Malinga,DA Warner,1,1,0,na,na,na,na,na,na,na,na,na
2nd innings,9.3,DA Warner,SL Malinga,SPD Smith,0,0,0,na,na,na,na,na,na,na,na,na
2nd innings,9.4,DA Warner,SL Malinga,SPD Smith,4,4,0,na,na,na,na,na,na,na,na,na
2nd innings,9.5,DA Warner,SL Malinga,SPD Smith,2,2,0,na,na,na,na,na,na,na,na,na
2nd innings,9.6,DA Warner,SL Malinga,SPD Smith,4,4,0,na,na,na,na,na,na,na,na,na
2nd innings,10.1,SPD Smith,PADLR Sandakan,DA Warner,4,4,0,na,na,na,na,na,na,na,na,na
2nd innings,10.2,SPD Smith,PADLR Sandakan,DA Warner,0,0,0,na,na,na,na,na,na,na,na,na
2nd innings,10.3,SPD Smith,PADLR Sandakan,DA Warner,1,1,0,na,na,na,na,na,na,na,na,na
2nd innings,10.4,DA Warner,PADLR Sandakan,SPD Smith,4,4,0,na,na,na,na,na,na,na,na,na
2nd innings,10.5,DA Warner,PADLR Sandakan,SPD Smith,0,0,0,na,na,na,na,na,na,na,na,na
2nd innings,10.6,DA Warner,PADLR Sandakan,SPD Smith,1,1,0,na,na,na,na,na,na,na,na,na
2nd innings,11.1,DA Warner,N Pradeep,SPD Smith,1,1,0,na,na,na,na,na,na,na,na,na
2nd innings,11.2,SPD Smith,N Pradeep,DA Warner,1,0,1,na,na,1,na,na,na,na,na,na
2nd innings,11.3,SPD Smith,N Pradeep,DA Warner,0,0,0,na,na,na,na,na,na,na,na,na
2nd innings,11.4,SPD Smith,N Pradeep,DA Warner,1,0,1,1,na,na,na,na,na,na,na,na
2nd innings,11.5,DA Warner,N Pradeep,SPD Smith,0,0,0,na,na,na,na,na,na,na,na,na
2nd innings,11.6,DA Warner,N Pradeep,SPD Smith,1,1,0,na,na,na,na,na,na,na,na,na
2nd innings,11.7,SPD Smith,N Pradeep,DA Warner,0,0,0,na,na,na,na,na,na,na,na,na
2nd innings,12.1,DA Warner,PADLR Sandakan,SPD Smith,1,1,0,na,na,na,na,na,na,na,na,na
2nd innings,12.2,SPD Smith,PADLR Sandakan,DA Warner,0,0,0,na,na,na,na,na,na,na,na,na
2nd innings,12.3,SPD Smith,PADLR Sandakan,DA Warner,4,4,0,na,na,na,na,na,na,na,na,na
2nd innings,12.4,SPD Smith,PADLR Sandakan,DA Warner,0,0,0,na,na,na,na,na,na,na,na,na
2nd innings,12.5,SPD Smith,PADLR Sandakan,DA Warner,0,0,0,na,na,na,na,na,na,na,na,na
2nd innings,12.6,SPD Smith,PADLR Sandakan,DA Warner,1,1,0,na,na,na,na,na,na,na,na,na
2nd innings,13.1,SPD Smith,PWH de Silva,DA Warner,1,0,1,na,na,1,na,na,na,na,na,na
