inngs,deliveries,non_striker,bowler,batsman,totalruns,batsman_runs,extra_runs,legbyes,byes,wides,noballs,penalty,wicket_kind,fielder1,fielder2,player_out
1st innings,0.1,MJ Guptill,SM Curran,C Munro,1,1,0,na,na,na,na,na,na,na,na,na
1st innings,0.2,C Munro,SM Curran,MJ Guptill,1,1,0,na,na,na,na,na,na,na,na,na
1st innings,0.3,MJ Guptill,SM Curran,C Munro,1,1,0,na,na,na,na,na,na,na,na,na
1st innings,0.4,C Munro,SM Curran,MJ Guptill,4,4,0,na,na,na,na,na,na,na,na,na
1st innings,0.5,C Munro,SM Curran,MJ Guptill,1,1,0,na,na,na,na,na,na,na,na,na
1st innings,0.6,MJ Guptill,SM Curran,C Munro,1,0,1,1,na,na,na,na,na,na,na,na
1st innings,1.1,MJ Guptill,TK Curran,C Munro,1,1,0,na,na,na,na,na,na,na,na,na
1st innings,1.2,C Munro,TK Curran,MJ Guptill,0,0,0,na,na,na,na,na,na,na,na,na
1st innings,1.3,C Munro,TK Curran,MJ Guptill,0,0,0,na,na,na,na,na,na,na,na,na
1st innings,1.4,C Munro,TK Curran,MJ Guptill,4,4,0,na,na,na,na,na,na,na,na,na
1st innings,1.5,C Munro,TK Curran,MJ Guptill,4,4,0,na,na,na,na,na,na,na,na,na
1st innings,1.6,C Munro,TK Curran,MJ Guptill,1,1,0,na,na,na,na,na,na,na,na,na
1st innings,2.1,C Munro,S Mahmood,MJ Guptill,4,4,0,na,na,na,na,na,na,na,na,na
1st innings,2.2,C Munro,S Mahmood,MJ Guptill,4,4,0,na,na,na,na,na,na,na,na,na
1st innings,2.3,C Munro,S Mahmood,MJ Guptill,4,4,0,na,na,na,na,na,na,na,na,na
1st innings,2.4,C Munro,S Mahmood,MJ Guptill,1,1,0,na,na,na,na,na,na,na,na,na
1st innings,2.5,MJ Guptill,S Mahmood,C Munro,1,1,0,na,na,na,na,na,na,na,na,na
1st innings,2.6,C Munro,S Mahmood,MJ Guptill,1,1,0,na,na,na,na,na,na,na,na,na
1st innings,3.1,C Munro,PR Brown,MJ Guptill,1,0,1,1,na,na,na,na,na,na,na,na
1st innings,3.2,MJ Guptill,PR Brown,C Munro,1,1,0,na,na,na,na,na,na,na,na,na
1st innings,3.3,C Munro,PR Brown,MJ Guptill,0,0,0,na,na,na,na,na,na,na,na,na
1st innings,3.4,C Munro,PR Brown,MJ Guptill,4,4,0,na,na,na,na,na,na,na,na,na
1st innings,3.5,C Munro,PR Brown,MJ Guptill,0,0,0,na,na,na,na,na,caught,TK Curran,na,MJ Guptill
1st innings,3.6,C Munro,PR Brown,TL Seifert,0,0,0,na,na,na,na,na,na,na,na,na
1st innings,4.1,TL Seifert,TK Curran,C Munro,1,1,0,na,na,na,na,na,na,na,na,na
1st innings,4.2,C Munro,TK Curran,TL Seifert,1,1,0,na,na,na,na,na,na,na,na,na
1st innings,4.3,TL Seifert,TK Curran,C Munro,0,0,0,na,na,na,na,na,caught,S Mahmood,na,C Munro
1st innings,4.4,TL Seifert,TK Curran,C de Grandhomme,0,0,0,na,na,na,na,na,na,na,na,na
1st innings,4.5,TL Seifert,TK Curran,C de Grandhomme,4,4,0,na,na,na,na,na,na,na,na,na
1st innings,4.6,TL Seifert,TK Curran,C de Grandhomme,1,0,1,na,na,1,na,na,na,na,na,na
1st innings,4.7,TL Seifert,TK Curran,C de Grandhomme,0,0,0,na,na,na,na,na,na,na,na,na
1st innings,5.1,C de Grandhomme,PR Brown,TL Seifert,0,0,0,na,na,na,na,na,na,na,na,na
1st innings,5.2,C de Grandhomme,PR Brown,TL Seifert,0,0,0,na,na,na,na,na,na,na,na,na
1st innings,5.3,C de Grandhomme,PR Brown,TL Seifert,4,4,0,na,na,na,na,na,na,na,na,na
1st innings,5.4,C de Grandhomme,PR Brown,TL Seifert,0,0,0,na,na,na,na,na,na,na,na,na
1st innings,5.5,C de Grandhomme,PR Brown,TL Seifert,0,0,0,na,na,na,na,na,na,na,na,na
1st innings,5.6,C de Grandhomme,PR Brown,TL Seifert,1,0,1,1,na,na,na,na,na,na,na,na
1st innings,6.1,C de Grandhomme,S Mahmood,TL Seifert,1,1,0,na,na,na,na,na,na,na,na,na
1st innings,6.2,TL Seifert,S Mahmood,C de Grandhomme,4,4,0,na,na,na,na,na,na,na,na,na
1st innings,6.3,TL Seifert,S Mahmood,C de Grandhomme,4,4,0,na,na,na,na,na,na,na,na,na
1st innings,6.4,TL Seifert,S Mahmood,C de Grandhomme,0,0,0,na,na,na,na,na,na,na,na,na
1st innings,6.5,TL Seifert,S Mahmood,C de Grandhomme,0,0,0,na,na,na,na,na,na,na,na,na
1st innings,6.6,TL Seifert,S Mahmood,C de Grandhomme,6,6,0,na,na,na,na,na,na,na,na,na
1st innings,7.1,C de Grandhomme,MW Parkinson,TL Seifert,0,0,0,na,na,na,na,na,na,na,na,na
1st innings,7.2,C de Grandhomme,MW Parkinson,TL Seifert,1,1,0,na,na,na,na,na,na,na,na,na
1st innings,7.3,TL Seifert,MW Parkinson,C de Grandhomme,0,0,0,na,na,na,na,na,na,na,na,na
1st innings,7.4,TL Seifert,MW Parkinson,C de Grandhomme,1,1,0,na,na,na,na,na,na,na,na,na
1st innings,7.5,C de Grandhomme,MW Parkinson,TL Seifert,0,0,0,na,na,na,na,na,bowled,na,na,TL Seifert
1st innings,7.6,C de Grandhomme,MW Parkinson,LRPL Taylor,1,1,0,na,na,na,na,na,na,na,na,na
1st innings,8.1,C de Grandhomme,SM Curran,LRPL Taylor,1,1,0,na,na,na,na,na,na,na,na,na
1st innings,8.2,LRPL Taylor,SM Curran,C de Grandhomme,0,0,0,na,na,na,na,na,na,na,na,na
1st innings,8.3,LRPL Taylor,SM Curran,C de Grandhomme,1,1,0,na,na,na,na,na,na,na,na,na
1st innings,8.4,C de Grandhomme,SM Curran,LRPL Taylor,0,0,0,na,na,na,na,na,na,na,na,na
1st innings,8.5,C de Grandhomme,SM Curran,LRPL Taylor,0,0,0,na,na,na,na,na,na,na,na,na
1st innings,8.6,C de Grandhomme,SM Curran,LRPL Taylor,1,0,1,1,na,na,na,na,na,na,na,na
1st innings,9.1,C de Grandhomme,MW Parkinson,LRPL Taylor,1,1,0,na,na,na,na,na,na,na,na,na
1st innings,9.2,LRPL Taylor,MW Parkinson,C de Grandhomme,6,6,0,na,na,na,na,na,na,na,na,na
1st innings,9.3,LRPL Taylor,MW Parkinson,C de Grandhomme,1,1,0,na,na,na,na,na,na,na,na,na
1st innings,9.4,C de Grandhomme,MW Parkinson,LRPL Taylor,2,0,2,na,na,2,na,na,na,na,na,na
1st innings,9.5,LRPL Taylor,MW Parkinson,C de Grandhomme,0,0,0,na,na,na,na,na,na,na,na,na
1st innings,9.6,LRPL Taylor,MW Parkinson,C de Grandhomme,0,0,0,na,na,na,na,na,na,na,na,na
1st innings,9.7,LRPL Taylor,MW Parkinson,C de Grandhomme,1,1,0,na,na,na,na,na,na,na,na,na
1st innings,10.1,LRPL Taylor,SM Curran,C de Grandhomme,1,1,0,na,na,na,na,na,na,na,na,na
1st innings,10.2,C de Grandhomme,SM Curran,LRPL Taylor,1,1,0,na,na,na,na,na,na,na,na,na
1st innings,10.3,LRPL Taylor,SM Curran,C de Grandhomme,4,4,0,na,na,na,na,na,na,na,na,na
1st innings,10.4,LRPL Taylor,SM Curran,C de Grandhomme,1,0,1,na,na,1,na,na,na,na,na,na
1st innings,10.5,LRPL Taylor,SM Curran,C de Grandhomme,2,2,0,na,na,na,na,na,na,na,na,na
1st innings,10.6,LRPL Taylor,SM Curran,C de Grandhomme,2,2,0,na,na,na,na,na,na,na,na,na
1st innings,10.7,LRPL Taylor,SM Curran,C de Grandhomme,1,1,0,na,na,na,na,na,na,na,na,na
1st innings,11.1,LRPL Taylor,L Gregory,C de Grandhomme,1,1,0,na,na,na,na,na,na,na,na,na
1st innings,11.2,C de Grandhomme,L Gregory,LRPL Taylor,0,0,0,na,na,na,na,na,na,na,na,na
1st innings,11.3,C de Grandhomme,L Gregory,LRPL Taylor,1,1,0,na,na,na,na,na,na,na,na,na
1st innings,11.4,LRPL Taylor,L Gregory,C de Grandhomme,1,1,0,na,na,na,na,na,na,na,na,na
1st innings,11.5,C de Grandhomme,L Gregory,LRPL Taylor,1,1,0,na,na,na,na,na,na,na,na,na
1st innings,11.6,LRPL Taylor,L Gregory,C de Grandhomme,1,1,0,na,na,na,na,na,na,na,na,na
1st innings,12.1,LRPL Taylor,PR Brown,C de Grandhomme,4,4,0,na,na,na,na,na,na,na,na,na
1st innings,12.2,LRPL Taylor,PR Brown,C de Grandhomme,6,6,0,na,na,na,na,na,na,na,na,na
1st innings,12.3,LRPL Taylor,PR Brown,C de Grandhomme,1,1,0,na,na,na,na,na,na,na,na,na
1st innings,12.4,C de Grandhomme,PR Brown,LRPL Taylor,4,4,0,na,na,na,na,na,na,na,na,na
1st innings,12.5,C de Grandhomme,PR Brown,LRPL Taylor,1,1,0,na,na,na,na,na,na,na,na,na
1st innings,12.6,LRPL Taylor,PR Brown,C de Grandhomme,1,1,0,na,na,na,na,na,na,na,na,na
1st innings,13.1,LRPL Taylor,L Gregory,C de Grandhomme,0,0,0,na,na,na,na,na,na,na,na,na
1st innings,13.2,LRPL Taylor,L Gregory,C de Grandhomme,1,0,1,1,na,na,na,na,na,na,na,na
1st innings,13.3,C de Grandhomme,L Gregory,LRPL Taylor,5,4,1,na,na,na,1,na,na,na,na,na
1st innings,13.4,C de Grandhomme,L Gregory,LRPL Taylor,1,0,1,na,na,na,1,na,na,na,na,na
1st innings,13.5,C de Grandhomme,L Gregory,LRPL Taylor,6,6,0,na,na,na,na,na,na,na,na,na
1st innings,13.6,C de Grandhomme,L Gregory,LRPL Taylor,0,0,0,na,na,na,na,na,na,na,na,na
1st innings,13.7,C de Grandhomme,L Gregory,LRPL Taylor,1,1,0,na,na,na,na,na,na,na,na,na
1st innings,13.8,LRPL Taylor,L Gregory,C de Grandhomme,1,1,0,na,na,na,na,na,na,na,na,na
1st innings,14.1,LRPL Taylor,TK Curran,C de Grandhomme,0,0,0,na,na,na,na,na,na,na,na,na
1st innings,14.2,LRPL Taylor,TK Curran,C de Grandhomme,1,1,0,na,na,na,na,na,na,na,na,na
1st innings,14.3,C de Grandhomme,TK Curran,LRPL Taylor,0,0,0,na,na,na,na,na,na,na,na,na
1st innings,14.4,C de Grandhomme,TK Curran,LRPL Taylor,1,1,0,na,na,na,na,na,na,na,na,na
1st innings,14.5,LRPL Taylor,TK Curran,C de Grandhomme,0,0,0,na,na,na,na,na,caught,T Banton,na,C de Grandhomme
1st innings,14.6,LRPL Taylor,TK Curran,JDS Neesham,1,1,0,na,na,na,na,na,na,na,na,na
1st innings,15.1,LRPL Taylor,S Mahmood,JDS Neesham,1,1,0,na,na,na,na,na,na,na,na,na
1st innings,15.2,JDS Neesham,S Mahmood,LRPL Taylor,1,0,1,na,na,1,na,na,na,na,na,na
1st innings,15.3,JDS Neesham,S Mahmood,LRPL Taylor,1,1,0,na,na,na,na,na,na,na,na,na
1st innings,15.4,LRPL Taylor,S Mahmood,JDS Neesham,1,1,0,na,na,na,na,na,na,na,na,na
1st innings,15.5,JDS Neesham,S Mahmood,LRPL Taylor,1,0,1,na,na,1,na,na,na,na,na,na
1st innings,15.6,JDS Neesham,S Mahmood,LRPL Taylor,1,0,1,na,na,1,na,na,na,na,na,na
1st innings,15.7,JDS Neesham,S Mahmood,LRPL Taylor,1,1,0,na,na,na,na,na,na,na,na,na
1st innings,15.8,LRPL Taylor,S Mahmood,JDS Neesham,0,0,0,na,na,na,na,na,na,na,na,na
1st innings,15.9,LRPL Taylor,S Mahmood,JDS Neesham,4,4,0,na,na,na,na,na,na,na,na,na
1st innings,16.1,JDS Neesham,PR Brown,LRPL Taylor,1,1,0,na,na,na,na,na,na,na,na,na
1st innings,16.2,LRPL Taylor,PR Brown,JDS Neesham,1,1,0,na,na,na,na,na,na,na,na,na
1st innings,16.3,JDS Neesham,PR Brown,LRPL Taylor,1,1,0,na,na,na,na,na,na,na,na,na
1st innings,16.4,LRPL Taylor,PR Brown,JDS Neesham,0,0,0,na,na,na,na,na,na,na,na,na
1st innings,16.5,LRPL Taylor,PR Brown,JDS Neesham,4,4,0,na,na,na,na,na,na,na,na,na
1st innings,16.6,LRPL Taylor,PR Brown,JDS Neesham,1,1,0,na,na,na,na,na,na,na,na,na
1st innings,17.1,LRPL Taylor,S Mahmood,JDS Neesham,0,0,0,na,na,na,na,na,na,na,na,na
1st innings,17.2,LRPL Taylor,S Mahmood,JDS Neesham,6,6,0,na,na,na,na,na,na,na,na,na
1st innings,17.3,LRPL Taylor,S Mahmood,JDS Neesham,1,1,0,na,na,na,na,na,na,na,na,na
1st innings,17.4,JDS Neesham,S Mahmood,LRPL Taylor,0,0,0,na,na,na,na,na,lbw,na,na,LRPL Taylor
1st innings,17.5,JDS Neesham,S Mahmood,MJ Santner,1,1,0,na,na,na,na,na,na,na,na,na
1st innings,17.6,MJ Santner,S Mahmood,JDS Neesham,0,0,0,na,na,na,na,na,na,na,na,na
1st innings,18.1,JDS Neesham,SM Curran,MJ Santner,1,1,0,na,na,na,na,na,na,na,na,na
1st innings,18.2,MJ Santner,SM Curran,JDS Neesham,1,0,1,1,na,na,na,na,na,na,na,na
1st innings,18.3,JDS Neesham,SM Curran,MJ Santner,4,4,0,na,na,na,na,na,na,na,na,na
1st innings,18.4,JDS Neesham,SM Curran,MJ Santner,0,0,0,na,na,na,na,na,na,na,na,na
1st innings,18.5,JDS Neesham,SM Curran,MJ Santner,1,1,0,na,na,na,na,na,na,na,na,na
1st innings,18.6,MJ Santner,SM Curran,JDS Neesham,1,0,1,na,na,1,na,na,na,na,na,na
1st innings,18.7,MJ Santner,SM Curran,JDS Neesham,0,0,0,na,na,na,na,na,bowled,na,na,JDS Neesham
1st innings,19.1,TG Southee,TK Curran,MJ Santner,1,1,0,na,na,na,na,na,na,na,na,na
1st innings,19.2,MJ Santner,TK Curran,TG Southee,1,1,0,na,na,na,na,na,na,na,na,na
1st innings,19.3,TG Southee,TK Curran,MJ Santner,2,2,0,na,na,na,na,na,na,na,na,na
1st innings,19.4,TG Southee,TK Curran,MJ Santner,4,4,0,na,na,na,na,na,na,na,na,na
1st innings,19.5,TG Southee,TK Curran,MJ Santner,1,1,0,na,na,na,na,na,na,na,na,na
1st innings,19.6,MJ Santner,TK Curran,TG Southee,0,0,0,na,na,na,na,na,run out,na,na,MJ Santner
2nd innings,0.1,DJ Malan,TG Southee,T Banton,0,0,0,na,na,na,na,na,na,na,na,na
2nd innings,0.2,DJ Malan,TG Southee,T Banton,1,1,0,na,na,na,na,na,na,na,na,na
2nd innings,0.3,T Banton,TG Southee,DJ Malan,1,1,0,na,na,na,na,na,na,na,na,na
2nd innings,0.4,DJ Malan,TG Southee,T Banton,4,4,0,na,na,na,na,na,na,na,na,na
2nd innings,0.5,DJ Malan,TG Southee,T Banton,1,1,0,na,na,na,na,na,na,na,na,na
2nd innings,0.6,T Banton,TG Southee,DJ Malan,4,4,0,na,na,na,na,na,na,na,na,na
2nd innings,1.1,DJ Malan,LH Ferguson,T Banton,1,1,0,na,na,na,na,na,na,na,na,na
2nd innings,1.2,T Banton,LH Ferguson,DJ Malan,1,1,0,na,na,na,na,na,na,na,na,na
2nd innings,1.3,DJ Malan,LH Ferguson,T Banton,6,6,0,na,na,na,na,na,na,na,na,na
2nd innings,1.4,DJ Malan,LH Ferguson,T Banton,4,4,0,na,na,na,na,na,na,na,na,na
2nd innings,1.5,DJ Malan,LH Ferguson,T Banton,1,0,1,na,na,1,na,na,na,na,na,na
2nd innings,1.6,DJ Malan,LH Ferguson,T Banton,1,0,1,1,na,na,na,na,na,na,na,na
2nd innings,1.7,T Banton,LH Ferguson,DJ Malan,0,0,0,na,na,na,na,na,na,na,na,na
2nd innings,2.1,DJ Malan,BM Tickner,T Banton,1,1,0,na,na,na,na,na,na,na,na,na
2nd innings,2.2,T Banton,BM Tickner,DJ Malan,0,0,0,na,na,na,na,na,na,na,na,na
2nd innings,2.3,T Banton,BM Tickner,DJ Malan,0,0,0,na,na,na,na,na,na,na,na,na
2nd innings,2.4,T Banton,BM Tickner,DJ Malan,1,1,0,na,na,na,na,na,na,na,na,na
2nd innings,2.5,DJ Malan,BM Tickner,T Banton,0,0,0,na,na,na,na,na,bowled,na,na,T Banton
2nd innings,2.6,DJ Malan,BM Tickner,JM Vince,0,0,0,na,na,na,na,na,na,na,na,na
2nd innings,3.1,JM Vince,LH Ferguson,DJ Malan,4,4,0,na,na,na,na,na,na,na,na,na
2nd innings,3.2,JM Vince,LH Ferguson,DJ Malan,1,1,0,na,na,na,na,na,na,na,na,na
2nd innings,3.3,DJ Malan,LH Ferguson,JM Vince,0,0,0,na,na,na,na,na,na,na,na,na
2nd innings,3.4,DJ Malan,LH Ferguson,JM Vince,0,0,0,na,na,na,na,na,na,na,na,na
2nd innings,3.5,DJ Malan,LH Ferguson,JM Vince,0,0,0,na,na,na,na,na,na,na,na,na
2nd innings,3.6,DJ Malan,LH Ferguson,JM Vince,0,0,0,na,na,na,na,na,na,na,na,na
2nd innings,4.1,JM Vince,BM Tickner,DJ Malan,0,0,0,na,na,na,na,na,na,na,na,na
2nd innings,4.2,JM Vince,BM Tickner,DJ Malan,0,0,0,na,na,na,na,na,na,na,na,na
2nd innings,4.3,JM Vince,BM Tickner,DJ Malan,0,0,0,na,na,na,na,na,na,na,na,na
2nd innings,4.4,JM Vince,BM Tickner,DJ Malan,1,1,0,na,na,na,na,na,na,na,na,na
2nd innings,4.5,DJ Malan,BM Tickner,JM Vince,1,1,0,na,na,na,na,na,na,na,na,na
2nd innings,4.6,JM Vince,BM Tickner,DJ Malan,2,2,0,na,na,na,na,na,na,na,na,na
2nd innings,5.1,DJ Malan,TG Southee,JM Vince,1,1,0,na,na,na,na,na,na,na,na,na
2nd innings,5.2,JM Vince,TG Southee,DJ Malan,4,4,0,na,na,na,na,na,na,na,na,na
2nd innings,5.3,JM Vince,TG Southee,DJ Malan,0,0,0,na,na,na,na,na,na,na,na,na
2nd innings,5.4,JM Vince,TG Southee,DJ Malan,0,0,0,na,na,na,na,na,na,na,na,na
2nd innings,5.5,JM Vince,TG Southee,DJ Malan,4,4,0,na,na,na,na,na,na,na,na,na
2nd innings,5.6,JM Vince,TG Southee,DJ Malan,1,1,0,na,na,na,na,na,na,na,na,na
2nd innings,6.1,JM Vince,IS Sodhi,DJ Malan,1,1,0,na,na,na,na,na,na,na,na,na
2nd innings,6.2,DJ Malan,IS Sodhi,JM Vince,0,0,0,na,na,na,na,na,na,na,na,na
2nd innings,6.3,DJ Malan,IS Sodhi,JM Vince,4,4,0,na,na,na,na,na,na,na,na,na
2nd innings,6.4,DJ Malan,IS Sodhi,JM Vince,1,1,0,na,na,na,na,na,na,na,na,na
2nd innings,6.5,JM Vince,IS Sodhi,DJ Malan,4,4,0,na,na,na,na,na,na,na,na,na
2nd innings,6.6,JM Vince,IS Sodhi,DJ Malan,4,4,0,na,na,na,na,na,na,na,na,na
2nd innings,7.1,DJ Malan,MJ Santner,JM Vince,1,1,0,na,na,na,na,na,na,na,na,na
2nd innings,7.2,JM Vince,MJ Santner,DJ Malan,1,1,0,na,na,na,na,na,na,na,na,na
2nd innings,7.3,DJ Malan,MJ Santner,JM Vince,0,0,0,na,na,na,na,na,na,na,na,na
2nd innings,7.4,DJ Malan,MJ Santner,JM Vince,2,2,0,na,na,na,na,na,na,na,na,na
2nd innings,7.5,DJ Malan,MJ Santner,JM Vince,1,1,0,na,na,na,na,na,na,na,na,na
2nd innings,7.6,JM Vince,MJ Santner,DJ Malan,1,1,0,na,na,na,na,na,na,na,na,na
2nd innings,8.1,JM Vince,JDS Neesham,DJ Malan,1,1,0,na,na,na,na,na,na,na,na,na
2nd innings,8.2,DJ Malan,JDS Neesham,JM Vince,2,2,0,na,na,na,na,na,na,na,na,na
2nd innings,8.3,DJ Malan,JDS Neesham,JM Vince,1,1,0,na,na,na,na,na,na,na,na,na
2nd innings,8.4,JM Vince,JDS Neesham,DJ Malan,6,6,0,na,na,na,na,na,na,na,na,na
2nd innings,8.5,JM Vince,JDS Neesham,DJ Malan,4,4,0,na,na,na,na,na,na,na,na,na
2nd innings,8.6,JM Vince,JDS Neesham,DJ Malan,2,2,0,na,na,na,na,na,na,na,na,na
2nd innings,9.1,DJ Malan,MJ Santner,JM Vince,0,0,0,na,na,na,na,na,na,na,na,na
2nd innings,9.2,DJ Malan,MJ Santner,JM Vince,1,1,0,na,na,na,na,na,na,na,na,na
2nd innings,9.3,JM Vince,MJ Santner,DJ Malan,2,2,0,na,na,na,na,na,na,na,na,na
2nd innings,9.4,JM Vince,MJ Santner,DJ Malan,0,0,0,na,na,na,na,na,na,na,na,na
2nd innings,9.5,JM Vince,MJ Santner,DJ Malan,4,4,0,na,na,na,na,na,na,na,na,na
2nd innings,9.6,JM Vince,MJ Santner,DJ Malan,1,1,0,na,na,na,na,na,na,na,na,na
2nd innings,10.1,JM Vince,IS Sodhi,DJ Malan,0,0,0,na,na,na,na,na,na,na,na,na
2nd innings,10.2,JM Vince,IS Sodhi,DJ Malan,0,0,0,na,na,na,na,na,caught,MJ Guptill,na,DJ Malan
2nd innings,10.3,EJG Morgan,IS Sodhi,JM Vince,1,1,0,na,na,na,na,na,na,na,na,na
2nd innings,10.4,JM Vince,IS Sodhi,EJG Morgan,1,1,0,na,na,na,na,na,na,na,na,na
2nd innings,10.5,EJG Morgan,IS Sodhi,JM Vince,2,2,0,na,na,na,na,na,na,na,na,na
2nd innings,10.6,EJG Morgan,IS Sodhi,JM Vince,0,0,0,na,na,na,na,na,na,na,na,na
2nd innings,11.1,JM Vince,MJ Santner,EJG Morgan,1,1,0,na,na,na,na,na,na,na,na,na
2nd innings,11.2,EJG Morgan,MJ Santner,JM Vince,0,0,0,na,na,na,na,na,na,na,na,na
2nd innings,11.3,EJG Morgan,MJ Santner,JM Vince,0,0,0,na,na,na,na,na,na,na,na,na
2nd innings,11.4,EJG Morgan,MJ Santner,JM Vince,2,2,0,na,na,na,na,na,na,na,na,na
2nd innings,11.5,EJG Morgan,MJ Santner,JM Vince,4,4,0,na,na,na,na,na,na,na,na,na
2nd innings,11.6,EJG Morgan,MJ Santner,JM Vince,4,4,0,na,na,na,na,na,na,na,na,na
2nd innings,12.1,JM Vince,BM Tickner,EJG Morgan,1,1,0,na,na,na,na,na,na,na,na,na
2nd innings,12.2,EJG Morgan,BM Tickner,JM Vince,4,4,0,na,na,na,na,na,na,na,na,na
2nd innings,12.3,EJG Morgan,BM Tickner,JM Vince,6,6,0,na,na,na,na,na,na,na,na,na
2nd innings,12.4,EJG Morgan,BM Tickner,JM Vince,2,2,0,na,na,na,na,na,na,na,na,na
2nd innings,12.5,EJG Morgan,BM Tickner,JM Vince,1,1,0,na,na,na,na,na,na,na,na,na
2nd innings,12.6,JM Vince,BM Tickner,EJG Morgan,0,0,0,na,na,na,na,na,na,na,na,na
2nd innings,13.1,EJG Morgan,LH Ferguson,JM Vince,1,1,0,na,na,na,na,na,na,na,na,na
2nd innings,13.2,JM Vince,LH Ferguson,EJG Morgan,1,1,0,na,na,na,na,na,na,na,na,na
2nd innings,13.3,EJG Morgan,LH Ferguson,JM Vince,1,1,0,na,na,na,na,na,na,na,na,na
2nd innings,13.4,JM Vince,LH Ferguson,EJG Morgan,0,0,0,na,na,na,na,na,na,na,na,na
2nd innings,13.5,JM Vince,LH Ferguson,EJG Morgan,0,0,0,na,na,na,na,na,na,na,na,na
2nd innings,13.6,JM Vince,LH Ferguson,EJG Morgan,1,1,0,na,na,na,na,na,na,na,na,na
2nd innings,14.1,JM Vince,MJ Santner,EJG Morgan,6,6,0,na,na,na,na,na,na,na,na,na
2nd innings,14.2,JM Vince,MJ Santner,EJG Morgan,1,0,1,na,na,1,na,na,na,na,na,na
2nd innings,14.3,JM Vince,MJ Santner,EJG Morgan,6,6,0,na,na,na,na,na,na,na,na,na
2nd innings,14.4,JM Vince,MJ Santner,EJG Morgan,1,0,1,na,na,1,na,na,na,na,na,na
2nd innings,14.5,JM Vince,MJ Santner,EJG Morgan,1,1,0,na,na,na,na,na,na,na,na,na
2nd innings,14.6,EJG Morgan,MJ Santner,JM Vince,1,1,0,na,na,na,na,na,na,na,na,na
2nd innings,14.7,JM Vince,MJ Santner,EJG Morgan,0,0,0,na,na,na,na,na,na,na,na,na
2nd innings,14.8,JM Vince,MJ Santner,EJG Morgan,0,0,0,na,na,na,na,na,caught,C Munro,na,EJG Morgan
2nd innings,15.1,SW Billings,TG Southee,JM Vince,1,1,0,na,na,na,na,na,na,na,na,na
2nd innings,15.2,JM Vince,TG Southee,SW Billings,1,1,0,na,na,na,na,na,na,na,na,na
2nd innings,15.3,SW Billings,TG Southee,JM Vince,1,1,0,na,na,na,na,na,na,na,na,na
2nd innings,15.4,JM Vince,TG Southee,SW Billings,0,0,0,na,na,na,na,na,run out,na,na,SW Billings
2nd innings,15.5,JM Vince,TG Southee,SM Curran,0,0,0,na,na,na,na,na,na,na,na,na
2nd innings,15.6,JM Vince,TG Southee,SM Curran,0,0,0,na,na,na,na,na,na,na,na,na
2nd innings,16.1,SM Curran,BM Tickner,JM Vince,0,0,0,na,na,na,na,na,na,na,na,na
2nd innings,16.2,SM Curran,BM Tickner,JM Vince,1,1,0,na,na,na,na,na,na,na,na,na
2nd innings,16.3,JM Vince,BM Tickner,SM Curran,1,0,1,na,na,1,na,na,na,na,na,na
2nd innings,16.4,JM Vince,BM Tickner,SM Curran,0,0,0,na,na,na,na,na,na,na,na,na
2nd innings,16.5,JM Vince,BM Tickner,SM Curran,1,1,0,na,na,na,na,na,na,na,na,na
2nd innings,16.6,SM Curran,BM Tickner,JM Vince,2,2,0,na,na,na,na,na,na,na,na,na
2nd innings,16.7,SM Curran,BM Tickner,JM Vince,0,0,0,na,na,na,na,na,caught,TG Southee,na,JM Vince
2nd innings,17.1,L Gregory,LH Ferguson,SM Curran,1,1,0,na,na,na,na,na,na,na,na,na
2nd innings,17.2,SM Curran,LH Ferguson,L Gregory,0,0,0,na,na,na,na,na,na,na,na,na
2nd innings,17.3,SM Curran,LH Ferguson,L Gregory,0,0,0,na,na,na,na,na,bowled,na,na,L Gregory
2nd innings,17.4,SM Curran,LH Ferguson,TK Curran,1,1,0,na,na,na,na,na,na,na,na,na
2nd innings,17.5,TK Curran,LH Ferguson,SM Curran,0,0,0,na,na,na,na,na,caught,C Munro,na,SM Curran
2nd innings,17.6,S Mahmood,LH Ferguson,TK Curran,1,1,0,na,na,na,na,na,na,na,na,na
2nd innings,18.1,S Mahmood,IS Sodhi,TK Curran,1,1,0,na,na,na,na,na,na,na,na,na
2nd innings,18.2,TK Curran,IS Sodhi,S Mahmood,1,1,0,na,na,na,na,na,na,na,na,na
2nd innings,18.3,S Mahmood,IS Sodhi,TK Curran,1,1,0,na,na,na,na,na,na,na,na,na
2nd innings,18.4,TK Curran,IS Sodhi,S Mahmood,1,1,0,na,na,na,na,na,na,na,na,na
2nd innings,18.5,S Mahmood,IS Sodhi,TK Curran,1,0,1,na,na,1,na,na,na,na,na,na
2nd innings,18.6,S Mahmood,IS Sodhi,TK Curran,6,6,0,na,na,na,na,na,na,na,na,na
2nd innings,18.7,S Mahmood,IS Sodhi,TK Curran,1,1,0,na,na,na,na,na,na,na,na,na
2nd innings,19.1,S Mahmood,TG Southee,TK Curran,0,0,0,na,na,na,na,na,na,na,na,na
2nd innings,19.2,S Mahmood,TG Southee,TK Curran,0,0,0,na,na,na,na,na,na,na,na,na
2nd innings,19.3,S Mahmood,TG Southee,TK Curran,1,1,0,na,na,na,na,na,na,na,na,na
2nd innings,19.4,TK Curran,TG Southee,S Mahmood,0,0,0,na,na,na,na,na,na,na,na,na
2nd innings,19.5,TK Curran,TG Southee,S Mahmood,1,1,0,na,na,na,na,na,na,na,na,na
2nd innings,19.6,S Mahmood,TG Southee,TK Curran,2,2,0,na,na,na,na,na,na,na,na,na
