inngs,deliveries,non_striker,bowler,batsman,totalruns,batsman_runs,extra_runs,legbyes,byes,wides,noballs,penalty,wicket_kind,fielder1,fielder2,player_out
1st innings,0.1,JM Bairstow,TA Boult,T Banton,4,4,0,na,na,na,na,na,na,na,na,na
1st innings,0.2,JM Bairstow,TA Boult,T Banton,0,0,0,na,na,na,na,na,na,na,na,na
1st innings,0.3,JM Bairstow,TA Boult,T Banton,0,0,0,na,na,na,na,na,na,na,na,na
1st innings,0.4,JM Bairstow,TA Boult,T Banton,0,0,0,na,na,na,na,na,na,na,na,na
1st innings,0.5,JM Bairstow,TA Boult,T Banton,0,0,0,na,na,na,na,na,na,na,na,na
1st innings,0.6,JM Bairstow,TA Boult,T Banton,1,1,0,na,na,na,na,na,na,na,na,na
1st innings,1.1,JM Bairstow,TG Southee,T Banton,2,2,0,na,na,na,na,na,na,na,na,na
1st innings,1.2,JM Bairstow,TG Southee,T Banton,0,0,0,na,na,na,na,na,na,na,na,na
1st innings,1.3,JM Bairstow,TG Southee,T Banton,1,1,0,na,na,na,na,na,na,na,na,na
1st innings,1.4,T Banton,TG Southee,JM Bairstow,2,2,0,na,na,na,na,na,na,na,na,na
1st innings,1.5,T Banton,TG Southee,JM Bairstow,0,0,0,na,na,na,na,na,na,na,na,na
1st innings,1.6,T Banton,TG Southee,JM Bairstow,1,1,0,na,na,na,na,na,na,na,na,na
1st innings,2.1,T Banton,TA Boult,JM Bairstow,0,0,0,na,na,na,na,na,na,na,na,na
1st innings,2.2,T Banton,TA Boult,JM Bairstow,0,0,0,na,na,na,na,na,na,na,na,na
1st innings,2.3,T Banton,TA Boult,JM Bairstow,0,0,0,na,na,na,na,na,na,na,na,na
1st innings,2.4,T Banton,TA Boult,JM Bairstow,4,4,0,na,na,na,na,na,na,na,na,na
1st innings,2.5,T Banton,TA Boult,JM Bairstow,1,1,0,na,na,na,na,na,na,na,na,na
1st innings,2.6,JM Bairstow,TA Boult,T Banton,0,0,0,na,na,na,na,na,na,na,na,na
1st innings,3.1,T Banton,MJ Santner,JM Bairstow,0,0,0,na,na,na,na,na,caught,DJ Mitchell,na,JM Bairstow
1st innings,3.2,T Banton,MJ Santner,DJ Malan,0,0,0,na,na,na,na,na,na,na,na,na
1st innings,3.3,T Banton,MJ Santner,DJ Malan,0,0,0,na,na,na,na,na,na,na,na,na
1st innings,3.4,T Banton,MJ Santner,DJ Malan,1,0,1,na,na,1,na,na,na,na,na,na
1st innings,3.5,T Banton,MJ Santner,DJ Malan,0,0,0,na,na,na,na,na,na,na,na,na
1st innings,3.6,T Banton,MJ Santner,DJ Malan,0,0,0,na,na,na,na,na,na,na,na,na
1st innings,3.7,T Banton,MJ Santner,DJ Malan,1,1,0,na,na,na,na,na,na,na,na,na
1st innings,4.1,T Banton,TG Southee,DJ Malan,1,1,0,na,na,na,na,na,na,na,na,na
1st innings,4.2,DJ Malan,TG Southee,T Banton,4,4,0,na,na,na,na,na,na,na,na,na
1st innings,4.3,DJ Malan,TG Southee,T Banton,1,1,0,na,na,na,na,na,na,na,na,na
1st innings,4.4,T Banton,TG Southee,DJ Malan,2,2,0,na,na,na,na,na,na,na,na,na
1st innings,4.5,T Banton,TG Southee,DJ Malan,4,4,0,na,na,na,na,na,na,na,na,na
1st innings,4.6,T Banton,TG Southee,DJ Malan,1,1,0,na,na,na,na,na,na,na,na,na
1st innings,5.1,T Banton,BM Tickner,DJ Malan,1,1,0,na,na,na,na,na,na,na,na,na
1st innings,5.2,DJ Malan,BM Tickner,T Banton,4,4,0,na,na,na,na,na,na,na,na,na
1st innings,5.3,DJ Malan,BM Tickner,T Banton,0,0,0,na,na,na,na,na,na,na,na,na
1st innings,5.4,DJ Malan,BM Tickner,T Banton,4,4,0,na,na,na,na,na,na,na,na,na
1st innings,5.5,DJ Malan,BM Tickner,T Banton,6,6,0,na,na,na,na,na,na,na,na,na
1st innings,5.6,DJ Malan,BM Tickner,T Banton,2,2,0,na,na,na,na,na,na,na,na,na
1st innings,6.1,T Banton,IS Sodhi,DJ Malan,1,1,0,na,na,na,na,na,na,na,na,na
1st innings,6.2,DJ Malan,IS Sodhi,T Banton,1,1,0,na,na,na,na,na,na,na,na,na
1st innings,6.3,T Banton,IS Sodhi,DJ Malan,1,1,0,na,na,na,na,na,na,na,na,na
1st innings,6.4,DJ Malan,IS Sodhi,T Banton,1,1,0,na,na,na,na,na,na,na,na,na
1st innings,6.5,T Banton,IS Sodhi,DJ Malan,4,4,0,na,na,na,na,na,na,na,na,na
1st innings,6.6,T Banton,IS Sodhi,DJ Malan,1,1,0,na,na,na,na,na,na,na,na,na
1st innings,7.1,T Banton,MJ Santner,DJ Malan,1,0,1,1,na,na,na,na,na,na,na,na
1st innings,7.2,DJ Malan,MJ Santner,T Banton,0,0,0,na,na,na,na,na,lbw,na,na,T Banton
1st innings,7.3,DJ Malan,MJ Santner,EJG Morgan,1,1,0,na,na,na,na,na,na,na,na,na
1st innings,7.4,EJG Morgan,MJ Santner,DJ Malan,1,1,0,na,na,na,na,na,na,na,na,na
1st innings,7.5,DJ Malan,MJ Santner,EJG Morgan,0,0,0,na,na,na,na,na,na,na,na,na
1st innings,7.6,DJ Malan,MJ Santner,EJG Morgan,1,1,0,na,na,na,na,na,na,na,na,na
1st innings,8.1,DJ Malan,IS Sodhi,EJG Morgan,0,0,0,na,na,na,na,na,na,na,na,na
1st innings,8.2,DJ Malan,IS Sodhi,EJG Morgan,6,6,0,na,na,na,na,na,na,na,na,na
1st innings,8.3,DJ Malan,IS Sodhi,EJG Morgan,2,2,0,na,na,na,na,na,na,na,na,na
1st innings,8.4,DJ Malan,IS Sodhi,EJG Morgan,1,1,0,na,na,na,na,na,na,na,na,na
1st innings,8.5,EJG Morgan,IS Sodhi,DJ Malan,1,1,0,na,na,na,na,na,na,na,na,na
1st innings,8.6,DJ Malan,IS Sodhi,EJG Morgan,2,2,0,na,na,na,na,na,na,na,na,na
1st innings,9.1,EJG Morgan,BM Tickner,DJ Malan,0,0,0,na,na,na,na,na,na,na,na,na
1st innings,9.2,EJG Morgan,BM Tickner,DJ Malan,4,4,0,na,na,na,na,na,na,na,na,na
1st innings,9.3,EJG Morgan,BM Tickner,DJ Malan,1,1,0,na,na,na,na,na,na,na,na,na
1st innings,9.4,DJ Malan,BM Tickner,EJG Morgan,0,0,0,na,na,na,na,na,na,na,na,na
1st innings,9.5,DJ Malan,BM Tickner,EJG Morgan,6,6,0,na,na,na,na,na,na,na,na,na
1st innings,9.6,DJ Malan,BM Tickner,EJG Morgan,4,4,0,na,na,na,na,na,na,na,na,na
1st innings,10.1,EJG Morgan,MJ Santner,DJ Malan,2,2,0,na,na,na,na,na,na,na,na,na
1st innings,10.2,EJG Morgan,MJ Santner,DJ Malan,6,6,0,na,na,na,na,na,na,na,na,na
1st innings,10.3,EJG Morgan,MJ Santner,DJ Malan,4,4,0,na,na,na,na,na,na,na,na,na
1st innings,10.4,EJG Morgan,MJ Santner,DJ Malan,1,1,0,na,na,na,na,na,na,na,na,na
1st innings,10.5,DJ Malan,MJ Santner,EJG Morgan,6,6,0,na,na,na,na,na,na,na,na,na
1st innings,10.6,DJ Malan,MJ Santner,EJG Morgan,1,1,0,na,na,na,na,na,na,na,na,na
1st innings,11.1,DJ Malan,TA Boult,EJG Morgan,4,4,0,na,na,na,na,na,na,na,na,na
1st innings,11.2,DJ Malan,TA Boult,EJG Morgan,1,1,0,na,na,na,na,na,na,na,na,na
1st innings,11.3,EJG Morgan,TA Boult,DJ Malan,1,1,0,na,na,na,na,na,na,na,na,na
1st innings,11.4,DJ Malan,TA Boult,EJG Morgan,1,1,0,na,na,na,na,na,na,na,na,na
1st innings,11.5,EJG Morgan,TA Boult,DJ Malan,1,1,0,na,na,na,na,na,na,na,na,na
1st innings,11.6,DJ Malan,TA Boult,EJG Morgan,4,4,0,na,na,na,na,na,na,na,na,na
1st innings,12.1,EJG Morgan,BM Tickner,DJ Malan,1,1,0,na,na,na,na,na,na,na,na,na
1st innings,12.2,DJ Malan,BM Tickner,EJG Morgan,1,1,0,na,na,na,na,na,na,na,na,na
1st innings,12.3,EJG Morgan,BM Tickner,DJ Malan,1,1,0,na,na,na,na,na,na,na,na,na
1st innings,12.4,DJ Malan,BM Tickner,EJG Morgan,1,1,0,na,na,na,na,na,na,na,na,na
1st innings,12.5,EJG Morgan,BM Tickner,DJ Malan,4,4,0,na,na,na,na,na,na,na,na,na
1st innings,12.6,EJG Morgan,BM Tickner,DJ Malan,1,1,0,na,na,na,na,na,na,na,na,na
1st innings,13.1,EJG Morgan,TG Southee,DJ Malan,4,4,0,na,na,na,na,na,na,na,na,na
1st innings,13.2,EJG Morgan,TG Southee,DJ Malan,3,3,0,na,na,na,na,na,na,na,na,na
1st innings,13.3,DJ Malan,TG Southee,EJG Morgan,4,4,0,na,na,na,na,na,na,na,na,na
1st innings,13.4,DJ Malan,TG Southee,EJG Morgan,4,4,0,na,na,na,na,na,na,na,na,na
1st innings,13.5,DJ Malan,TG Southee,EJG Morgan,1,1,0,na,na,na,na,na,na,na,na,na
1st innings,13.6,EJG Morgan,TG Southee,DJ Malan,4,4,0,na,na,na,na,na,na,na,na,na
1st innings,14.1,DJ Malan,MJ Santner,EJG Morgan,2,1,1,na,na,na,1,na,na,na,na,na
1st innings,14.2,EJG Morgan,MJ Santner,DJ Malan,1,1,0,na,na,na,na,na,na,na,na,na
1st innings,14.3,DJ Malan,MJ Santner,EJG Morgan,0,0,0,na,na,na,na,na,na,na,na,na
1st innings,14.4,DJ Malan,MJ Santner,EJG Morgan,0,0,0,na,na,na,na,na,na,na,na,na
1st innings,14.5,DJ Malan,MJ Santner,EJG Morgan,1,1,0,na,na,na,na,na,na,na,na,na
1st innings,14.6,EJG Morgan,MJ Santner,DJ Malan,1,0,1,na,na,1,na,na,na,na,na,na
1st innings,14.7,EJG Morgan,MJ Santner,DJ Malan,1,1,0,na,na,na,na,na,na,na,na,na
1st innings,14.8,DJ Malan,MJ Santner,EJG Morgan,1,1,0,na,na,na,na,na,na,na,na,na
1st innings,15.1,DJ Malan,BM Tickner,EJG Morgan,1,1,0,na,na,na,na,na,na,na,na,na
1st innings,15.2,EJG Morgan,BM Tickner,DJ Malan,1,1,0,na,na,na,na,na,na,na,na,na
1st innings,15.3,DJ Malan,BM Tickner,EJG Morgan,0,0,0,na,na,na,na,na,na,na,na,na
1st innings,15.4,DJ Malan,BM Tickner,EJG Morgan,4,4,0,na,na,na,na,na,na,na,na,na
1st innings,15.5,DJ Malan,BM Tickner,EJG Morgan,2,1,1,na,na,na,1,na,na,na,na,na
1st innings,15.6,EJG Morgan,BM Tickner,DJ Malan,0,0,0,na,na,na,na,na,na,na,na,na
1st innings,15.7,EJG Morgan,BM Tickner,DJ Malan,1,1,0,na,na,na,na,na,na,na,na,na
1st innings,16.1,EJG Morgan,IS Sodhi,DJ Malan,4,4,0,na,na,na,na,na,na,na,na,na
1st innings,16.2,EJG Morgan,IS Sodhi,DJ Malan,6,6,0,na,na,na,na,na,na,na,na,na
1st innings,16.3,EJG Morgan,IS Sodhi,DJ Malan,6,6,0,na,na,na,na,na,na,na,na,na
1st innings,16.4,EJG Morgan,IS Sodhi,DJ Malan,4,4,0,na,na,na,na,na,na,na,na,na
1st innings,16.5,EJG Morgan,IS Sodhi,DJ Malan,6,6,0,na,na,na,na,na,na,na,na,na
1st innings,16.6,EJG Morgan,IS Sodhi,DJ Malan,2,2,0,na,na,na,na,na,na,na,na,na
1st innings,17.1,DJ Malan,TA Boult,EJG Morgan,1,0,1,1,na,na,na,na,na,na,na,na
1st innings,17.2,EJG Morgan,TA Boult,DJ Malan,6,6,0,na,na,na,na,na,na,na,na,na
1st innings,17.3,EJG Morgan,TA Boult,DJ Malan,0,0,0,na,na,na,na,na,na,na,na,na
1st innings,17.4,EJG Morgan,TA Boult,DJ Malan,1,0,1,1,na,na,na,na,na,na,na,na
1st innings,17.5,DJ Malan,TA Boult,EJG Morgan,1,1,0,na,na,na,na,na,na,na,na,na
1st innings,17.6,EJG Morgan,TA Boult,DJ Malan,6,6,0,na,na,na,na,na,na,na,na,na
1st innings,18.1,DJ Malan,DJ Mitchell,EJG Morgan,2,2,0,na,na,na,na,na,na,na,na,na
1st innings,18.2,DJ Malan,DJ Mitchell,EJG Morgan,1,0,1,na,na,1,na,na,na,na,na,na
1st innings,18.3,DJ Malan,DJ Mitchell,EJG Morgan,6,6,0,na,na,na,na,na,na,na,na,na
1st innings,18.4,DJ Malan,DJ Mitchell,EJG Morgan,6,6,0,na,na,na,na,na,na,na,na,na
1st innings,18.5,DJ Malan,DJ Mitchell,EJG Morgan,0,0,0,na,na,na,na,na,na,na,na,na
1st innings,18.6,DJ Malan,DJ Mitchell,EJG Morgan,6,6,0,na,na,na,na,na,na,na,na,na
1st innings,18.7,DJ Malan,DJ Mitchell,EJG Morgan,4,4,0,na,na,na,na,na,na,na,na,na
1st innings,19.1,EJG Morgan,TG Southee,DJ Malan,0,0,0,na,na,na,na,na,na,na,na,na
1st innings,19.2,EJG Morgan,TG Southee,DJ Malan,1,1,0,na,na,na,na,na,na,na,na,na
1st innings,19.3,DJ Malan,TG Southee,EJG Morgan,6,6,0,na,na,na,na,na,na,na,na,na
1st innings,19.4,DJ Malan,TG Southee,EJG Morgan,0,0,0,na,na,na,na,na,caught,DJ Mitchell,na,EJG Morgan
1st innings,19.5,SW Billings,TG Southee,DJ Malan,1,1,0,na,na,na,na,na,na,na,na,na
1st innings,19.6,DJ Malan,TG Southee,SW Billings,0,0,0,na,na,na,na,na,na,na,na,na
2nd innings,0.1,C Munro,SM Curran,MJ Guptill,0,0,0,na,na,na,na,na,na,na,na,na
2nd innings,0.2,C Munro,SM Curran,MJ Guptill,0,0,0,na,na,na,na,na,na,na,na,na
2nd innings,0.3,C Munro,SM Curran,MJ Guptill,0,0,0,na,na,na,na,na,na,na,na,na
2nd innings,0.4,C Munro,SM Curran,MJ Guptill,1,1,0,na,na,na,na,na,na,na,na,na
2nd innings,0.5,MJ Guptill,SM Curran,C Munro,4,4,0,na,na,na,na,na,na,na,na,na
2nd innings,0.6,MJ Guptill,SM Curran,C Munro,3,3,0,na,na,na,na,na,na,na,na,na
2nd innings,1.1,MJ Guptill,TK Curran,C Munro,1,1,0,na,na,na,na,na,na,na,na,na
2nd innings,1.2,C Munro,TK Curran,MJ Guptill,1,1,0,na,na,na,na,na,na,na,na,na
2nd innings,1.3,MJ Guptill,TK Curran,C Munro,4,4,0,na,na,na,na,na,na,na,na,na
2nd innings,1.4,MJ Guptill,TK Curran,C Munro,1,1,0,na,na,na,na,na,na,na,na,na
2nd innings,1.5,C Munro,TK Curran,MJ Guptill,0,0,0,na,na,na,na,na,na,na,na,na
2nd innings,1.6,C Munro,TK Curran,MJ Guptill,1,1,0,na,na,na,na,na,na,na,na,na
2nd innings,2.1,C Munro,SM Curran,MJ Guptill,1,0,1,na,na,1,na,na,na,na,na,na
2nd innings,2.2,C Munro,SM Curran,MJ Guptill,6,6,0,na,na,na,na,na,na,na,na,na
2nd innings,2.3,C Munro,SM Curran,MJ Guptill,1,1,0,na,na,na,na,na,na,na,na,na
2nd innings,2.4,MJ Guptill,SM Curran,C Munro,0,0,0,na,na,na,na,na,na,na,na,na
2nd innings,2.5,MJ Guptill,SM Curran,C Munro,4,4,0,na,na,na,na,na,na,na,na,na
2nd innings,2.6,MJ Guptill,SM Curran,C Munro,1,0,1,na,na,1,na,na,na,na,na,na
2nd innings,2.7,MJ Guptill,SM Curran,C Munro,2,2,0,na,na,na,na,na,na,na,na,na
2nd innings,2.8,MJ Guptill,SM Curran,C Munro,3,3,0,na,na,na,na,na,na,na,na,na
2nd innings,3.1,MJ Guptill,CJ Jordan,C Munro,0,0,0,na,na,na,na,na,na,na,na,na
2nd innings,3.2,MJ Guptill,CJ Jordan,C Munro,1,1,0,na,na,na,na,na,na,na,na,na
2nd innings,3.3,C Munro,CJ Jordan,MJ Guptill,6,6,0,na,na,na,na,na,na,na,na,na
2nd innings,3.4,C Munro,CJ Jordan,MJ Guptill,6,6,0,na,na,na,na,na,na,na,na,na
2nd innings,3.5,C Munro,CJ Jordan,MJ Guptill,1,1,0,na,na,na,na,na,na,na,na,na
2nd innings,3.6,MJ Guptill,CJ Jordan,C Munro,1,1,0,na,na,na,na,na,na,na,na,na
2nd innings,4.1,MJ Guptill,TK Curran,C Munro,1,1,0,na,na,na,na,na,na,na,na,na
2nd innings,4.2,C Munro,TK Curran,MJ Guptill,4,4,0,na,na,na,na,na,na,na,na,na
2nd innings,4.3,C Munro,TK Curran,MJ Guptill,0,0,0,na,na,na,na,na,caught,DJ Malan,na,MJ Guptill
2nd innings,4.4,C Munro,TK Curran,TL Seifert,1,1,0,na,na,na,na,na,na,na,na,na
2nd innings,4.5,TL Seifert,TK Curran,C Munro,1,1,0,na,na,na,na,na,na,na,na,na
2nd innings,4.6,C Munro,TK Curran,TL Seifert,1,1,0,na,na,na,na,na,na,na,na,na
2nd innings,5.1,C Munro,CJ Jordan,TL Seifert,1,1,0,na,na,na,na,na,na,na,na,na
2nd innings,5.2,TL Seifert,CJ Jordan,C Munro,0,0,0,na,na,na,na,na,na,na,na,na
2nd innings,5.3,TL Seifert,CJ Jordan,C Munro,0,0,0,na,na,na,na,na,na,na,na,na
2nd innings,5.4,TL Seifert,CJ Jordan,C Munro,1,1,0,na,na,na,na,na,na,na,na,na
2nd innings,5.5,C Munro,CJ Jordan,TL Seifert,0,0,0,na,na,na,na,na,caught,TK Curran,na,TL Seifert
2nd innings,5.6,C de Grandhomme,CJ Jordan,C Munro,1,0,1,na,na,1,na,na,na,na,na,na
2nd innings,5.7,C de Grandhomme,CJ Jordan,C Munro,1,1,0,na,na,na,na,na,na,na,na,na
2nd innings,6.1,C de Grandhomme,MW Parkinson,C Munro,1,1,0,na,na,na,na,na,na,na,na,na
2nd innings,6.2,C Munro,MW Parkinson,C de Grandhomme,1,1,0,na,na,na,na,na,na,na,na,na
2nd innings,6.3,C de Grandhomme,MW Parkinson,C Munro,1,1,0,na,na,na,na,na,na,na,na,na
2nd innings,6.4,C Munro,MW Parkinson,C de Grandhomme,6,6,0,na,na,na,na,na,na,na,na,na
2nd innings,6.5,C Munro,MW Parkinson,C de Grandhomme,0,0,0,na,na,na,na,na,caught,T Banton,na,C de Grandhomme
2nd innings,6.6,LRPL Taylor,MW Parkinson,C Munro,0,0,0,na,na,na,na,na,caught,PR Brown,na,C Munro
2nd innings,7.1,DJ Mitchell,PR Brown,LRPL Taylor,1,1,0,na,na,na,na,na,na,na,na,na
2nd innings,7.2,LRPL Taylor,PR Brown,DJ Mitchell,1,0,1,na,na,1,na,na,na,na,na,na
2nd innings,7.3,LRPL Taylor,PR Brown,DJ Mitchell,0,0,0,na,na,na,na,na,na,na,na,na
2nd innings,7.4,LRPL Taylor,PR Brown,DJ Mitchell,1,1,0,na,na,na,na,na,na,na,na,na
2nd innings,7.5,DJ Mitchell,PR Brown,LRPL Taylor,1,1,0,na,na,na,na,na,na,na,na,na
2nd innings,7.6,LRPL Taylor,PR Brown,DJ Mitchell,1,1,0,na,na,na,na,na,na,na,na,na
2nd innings,7.7,DJ Mitchell,PR Brown,LRPL Taylor,1,0,1,na,na,1,na,na,na,na,na,na
2nd innings,7.8,DJ Mitchell,PR Brown,LRPL Taylor,1,1,0,na,na,na,na,na,na,na,na,na
2nd innings,8.1,DJ Mitchell,MW Parkinson,LRPL Taylor,1,1,0,na,na,na,na,na,na,na,na,na
2nd innings,8.2,LRPL Taylor,MW Parkinson,DJ Mitchell,0,0,0,na,na,na,na,na,na,na,na,na
2nd innings,8.3,LRPL Taylor,MW Parkinson,DJ Mitchell,0,0,0,na,na,na,na,na,caught,CJ Jordan,na,DJ Mitchell
2nd innings,8.4,MJ Santner,MW Parkinson,LRPL Taylor,6,6,0,na,na,na,na,na,na,na,na,na
2nd innings,8.5,MJ Santner,MW Parkinson,LRPL Taylor,0,0,0,na,na,na,na,na,na,na,na,na
2nd innings,8.6,MJ Santner,MW Parkinson,LRPL Taylor,1,1,0,na,na,na,na,na,na,na,na,na
2nd innings,9.1,MJ Santner,PR Brown,LRPL Taylor,2,2,0,na,na,na,na,na,na,na,na,na
2nd innings,9.2,MJ Santner,PR Brown,LRPL Taylor,1,1,0,na,na,na,na,na,na,na,na,na
2nd innings,9.3,LRPL Taylor,PR Brown,MJ Santner,1,1,0,na,na,na,na,na,na,na,na,na
2nd innings,9.4,MJ Santner,PR Brown,LRPL Taylor,0,0,0,na,na,na,na,na,caught,T Banton,na,LRPL Taylor
2nd innings,9.5,TG Southee,PR Brown,MJ Santner,1,1,0,na,na,na,na,na,na,na,na,na
2nd innings,9.6,MJ Santner,PR Brown,TG Southee,1,1,0,na,na,na,na,na,na,na,na,na
2nd innings,10.1,MJ Santner,MW Parkinson,TG Southee,6,6,0,na,na,na,na,na,na,na,na,na
2nd innings,10.2,MJ Santner,MW Parkinson,TG Southee,6,6,0,na,na,na,na,na,na,na,na,na
2nd innings,10.3,MJ Santner,MW Parkinson,TG Southee,0,0,0,na,na,na,na,na,na,na,na,na
2nd innings,10.4,MJ Santner,MW Parkinson,TG Southee,1,1,0,na,na,na,na,na,na,na,na,na
2nd innings,10.5,TG Southee,MW Parkinson,MJ Santner,1,1,0,na,na,na,na,na,na,na,na,na
2nd innings,10.6,MJ Santner,MW Parkinson,TG Southee,4,4,0,na,na,na,na,na,na,na,na,na
2nd innings,11.1,TG Southee,PR Brown,MJ Santner,1,0,1,1,na,na,na,na,na,na,na,na
2nd innings,11.2,MJ Santner,PR Brown,TG Southee,2,2,0,na,na,na,na,na,na,na,na,na
2nd innings,11.3,MJ Santner,PR Brown,TG Southee,6,6,0,na,na,na,na,na,na,na,na,na
2nd innings,11.4,MJ Santner,PR Brown,TG Southee,1,0,1,na,na,1,na,na,na,na,na,na
2nd innings,11.5,MJ Santner,PR Brown,TG Southee,0,0,0,na,na,na,na,na,na,na,na,na
2nd innings,11.6,MJ Santner,PR Brown,TG Southee,1,1,0,na,na,na,na,na,na,na,na,na
2nd innings,11.7,TG Southee,PR Brown,MJ Santner,1,0,1,na,na,1,na,na,na,na,na,na
2nd innings,11.8,TG Southee,PR Brown,MJ Santner,1,0,1,na,na,1,na,na,na,na,na,na
2nd innings,11.9,TG Southee,PR Brown,MJ Santner,4,4,0,na,na,na,na,na,na,na,na,na
2nd innings,12.1,MJ Santner,MW Parkinson,TG Southee,6,6,0,na,na,na,na,na,na,na,na,na
2nd innings,12.2,MJ Santner,MW Parkinson,TG Southee,2,2,0,na,na,na,na,na,na,na,na,na
2nd innings,12.3,MJ Santner,MW Parkinson,TG Southee,4,4,0,na,na,na,na,na,na,na,na,na
2nd innings,12.4,MJ Santner,MW Parkinson,TG Southee,0,0,0,na,na,na,na,na,na,na,na,na
2nd innings,12.5,MJ Santner,MW Parkinson,TG Southee,0,0,0,na,na,na,na,na,lbw,na,na,TG Southee
2nd innings,12.6,MJ Santner,MW Parkinson,IS Sodhi,1,0,1,1,na,na,na,na,na,na,na,na
2nd innings,13.1,MJ Santner,SM Curran,IS Sodhi,1,1,0,na,na,na,na,na,na,na,na,na
2nd innings,13.2,IS Sodhi,SM Curran,MJ Santner,2,2,0,na,na,na,na,na,na,na,na,na
2nd innings,13.3,IS Sodhi,SM Curran,MJ Santner,1,1,0,na,na,na,na,na,na,na,na,na
2nd innings,13.4,MJ Santner,SM Curran,IS Sodhi,0,0,0,na,na,na,na,na,na,na,na,na
2nd innings,13.5,MJ Santner,SM Curran,IS Sodhi,1,0,1,1,na,na,na,na,na,na,na,na
2nd innings,13.6,IS Sodhi,SM Curran,MJ Santner,0,0,0,na,na,na,na,na,caught,SW Billings,na,MJ Santner
2nd innings,14.1,TA Boult,TK Curran,IS Sodhi,6,6,0,na,na,na,na,na,na,na,na,na
2nd innings,14.2,TA Boult,TK Curran,IS Sodhi,1,1,0,na,na,na,na,na,na,na,na,na
2nd innings,14.3,IS Sodhi,TK Curran,TA Boult,0,0,0,na,na,na,na,na,na,na,na,na
2nd innings,14.4,IS Sodhi,TK Curran,TA Boult,1,1,0,na,na,na,na,na,na,na,na,na
2nd innings,14.5,TA Boult,TK Curran,IS Sodhi,1,1,0,na,na,na,na,na,na,na,na,na
2nd innings,14.6,IS Sodhi,TK Curran,TA Boult,1,1,0,na,na,na,na,na,na,na,na,na
2nd innings,15.1,IS Sodhi,SM Curran,TA Boult,0,0,0,na,na,na,na,na,run out,na,na,IS Sodhi
2nd innings,15.2,BM Tickner,SM Curran,TA Boult,1,1,0,na,na,na,na,na,na,na,na,na
2nd innings,15.3,TA Boult,SM Curran,BM Tickner,1,1,0,na,na,na,na,na,na,na,na,na
2nd innings,15.4,BM Tickner,SM Curran,TA Boult,1,1,0,na,na,na,na,na,na,na,na,na
2nd innings,15.5,TA Boult,SM Curran,BM Tickner,2,2,0,na,na,na,na,na,na,na,na,na
2nd innings,15.6,TA Boult,SM Curran,BM Tickner,1,1,0,na,na,na,na,na,na,na,na,na
2nd innings,16.1,TA Boult,CJ Jordan,BM Tickner,0,0,0,na,na,na,na,na,na,na,na,na
2nd innings,16.2,TA Boult,CJ Jordan,BM Tickner,0,0,0,na,na,na,na,na,na,na,na,na
2nd innings,16.3,TA Boult,CJ Jordan,BM Tickner,1,1,0,na,na,na,na,na,na,na,na,na
2nd innings,16.4,BM Tickner,CJ Jordan,TA Boult,4,4,0,na,na,na,na,na,na,na,na,na
2nd innings,16.5,BM Tickner,CJ Jordan,TA Boult,0,0,0,na,na,na,na,na,bowled,na,na,TA Boult
