inngs,deliveries,non_striker,bowler,batsman,totalruns,batsman_runs,extra_runs,legbyes,byes,wides,noballs,penalty,wicket_kind,fielder1,fielder2,player_out
1st innings,0.1,SV Samson,TG Southee,KL Rahul,1,0,1,na,na,1,na,na,na,na,na,na
1st innings,0.2,SV Samson,TG Southee,KL Rahul,2,2,0,na,na,na,na,na,na,na,na,na
1st innings,0.3,SV Samson,TG Southee,KL Rahul,1,1,0,na,na,na,na,na,na,na,na,na
1st innings,0.4,KL Rahul,TG Southee,SV Samson,1,1,0,na,na,na,na,na,na,na,na,na
1st innings,0.5,SV Samson,TG Southee,KL Rahul,0,0,0,na,na,na,na,na,na,na,na,na
1st innings,0.6,SV Samson,TG Southee,KL Rahul,1,1,0,na,na,na,na,na,na,na,na,na
1st innings,0.7,KL Rahul,TG Southee,SV Samson,1,1,0,na,na,na,na,na,na,na,na,na
1st innings,1.1,KL Rahul,SC Kuggeleijn,SV Samson,6,6,0,na,na,na,na,na,na,na,na,na
1st innings,1.2,KL Rahul,SC Kuggeleijn,SV Samson,1,0,1,na,na,1,na,na,na,na,na,na
1st innings,1.3,KL Rahul,SC Kuggeleijn,SV Samson,0,0,0,na,na,na,na,na,na,na,na,na
1st innings,1.4,KL Rahul,SC Kuggeleijn,SV Samson,0,0,0,na,na,na,na,na,caught,MJ Santner,na,SV Samson
1st innings,1.5,V Kohli,SC Kuggeleijn,KL Rahul,0,0,0,na,na,na,na,na,na,na,na,na
1st innings,1.6,V Kohli,SC Kuggeleijn,KL Rahul,1,0,1,na,na,na,1,na,na,na,na,na
1st innings,1.7,V Kohli,SC Kuggeleijn,KL Rahul,1,0,1,na,na,1,na,na,na,na,na,na
1st innings,1.8,V Kohli,SC Kuggeleijn,KL Rahul,6,6,0,na,na,na,na,na,na,na,na,na
1st innings,1.9,V Kohli,SC Kuggeleijn,KL Rahul,0,0,0,na,na,na,na,na,na,na,na,na
1st innings,2.1,KL Rahul,MJ Santner,V Kohli,1,1,0,na,na,na,na,na,na,na,na,na
1st innings,2.2,V Kohli,MJ Santner,KL Rahul,1,1,0,na,na,na,na,na,na,na,na,na
1st innings,2.3,KL Rahul,MJ Santner,V Kohli,0,0,0,na,na,na,na,na,na,na,na,na
1st innings,2.4,KL Rahul,MJ Santner,V Kohli,1,1,0,na,na,na,na,na,na,na,na,na
1st innings,2.5,V Kohli,MJ Santner,KL Rahul,6,6,0,na,na,na,na,na,na,na,na,na
1st innings,2.6,V Kohli,MJ Santner,KL Rahul,4,4,0,na,na,na,na,na,na,na,na,na
1st innings,3.1,KL Rahul,TG Southee,V Kohli,0,0,0,na,na,na,na,na,na,na,na,na
1st innings,3.2,KL Rahul,TG Southee,V Kohli,1,1,0,na,na,na,na,na,na,na,na,na
1st innings,3.3,V Kohli,TG Southee,KL Rahul,2,2,0,na,na,na,na,na,na,na,na,na
1st innings,3.4,V Kohli,TG Southee,KL Rahul,1,1,0,na,na,na,na,na,na,na,na,na
1st innings,3.5,KL Rahul,TG Southee,V Kohli,1,0,1,1,na,na,na,na,na,na,na,na
1st innings,3.6,V Kohli,TG Southee,KL Rahul,0,0,0,na,na,na,na,na,na,na,na,na
1st innings,4.1,KL Rahul,HK Bennett,V Kohli,4,4,0,na,na,na,na,na,na,na,na,na
1st innings,4.2,KL Rahul,HK Bennett,V Kohli,4,4,0,na,na,na,na,na,na,na,na,na
1st innings,4.3,KL Rahul,HK Bennett,V Kohli,0,0,0,na,na,na,na,na,caught,MJ Santner,na,V Kohli
1st innings,4.4,KL Rahul,HK Bennett,SS Iyer,1,1,0,na,na,na,na,na,na,na,na,na
1st innings,4.5,SS Iyer,HK Bennett,KL Rahul,1,1,0,na,na,na,na,na,na,na,na,na
1st innings,4.6,KL Rahul,HK Bennett,SS Iyer,0,0,0,na,na,na,na,na,na,na,na,na
1st innings,5.1,SS Iyer,SC Kuggeleijn,KL Rahul,0,0,0,na,na,na,na,na,na,na,na,na
1st innings,5.2,SS Iyer,SC Kuggeleijn,KL Rahul,0,0,0,na,na,na,na,na,na,na,na,na
1st innings,5.3,SS Iyer,SC Kuggeleijn,KL Rahul,1,1,0,na,na,na,na,na,na,na,na,na
1st innings,5.4,KL Rahul,SC Kuggeleijn,SS Iyer,0,0,0,na,na,na,na,na,na,na,na,na
1st innings,5.5,KL Rahul,SC Kuggeleijn,SS Iyer,0,0,0,na,na,na,na,na,na,na,na,na
1st innings,5.6,KL Rahul,SC Kuggeleijn,SS Iyer,0,0,0,na,na,na,na,na,na,na,na,na
1st innings,6.1,SS Iyer,IS Sodhi,KL Rahul,1,1,0,na,na,na,na,na,na,na,na,na
1st innings,6.2,KL Rahul,IS Sodhi,SS Iyer,0,0,0,na,na,na,na,na,na,na,na,na
1st innings,6.3,KL Rahul,IS Sodhi,SS Iyer,0,0,0,na,na,na,na,na,caught,TL Seifert,na,SS Iyer
1st innings,6.4,KL Rahul,IS Sodhi,S Dube,1,1,0,na,na,na,na,na,na,na,na,na
1st innings,6.5,S Dube,IS Sodhi,KL Rahul,2,2,0,na,na,na,na,na,na,na,na,na
1st innings,6.6,S Dube,IS Sodhi,KL Rahul,0,0,0,na,na,na,na,na,na,na,na,na
1st innings,7.1,KL Rahul,SC Kuggeleijn,S Dube,1,1,0,na,na,na,na,na,na,na,na,na
1st innings,7.2,S Dube,SC Kuggeleijn,KL Rahul,4,4,0,na,na,na,na,na,na,na,na,na
1st innings,7.3,S Dube,SC Kuggeleijn,KL Rahul,1,1,0,na,na,na,na,na,na,na,na,na
1st innings,7.4,KL Rahul,SC Kuggeleijn,S Dube,4,4,0,na,na,na,na,na,na,na,na,na
1st innings,7.5,KL Rahul,SC Kuggeleijn,S Dube,0,0,0,na,na,na,na,na,na,na,na,na
1st innings,7.6,KL Rahul,SC Kuggeleijn,S Dube,4,4,0,na,na,na,na,na,na,na,na,na
1st innings,8.1,S Dube,IS Sodhi,KL Rahul,4,4,0,na,na,na,na,na,na,na,na,na
1st innings,8.2,S Dube,IS Sodhi,KL Rahul,1,1,0,na,na,na,na,na,na,na,na,na
1st innings,8.3,KL Rahul,IS Sodhi,S Dube,1,1,0,na,na,na,na,na,na,na,na,na
1st innings,8.4,S Dube,IS Sodhi,KL Rahul,0,0,0,na,na,na,na,na,caught,MJ Santner,na,KL Rahul
1st innings,8.5,S Dube,IS Sodhi,MK Pandey,2,2,0,na,na,na,na,na,na,na,na,na
1st innings,8.6,S Dube,IS Sodhi,MK Pandey,1,1,0,na,na,na,na,na,na,na,na,na
1st innings,9.1,S Dube,MJ Santner,MK Pandey,1,1,0,na,na,na,na,na,na,na,na,na
1st innings,9.2,MK Pandey,MJ Santner,S Dube,0,0,0,na,na,na,na,na,na,na,na,na
1st innings,9.3,MK Pandey,MJ Santner,S Dube,1,1,0,na,na,na,na,na,na,na,na,na
1st innings,9.4,S Dube,MJ Santner,MK Pandey,0,0,0,na,na,na,na,na,na,na,na,na
1st innings,9.5,S Dube,MJ Santner,MK Pandey,0,0,0,na,na,na,na,na,na,na,na,na
1st innings,9.6,S Dube,MJ Santner,MK Pandey,3,3,0,na,na,na,na,na,na,na,na,na
1st innings,10.1,S Dube,IS Sodhi,MK Pandey,1,1,0,na,na,na,na,na,na,na,na,na
1st innings,10.2,MK Pandey,IS Sodhi,S Dube,0,0,0,na,na,na,na,na,caught,TC Bruce,na,S Dube
1st innings,10.3,Washington Sundar,IS Sodhi,MK Pandey,2,2,0,na,na,na,na,na,na,na,na,na
1st innings,10.4,Washington Sundar,IS Sodhi,MK Pandey,0,0,0,na,na,na,na,na,na,na,na,na
1st innings,10.5,Washington Sundar,IS Sodhi,MK Pandey,1,1,0,na,na,na,na,na,na,na,na,na
1st innings,10.6,MK Pandey,IS Sodhi,Washington Sundar,0,0,0,na,na,na,na,na,na,na,na,na
1st innings,11.1,Washington Sundar,MJ Santner,MK Pandey,1,1,0,na,na,na,na,na,na,na,na,na
1st innings,11.2,MK Pandey,MJ Santner,Washington Sundar,0,0,0,na,na,na,na,na,na,na,na,na
1st innings,11.3,MK Pandey,MJ Santner,Washington Sundar,0,0,0,na,na,na,na,na,bowled,na,na,Washington Sundar
1st innings,11.4,MK Pandey,MJ Santner,SN Thakur,0,0,0,na,na,na,na,na,na,na,na,na
1st innings,11.5,MK Pandey,MJ Santner,SN Thakur,0,0,0,na,na,na,na,na,na,na,na,na
1st innings,11.6,MK Pandey,MJ Santner,SN Thakur,0,0,0,na,na,na,na,na,na,na,na,na
1st innings,12.1,SN Thakur,IS Sodhi,MK Pandey,1,1,0,na,na,na,na,na,na,na,na,na
1st innings,12.2,MK Pandey,IS Sodhi,SN Thakur,0,0,0,na,na,na,na,na,na,na,na,na
1st innings,12.3,MK Pandey,IS Sodhi,SN Thakur,1,1,0,na,na,na,na,na,na,na,na,na
1st innings,12.4,SN Thakur,IS Sodhi,MK Pandey,1,1,0,na,na,na,na,na,na,na,na,na
1st innings,12.5,MK Pandey,IS Sodhi,SN Thakur,2,2,0,na,na,na,na,na,na,na,na,na
1st innings,12.6,MK Pandey,IS Sodhi,SN Thakur,4,4,0,na,na,na,na,na,na,na,na,na
1st innings,13.1,SN Thakur,MJ Santner,MK Pandey,3,3,0,na,na,na,na,na,na,na,na,na
1st innings,13.2,MK Pandey,MJ Santner,SN Thakur,1,1,0,na,na,na,na,na,na,na,na,na
1st innings,13.3,SN Thakur,MJ Santner,MK Pandey,0,0,0,na,na,na,na,na,na,na,na,na
1st innings,13.4,SN Thakur,MJ Santner,MK Pandey,0,0,0,na,na,na,na,na,na,na,na,na
1st innings,13.5,SN Thakur,MJ Santner,MK Pandey,1,1,0,na,na,na,na,na,na,na,na,na
1st innings,13.6,MK Pandey,MJ Santner,SN Thakur,2,2,0,na,na,na,na,na,na,na,na,na
1st innings,14.1,SN Thakur,HK Bennett,MK Pandey,1,1,0,na,na,na,na,na,na,na,na,na
1st innings,14.2,MK Pandey,HK Bennett,SN Thakur,1,1,0,na,na,na,na,na,na,na,na,na
1st innings,14.3,SN Thakur,HK Bennett,MK Pandey,2,2,0,na,na,na,na,na,na,na,na,na
1st innings,14.4,SN Thakur,HK Bennett,MK Pandey,0,0,0,na,na,na,na,na,na,na,na,na
1st innings,14.5,SN Thakur,HK Bennett,MK Pandey,2,2,0,na,na,na,na,na,na,na,na,na
1st innings,14.6,SN Thakur,HK Bennett,MK Pandey,1,0,1,na,na,1,na,na,na,na,na,na
1st innings,14.7,SN Thakur,HK Bennett,MK Pandey,1,1,0,na,na,na,na,na,na,na,na,na
1st innings,15.1,SN Thakur,TG Southee,MK Pandey,1,1,0,na,na,na,na,na,na,na,na,na
1st innings,15.2,MK Pandey,TG Southee,SN Thakur,1,0,1,1,na,na,na,na,na,na,na,na
1st innings,15.3,SN Thakur,TG Southee,MK Pandey,4,4,0,na,na,na,na,na,na,na,na,na
1st innings,15.4,SN Thakur,TG Southee,MK Pandey,2,2,0,na,na,na,na,na,na,na,na,na
1st innings,15.5,SN Thakur,TG Southee,MK Pandey,1,0,1,na,na,1,na,na,na,na,na,na
1st innings,15.6,SN Thakur,TG Southee,MK Pandey,1,0,1,1,na,na,na,na,na,na,na,na
1st innings,15.7,MK Pandey,TG Southee,SN Thakur,3,3,0,na,na,na,na,na,na,na,na,na
1st innings,16.1,MK Pandey,HK Bennett,SN Thakur,4,4,0,na,na,na,na,na,na,na,na,na
1st innings,16.2,MK Pandey,HK Bennett,SN Thakur,2,2,0,na,na,na,na,na,na,na,na,na
1st innings,16.3,MK Pandey,HK Bennett,SN Thakur,0,0,0,na,na,na,na,na,caught,TG Southee,na,SN Thakur
1st innings,16.4,YS Chahal,HK Bennett,MK Pandey,4,4,0,na,na,na,na,na,na,na,na,na
1st innings,16.5,YS Chahal,HK Bennett,MK Pandey,2,2,0,na,na,na,na,na,na,na,na,na
1st innings,16.6,YS Chahal,HK Bennett,MK Pandey,1,1,0,na,na,na,na,na,na,na,na,na
1st innings,17.1,YS Chahal,TG Southee,MK Pandey,1,1,0,na,na,na,na,na,na,na,na,na
1st innings,17.2,MK Pandey,TG Southee,YS Chahal,1,1,0,na,na,na,na,na,na,na,na,na
1st innings,17.3,YS Chahal,TG Southee,MK Pandey,2,2,0,na,na,na,na,na,na,na,na,na
1st innings,17.4,YS Chahal,TG Southee,MK Pandey,1,1,0,na,na,na,na,na,na,na,na,na
1st innings,17.5,MK Pandey,TG Southee,YS Chahal,0,0,0,na,na,na,na,na,caught,TL Seifert,na,YS Chahal
1st innings,17.6,MK Pandey,TG Southee,NA Saini,1,1,0,na,na,na,na,na,na,na,na,na
1st innings,18.1,MK Pandey,HK Bennett,NA Saini,0,0,0,na,na,na,na,na,na,na,na,na
1st innings,18.2,MK Pandey,HK Bennett,NA Saini,0,0,0,na,na,na,na,na,na,na,na,na
1st innings,18.3,MK Pandey,HK Bennett,NA Saini,4,4,0,na,na,na,na,na,na,na,na,na
1st innings,18.4,MK Pandey,HK Bennett,NA Saini,0,0,0,na,na,na,na,na,na,na,na,na
1st innings,18.5,MK Pandey,HK Bennett,NA Saini,4,4,0,na,na,na,na,na,na,na,na,na
1st innings,18.6,MK Pandey,HK Bennett,NA Saini,2,2,0,na,na,na,na,na,na,na,na,na
1st innings,19.1,NA Saini,SC Kuggeleijn,MK Pandey,4,4,0,na,na,na,na,na,na,na,na,na
1st innings,19.2,NA Saini,SC Kuggeleijn,MK Pandey,1,1,0,na,na,na,na,na,na,na,na,na
1st innings,19.3,MK Pandey,SC Kuggeleijn,NA Saini,1,0,1,na,1,na,na,na,na,na,na,na
1st innings,19.4,NA Saini,SC Kuggeleijn,MK Pandey,1,0,1,na,na,1,na,na,na,na,na,na
1st innings,19.5,NA Saini,SC Kuggeleijn,MK Pandey,2,2,0,na,na,na,na,na,na,na,na,na
1st innings,19.6,NA Saini,SC Kuggeleijn,MK Pandey,1,1,0,na,na,na,na,na,na,na,na,na
1st innings,19.7,MK Pandey,SC Kuggeleijn,NA Saini,1,0,1,na,1,na,na,na,na,na,na,na
2nd innings,0.1,C Munro,SN Thakur,MJ Guptill,1,1,0,na,na,na,na,na,na,na,na,na
2nd innings,0.2,MJ Guptill,SN Thakur,C Munro,0,0,0,na,na,na,na,na,na,na,na,na
2nd innings,0.3,MJ Guptill,SN Thakur,C Munro,1,1,0,na,na,na,na,na,na,na,na,na
2nd innings,0.4,C Munro,SN Thakur,MJ Guptill,0,0,0,na,na,na,na,na,na,na,na,na
2nd innings,0.5,C Munro,SN Thakur,MJ Guptill,1,1,0,na,na,na,na,na,na,na,na,na
2nd innings,0.6,MJ Guptill,SN Thakur,C Munro,1,0,1,1,na,na,na,na,na,na,na,na
2nd innings,1.1,MJ Guptill,NA Saini,C Munro,0,0,0,na,na,na,na,na,na,na,na,na
2nd innings,1.2,MJ Guptill,NA Saini,C Munro,0,0,0,na,na,na,na,na,na,na,na,na
2nd innings,1.3,MJ Guptill,NA Saini,C Munro,4,4,0,na,na,na,na,na,na,na,na,na
2nd innings,1.4,MJ Guptill,NA Saini,C Munro,0,0,0,na,na,na,na,na,na,na,na,na
2nd innings,1.5,MJ Guptill,NA Saini,C Munro,0,0,0,na,na,na,na,na,na,na,na,na
2nd innings,1.6,MJ Guptill,NA Saini,C Munro,1,1,0,na,na,na,na,na,na,na,na,na
2nd innings,2.1,MJ Guptill,JJ Bumrah,C Munro,0,0,0,na,na,na,na,na,na,na,na,na
2nd innings,2.2,MJ Guptill,JJ Bumrah,C Munro,1,1,0,na,na,na,na,na,na,na,na,na
2nd innings,2.3,C Munro,JJ Bumrah,MJ Guptill,1,0,1,1,na,na,na,na,na,na,na,na
2nd innings,2.4,MJ Guptill,JJ Bumrah,C Munro,0,0,0,na,na,na,na,na,na,na,na,na
2nd innings,2.5,MJ Guptill,JJ Bumrah,C Munro,1,1,0,na,na,na,na,na,na,na,na,na
2nd innings,2.6,C Munro,JJ Bumrah,MJ Guptill,0,0,0,na,na,na,na,na,na,na,na,na
2nd innings,3.1,MJ Guptill,NA Saini,C Munro,0,0,0,na,na,na,na,na,na,na,na,na
2nd innings,3.2,MJ Guptill,NA Saini,C Munro,0,0,0,na,na,na,na,na,na,na,na,na
2nd innings,3.3,MJ Guptill,NA Saini,C Munro,6,6,0,na,na,na,na,na,na,na,na,na
2nd innings,3.4,MJ Guptill,NA Saini,C Munro,1,1,0,na,na,na,na,na,na,na,na,na
2nd innings,3.5,C Munro,NA Saini,MJ Guptill,0,0,0,na,na,na,na,na,na,na,na,na
2nd innings,3.6,C Munro,NA Saini,MJ Guptill,2,2,0,na,na,na,na,na,na,na,na,na
2nd innings,4.1,MJ Guptill,JJ Bumrah,C Munro,1,1,0,na,na,na,na,na,na,na,na,na
2nd innings,4.2,C Munro,JJ Bumrah,MJ Guptill,0,0,0,na,na,na,na,na,caught,KL Rahul,na,MJ Guptill
2nd innings,4.3,TL Seifert,JJ Bumrah,C Munro,0,0,0,na,na,na,na,na,na,na,na,na
2nd innings,4.4,TL Seifert,JJ Bumrah,C Munro,0,0,0,na,na,na,na,na,na,na,na,na
2nd innings,4.5,TL Seifert,JJ Bumrah,C Munro,1,1,0,na,na,na,na,na,na,na,na,na
2nd innings,4.6,C Munro,JJ Bumrah,TL Seifert,0,0,0,na,na,na,na,na,na,na,na,na
2nd innings,5.1,TL Seifert,SN Thakur,C Munro,6,6,0,na,na,na,na,na,na,na,na,na
2nd innings,5.2,TL Seifert,SN Thakur,C Munro,4,4,0,na,na,na,na,na,na,na,na,na
2nd innings,5.3,TL Seifert,SN Thakur,C Munro,4,4,0,na,na,na,na,na,na,na,na,na
2nd innings,5.4,TL Seifert,SN Thakur,C Munro,1,0,1,na,na,1,na,na,na,na,na,na
2nd innings,5.5,TL Seifert,SN Thakur,C Munro,1,1,0,na,na,na,na,na,na,na,na,na
2nd innings,5.6,C Munro,SN Thakur,TL Seifert,0,0,0,na,na,na,na,na,na,na,na,na
2nd innings,5.7,C Munro,SN Thakur,TL Seifert,0,0,0,na,na,na,na,na,na,na,na,na
2nd innings,6.1,TL Seifert,YS Chahal,C Munro,0,0,0,na,na,na,na,na,na,na,na,na
2nd innings,6.2,TL Seifert,YS Chahal,C Munro,1,1,0,na,na,na,na,na,na,na,na,na
2nd innings,6.3,C Munro,YS Chahal,TL Seifert,1,1,0,na,na,na,na,na,na,na,na,na
2nd innings,6.4,TL Seifert,YS Chahal,C Munro,0,0,0,na,na,na,na,na,na,na,na,na
2nd innings,6.5,TL Seifert,YS Chahal,C Munro,1,1,0,na,na,na,na,na,na,na,na,na
2nd innings,6.6,C Munro,YS Chahal,TL Seifert,1,1,0,na,na,na,na,na,na,na,na,na
2nd innings,7.1,C Munro,Washington Sundar,TL Seifert,4,4,0,na,na,na,na,na,na,na,na,na
2nd innings,7.2,C Munro,Washington Sundar,TL Seifert,1,1,0,na,na,na,na,na,na,na,na,na
2nd innings,7.3,TL Seifert,Washington Sundar,C Munro,0,0,0,na,na,na,na,na,na,na,na,na
2nd innings,7.4,TL Seifert,Washington Sundar,C Munro,6,6,0,na,na,na,na,na,na,na,na,na
2nd innings,7.5,TL Seifert,Washington Sundar,C Munro,1,1,0,na,na,na,na,na,na,na,na,na
2nd innings,7.6,C Munro,Washington Sundar,TL Seifert,1,1,0,na,na,na,na,na,na,na,na,na
2nd innings,8.1,C Munro,YS Chahal,TL Seifert,1,1,0,na,na,na,na,na,na,na,na,na
2nd innings,8.2,TL Seifert,YS Chahal,C Munro,2,2,0,na,na,na,na,na,na,na,na,na
2nd innings,8.3,TL Seifert,YS Chahal,C Munro,0,0,0,na,na,na,na,na,na,na,na,na
2nd innings,8.4,TL Seifert,YS Chahal,C Munro,2,2,0,na,na,na,na,na,na,na,na,na
2nd innings,8.5,TL Seifert,YS Chahal,C Munro,1,1,0,na,na,na,na,na,na,na,na,na
2nd innings,8.6,C Munro,YS Chahal,TL Seifert,6,6,0,na,na,na,na,na,na,na,na,na
2nd innings,9.1,TL Seifert,Washington Sundar,C Munro,0,0,0,na,na,na,na,na,na,na,na,na
2nd innings,9.2,TL Seifert,Washington Sundar,C Munro,4,4,0,na,na,na,na,na,na,na,na,na
2nd innings,9.3,TL Seifert,Washington Sundar,C Munro,4,4,0,na,na,na,na,na,na,na,na,na
2nd innings,9.4,TL Seifert,Washington Sundar,C Munro,2,2,0,na,na,na,na,na,na,na,na,na
2nd innings,9.5,TL Seifert,Washington Sundar,C Munro,0,0,0,na,na,na,na,na,na,na,na,na
2nd innings,9.6,TL Seifert,Washington Sundar,C Munro,1,1,0,na,na,na,na,na,na,na,na,na
2nd innings,10.1,TL Seifert,NA Saini,C Munro,1,0,1,na,na,1,na,na,na,na,na,na
2nd innings,10.2,TL Seifert,NA Saini,C Munro,1,1,0,na,na,na,na,na,na,na,na,na
2nd innings,10.3,C Munro,NA Saini,TL Seifert,4,4,0,na,na,na,na,na,na,na,na,na
2nd innings,10.4,C Munro,NA Saini,TL Seifert,2,0,2,2,na,na,na,na,na,na,na,na
2nd innings,10.5,C Munro,NA Saini,TL Seifert,1,1,0,na,na,na,na,na,na,na,na,na
2nd innings,10.6,TL Seifert,NA Saini,C Munro,4,4,0,na,na,na,na,na,na,na,na,na
2nd innings,10.7,TL Seifert,NA Saini,C Munro,0,0,0,na,na,na,na,na,na,na,na,na
2nd innings,11.1,C Munro,S Dube,TL Seifert,1,1,0,na,na,na,na,na,na,na,na,na
2nd innings,11.2,TL Seifert,S Dube,C Munro,1,1,0,na,na,na,na,na,na,na,na,na
2nd innings,11.3,C Munro,S Dube,TL Seifert,1,0,1,1,na,na,na,na,na,na,na,na
2nd innings,11.4,TL Seifert,S Dube,C Munro,1,1,0,na,na,na,na,na,run out,na,na,C Munro
2nd innings,11.5,TL Seifert,S Dube,TC Bruce,0,0,0,na,na,na,na,na,na,na,na,na
2nd innings,11.6,TL Seifert,S Dube,TC Bruce,1,0,1,1,na,na,na,na,na,na,na,na
2nd innings,12.1,TL Seifert,YS Chahal,TC Bruce,0,0,0,na,na,na,na,na,bowled,na,na,TC Bruce
2nd innings,12.2,TL Seifert,YS Chahal,LRPL Taylor,1,1,0,na,na,na,na,na,na,na,na,na
2nd innings,12.3,LRPL Taylor,YS Chahal,TL Seifert,1,1,0,na,na,na,na,na,na,na,na,na
2nd innings,12.4,TL Seifert,YS Chahal,LRPL Taylor,1,1,0,na,na,na,na,na,na,na,na,na
2nd innings,12.5,LRPL Taylor,YS Chahal,TL Seifert,1,1,0,na,na,na,na,na,na,na,na,na
2nd innings,12.6,TL Seifert,YS Chahal,LRPL Taylor,1,1,0,na,na,na,na,na,na,na,na,na
2nd innings,13.1,TL Seifert,S Dube,LRPL Taylor,1,1,0,na,na,na,na,na,na,na,na,na
2nd innings,13.2,LRPL Taylor,S Dube,TL Seifert,1,1,0,na,na,na,na,na,na,na,na,na
2nd innings,13.3,TL Seifert,S Dube,LRPL Taylor,1,1,0,na,na,na,na,na,na,na,na,na
2nd innings,13.4,LRPL Taylor,S Dube,TL Seifert,1,1,0,na,na,na,na,na,na,na,na,na
2nd innings,13.5,TL Seifert,S Dube,LRPL Taylor,1,1,0,na,na,na,na,na,na,na,na,na
2nd innings,13.6,LRPL Taylor,S Dube,TL Seifert,6,6,0,na,na,na,na,na,na,na,na,na
2nd innings,14.1,TL Seifert,YS Chahal,LRPL Taylor,1,1,0,na,na,na,na,na,na,na,na,na
2nd innings,14.2,LRPL Taylor,YS Chahal,TL Seifert,6,6,0,na,na,na,na,na,na,na,na,na
2nd innings,14.3,LRPL Taylor,YS Chahal,TL Seifert,1,1,0,na,na,na,na,na,na,na,na,na
2nd innings,14.4,TL Seifert,YS Chahal,LRPL Taylor,2,2,0,na,na,na,na,na,na,na,na,na
2nd innings,14.5,TL Seifert,YS Chahal,LRPL Taylor,2,2,0,na,na,na,na,na,na,na,na,na
2nd innings,14.6,TL Seifert,YS Chahal,LRPL Taylor,1,0,1,na,na,1,na,na,na,na,na,na
2nd innings,14.7,TL Seifert,YS Chahal,LRPL Taylor,4,4,0,na,na,na,na,na,na,na,na,na
2nd innings,15.1,LRPL Taylor,JJ Bumrah,TL Seifert,1,1,0,na,na,na,na,na,na,na,na,na
2nd innings,15.2,TL Seifert,JJ Bumrah,LRPL Taylor,1,0,1,1,na,na,na,na,na,na,na,na
2nd innings,15.3,LRPL Taylor,JJ Bumrah,TL Seifert,2,2,0,na,na,na,na,na,na,na,na,na
2nd innings,15.4,LRPL Taylor,JJ Bumrah,TL Seifert,4,4,0,na,na,na,na,na,na,na,na,na
2nd innings,15.5,LRPL Taylor,JJ Bumrah,TL Seifert,1,1,0,na,na,na,na,na,na,na,na,na
2nd innings,15.6,TL Seifert,JJ Bumrah,LRPL Taylor,1,1,0,na,na,na,na,na,na,na,na,na
2nd innings,16.1,TL Seifert,SN Thakur,LRPL Taylor,4,4,0,na,na,na,na,na,na,na,na,na
2nd innings,16.2,TL Seifert,SN Thakur,LRPL Taylor,1,1,0,na,na,na,na,na,na,na,na,na
2nd innings,16.3,LRPL Taylor,SN Thakur,TL Seifert,1,1,0,na,na,na,na,na,na,na,na,na
2nd innings,16.4,TL Seifert,SN Thakur,LRPL Taylor,1,1,0,na,na,na,na,na,na,na,na,na
2nd innings,16.5,LRPL Taylor,SN Thakur,TL Seifert,0,0,0,na,na,na,na,na,na,na,na,na
2nd innings,16.6,LRPL Taylor,SN Thakur,TL Seifert,1,1,0,na,na,na,na,na,na,na,na,na
2nd innings,17.1,LRPL Taylor,JJ Bumrah,TL Seifert,0,0,0,na,na,na,na,na,na,na,na,na
2nd innings,17.2,LRPL Taylor,JJ Bumrah,TL Seifert,1,1,0,na,na,na,na,na,na,na,na,na
2nd innings,17.3,TL Seifert,JJ Bumrah,LRPL Taylor,1,1,0,na,na,na,na,na,na,na,na,na
2nd innings,17.4,LRPL Taylor,JJ Bumrah,TL Seifert,4,4,0,na,na,na,na,na,na,na,na,na
2nd innings,17.5,LRPL Taylor,JJ Bumrah,TL Seifert,0,0,0,na,na,na,na,na,na,na,na,na
2nd innings,17.6,LRPL Taylor,JJ Bumrah,TL Seifert,1,1,0,na,na,na,na,na,na,na,na,na
2nd innings,18.1,LRPL Taylor,NA Saini,TL Seifert,0,0,0,na,na,na,na,na,na,na,na,na
2nd innings,18.2,LRPL Taylor,NA Saini,TL Seifert,2,2,0,na,na,na,na,na,na,na,na,na
2nd innings,18.3,LRPL Taylor,NA Saini,TL Seifert,0,0,0,na,na,na,na,na,na,na,na,na
2nd innings,18.4,LRPL Taylor,NA Saini,TL Seifert,0,0,0,na,na,na,na,na,na,na,na,na
2nd innings,18.5,LRPL Taylor,NA Saini,TL Seifert,1,1,0,na,na,na,na,na,na,na,na,na
2nd innings,18.6,TL Seifert,NA Saini,LRPL Taylor,1,1,0,na,na,na,na,na,na,na,na,na
2nd innings,19.1,TL Seifert,SN Thakur,LRPL Taylor,0,0,0,na,na,na,na,na,caught,SS Iyer,na,LRPL Taylor
2nd innings,19.2,TL Seifert,SN Thakur,DJ Mitchell,4,4,0,na,na,na,na,na,na,na,na,na
2nd innings,19.3,TL Seifert,SN Thakur,DJ Mitchell,0,0,0,na,na,na,na,na,run out,na,na,TL Seifert
2nd innings,19.4,DJ Mitchell,SN Thakur,MJ Santner,1,1,0,na,na,na,na,na,na,na,na,na
2nd innings,19.5,MJ Santner,SN Thakur,DJ Mitchell,0,0,0,na,na,na,na,na,caught,S Dube,na,DJ Mitchell
2nd innings,19.6,SC Kuggeleijn,SN Thakur,MJ Santner,1,1,0,na,na,na,na,na,run out,na,na,MJ Santner
