inngs,deliveries,non_striker,bowler,batsman,totalruns,batsman_runs,extra_runs,legbyes,byes,wides,noballs,penalty,wicket_kind,fielder1,fielder2,player_out
1st innings,0.1,C Munro,JJ Bumrah,MJ Guptill,0,0,0,na,na,na,na,na,na,na,na,na
1st innings,0.2,C Munro,JJ Bumrah,MJ Guptill,4,4,0,na,na,na,na,na,na,na,na,na
1st innings,0.3,C Munro,JJ Bumrah,MJ Guptill,1,1,0,na,na,na,na,na,na,na,na,na
1st innings,0.4,MJ Guptill,JJ Bumrah,C Munro,1,0,1,na,na,1,na,na,na,na,na,na
1st innings,0.5,MJ Guptill,JJ Bumrah,C Munro,0,0,0,na,na,na,na,na,na,na,na,na
1st innings,0.6,MJ Guptill,JJ Bumrah,C Munro,1,1,0,na,na,na,na,na,na,na,na,na
1st innings,0.7,C Munro,JJ Bumrah,MJ Guptill,0,0,0,na,na,na,na,na,na,na,na,na
1st innings,1.1,MJ Guptill,SN Thakur,C Munro,1,1,0,na,na,na,na,na,na,na,na,na
1st innings,1.2,C Munro,SN Thakur,MJ Guptill,4,4,0,na,na,na,na,na,na,na,na,na
1st innings,1.3,C Munro,SN Thakur,MJ Guptill,1,1,0,na,na,na,na,na,na,na,na,na
1st innings,1.4,MJ Guptill,SN Thakur,C Munro,0,0,0,na,na,na,na,na,na,na,na,na
1st innings,1.5,MJ Guptill,SN Thakur,C Munro,0,0,0,na,na,na,na,na,na,na,na,na
1st innings,1.6,MJ Guptill,SN Thakur,C Munro,6,6,0,na,na,na,na,na,na,na,na,na
1st innings,2.1,C Munro,Mohammed Shami,MJ Guptill,0,0,0,na,na,na,na,na,na,na,na,na
1st innings,2.2,C Munro,Mohammed Shami,MJ Guptill,1,0,1,1,na,na,na,na,na,na,na,na
1st innings,2.3,MJ Guptill,Mohammed Shami,C Munro,0,0,0,na,na,na,na,na,na,na,na,na
1st innings,2.4,MJ Guptill,Mohammed Shami,C Munro,1,0,1,na,na,1,na,na,na,na,na,na
1st innings,2.5,MJ Guptill,Mohammed Shami,C Munro,4,4,0,na,na,na,na,na,na,na,na,na
1st innings,2.6,MJ Guptill,Mohammed Shami,C Munro,0,0,0,na,na,na,na,na,na,na,na,na
1st innings,2.7,MJ Guptill,Mohammed Shami,C Munro,1,1,0,na,na,na,na,na,na,na,na,na
1st innings,3.1,MJ Guptill,SN Thakur,C Munro,2,2,0,na,na,na,na,na,na,na,na,na
1st innings,3.2,MJ Guptill,SN Thakur,C Munro,2,2,0,na,na,na,na,na,na,na,na,na
1st innings,3.3,MJ Guptill,SN Thakur,C Munro,4,4,0,na,na,na,na,na,na,na,na,na
1st innings,3.4,MJ Guptill,SN Thakur,C Munro,6,6,0,na,na,na,na,na,na,na,na,na
1st innings,3.5,MJ Guptill,SN Thakur,C Munro,0,0,0,na,na,na,na,na,na,na,na,na
1st innings,3.6,MJ Guptill,SN Thakur,C Munro,4,4,0,na,na,na,na,na,na,na,na,na
1st innings,4.1,C Munro,JJ Bumrah,MJ Guptill,4,4,0,na,na,na,na,na,na,na,na,na
1st innings,4.2,C Munro,JJ Bumrah,MJ Guptill,1,0,1,na,na,1,na,na,na,na,na,na
1st innings,4.3,C Munro,JJ Bumrah,MJ Guptill,0,0,0,na,na,na,na,na,na,na,na,na
1st innings,4.4,C Munro,JJ Bumrah,MJ Guptill,1,1,0,na,na,na,na,na,na,na,na,na
1st innings,4.5,MJ Guptill,JJ Bumrah,C Munro,0,0,0,na,na,na,na,na,na,na,na,na
1st innings,4.6,MJ Guptill,JJ Bumrah,C Munro,0,0,0,na,na,na,na,na,na,na,na,na
1st innings,4.7,MJ Guptill,JJ Bumrah,C Munro,2,2,0,na,na,na,na,na,na,na,na,na
1st innings,5.1,C Munro,Mohammed Shami,MJ Guptill,4,4,0,na,na,na,na,na,na,na,na,na
1st innings,5.2,C Munro,Mohammed Shami,MJ Guptill,1,1,0,na,na,na,na,na,na,na,na,na
1st innings,5.3,MJ Guptill,Mohammed Shami,C Munro,0,0,0,na,na,na,na,na,na,na,na,na
1st innings,5.4,MJ Guptill,Mohammed Shami,C Munro,1,0,1,na,na,1,na,na,na,na,na,na
1st innings,5.5,MJ Guptill,Mohammed Shami,C Munro,1,1,0,na,na,na,na,na,na,na,na,na
1st innings,5.6,C Munro,Mohammed Shami,MJ Guptill,1,0,1,na,na,1,na,na,na,na,na,na
1st innings,5.7,C Munro,Mohammed Shami,MJ Guptill,2,2,0,na,na,na,na,na,na,na,na,na
1st innings,5.8,C Munro,Mohammed Shami,MJ Guptill,6,6,0,na,na,na,na,na,na,na,na,na
1st innings,6.1,MJ Guptill,YS Chahal,C Munro,1,1,0,na,na,na,na,na,na,na,na,na
1st innings,6.2,C Munro,YS Chahal,MJ Guptill,1,1,0,na,na,na,na,na,na,na,na,na
1st innings,6.3,MJ Guptill,YS Chahal,C Munro,2,2,0,na,na,na,na,na,na,na,na,na
1st innings,6.4,MJ Guptill,YS Chahal,C Munro,0,0,0,na,na,na,na,na,na,na,na,na
1st innings,6.5,MJ Guptill,YS Chahal,C Munro,1,1,0,na,na,na,na,na,na,na,na,na
1st innings,6.6,C Munro,YS Chahal,MJ Guptill,0,0,0,na,na,na,na,na,na,na,na,na
1st innings,7.1,MJ Guptill,S Dube,C Munro,4,4,0,na,na,na,na,na,na,na,na,na
1st innings,7.2,MJ Guptill,S Dube,C Munro,1,1,0,na,na,na,na,na,na,na,na,na
1st innings,7.3,C Munro,S Dube,MJ Guptill,1,1,0,na,na,na,na,na,na,na,na,na
1st innings,7.4,MJ Guptill,S Dube,C Munro,1,1,0,na,na,na,na,na,na,na,na,na
1st innings,7.5,C Munro,S Dube,MJ Guptill,0,0,0,na,na,na,na,na,caught,RG Sharma,na,MJ Guptill
1st innings,7.6,KS Williamson,S Dube,C Munro,1,1,0,na,na,na,na,na,na,na,na,na
1st innings,8.1,KS Williamson,YS Chahal,C Munro,1,1,0,na,na,na,na,na,na,na,na,na
1st innings,8.2,C Munro,YS Chahal,KS Williamson,0,0,0,na,na,na,na,na,na,na,na,na
1st innings,8.3,C Munro,YS Chahal,KS Williamson,0,0,0,na,na,na,na,na,na,na,na,na
1st innings,8.4,C Munro,YS Chahal,KS Williamson,0,0,0,na,na,na,na,na,na,na,na,na
1st innings,8.5,C Munro,YS Chahal,KS Williamson,1,1,0,na,na,na,na,na,na,na,na,na
1st innings,8.6,KS Williamson,YS Chahal,C Munro,1,1,0,na,na,na,na,na,na,na,na,na
1st innings,9.1,KS Williamson,S Dube,C Munro,0,0,0,na,na,na,na,na,na,na,na,na
1st innings,9.2,KS Williamson,S Dube,C Munro,0,0,0,na,na,na,na,na,na,na,na,na
1st innings,9.3,KS Williamson,S Dube,C Munro,0,0,0,na,na,na,na,na,na,na,na,na
1st innings,9.4,KS Williamson,S Dube,C Munro,1,1,0,na,na,na,na,na,na,na,na,na
1st innings,9.5,C Munro,S Dube,KS Williamson,0,0,0,na,na,na,na,na,na,na,na,na
1st innings,9.6,C Munro,S Dube,KS Williamson,6,6,0,na,na,na,na,na,na,na,na,na
1st innings,10.1,KS Williamson,YS Chahal,C Munro,4,4,0,na,na,na,na,na,na,na,na,na
1st innings,10.2,KS Williamson,YS Chahal,C Munro,0,0,0,na,na,na,na,na,na,na,na,na
1st innings,10.3,KS Williamson,YS Chahal,C Munro,1,1,0,na,na,na,na,na,na,na,na,na
1st innings,10.4,C Munro,YS Chahal,KS Williamson,1,1,0,na,na,na,na,na,na,na,na,na
1st innings,10.5,KS Williamson,YS Chahal,C Munro,4,4,0,na,na,na,na,na,na,na,na,na
1st innings,10.6,KS Williamson,YS Chahal,C Munro,1,1,0,na,na,na,na,na,na,na,na,na
1st innings,11.1,KS Williamson,SN Thakur,C Munro,1,1,0,na,na,na,na,na,na,na,na,na
1st innings,11.2,C Munro,SN Thakur,KS Williamson,6,6,0,na,na,na,na,na,na,na,na,na
1st innings,11.3,C Munro,SN Thakur,KS Williamson,6,6,0,na,na,na,na,na,na,na,na,na
1st innings,11.4,C Munro,SN Thakur,KS Williamson,1,1,0,na,na,na,na,na,na,na,na,na
1st innings,11.5,KS Williamson,SN Thakur,C Munro,0,0,0,na,na,na,na,na,caught,YS Chahal,na,C Munro
1st innings,11.6,KS Williamson,SN Thakur,C de Grandhomme,0,0,0,na,na,na,na,na,na,na,na,na
1st innings,12.1,C de Grandhomme,RA Jadeja,KS Williamson,1,1,0,na,na,na,na,na,na,na,na,na
1st innings,12.2,KS Williamson,RA Jadeja,C de Grandhomme,0,0,0,na,na,na,na,na,caught,S Dube,na,C de Grandhomme
1st innings,12.3,KS Williamson,RA Jadeja,LRPL Taylor,1,1,0,na,na,na,na,na,na,na,na,na
1st innings,12.4,LRPL Taylor,RA Jadeja,KS Williamson,1,1,0,na,na,na,na,na,na,na,na,na
1st innings,12.5,KS Williamson,RA Jadeja,LRPL Taylor,1,1,0,na,na,na,na,na,na,na,na,na
1st innings,12.6,LRPL Taylor,RA Jadeja,KS Williamson,1,1,0,na,na,na,na,na,na,na,na,na
1st innings,13.1,LRPL Taylor,S Dube,KS Williamson,1,1,0,na,na,na,na,na,na,na,na,na
1st innings,13.2,KS Williamson,S Dube,LRPL Taylor,1,1,0,na,na,na,na,na,na,na,na,na
1st innings,13.3,LRPL Taylor,S Dube,KS Williamson,6,6,0,na,na,na,na,na,na,na,na,na
1st innings,13.4,LRPL Taylor,S Dube,KS Williamson,1,1,0,na,na,na,na,na,na,na,na,na
1st innings,13.5,KS Williamson,S Dube,LRPL Taylor,0,0,0,na,na,na,na,na,na,na,na,na
1st innings,13.6,KS Williamson,S Dube,LRPL Taylor,0,0,0,na,na,na,na,na,na,na,na,na
1st innings,14.1,LRPL Taylor,RA Jadeja,KS Williamson,0,0,0,na,na,na,na,na,na,na,na,na
1st innings,14.2,LRPL Taylor,RA Jadeja,KS Williamson,1,1,0,na,na,na,na,na,na,na,na,na
1st innings,14.3,KS Williamson,RA Jadeja,LRPL Taylor,1,1,0,na,na,na,na,na,na,na,na,na
1st innings,14.4,LRPL Taylor,RA Jadeja,KS Williamson,1,1,0,na,na,na,na,na,na,na,na,na
1st innings,14.5,KS Williamson,RA Jadeja,LRPL Taylor,4,4,0,na,na,na,na,na,na,na,na,na
1st innings,14.6,KS Williamson,RA Jadeja,LRPL Taylor,6,6,0,na,na,na,na,na,na,na,na,na
1st innings,15.1,LRPL Taylor,Mohammed Shami,KS Williamson,4,4,0,na,na,na,na,na,na,na,na,na
1st innings,15.2,LRPL Taylor,Mohammed Shami,KS Williamson,1,1,0,na,na,na,na,na,na,na,na,na
1st innings,15.3,KS Williamson,Mohammed Shami,LRPL Taylor,4,4,0,na,na,na,na,na,na,na,na,na
1st innings,15.4,KS Williamson,Mohammed Shami,LRPL Taylor,6,6,0,na,na,na,na,na,na,na,na,na
1st innings,15.5,KS Williamson,Mohammed Shami,LRPL Taylor,6,6,0,na,na,na,na,na,na,na,na,na
1st innings,15.6,KS Williamson,Mohammed Shami,LRPL Taylor,1,1,0,na,na,na,na,na,na,na,na,na
1st innings,16.1,KS Williamson,YS Chahal,LRPL Taylor,1,1,0,na,na,na,na,na,na,na,na,na
1st innings,16.2,LRPL Taylor,YS Chahal,KS Williamson,4,4,0,na,na,na,na,na,na,na,na,na
1st innings,16.3,LRPL Taylor,YS Chahal,KS Williamson,4,4,0,na,na,na,na,na,na,na,na,na
1st innings,16.4,LRPL Taylor,YS Chahal,KS Williamson,0,0,0,na,na,na,na,na,na,na,na,na
1st innings,16.5,LRPL Taylor,YS Chahal,KS Williamson,4,4,0,na,na,na,na,na,na,na,na,na
1st innings,16.6,LRPL Taylor,YS Chahal,KS Williamson,0,0,0,na,na,na,na,na,caught,V Kohli,na,KS Williamson
1st innings,17.1,TL Seifert,JJ Bumrah,LRPL Taylor,0,0,0,na,na,na,na,na,na,na,na,na
1st innings,17.2,TL Seifert,JJ Bumrah,LRPL Taylor,1,1,0,na,na,na,na,na,na,na,na,na
1st innings,17.3,LRPL Taylor,JJ Bumrah,TL Seifert,1,1,0,na,na,na,na,na,na,na,na,na
1st innings,17.4,TL Seifert,JJ Bumrah,LRPL Taylor,1,1,0,na,na,na,na,na,na,na,na,na
1st innings,17.5,LRPL Taylor,JJ Bumrah,TL Seifert,0,0,0,na,na,na,na,na,caught,SS Iyer,na,TL Seifert
1st innings,17.6,MJ Santner,JJ Bumrah,LRPL Taylor,1,1,0,na,na,na,na,na,na,na,na,na
1st innings,18.1,MJ Santner,Mohammed Shami,LRPL Taylor,4,4,0,na,na,na,na,na,na,na,na,na
1st innings,18.2,MJ Santner,Mohammed Shami,LRPL Taylor,2,2,0,na,na,na,na,na,na,na,na,na
1st innings,18.3,MJ Santner,Mohammed Shami,LRPL Taylor,0,0,0,na,na,na,na,na,na,na,na,na
1st innings,18.4,MJ Santner,Mohammed Shami,LRPL Taylor,1,1,0,na,na,na,na,na,na,na,na,na
1st innings,18.5,LRPL Taylor,Mohammed Shami,MJ Santner,1,1,0,na,na,na,na,na,na,na,na,na
1st innings,18.6,MJ Santner,Mohammed Shami,LRPL Taylor,1,1,0,na,na,na,na,na,na,na,na,na
1st innings,19.1,MJ Santner,JJ Bumrah,LRPL Taylor,4,4,0,na,na,na,na,na,na,na,na,na
1st innings,19.2,MJ Santner,JJ Bumrah,LRPL Taylor,2,2,0,na,na,na,na,na,na,na,na,na
1st innings,19.3,MJ Santner,JJ Bumrah,LRPL Taylor,2,2,0,na,na,na,na,na,na,na,na,na
1st innings,19.4,MJ Santner,JJ Bumrah,LRPL Taylor,2,2,0,na,na,na,na,na,na,na,na,na
1st innings,19.5,MJ Santner,JJ Bumrah,LRPL Taylor,1,1,0,na,na,na,na,na,na,na,na,na
1st innings,19.6,LRPL Taylor,JJ Bumrah,MJ Santner,1,1,0,na,na,na,na,na,na,na,na,na
2nd innings,0.1,KL Rahul,TG Southee,RG Sharma,1,1,0,na,na,na,na,na,na,na,na,na
2nd innings,0.2,RG Sharma,TG Southee,KL Rahul,0,0,0,na,na,na,na,na,na,na,na,na
2nd innings,0.3,RG Sharma,TG Southee,KL Rahul,2,2,0,na,na,na,na,na,na,na,na,na
2nd innings,0.4,RG Sharma,TG Southee,KL Rahul,1,1,0,na,na,na,na,na,na,na,na,na
2nd innings,0.5,KL Rahul,TG Southee,RG Sharma,0,0,0,na,na,na,na,na,na,na,na,na
2nd innings,0.6,KL Rahul,TG Southee,RG Sharma,0,0,0,na,na,na,na,na,na,na,na,na
2nd innings,1.1,RG Sharma,MJ Santner,KL Rahul,4,4,0,na,na,na,na,na,na,na,na,na
2nd innings,1.2,RG Sharma,MJ Santner,KL Rahul,2,0,2,na,na,2,na,na,na,na,na,na
2nd innings,1.3,KL Rahul,MJ Santner,RG Sharma,0,0,0,na,na,na,na,na,na,na,na,na
2nd innings,1.4,KL Rahul,MJ Santner,RG Sharma,6,6,0,na,na,na,na,na,na,na,na,na
2nd innings,1.5,KL Rahul,MJ Santner,RG Sharma,0,0,0,na,na,na,na,na,caught,LRPL Taylor,na,RG Sharma
2nd innings,1.6,KL Rahul,MJ Santner,V Kohli,1,1,0,na,na,na,na,na,na,na,na,na
2nd innings,1.7,V Kohli,MJ Santner,KL Rahul,4,4,0,na,na,na,na,na,na,na,na,na
2nd innings,2.1,KL Rahul,HK Bennett,V Kohli,0,0,0,na,na,na,na,na,na,na,na,na
2nd innings,2.2,KL Rahul,HK Bennett,V Kohli,4,4,0,na,na,na,na,na,na,na,na,na
2nd innings,2.3,KL Rahul,HK Bennett,V Kohli,2,2,0,na,na,na,na,na,na,na,na,na
2nd innings,2.4,KL Rahul,HK Bennett,V Kohli,1,0,1,na,na,1,na,na,na,na,na,na
2nd innings,2.5,KL Rahul,HK Bennett,V Kohli,1,1,0,na,na,na,na,na,na,na,na,na
2nd innings,2.6,V Kohli,HK Bennett,KL Rahul,1,1,0,na,na,na,na,na,na,na,na,na
2nd innings,2.7,KL Rahul,HK Bennett,V Kohli,1,1,0,na,na,na,na,na,na,na,na,na
2nd innings,3.1,KL Rahul,BM Tickner,V Kohli,6,6,0,na,na,na,na,na,na,na,na,na
2nd innings,3.2,KL Rahul,BM Tickner,V Kohli,0,0,0,na,na,na,na,na,na,na,na,na
2nd innings,3.3,KL Rahul,BM Tickner,V Kohli,0,0,0,na,na,na,na,na,na,na,na,na
2nd innings,3.4,KL Rahul,BM Tickner,V Kohli,1,1,0,na,na,na,na,na,na,na,na,na
2nd innings,3.5,V Kohli,BM Tickner,KL Rahul,1,1,0,na,na,na,na,na,na,na,na,na
2nd innings,3.6,KL Rahul,BM Tickner,V Kohli,2,2,0,na,na,na,na,na,na,na,na,na
2nd innings,4.1,V Kohli,TG Southee,KL Rahul,1,1,0,na,na,na,na,na,na,na,na,na
2nd innings,4.2,KL Rahul,TG Southee,V Kohli,1,1,0,na,na,na,na,na,na,na,na,na
2nd innings,4.3,V Kohli,TG Southee,KL Rahul,3,3,0,na,na,na,na,na,na,na,na,na
2nd innings,4.4,KL Rahul,TG Southee,V Kohli,1,1,0,na,na,na,na,na,na,na,na,na
2nd innings,4.5,V Kohli,TG Southee,KL Rahul,6,6,0,na,na,na,na,na,na,na,na,na
2nd innings,4.6,V Kohli,TG Southee,KL Rahul,4,4,0,na,na,na,na,na,na,na,na,na
2nd innings,5.1,KL Rahul,HK Bennett,V Kohli,1,1,0,na,na,na,na,na,na,na,na,na
2nd innings,5.2,V Kohli,HK Bennett,KL Rahul,1,1,0,na,na,na,na,na,na,na,na,na
2nd innings,5.3,KL Rahul,HK Bennett,V Kohli,0,0,0,na,na,na,na,na,na,na,na,na
2nd innings,5.4,KL Rahul,HK Bennett,V Kohli,4,4,0,na,na,na,na,na,na,na,na,na
2nd innings,5.5,KL Rahul,HK Bennett,V Kohli,1,1,0,na,na,na,na,na,na,na,na,na
2nd innings,5.6,V Kohli,HK Bennett,KL Rahul,1,1,0,na,na,na,na,na,na,na,na,na
2nd innings,6.1,V Kohli,IS Sodhi,KL Rahul,1,1,0,na,na,na,na,na,na,na,na,na
2nd innings,6.2,KL Rahul,IS Sodhi,V Kohli,1,1,0,na,na,na,na,na,na,na,na,na
2nd innings,6.3,V Kohli,IS Sodhi,KL Rahul,2,2,0,na,na,na,na,na,na,na,na,na
2nd innings,6.4,V Kohli,IS Sodhi,KL Rahul,1,0,1,na,na,1,na,na,na,na,na,na
2nd innings,6.5,V Kohli,IS Sodhi,KL Rahul,1,1,0,na,na,na,na,na,na,na,na,na
2nd innings,6.6,KL Rahul,IS Sodhi,V Kohli,1,0,1,na,na,1,na,na,na,na,na,na
2nd innings,6.7,KL Rahul,IS Sodhi,V Kohli,4,4,0,na,na,na,na,na,na,na,na,na
2nd innings,6.8,KL Rahul,IS Sodhi,V Kohli,1,1,0,na,na,na,na,na,na,na,na,na
2nd innings,7.1,KL Rahul,MJ Santner,V Kohli,1,1,0,na,na,na,na,na,na,na,na,na
2nd innings,7.2,V Kohli,MJ Santner,KL Rahul,2,2,0,na,na,na,na,na,na,na,na,na
2nd innings,7.3,V Kohli,MJ Santner,KL Rahul,0,0,0,na,na,na,na,na,na,na,na,na
2nd innings,7.4,V Kohli,MJ Santner,KL Rahul,4,4,0,na,na,na,na,na,na,na,na,na
2nd innings,7.5,V Kohli,MJ Santner,KL Rahul,6,6,0,na,na,na,na,na,na,na,na,na
2nd innings,7.6,V Kohli,MJ Santner,KL Rahul,1,1,0,na,na,na,na,na,na,na,na,na
2nd innings,8.1,V Kohli,BM Tickner,KL Rahul,1,1,0,na,na,na,na,na,na,na,na,na
2nd innings,8.2,KL Rahul,BM Tickner,V Kohli,2,2,0,na,na,na,na,na,na,na,na,na
2nd innings,8.3,KL Rahul,BM Tickner,V Kohli,2,2,0,na,na,na,na,na,na,na,na,na
2nd innings,8.4,KL Rahul,BM Tickner,V Kohli,1,0,1,na,na,1,na,na,na,na,na,na
2nd innings,8.5,KL Rahul,BM Tickner,V Kohli,2,1,1,na,na,na,1,na,na,na,na,na
2nd innings,8.6,V Kohli,BM Tickner,KL Rahul,6,6,0,na,na,na,na,na,na,na,na,na
2nd innings,8.7,V Kohli,BM Tickner,KL Rahul,1,1,0,na,na,na,na,na,na,na,na,na
2nd innings,8.8,KL Rahul,BM Tickner,V Kohli,1,1,0,na,na,na,na,na,na,na,na,na
2nd innings,9.1,KL Rahul,IS Sodhi,V Kohli,1,0,1,na,na,1,na,na,na,na,na,na
2nd innings,9.2,KL Rahul,IS Sodhi,V Kohli,1,1,0,na,na,na,na,na,na,na,na,na
2nd innings,9.3,V Kohli,IS Sodhi,KL Rahul,1,0,1,na,na,1,na,na,na,na,na,na
2nd innings,9.4,V Kohli,IS Sodhi,KL Rahul,1,1,0,na,na,na,na,na,na,na,na,na
2nd innings,9.5,KL Rahul,IS Sodhi,V Kohli,1,1,0,na,na,na,na,na,na,na,na,na
2nd innings,9.6,V Kohli,IS Sodhi,KL Rahul,1,1,0,na,na,na,na,na,na,na,na,na
2nd innings,9.7,KL Rahul,IS Sodhi,V Kohli,1,1,0,na,na,na,na,na,na,na,na,na
2nd innings,9.8,V Kohli,IS Sodhi,KL Rahul,1,0,1,na,na,1,na,na,na,na,na,na
2nd innings,9.9,V Kohli,IS Sodhi,KL Rahul,0,0,0,na,na,na,na,na,caught,TG Southee,na,KL Rahul
2nd innings,10.1,SS Iyer,MJ Santner,V Kohli,1,1,0,na,na,na,na,na,na,na,na,na
2nd innings,10.2,V Kohli,MJ Santner,SS Iyer,0,0,0,na,na,na,na,na,na,na,na,na
2nd innings,10.3,V Kohli,MJ Santner,SS Iyer,1,1,0,na,na,na,na,na,na,na,na,na
2nd innings,10.4,SS Iyer,MJ Santner,V Kohli,1,0,1,na,na,1,na,na,na,na,na,na
2nd innings,10.5,SS Iyer,MJ Santner,V Kohli,1,1,0,na,na,na,na,na,na,na,na,na
2nd innings,10.6,V Kohli,MJ Santner,SS Iyer,1,1,0,na,na,na,na,na,na,na,na,na
2nd innings,10.7,SS Iyer,MJ Santner,V Kohli,1,1,0,na,na,na,na,na,na,na,na,na
2nd innings,11.1,SS Iyer,BM Tickner,V Kohli,0,0,0,na,na,na,na,na,caught,MJ Guptill,na,V Kohli
2nd innings,11.2,S Dube,BM Tickner,SS Iyer,2,2,0,na,na,na,na,na,na,na,na,na
2nd innings,11.3,S Dube,BM Tickner,SS Iyer,4,4,0,na,na,na,na,na,na,na,na,na
2nd innings,11.4,S Dube,BM Tickner,SS Iyer,1,1,0,na,na,na,na,na,na,na,na,na
2nd innings,11.5,SS Iyer,BM Tickner,S Dube,0,0,0,na,na,na,na,na,na,na,na,na
2nd innings,11.6,SS Iyer,BM Tickner,S Dube,1,1,0,na,na,na,na,na,na,na,na,na
2nd innings,12.1,SS Iyer,MJ Santner,S Dube,1,1,0,na,na,na,na,na,na,na,na,na
2nd innings,12.2,S Dube,MJ Santner,SS Iyer,1,1,0,na,na,na,na,na,na,na,na,na
2nd innings,12.3,SS Iyer,MJ Santner,S Dube,0,0,0,na,na,na,na,na,na,na,na,na
2nd innings,12.4,SS Iyer,MJ Santner,S Dube,4,4,0,na,na,na,na,na,na,na,na,na
2nd innings,12.5,SS Iyer,MJ Santner,S Dube,6,6,0,na,na,na,na,na,na,na,na,na
2nd innings,12.6,SS Iyer,MJ Santner,S Dube,1,1,0,na,na,na,na,na,na,na,na,na
2nd innings,13.1,SS Iyer,IS Sodhi,S Dube,0,0,0,na,na,na,na,na,na,na,na,na
2nd innings,13.2,SS Iyer,IS Sodhi,S Dube,0,0,0,na,na,na,na,na,caught,TG Southee,na,S Dube
2nd innings,13.3,SS Iyer,IS Sodhi,MK Pandey,0,0,0,na,na,na,na,na,na,na,na,na
2nd innings,13.4,SS Iyer,IS Sodhi,MK Pandey,1,1,0,na,na,na,na,na,na,na,na,na
2nd innings,13.5,MK Pandey,IS Sodhi,SS Iyer,1,1,0,na,na,na,na,na,na,na,na,na
2nd innings,13.6,SS Iyer,IS Sodhi,MK Pandey,0,0,0,na,na,na,na,na,na,na,na,na
2nd innings,14.1,MK Pandey,HK Bennett,SS Iyer,1,1,0,na,na,na,na,na,na,na,na,na
2nd innings,14.2,SS Iyer,HK Bennett,MK Pandey,1,1,0,na,na,na,na,na,na,na,na,na
2nd innings,14.3,MK Pandey,HK Bennett,SS Iyer,2,2,0,na,na,na,na,na,na,na,na,na
2nd innings,14.4,MK Pandey,HK Bennett,SS Iyer,1,1,0,na,na,na,na,na,na,na,na,na
2nd innings,14.5,SS Iyer,HK Bennett,MK Pandey,1,1,0,na,na,na,na,na,na,na,na,na
2nd innings,14.6,MK Pandey,HK Bennett,SS Iyer,1,1,0,na,na,na,na,na,na,na,na,na
2nd innings,15.1,MK Pandey,IS Sodhi,SS Iyer,2,2,0,na,na,na,na,na,na,na,na,na
2nd innings,15.2,MK Pandey,IS Sodhi,SS Iyer,0,0,0,na,na,na,na,na,na,na,na,na
2nd innings,15.3,MK Pandey,IS Sodhi,SS Iyer,4,4,0,na,na,na,na,na,na,na,na,na
2nd innings,15.4,MK Pandey,IS Sodhi,SS Iyer,1,1,0,na,na,na,na,na,na,na,na,na
2nd innings,15.5,SS Iyer,IS Sodhi,MK Pandey,6,6,0,na,na,na,na,na,na,na,na,na
2nd innings,15.6,SS Iyer,IS Sodhi,MK Pandey,1,1,0,na,na,na,na,na,na,na,na,na
2nd innings,16.1,SS Iyer,TG Southee,MK Pandey,1,1,0,na,na,na,na,na,na,na,na,na
2nd innings,16.2,MK Pandey,TG Southee,SS Iyer,6,6,0,na,na,na,na,na,na,na,na,na
2nd innings,16.3,MK Pandey,TG Southee,SS Iyer,1,1,0,na,na,na,na,na,na,na,na,na
2nd innings,16.4,SS Iyer,TG Southee,MK Pandey,0,0,0,na,na,na,na,na,na,na,na,na
2nd innings,16.5,SS Iyer,TG Southee,MK Pandey,1,1,0,na,na,na,na,na,na,na,na,na
2nd innings,16.6,MK Pandey,TG Southee,SS Iyer,1,1,0,na,na,na,na,na,na,na,na,na
2nd innings,17.1,MK Pandey,HK Bennett,SS Iyer,4,4,0,na,na,na,na,na,na,na,na,na
2nd innings,17.2,MK Pandey,HK Bennett,SS Iyer,4,4,0,na,na,na,na,na,na,na,na,na
2nd innings,17.3,MK Pandey,HK Bennett,SS Iyer,0,0,0,na,na,na,na,na,na,na,na,na
2nd innings,17.4,MK Pandey,HK Bennett,SS Iyer,1,1,0,na,na,na,na,na,na,na,na,na
2nd innings,17.5,SS Iyer,HK Bennett,MK Pandey,1,1,0,na,na,na,na,na,na,na,na,na
2nd innings,17.6,MK Pandey,HK Bennett,SS Iyer,1,1,0,na,na,na,na,na,na,na,na,na
2nd innings,18.1,MK Pandey,TG Southee,SS Iyer,6,6,0,na,na,na,na,na,na,na,na,na
2nd innings,18.2,MK Pandey,TG Southee,SS Iyer,4,4,0,na,na,na,na,na,na,na,na,na
2nd innings,18.3,MK Pandey,TG Southee,SS Iyer,1,1,0,na,na,na,na,na,na,na,na,na
2nd innings,18.4,SS Iyer,TG Southee,MK Pandey,1,1,0,na,na,na,na,na,na,na,na,na
2nd innings,18.5,MK Pandey,TG Southee,SS Iyer,0,0,0,na,na,na,na,na,na,na,na,na
2nd innings,18.6,MK Pandey,TG Southee,SS Iyer,6,6,0,na,na,na,na,na,na,na,na,na
