inngs,deliveries,non_striker,bowler,batsman,totalruns,batsman_runs,extra_runs,legbyes,byes,wides,noballs,penalty,wicket_kind,fielder1,fielder2,player_out
1st innings,0.1,SP Narine,B Kumar,E Lewis,0,0,0,na,na,na,na,na,na,na,na,na
1st innings,0.2,SP Narine,B Kumar,E Lewis,0,0,0,na,na,na,na,na,na,na,na,na
1st innings,0.3,SP Narine,B Kumar,E Lewis,0,0,0,na,na,na,na,na,na,na,na,na
1st innings,0.4,SP Narine,B Kumar,E Lewis,1,1,0,na,na,na,na,na,na,na,na,na
1st innings,0.5,E Lewis,B Kumar,SP Narine,0,0,0,na,na,na,na,na,na,na,na,na
1st innings,0.6,E Lewis,B Kumar,SP Narine,0,0,0,na,na,na,na,na,na,na,na,na
1st innings,1.1,SP Narine,DL Chahar,E Lewis,1,1,0,na,na,na,na,na,na,na,na,na
1st innings,1.2,E Lewis,DL Chahar,SP Narine,2,2,0,na,na,na,na,na,na,na,na,na
1st innings,1.3,E Lewis,DL Chahar,SP Narine,0,0,0,na,na,na,na,na,na,na,na,na
1st innings,1.4,E Lewis,DL Chahar,SP Narine,0,0,0,na,na,na,na,na,na,na,na,na
1st innings,1.5,E Lewis,DL Chahar,SP Narine,0,0,0,na,na,na,na,na,caught,NA Saini,na,SP Narine
1st innings,1.6,E Lewis,DL Chahar,SO Hetmyer,0,0,0,na,na,na,na,na,na,na,na,na
1st innings,2.1,SO Hetmyer,B Kumar,E Lewis,0,0,0,na,na,na,na,na,na,na,na,na
1st innings,2.2,SO Hetmyer,B Kumar,E Lewis,0,0,0,na,na,na,na,na,na,na,na,na
1st innings,2.3,SO Hetmyer,B Kumar,E Lewis,4,4,0,na,na,na,na,na,na,na,na,na
1st innings,2.4,SO Hetmyer,B Kumar,E Lewis,3,3,0,na,na,na,na,na,na,na,na,na
1st innings,2.5,E Lewis,B Kumar,SO Hetmyer,1,1,0,na,na,na,na,na,na,na,na,na
1st innings,2.6,SO Hetmyer,B Kumar,E Lewis,1,1,0,na,na,na,na,na,na,na,na,na
1st innings,3.1,SO Hetmyer,DL Chahar,E Lewis,0,0,0,na,na,na,na,na,lbw,na,na,E Lewis
1st innings,3.2,SO Hetmyer,DL Chahar,KA Pollard,0,0,0,na,na,na,na,na,na,na,na,na
1st innings,3.3,SO Hetmyer,DL Chahar,KA Pollard,0,0,0,na,na,na,na,na,na,na,na,na
1st innings,3.4,SO Hetmyer,DL Chahar,KA Pollard,1,0,1,1,na,na,na,na,na,na,na,na
1st innings,3.5,KA Pollard,DL Chahar,SO Hetmyer,0,0,0,na,na,na,na,na,lbw,na,na,SO Hetmyer
1st innings,3.6,KA Pollard,DL Chahar,N Pooran,0,0,0,na,na,na,na,na,na,na,na,na
1st innings,4.1,N Pooran,NA Saini,KA Pollard,0,0,0,na,na,na,na,na,na,na,na,na
1st innings,4.2,N Pooran,NA Saini,KA Pollard,6,6,0,na,na,na,na,na,na,na,na,na
1st innings,4.3,N Pooran,NA Saini,KA Pollard,1,1,0,na,na,na,na,na,na,na,na,na
1st innings,4.4,KA Pollard,NA Saini,N Pooran,0,0,0,na,na,na,na,na,na,na,na,na
1st innings,4.5,KA Pollard,NA Saini,N Pooran,0,0,0,na,na,na,na,na,na,na,na,na
1st innings,4.6,KA Pollard,NA Saini,N Pooran,0,0,0,na,na,na,na,na,na,na,na,na
1st innings,5.1,N Pooran,DL Chahar,KA Pollard,0,0,0,na,na,na,na,na,na,na,na,na
1st innings,5.2,N Pooran,DL Chahar,KA Pollard,0,0,0,na,na,na,na,na,na,na,na,na
1st innings,5.3,N Pooran,DL Chahar,KA Pollard,0,0,0,na,na,na,na,na,na,na,na,na
1st innings,5.4,N Pooran,DL Chahar,KA Pollard,0,0,0,na,na,na,na,na,na,na,na,na
1st innings,5.5,N Pooran,DL Chahar,KA Pollard,1,1,0,na,na,na,na,na,na,na,na,na
1st innings,5.6,KA Pollard,DL Chahar,N Pooran,0,0,0,na,na,na,na,na,na,na,na,na
1st innings,6.1,N Pooran,RD Chahar,KA Pollard,1,1,0,na,na,na,na,na,na,na,na,na
1st innings,6.2,KA Pollard,RD Chahar,N Pooran,4,4,0,na,na,na,na,na,na,na,na,na
1st innings,6.3,KA Pollard,RD Chahar,N Pooran,2,0,2,2,na,na,na,na,na,na,na,na
1st innings,6.4,KA Pollard,RD Chahar,N Pooran,0,0,0,na,na,na,na,na,na,na,na,na
1st innings,6.5,KA Pollard,RD Chahar,N Pooran,1,1,0,na,na,na,na,na,na,na,na,na
1st innings,6.6,N Pooran,RD Chahar,KA Pollard,0,0,0,na,na,na,na,na,na,na,na,na
1st innings,7.1,KA Pollard,Washington Sundar,N Pooran,1,1,0,na,na,na,na,na,na,na,na,na
1st innings,7.2,N Pooran,Washington Sundar,KA Pollard,0,0,0,na,na,na,na,na,na,na,na,na
1st innings,7.3,N Pooran,Washington Sundar,KA Pollard,1,0,1,na,na,1,na,na,na,na,na,na
1st innings,7.4,N Pooran,Washington Sundar,KA Pollard,1,1,0,na,na,na,na,na,na,na,na,na
1st innings,7.5,KA Pollard,Washington Sundar,N Pooran,0,0,0,na,na,na,na,na,na,na,na,na
1st innings,7.6,KA Pollard,Washington Sundar,N Pooran,0,0,0,na,na,na,na,na,na,na,na,na
1st innings,7.7,KA Pollard,Washington Sundar,N Pooran,0,0,0,na,na,na,na,na,na,na,na,na
1st innings,8.1,N Pooran,RD Chahar,KA Pollard,6,6,0,na,na,na,na,na,na,na,na,na
1st innings,8.2,N Pooran,RD Chahar,KA Pollard,0,0,0,na,na,na,na,na,na,na,na,na
1st innings,8.3,N Pooran,RD Chahar,KA Pollard,0,0,0,na,na,na,na,na,na,na,na,na
1st innings,8.4,N Pooran,RD Chahar,KA Pollard,0,0,0,na,na,na,na,na,na,na,na,na
1st innings,8.5,N Pooran,RD Chahar,KA Pollard,6,6,0,na,na,na,na,na,na,na,na,na
1st innings,8.6,N Pooran,RD Chahar,KA Pollard,1,1,0,na,na,na,na,na,na,na,na,na
1st innings,9.1,N Pooran,Washington Sundar,KA Pollard,6,6,0,na,na,na,na,na,na,na,na,na
1st innings,9.2,N Pooran,Washington Sundar,KA Pollard,2,2,0,na,na,na,na,na,na,na,na,na
1st innings,9.3,N Pooran,Washington Sundar,KA Pollard,1,0,1,na,na,1,na,na,na,na,na,na
1st innings,9.4,N Pooran,Washington Sundar,KA Pollard,1,1,0,na,na,na,na,na,na,na,na,na
1st innings,9.5,KA Pollard,Washington Sundar,N Pooran,1,1,0,na,na,na,na,na,na,na,na,na
1st innings,9.6,N Pooran,Washington Sundar,KA Pollard,0,0,0,na,na,na,na,na,na,na,na,na
1st innings,9.7,N Pooran,Washington Sundar,KA Pollard,1,1,0,na,na,na,na,na,na,na,na,na
1st innings,10.1,N Pooran,KH Pandya,KA Pollard,0,0,0,na,na,na,na,na,na,na,na,na
1st innings,10.2,N Pooran,KH Pandya,KA Pollard,0,0,0,na,na,na,na,na,na,na,na,na
1st innings,10.3,N Pooran,KH Pandya,KA Pollard,1,1,0,na,na,na,na,na,na,na,na,na
1st innings,10.4,KA Pollard,KH Pandya,N Pooran,0,0,0,na,na,na,na,na,na,na,na,na
1st innings,10.5,KA Pollard,KH Pandya,N Pooran,0,0,0,na,na,na,na,na,na,na,na,na
1st innings,10.6,KA Pollard,KH Pandya,N Pooran,6,6,0,na,na,na,na,na,na,na,na,na
1st innings,11.1,N Pooran,Washington Sundar,KA Pollard,1,1,0,na,na,na,na,na,na,na,na,na
1st innings,11.2,KA Pollard,Washington Sundar,N Pooran,1,1,0,na,na,na,na,na,na,na,na,na
1st innings,11.3,N Pooran,Washington Sundar,KA Pollard,1,0,1,na,na,1,na,na,na,na,na,na
1st innings,11.4,N Pooran,Washington Sundar,KA Pollard,4,4,0,na,na,na,na,na,na,na,na,na
1st innings,11.5,N Pooran,Washington Sundar,KA Pollard,0,0,0,na,na,na,na,na,na,na,na,na
1st innings,11.6,N Pooran,Washington Sundar,KA Pollard,1,1,0,na,na,na,na,na,na,na,na,na
1st innings,11.7,KA Pollard,Washington Sundar,N Pooran,0,0,0,na,na,na,na,na,na,na,na,na
1st innings,12.1,N Pooran,KH Pandya,KA Pollard,1,1,0,na,na,na,na,na,na,na,na,na
1st innings,12.2,KA Pollard,KH Pandya,N Pooran,1,0,1,na,na,1,na,na,na,na,na,na
1st innings,12.3,KA Pollard,KH Pandya,N Pooran,1,1,0,na,na,na,na,na,na,na,na,na
1st innings,12.4,N Pooran,KH Pandya,KA Pollard,1,1,0,na,na,na,na,na,na,na,na,na
1st innings,12.5,KA Pollard,KH Pandya,N Pooran,1,1,0,na,na,na,na,na,na,na,na,na
1st innings,12.6,N Pooran,KH Pandya,KA Pollard,1,1,0,na,na,na,na,na,na,na,na,na
1st innings,12.7,KA Pollard,KH Pandya,N Pooran,1,1,0,na,na,na,na,na,na,na,na,na
1st innings,13.1,KA Pollard,NA Saini,N Pooran,0,0,0,na,na,na,na,na,caught,RR Pant,na,N Pooran
1st innings,13.2,KA Pollard,NA Saini,R Powell,1,1,0,na,na,na,na,na,na,na,na,na
1st innings,13.3,R Powell,NA Saini,KA Pollard,1,1,0,na,na,na,na,na,na,na,na,na
1st innings,13.4,KA Pollard,NA Saini,R Powell,1,1,0,na,na,na,na,na,na,na,na,na
1st innings,13.5,R Powell,NA Saini,KA Pollard,0,0,0,na,na,na,na,na,na,na,na,na
1st innings,13.6,R Powell,NA Saini,KA Pollard,1,0,1,1,na,na,na,na,na,na,na,na
1st innings,14.1,R Powell,KH Pandya,KA Pollard,6,6,0,na,na,na,na,na,na,na,na,na
1st innings,14.2,R Powell,KH Pandya,KA Pollard,1,1,0,na,na,na,na,na,na,na,na,na
1st innings,14.3,KA Pollard,KH Pandya,R Powell,1,1,0,na,na,na,na,na,na,na,na,na
1st innings,14.4,R Powell,KH Pandya,KA Pollard,6,6,0,na,na,na,na,na,na,na,na,na
1st innings,14.5,R Powell,KH Pandya,KA Pollard,1,1,0,na,na,na,na,na,na,na,na,na
1st innings,14.6,KA Pollard,KH Pandya,R Powell,1,1,0,na,na,na,na,na,na,na,na,na
1st innings,15.1,KA Pollard,NA Saini,R Powell,4,4,0,na,na,na,na,na,na,na,na,na
1st innings,15.2,KA Pollard,NA Saini,R Powell,1,1,0,na,na,na,na,na,na,na,na,na
1st innings,15.3,R Powell,NA Saini,KA Pollard,0,0,0,na,na,na,na,na,na,na,na,na
1st innings,15.4,R Powell,NA Saini,KA Pollard,0,0,0,na,na,na,na,na,bowled,na,na,KA Pollard
1st innings,15.5,R Powell,NA Saini,CR Brathwaite,1,1,0,na,na,na,na,na,na,na,na,na
1st innings,15.6,CR Brathwaite,NA Saini,R Powell,2,2,0,na,na,na,na,na,na,na,na,na
1st innings,16.1,R Powell,KH Pandya,CR Brathwaite,1,1,0,na,na,na,na,na,na,na,na,na
1st innings,16.2,CR Brathwaite,KH Pandya,R Powell,1,1,0,na,na,na,na,na,na,na,na,na
1st innings,16.3,R Powell,KH Pandya,CR Brathwaite,0,0,0,na,na,na,na,na,na,na,na,na
1st innings,16.4,R Powell,KH Pandya,CR Brathwaite,1,1,0,na,na,na,na,na,na,na,na,na
1st innings,16.5,CR Brathwaite,KH Pandya,R Powell,1,1,0,na,na,na,na,na,na,na,na,na
1st innings,16.6,R Powell,KH Pandya,CR Brathwaite,1,1,0,na,na,na,na,na,na,na,na,na
1st innings,17.1,R Powell,RD Chahar,CR Brathwaite,6,6,0,na,na,na,na,na,na,na,na,na
1st innings,17.2,R Powell,RD Chahar,CR Brathwaite,0,0,0,na,na,na,na,na,caught,Washington Sundar,na,CR Brathwaite
1st innings,17.3,R Powell,RD Chahar,FA Allen,0,0,0,na,na,na,na,na,na,na,na,na
1st innings,17.4,R Powell,RD Chahar,FA Allen,0,0,0,na,na,na,na,na,na,na,na,na
1st innings,17.5,R Powell,RD Chahar,FA Allen,1,1,0,na,na,na,na,na,na,na,na,na
1st innings,17.6,FA Allen,RD Chahar,R Powell,1,1,0,na,na,na,na,na,na,na,na,na
1st innings,18.1,FA Allen,B Kumar,R Powell,0,0,0,na,na,na,na,na,na,na,na,na
1st innings,18.2,FA Allen,B Kumar,R Powell,0,0,0,na,na,na,na,na,na,na,na,na
1st innings,18.3,FA Allen,B Kumar,R Powell,0,0,0,na,na,na,na,na,na,na,na,na
1st innings,18.4,FA Allen,B Kumar,R Powell,2,2,0,na,na,na,na,na,na,na,na,na
1st innings,18.5,FA Allen,B Kumar,R Powell,1,1,0,na,na,na,na,na,na,na,na,na
1st innings,18.6,R Powell,B Kumar,FA Allen,6,6,0,na,na,na,na,na,na,na,na,na
1st innings,19.1,FA Allen,NA Saini,R Powell,0,0,0,na,na,na,na,na,na,na,na,na
1st innings,19.2,FA Allen,NA Saini,R Powell,6,6,0,na,na,na,na,na,na,na,na,na
1st innings,19.3,FA Allen,NA Saini,R Powell,1,1,0,na,na,na,na,na,na,na,na,na
1st innings,19.4,R Powell,NA Saini,FA Allen,1,1,0,na,na,na,na,na,na,na,na,na
1st innings,19.5,FA Allen,NA Saini,R Powell,6,6,0,na,na,na,na,na,na,na,na,na
1st innings,19.6,FA Allen,NA Saini,R Powell,2,2,0,na,na,na,na,na,na,na,na,na
2nd innings,0.1,S Dhawan,SS Cottrell,KL Rahul,0,0,0,na,na,na,na,na,na,na,na,na
2nd innings,0.2,S Dhawan,SS Cottrell,KL Rahul,0,0,0,na,na,na,na,na,na,na,na,na
2nd innings,0.3,S Dhawan,SS Cottrell,KL Rahul,6,6,0,na,na,na,na,na,na,na,na,na
2nd innings,0.4,S Dhawan,SS Cottrell,KL Rahul,0,0,0,na,na,na,na,na,na,na,na,na
2nd innings,0.5,S Dhawan,SS Cottrell,KL Rahul,0,0,0,na,na,na,na,na,na,na,na,na
2nd innings,0.6,S Dhawan,SS Cottrell,KL Rahul,0,0,0,na,na,na,na,na,na,na,na,na
2nd innings,1.1,KL Rahul,O Thomas,S Dhawan,1,1,0,na,na,na,na,na,na,na,na,na
2nd innings,1.2,S Dhawan,O Thomas,KL Rahul,1,1,0,na,na,na,na,na,na,na,na,na
2nd innings,1.3,KL Rahul,O Thomas,S Dhawan,0,0,0,na,na,na,na,na,na,na,na,na
2nd innings,1.4,KL Rahul,O Thomas,S Dhawan,2,2,0,na,na,na,na,na,na,na,na,na
2nd innings,1.5,KL Rahul,O Thomas,S Dhawan,0,0,0,na,na,na,na,na,na,na,na,na
2nd innings,1.6,KL Rahul,O Thomas,S Dhawan,0,0,0,na,na,na,na,na,caught,SS Cottrell,na,S Dhawan
2nd innings,2.1,V Kohli,SS Cottrell,KL Rahul,0,0,0,na,na,na,na,na,na,na,na,na
2nd innings,2.2,V Kohli,SS Cottrell,KL Rahul,1,1,0,na,na,na,na,na,na,na,na,na
2nd innings,2.3,KL Rahul,SS Cottrell,V Kohli,0,0,0,na,na,na,na,na,na,na,na,na
2nd innings,2.4,KL Rahul,SS Cottrell,V Kohli,1,1,0,na,na,na,na,na,na,na,na,na
2nd innings,2.5,V Kohli,SS Cottrell,KL Rahul,4,4,0,na,na,na,na,na,na,na,na,na
2nd innings,2.6,V Kohli,SS Cottrell,KL Rahul,2,2,0,na,na,na,na,na,na,na,na,na
2nd innings,3.1,KL Rahul,O Thomas,V Kohli,0,0,0,na,na,na,na,na,na,na,na,na
2nd innings,3.2,KL Rahul,O Thomas,V Kohli,1,1,0,na,na,na,na,na,na,na,na,na
2nd innings,3.3,V Kohli,O Thomas,KL Rahul,1,0,1,na,na,1,na,na,na,na,na,na
2nd innings,3.4,V Kohli,O Thomas,KL Rahul,4,4,0,na,na,na,na,na,na,na,na,na
2nd innings,3.5,V Kohli,O Thomas,KL Rahul,0,0,0,na,na,na,na,na,na,na,na,na
2nd innings,3.6,V Kohli,O Thomas,KL Rahul,0,0,0,na,na,na,na,na,na,na,na,na
2nd innings,3.7,V Kohli,O Thomas,KL Rahul,0,0,0,na,na,na,na,na,na,na,na,na
2nd innings,4.1,KL Rahul,FA Allen,V Kohli,1,1,0,na,na,na,na,na,na,na,na,na
2nd innings,4.2,V Kohli,FA Allen,KL Rahul,2,2,0,na,na,na,na,na,na,na,na,na
2nd innings,4.3,V Kohli,FA Allen,KL Rahul,0,0,0,na,na,na,na,na,na,na,na,na
2nd innings,4.4,V Kohli,FA Allen,KL Rahul,0,0,0,na,na,na,na,na,caught,N Pooran,na,KL Rahul
2nd innings,4.5,V Kohli,FA Allen,RR Pant,0,0,0,na,na,na,na,na,na,na,na,na
2nd innings,4.6,V Kohli,FA Allen,RR Pant,0,0,0,na,na,na,na,na,na,na,na,na
2nd innings,5.1,RR Pant,O Thomas,V Kohli,1,1,0,na,na,na,na,na,na,na,na,na
2nd innings,5.2,V Kohli,O Thomas,RR Pant,2,2,0,na,na,na,na,na,na,na,na,na
2nd innings,5.3,V Kohli,O Thomas,RR Pant,0,0,0,na,na,na,na,na,na,na,na,na
2nd innings,5.4,V Kohli,O Thomas,RR Pant,4,4,0,na,na,na,na,na,na,na,na,na
2nd innings,5.5,V Kohli,O Thomas,RR Pant,0,0,0,na,na,na,na,na,na,na,na,na
2nd innings,5.6,V Kohli,O Thomas,RR Pant,0,0,0,na,na,na,na,na,na,na,na,na
2nd innings,6.1,RR Pant,FA Allen,V Kohli,2,2,0,na,na,na,na,na,na,na,na,na
2nd innings,6.2,RR Pant,FA Allen,V Kohli,2,2,0,na,na,na,na,na,na,na,na,na
2nd innings,6.3,RR Pant,FA Allen,V Kohli,1,1,0,na,na,na,na,na,na,na,na,na
2nd innings,6.4,V Kohli,FA Allen,RR Pant,1,1,0,na,na,na,na,na,na,na,na,na
2nd innings,6.5,RR Pant,FA Allen,V Kohli,4,4,0,na,na,na,na,na,na,na,na,na
2nd innings,6.6,RR Pant,FA Allen,V Kohli,1,1,0,na,na,na,na,na,na,na,na,na
2nd innings,7.1,RR Pant,SP Narine,V Kohli,1,1,0,na,na,na,na,na,na,na,na,na
2nd innings,7.2,V Kohli,SP Narine,RR Pant,0,0,0,na,na,na,na,na,na,na,na,na
2nd innings,7.3,V Kohli,SP Narine,RR Pant,2,2,0,na,na,na,na,na,na,na,na,na
2nd innings,7.4,V Kohli,SP Narine,RR Pant,4,4,0,na,na,na,na,na,na,na,na,na
2nd innings,7.5,V Kohli,SP Narine,RR Pant,1,1,0,na,na,na,na,na,na,na,na,na
2nd innings,7.6,RR Pant,SP Narine,V Kohli,1,1,0,na,na,na,na,na,na,na,na,na
2nd innings,8.1,RR Pant,FA Allen,V Kohli,0,0,0,na,na,na,na,na,na,na,na,na
2nd innings,8.2,RR Pant,FA Allen,V Kohli,1,1,0,na,na,na,na,na,na,na,na,na
2nd innings,8.3,V Kohli,FA Allen,RR Pant,1,1,0,na,na,na,na,na,na,na,na,na
2nd innings,8.4,RR Pant,FA Allen,V Kohli,1,1,0,na,na,na,na,na,na,na,na,na
2nd innings,8.5,V Kohli,FA Allen,RR Pant,1,1,0,na,na,na,na,na,na,na,na,na
2nd innings,8.6,RR Pant,FA Allen,V Kohli,0,0,0,na,na,na,na,na,na,na,na,na
2nd innings,9.1,V Kohli,SP Narine,RR Pant,0,0,0,na,na,na,na,na,na,na,na,na
2nd innings,9.2,V Kohli,SP Narine,RR Pant,1,1,0,na,na,na,na,na,na,na,na,na
2nd innings,9.3,RR Pant,SP Narine,V Kohli,2,2,0,na,na,na,na,na,na,na,na,na
2nd innings,9.4,RR Pant,SP Narine,V Kohli,0,0,0,na,na,na,na,na,na,na,na,na
2nd innings,9.5,RR Pant,SP Narine,V Kohli,1,1,0,na,na,na,na,na,na,na,na,na
2nd innings,9.6,V Kohli,SP Narine,RR Pant,0,0,0,na,na,na,na,na,na,na,na,na
2nd innings,10.1,RR Pant,CR Brathwaite,V Kohli,1,1,0,na,na,na,na,na,na,na,na,na
2nd innings,10.2,V Kohli,CR Brathwaite,RR Pant,1,1,0,na,na,na,na,na,na,na,na,na
2nd innings,10.3,RR Pant,CR Brathwaite,V Kohli,4,4,0,na,na,na,na,na,na,na,na,na
2nd innings,10.4,RR Pant,CR Brathwaite,V Kohli,1,1,0,na,na,na,na,na,na,na,na,na
2nd innings,10.5,V Kohli,CR Brathwaite,RR Pant,1,1,0,na,na,na,na,na,na,na,na,na
2nd innings,10.6,RR Pant,CR Brathwaite,V Kohli,1,1,0,na,na,na,na,na,na,na,na,na
2nd innings,11.1,RR Pant,SP Narine,V Kohli,1,1,0,na,na,na,na,na,na,na,na,na
2nd innings,11.2,V Kohli,SP Narine,RR Pant,2,2,0,na,na,na,na,na,na,na,na,na
2nd innings,11.3,V Kohli,SP Narine,RR Pant,0,0,0,na,na,na,na,na,na,na,na,na
2nd innings,11.4,V Kohli,SP Narine,RR Pant,1,1,0,na,na,na,na,na,na,na,na,na
2nd innings,11.5,RR Pant,SP Narine,V Kohli,1,1,0,na,na,na,na,na,na,na,na,na
2nd innings,11.6,V Kohli,SP Narine,RR Pant,0,0,0,na,na,na,na,na,na,na,na,na
2nd innings,12.1,RR Pant,KMA Paul,V Kohli,1,1,0,na,na,na,na,na,na,na,na,na
2nd innings,12.2,V Kohli,KMA Paul,RR Pant,0,0,0,na,na,na,na,na,na,na,na,na
2nd innings,12.3,V Kohli,KMA Paul,RR Pant,1,1,0,na,na,na,na,na,na,na,na,na
2nd innings,12.4,RR Pant,KMA Paul,V Kohli,1,1,0,na,na,na,na,na,na,na,na,na
2nd innings,12.5,V Kohli,KMA Paul,RR Pant,6,6,0,na,na,na,na,na,na,na,na,na
2nd innings,12.6,V Kohli,KMA Paul,RR Pant,0,0,0,na,na,na,na,na,na,na,na,na
2nd innings,13.1,RR Pant,CR Brathwaite,V Kohli,2,2,0,na,na,na,na,na,na,na,na,na
2nd innings,13.2,RR Pant,CR Brathwaite,V Kohli,1,1,0,na,na,na,na,na,na,na,na,na
2nd innings,13.3,V Kohli,CR Brathwaite,RR Pant,1,1,0,na,na,na,na,na,na,na,na,na
2nd innings,13.4,RR Pant,CR Brathwaite,V Kohli,0,0,0,na,na,na,na,na,na,na,na,na
2nd innings,13.5,RR Pant,CR Brathwaite,V Kohli,2,2,0,na,na,na,na,na,na,na,na,na
2nd innings,13.6,RR Pant,CR Brathwaite,V Kohli,4,4,0,na,na,na,na,na,na,na,na,na
2nd innings,14.1,V Kohli,KMA Paul,RR Pant,1,1,0,na,na,na,na,na,na,na,na,na
2nd innings,14.2,RR Pant,KMA Paul,V Kohli,1,1,0,na,na,na,na,na,na,na,na,na
2nd innings,14.3,V Kohli,KMA Paul,RR Pant,1,1,0,na,na,na,na,na,na,na,na,na
2nd innings,14.4,RR Pant,KMA Paul,V Kohli,4,4,0,na,na,na,na,na,na,na,na,na
2nd innings,14.5,RR Pant,KMA Paul,V Kohli,1,1,0,na,na,na,na,na,na,na,na,na
2nd innings,14.6,V Kohli,KMA Paul,RR Pant,6,6,0,na,na,na,na,na,na,na,na,na
2nd innings,15.1,RR Pant,SP Narine,V Kohli,4,4,0,na,na,na,na,na,na,na,na,na
2nd innings,15.2,RR Pant,SP Narine,V Kohli,1,1,0,na,na,na,na,na,na,na,na,na
2nd innings,15.3,V Kohli,SP Narine,RR Pant,1,1,0,na,na,na,na,na,na,na,na,na
2nd innings,15.4,RR Pant,SP Narine,V Kohli,0,0,0,na,na,na,na,na,na,na,na,na
2nd innings,15.5,RR Pant,SP Narine,V Kohli,1,1,0,na,na,na,na,na,na,na,na,na
2nd innings,15.6,V Kohli,SP Narine,RR Pant,4,4,0,na,na,na,na,na,na,na,na,na
2nd innings,16.1,RR Pant,SS Cottrell,V Kohli,1,1,0,na,na,na,na,na,na,na,na,na
2nd innings,16.2,V Kohli,SS Cottrell,RR Pant,2,2,0,na,na,na,na,na,na,na,na,na
2nd innings,16.3,V Kohli,SS Cottrell,RR Pant,1,1,0,na,na,na,na,na,na,na,na,na
2nd innings,16.4,RR Pant,SS Cottrell,V Kohli,1,1,0,na,na,na,na,na,na,na,na,na
2nd innings,16.5,V Kohli,SS Cottrell,RR Pant,0,0,0,na,na,na,na,na,na,na,na,na
2nd innings,16.6,V Kohli,SS Cottrell,RR Pant,4,4,0,na,na,na,na,na,na,na,na,na
2nd innings,17.1,RR Pant,O Thomas,V Kohli,0,0,0,na,na,na,na,na,na,na,na,na
2nd innings,17.2,RR Pant,O Thomas,V Kohli,4,4,0,na,na,na,na,na,na,na,na,na
2nd innings,17.3,RR Pant,O Thomas,V Kohli,0,0,0,na,na,na,na,na,caught,E Lewis,na,V Kohli
2nd innings,17.4,RR Pant,O Thomas,MK Pandey,1,1,0,na,na,na,na,na,na,na,na,na
2nd innings,17.5,MK Pandey,O Thomas,RR Pant,6,6,0,na,na,na,na,na,na,na,na,na
2nd innings,17.6,MK Pandey,O Thomas,RR Pant,1,1,0,na,na,na,na,na,na,na,na,na
2nd innings,18.1,MK Pandey,SS Cottrell,RR Pant,1,1,0,na,na,na,na,na,na,na,na,na
2nd innings,18.2,RR Pant,SS Cottrell,MK Pandey,0,0,0,na,na,na,na,na,na,na,na,na
2nd innings,18.3,RR Pant,SS Cottrell,MK Pandey,1,1,0,na,na,na,na,na,na,na,na,na
2nd innings,18.4,MK Pandey,SS Cottrell,RR Pant,1,1,0,na,na,na,na,na,na,na,na,na
2nd innings,18.5,RR Pant,SS Cottrell,MK Pandey,0,0,0,na,na,na,na,na,na,na,na,na
2nd innings,18.6,RR Pant,SS Cottrell,MK Pandey,0,0,0,na,na,na,na,na,na,na,na,na
2nd innings,19.1,MK Pandey,CR Brathwaite,RR Pant,6,6,0,na,na,na,na,na,na,na,na,na
