inngs,deliveries,non_striker,bowler,batsman,totalruns,batsman_runs,extra_runs,legbyes,byes,wides,noballs,penalty,wicket_kind,fielder1,fielder2,player_out
1st innings,0.1,WIA Fernando,Imad Wasim,MD Gunathilaka,0,0,0,na,na,na,na,na,na,na,na,na
1st innings,0.2,WIA Fernando,Imad Wasim,MD Gunathilaka,0,0,0,na,na,na,na,na,na,na,na,na
1st innings,0.3,WIA Fernando,Imad Wasim,MD Gunathilaka,0,0,0,na,na,na,na,na,na,na,na,na
1st innings,0.4,WIA Fernando,Imad Wasim,MD Gunathilaka,0,0,0,na,na,na,na,na,na,na,na,na
1st innings,0.5,WIA Fernando,Imad Wasim,MD Gunathilaka,4,0,4,na,na,4,na,na,na,na,na,na
1st innings,0.6,MD Gunathilaka,Imad Wasim,WIA Fernando,0,0,0,na,na,na,na,na,na,na,na,na
1st innings,0.7,MD Gunathilaka,Imad Wasim,WIA Fernando,1,1,0,na,na,na,na,na,na,na,na,na
1st innings,1.1,MD Gunathilaka,Faheem Ashraf,WIA Fernando,4,4,0,na,na,na,na,na,na,na,na,na
1st innings,1.2,MD Gunathilaka,Faheem Ashraf,WIA Fernando,1,1,0,na,na,na,na,na,na,na,na,na
1st innings,1.3,WIA Fernando,Faheem Ashraf,MD Gunathilaka,2,2,0,na,na,na,na,na,na,na,na,na
1st innings,1.4,WIA Fernando,Faheem Ashraf,MD Gunathilaka,4,4,0,na,na,na,na,na,na,na,na,na
1st innings,1.5,WIA Fernando,Faheem Ashraf,MD Gunathilaka,0,0,0,na,na,na,na,na,na,na,na,na
1st innings,1.6,WIA Fernando,Faheem Ashraf,MD Gunathilaka,1,1,0,na,na,na,na,na,na,na,na,na
1st innings,2.1,WIA Fernando,Imad Wasim,MD Gunathilaka,1,1,0,na,na,na,na,na,na,na,na,na
1st innings,2.2,MD Gunathilaka,Imad Wasim,WIA Fernando,0,0,0,na,na,na,na,na,na,na,na,na
1st innings,2.3,MD Gunathilaka,Imad Wasim,WIA Fernando,1,1,0,na,na,na,na,na,na,na,na,na
1st innings,2.4,WIA Fernando,Imad Wasim,MD Gunathilaka,4,4,0,na,na,na,na,na,na,na,na,na
1st innings,2.5,WIA Fernando,Imad Wasim,MD Gunathilaka,1,1,0,na,na,na,na,na,na,na,na,na
1st innings,2.6,MD Gunathilaka,Imad Wasim,WIA Fernando,1,1,0,na,na,na,na,na,na,na,na,na
1st innings,3.1,MD Gunathilaka,Mohammad Hasnain,WIA Fernando,1,1,0,na,na,na,na,na,na,na,na,na
1st innings,3.2,WIA Fernando,Mohammad Hasnain,MD Gunathilaka,1,0,1,na,na,1,na,na,na,na,na,na
1st innings,3.3,WIA Fernando,Mohammad Hasnain,MD Gunathilaka,4,0,4,4,na,na,na,na,na,na,na,na
1st innings,3.4,WIA Fernando,Mohammad Hasnain,MD Gunathilaka,1,0,1,na,na,1,na,na,na,na,na,na
1st innings,3.5,WIA Fernando,Mohammad Hasnain,MD Gunathilaka,4,4,0,na,na,na,na,na,na,na,na,na
1st innings,3.6,WIA Fernando,Mohammad Hasnain,MD Gunathilaka,4,4,0,na,na,na,na,na,na,na,na,na
1st innings,3.7,WIA Fernando,Mohammad Hasnain,MD Gunathilaka,0,0,0,na,na,na,na,na,na,na,na,na
1st innings,3.8,WIA Fernando,Mohammad Hasnain,MD Gunathilaka,1,1,0,na,na,na,na,na,na,na,na,na
1st innings,4.1,WIA Fernando,Mohammad Amir,MD Gunathilaka,1,1,0,na,na,na,na,na,na,na,na,na
1st innings,4.2,MD Gunathilaka,Mohammad Amir,WIA Fernando,1,1,0,na,na,na,na,na,na,na,na,na
1st innings,4.3,WIA Fernando,Mohammad Amir,MD Gunathilaka,4,4,0,na,na,na,na,na,na,na,na,na
1st innings,4.4,WIA Fernando,Mohammad Amir,MD Gunathilaka,2,2,0,na,na,na,na,na,na,na,na,na
1st innings,4.5,WIA Fernando,Mohammad Amir,MD Gunathilaka,1,0,1,1,na,na,na,na,na,na,na,na
1st innings,4.6,MD Gunathilaka,Mohammad Amir,WIA Fernando,0,0,0,na,na,na,na,na,na,na,na,na
1st innings,5.1,WIA Fernando,Shadab Khan,MD Gunathilaka,4,4,0,na,na,na,na,na,na,na,na,na
1st innings,5.2,WIA Fernando,Shadab Khan,MD Gunathilaka,4,4,0,na,na,na,na,na,na,na,na,na
1st innings,5.3,WIA Fernando,Shadab Khan,MD Gunathilaka,2,2,0,na,na,na,na,na,na,na,na,na
1st innings,5.4,WIA Fernando,Shadab Khan,MD Gunathilaka,0,0,0,na,na,na,na,na,na,na,na,na
1st innings,5.5,WIA Fernando,Shadab Khan,MD Gunathilaka,4,4,0,na,na,na,na,na,na,na,na,na
1st innings,5.6,WIA Fernando,Shadab Khan,MD Gunathilaka,0,0,0,na,na,na,na,na,na,na,na,na
1st innings,6.1,MD Gunathilaka,Faheem Ashraf,WIA Fernando,1,1,0,na,na,na,na,na,na,na,na,na
1st innings,6.2,WIA Fernando,Faheem Ashraf,MD Gunathilaka,0,0,0,na,na,na,na,na,na,na,na,na
1st innings,6.3,WIA Fernando,Faheem Ashraf,MD Gunathilaka,1,1,0,na,na,na,na,na,na,na,na,na
1st innings,6.4,MD Gunathilaka,Faheem Ashraf,WIA Fernando,1,1,0,na,na,na,na,na,na,na,na,na
1st innings,6.5,WIA Fernando,Faheem Ashraf,MD Gunathilaka,0,0,0,na,na,na,na,na,na,na,na,na
1st innings,6.6,WIA Fernando,Faheem Ashraf,MD Gunathilaka,1,1,0,na,na,na,na,na,na,na,na,na
1st innings,7.1,WIA Fernando,Shadab Khan,MD Gunathilaka,1,1,0,na,na,na,na,na,na,na,na,na
1st innings,7.2,MD Gunathilaka,Shadab Khan,WIA Fernando,0,0,0,na,na,na,na,na,na,na,na,na
1st innings,7.3,MD Gunathilaka,Shadab Khan,WIA Fernando,0,0,0,na,na,na,na,na,na,na,na,na
1st innings,7.4,MD Gunathilaka,Shadab Khan,WIA Fernando,1,1,0,na,na,na,na,na,na,na,na,na
1st innings,7.5,WIA Fernando,Shadab Khan,MD Gunathilaka,6,6,0,na,na,na,na,na,na,na,na,na
1st innings,7.6,WIA Fernando,Shadab Khan,MD Gunathilaka,1,1,0,na,na,na,na,na,na,na,na,na
1st innings,8.1,WIA Fernando,Imad Wasim,MD Gunathilaka,1,1,0,na,na,na,na,na,na,na,na,na
1st innings,8.2,MD Gunathilaka,Imad Wasim,WIA Fernando,1,1,0,na,na,na,na,na,na,na,na,na
1st innings,8.3,WIA Fernando,Imad Wasim,MD Gunathilaka,1,1,0,na,na,na,na,na,na,na,na,na
1st innings,8.4,MD Gunathilaka,Imad Wasim,WIA Fernando,0,0,0,na,na,na,na,na,na,na,na,na
1st innings,8.5,MD Gunathilaka,Imad Wasim,WIA Fernando,0,0,0,na,na,na,na,na,na,na,na,na
1st innings,8.6,MD Gunathilaka,Imad Wasim,WIA Fernando,1,1,0,na,na,na,na,na,na,na,na,na
1st innings,9.1,MD Gunathilaka,Shadab Khan,WIA Fernando,1,1,0,na,na,na,na,na,na,na,na,na
1st innings,9.2,WIA Fernando,Shadab Khan,MD Gunathilaka,0,0,0,na,na,na,na,na,na,na,na,na
1st innings,9.3,WIA Fernando,Shadab Khan,MD Gunathilaka,2,2,0,na,na,na,na,na,na,na,na,na
1st innings,9.4,WIA Fernando,Shadab Khan,MD Gunathilaka,0,0,0,na,na,na,na,na,lbw,na,na,MD Gunathilaka
1st innings,9.5,WIA Fernando,Shadab Khan,PBB Rajapaksa,0,0,0,na,na,na,na,na,na,na,na,na
1st innings,9.6,WIA Fernando,Shadab Khan,PBB Rajapaksa,0,0,0,na,na,na,na,na,na,na,na,na
1st innings,10.1,PBB Rajapaksa,Iftikhar Ahmed,WIA Fernando,4,4,0,na,na,na,na,na,na,na,na,na
1st innings,10.2,PBB Rajapaksa,Iftikhar Ahmed,WIA Fernando,0,0,0,na,na,na,na,na,na,na,na,na
1st innings,10.3,PBB Rajapaksa,Iftikhar Ahmed,WIA Fernando,1,1,0,na,na,na,na,na,na,na,na,na
1st innings,10.4,WIA Fernando,Iftikhar Ahmed,PBB Rajapaksa,0,0,0,na,na,na,na,na,na,na,na,na
1st innings,10.5,WIA Fernando,Iftikhar Ahmed,PBB Rajapaksa,0,0,0,na,na,na,na,na,na,na,na,na
1st innings,10.6,WIA Fernando,Iftikhar Ahmed,PBB Rajapaksa,2,2,0,na,na,na,na,na,na,na,na,na
1st innings,11.1,PBB Rajapaksa,Shadab Khan,WIA Fernando,0,0,0,na,na,na,na,na,na,na,na,na
1st innings,11.2,PBB Rajapaksa,Shadab Khan,WIA Fernando,1,1,0,na,na,na,na,na,na,na,na,na
1st innings,11.3,WIA Fernando,Shadab Khan,PBB Rajapaksa,6,6,0,na,na,na,na,na,na,na,na,na
1st innings,11.4,WIA Fernando,Shadab Khan,PBB Rajapaksa,1,1,0,na,na,na,na,na,na,na,na,na
1st innings,11.5,PBB Rajapaksa,Shadab Khan,WIA Fernando,1,1,0,na,na,na,na,na,na,na,na,na
1st innings,11.6,WIA Fernando,Shadab Khan,PBB Rajapaksa,0,0,0,na,na,na,na,na,na,na,na,na
1st innings,12.1,PBB Rajapaksa,Imad Wasim,WIA Fernando,1,1,0,na,na,na,na,na,na,na,na,na
1st innings,12.2,WIA Fernando,Imad Wasim,PBB Rajapaksa,4,4,0,na,na,na,na,na,na,na,na,na
1st innings,12.3,WIA Fernando,Imad Wasim,PBB Rajapaksa,1,1,0,na,na,na,na,na,na,na,na,na
1st innings,12.4,PBB Rajapaksa,Imad Wasim,WIA Fernando,0,0,0,na,na,na,na,na,na,na,na,na
1st innings,12.5,PBB Rajapaksa,Imad Wasim,WIA Fernando,1,1,0,na,na,na,na,na,na,na,na,na
1st innings,12.6,WIA Fernando,Imad Wasim,PBB Rajapaksa,0,0,0,na,na,na,na,na,na,na,na,na
1st innings,13.1,PBB Rajapaksa,Mohammad Hasnain,WIA Fernando,1,1,0,na,na,na,na,na,na,na,na,na
1st innings,13.2,WIA Fernando,Mohammad Hasnain,PBB Rajapaksa,1,1,0,na,na,na,na,na,na,na,na,na
1st innings,13.3,PBB Rajapaksa,Mohammad Hasnain,WIA Fernando,2,2,0,na,na,na,na,na,na,na,na,na
1st innings,13.4,PBB Rajapaksa,Mohammad Hasnain,WIA Fernando,1,1,0,na,na,na,na,na,na,na,na,na
1st innings,13.5,WIA Fernando,Mohammad Hasnain,PBB Rajapaksa,1,1,0,na,na,na,na,na,na,na,na,na
1st innings,13.6,PBB Rajapaksa,Mohammad Hasnain,WIA Fernando,4,4,0,na,na,na,na,na,na,na,na,na
1st innings,14.1,WIA Fernando,Mohammad Amir,PBB Rajapaksa,0,0,0,na,na,na,na,na,na,na,na,na
1st innings,14.2,WIA Fernando,Mohammad Amir,PBB Rajapaksa,2,2,0,na,na,na,na,na,na,na,na,na
1st innings,14.3,WIA Fernando,Mohammad Amir,PBB Rajapaksa,1,1,0,na,na,na,na,na,na,na,na,na
1st innings,14.4,PBB Rajapaksa,Mohammad Amir,WIA Fernando,0,0,0,na,na,na,na,na,run out,na,na,WIA Fernando
1st innings,14.5,MD Shanaka,Mohammad Amir,PBB Rajapaksa,4,4,0,na,na,na,na,na,na,na,na,na
1st innings,14.6,MD Shanaka,Mohammad Amir,PBB Rajapaksa,2,2,0,na,na,na,na,na,na,na,na,na
1st innings,15.1,PBB Rajapaksa,Mohammad Hasnain,MD Shanaka,1,1,0,na,na,na,na,na,na,na,na,na
1st innings,15.2,MD Shanaka,Mohammad Hasnain,PBB Rajapaksa,6,6,0,na,na,na,na,na,na,na,na,na
1st innings,15.3,MD Shanaka,Mohammad Hasnain,PBB Rajapaksa,1,1,0,na,na,na,na,na,na,na,na,na
1st innings,15.4,PBB Rajapaksa,Mohammad Hasnain,MD Shanaka,1,1,0,na,na,na,na,na,na,na,na,na
1st innings,15.5,MD Shanaka,Mohammad Hasnain,PBB Rajapaksa,0,0,0,na,na,na,na,na,na,na,na,na
1st innings,15.6,MD Shanaka,Mohammad Hasnain,PBB Rajapaksa,0,0,0,na,na,na,na,na,lbw,na,na,PBB Rajapaksa
1st innings,16.1,GSNFG Jayasuriya,Faheem Ashraf,MD Shanaka,1,1,0,na,na,na,na,na,na,na,na,na
1st innings,16.2,MD Shanaka,Faheem Ashraf,GSNFG Jayasuriya,0,0,0,na,na,na,na,na,na,na,na,na
1st innings,16.3,MD Shanaka,Faheem Ashraf,GSNFG Jayasuriya,1,1,0,na,na,na,na,na,na,na,na,na
1st innings,16.4,GSNFG Jayasuriya,Faheem Ashraf,MD Shanaka,6,6,0,na,na,na,na,na,na,na,na,na
1st innings,16.5,GSNFG Jayasuriya,Faheem Ashraf,MD Shanaka,6,6,0,na,na,na,na,na,na,na,na,na
1st innings,16.6,GSNFG Jayasuriya,Faheem Ashraf,MD Shanaka,1,1,0,na,na,na,na,na,na,na,na,na
1st innings,17.1,GSNFG Jayasuriya,Mohammad Amir,MD Shanaka,0,0,0,na,na,na,na,na,na,na,na,na
1st innings,17.2,GSNFG Jayasuriya,Mohammad Amir,MD Shanaka,1,0,1,1,na,na,na,na,na,na,na,na
1st innings,17.3,MD Shanaka,Mohammad Amir,GSNFG Jayasuriya,1,1,0,na,na,na,na,na,na,na,na,na
1st innings,17.4,GSNFG Jayasuriya,Mohammad Amir,MD Shanaka,1,1,0,na,na,na,na,na,na,na,na,na
1st innings,17.5,MD Shanaka,Mohammad Amir,GSNFG Jayasuriya,0,0,0,na,na,na,na,na,na,na,na,na
1st innings,17.6,MD Shanaka,Mohammad Amir,GSNFG Jayasuriya,0,0,0,na,na,na,na,na,na,na,na,na
1st innings,18.1,GSNFG Jayasuriya,Mohammad Hasnain,MD Shanaka,0,0,0,na,na,na,na,na,caught,Umar Akmal,na,MD Shanaka
1st innings,18.2,I Udana,Mohammad Hasnain,GSNFG Jayasuriya,0,0,0,na,na,na,na,na,caught,Ahmed Shehzad,na,GSNFG Jayasuriya
1st innings,18.3,I Udana,Mohammad Hasnain,PWH de Silva,0,0,0,na,na,na,na,na,na,na,na,na
1st innings,18.4,I Udana,Mohammad Hasnain,PWH de Silva,1,1,0,na,na,na,na,na,na,na,na,na
1st innings,18.5,PWH de Silva,Mohammad Hasnain,I Udana,1,1,0,na,na,na,na,na,na,na,na,na
1st innings,18.6,I Udana,Mohammad Hasnain,PWH de Silva,4,4,0,na,na,na,na,na,na,na,na,na
1st innings,19.1,PWH de Silva,Mohammad Amir,I Udana,2,2,0,na,na,na,na,na,na,na,na,na
1st innings,19.2,PWH de Silva,Mohammad Amir,I Udana,1,1,0,na,na,na,na,na,na,na,na,na
1st innings,19.3,I Udana,Mohammad Amir,PWH de Silva,0,0,0,na,na,na,na,na,na,na,na,na
1st innings,19.4,I Udana,Mohammad Amir,PWH de Silva,1,1,0,na,na,na,na,na,na,na,na,na
1st innings,19.5,PWH de Silva,Mohammad Amir,I Udana,1,1,0,na,na,na,na,na,na,na,na,na
1st innings,19.6,I Udana,Mohammad Amir,PWH de Silva,1,1,0,na,na,na,na,na,na,na,na,na
2nd innings,0.1,Ahmed Shehzad,CAK Rajitha,Babar Azam,0,0,0,na,na,na,na,na,na,na,na,na
2nd innings,0.2,Ahmed Shehzad,CAK Rajitha,Babar Azam,0,0,0,na,na,na,na,na,na,na,na,na
2nd innings,0.3,Ahmed Shehzad,CAK Rajitha,Babar Azam,4,4,0,na,na,na,na,na,na,na,na,na
2nd innings,0.4,Ahmed Shehzad,CAK Rajitha,Babar Azam,0,0,0,na,na,na,na,na,na,na,na,na
2nd innings,0.5,Ahmed Shehzad,CAK Rajitha,Babar Azam,3,3,0,na,na,na,na,na,na,na,na,na
2nd innings,0.6,Babar Azam,CAK Rajitha,Ahmed Shehzad,0,0,0,na,na,na,na,na,na,na,na,na
2nd innings,1.1,Ahmed Shehzad,N Pradeep,Babar Azam,0,0,0,na,na,na,na,na,na,na,na,na
2nd innings,1.2,Ahmed Shehzad,N Pradeep,Babar Azam,2,2,0,na,na,na,na,na,na,na,na,na
2nd innings,1.3,Ahmed Shehzad,N Pradeep,Babar Azam,0,0,0,na,na,na,na,na,na,na,na,na
2nd innings,1.4,Ahmed Shehzad,N Pradeep,Babar Azam,4,4,0,na,na,na,na,na,na,na,na,na
2nd innings,1.5,Ahmed Shehzad,N Pradeep,Babar Azam,0,0,0,na,na,na,na,na,caught,M Bhanuka,na,Babar Azam
2nd innings,1.6,Ahmed Shehzad,N Pradeep,Umar Akmal,0,0,0,na,na,na,na,na,lbw,na,na,Umar Akmal
2nd innings,2.1,Sarfraz Ahmed,CAK Rajitha,Ahmed Shehzad,0,0,0,na,na,na,na,na,na,na,na,na
2nd innings,2.2,Sarfraz Ahmed,CAK Rajitha,Ahmed Shehzad,1,0,1,1,na,na,na,na,na,na,na,na
2nd innings,2.3,Ahmed Shehzad,CAK Rajitha,Sarfraz Ahmed,0,0,0,na,na,na,na,na,na,na,na,na
2nd innings,2.4,Ahmed Shehzad,CAK Rajitha,Sarfraz Ahmed,1,1,0,na,na,na,na,na,na,na,na,na
2nd innings,2.5,Sarfraz Ahmed,CAK Rajitha,Ahmed Shehzad,0,0,0,na,na,na,na,na,na,na,na,na
2nd innings,2.6,Sarfraz Ahmed,CAK Rajitha,Ahmed Shehzad,0,0,0,na,na,na,na,na,na,na,na,na
2nd innings,3.1,Ahmed Shehzad,N Pradeep,Sarfraz Ahmed,0,0,0,na,na,na,na,na,na,na,na,na
2nd innings,3.2,Ahmed Shehzad,N Pradeep,Sarfraz Ahmed,1,1,0,na,na,na,na,na,na,na,na,na
2nd innings,3.3,Sarfraz Ahmed,N Pradeep,Ahmed Shehzad,1,1,0,na,na,na,na,na,na,na,na,na
2nd innings,3.4,Ahmed Shehzad,N Pradeep,Sarfraz Ahmed,1,1,0,na,na,na,na,na,na,na,na,na
2nd innings,3.5,Sarfraz Ahmed,N Pradeep,Ahmed Shehzad,1,0,1,na,na,1,na,na,na,na,na,na
2nd innings,3.6,Sarfraz Ahmed,N Pradeep,Ahmed Shehzad,1,1,0,na,na,na,na,na,na,na,na,na
2nd innings,3.7,Ahmed Shehzad,N Pradeep,Sarfraz Ahmed,0,0,0,na,na,na,na,na,na,na,na,na
2nd innings,4.1,Sarfraz Ahmed,I Udana,Ahmed Shehzad,2,2,0,na,na,na,na,na,na,na,na,na
2nd innings,4.2,Sarfraz Ahmed,I Udana,Ahmed Shehzad,0,0,0,na,na,na,na,na,bowled,na,na,Ahmed Shehzad
2nd innings,4.3,Sarfraz Ahmed,I Udana,Iftikhar Ahmed,0,0,0,na,na,na,na,na,na,na,na,na
2nd innings,4.4,Sarfraz Ahmed,I Udana,Iftikhar Ahmed,0,0,0,na,na,na,na,na,na,na,na,na
2nd innings,4.5,Sarfraz Ahmed,I Udana,Iftikhar Ahmed,0,0,0,na,na,na,na,na,na,na,na,na
2nd innings,4.6,Sarfraz Ahmed,I Udana,Iftikhar Ahmed,4,4,0,na,na,na,na,na,na,na,na,na
2nd innings,5.1,Iftikhar Ahmed,PWH de Silva,Sarfraz Ahmed,1,1,0,na,na,na,na,na,na,na,na,na
2nd innings,5.2,Sarfraz Ahmed,PWH de Silva,Iftikhar Ahmed,1,1,0,na,na,na,na,na,na,na,na,na
2nd innings,5.3,Iftikhar Ahmed,PWH de Silva,Sarfraz Ahmed,0,0,0,na,na,na,na,na,na,na,na,na
2nd innings,5.4,Iftikhar Ahmed,PWH de Silva,Sarfraz Ahmed,0,0,0,na,na,na,na,na,na,na,na,na
2nd innings,5.5,Iftikhar Ahmed,PWH de Silva,Sarfraz Ahmed,1,1,0,na,na,na,na,na,na,na,na,na
2nd innings,5.6,Sarfraz Ahmed,PWH de Silva,Iftikhar Ahmed,1,1,0,na,na,na,na,na,na,na,na,na
2nd innings,6.1,Sarfraz Ahmed,PADLR Sandakan,Iftikhar Ahmed,1,1,0,na,na,na,na,na,na,na,na,na
2nd innings,6.2,Iftikhar Ahmed,PADLR Sandakan,Sarfraz Ahmed,0,0,0,na,na,na,na,na,na,na,na,na
2nd innings,6.3,Iftikhar Ahmed,PADLR Sandakan,Sarfraz Ahmed,1,1,0,na,na,na,na,na,na,na,na,na
2nd innings,6.4,Sarfraz Ahmed,PADLR Sandakan,Iftikhar Ahmed,1,1,0,na,na,na,na,na,na,na,na,na
2nd innings,6.5,Iftikhar Ahmed,PADLR Sandakan,Sarfraz Ahmed,1,1,0,na,na,na,na,na,na,na,na,na
2nd innings,6.6,Sarfraz Ahmed,PADLR Sandakan,Iftikhar Ahmed,1,1,0,na,na,na,na,na,na,na,na,na
2nd innings,7.1,Sarfraz Ahmed,PWH de Silva,Iftikhar Ahmed,1,1,0,na,na,na,na,na,na,na,na,na
2nd innings,7.2,Iftikhar Ahmed,PWH de Silva,Sarfraz Ahmed,2,2,0,na,na,na,na,na,na,na,na,na
2nd innings,7.3,Iftikhar Ahmed,PWH de Silva,Sarfraz Ahmed,1,1,0,na,na,na,na,na,na,na,na,na
2nd innings,7.4,Sarfraz Ahmed,PWH de Silva,Iftikhar Ahmed,1,1,0,na,na,na,na,na,na,na,na,na
2nd innings,7.5,Iftikhar Ahmed,PWH de Silva,Sarfraz Ahmed,1,0,1,1,na,na,na,na,na,na,na,na
2nd innings,7.6,Sarfraz Ahmed,PWH de Silva,Iftikhar Ahmed,4,4,0,na,na,na,na,na,na,na,na,na
2nd innings,8.1,Iftikhar Ahmed,PADLR Sandakan,Sarfraz Ahmed,1,1,0,na,na,na,na,na,na,na,na,na
2nd innings,8.2,Sarfraz Ahmed,PADLR Sandakan,Iftikhar Ahmed,1,1,0,na,na,na,na,na,na,na,na,na
2nd innings,8.3,Iftikhar Ahmed,PADLR Sandakan,Sarfraz Ahmed,1,1,0,na,na,na,na,na,na,na,na,na
2nd innings,8.4,Sarfraz Ahmed,PADLR Sandakan,Iftikhar Ahmed,1,1,0,na,na,na,na,na,na,na,na,na
2nd innings,8.5,Iftikhar Ahmed,PADLR Sandakan,Sarfraz Ahmed,1,1,0,na,na,na,na,na,na,na,na,na
2nd innings,8.6,Sarfraz Ahmed,PADLR Sandakan,Iftikhar Ahmed,1,1,0,na,na,na,na,na,na,na,na,na
2nd innings,9.1,Sarfraz Ahmed,CAK Rajitha,Iftikhar Ahmed,1,1,0,na,na,na,na,na,na,na,na,na
2nd innings,9.2,Iftikhar Ahmed,CAK Rajitha,Sarfraz Ahmed,1,0,1,1,na,na,na,na,na,na,na,na
2nd innings,9.3,Sarfraz Ahmed,CAK Rajitha,Iftikhar Ahmed,1,1,0,na,na,na,na,na,na,na,na,na
2nd innings,9.4,Iftikhar Ahmed,CAK Rajitha,Sarfraz Ahmed,1,1,0,na,na,na,na,na,na,na,na,na
2nd innings,9.5,Sarfraz Ahmed,CAK Rajitha,Iftikhar Ahmed,0,0,0,na,na,na,na,na,na,na,na,na
2nd innings,9.6,Sarfraz Ahmed,CAK Rajitha,Iftikhar Ahmed,2,2,0,na,na,na,na,na,na,na,na,na
2nd innings,10.1,Iftikhar Ahmed,PADLR Sandakan,Sarfraz Ahmed,1,1,0,na,na,na,na,na,na,na,na,na
2nd innings,10.2,Sarfraz Ahmed,PADLR Sandakan,Iftikhar Ahmed,1,0,1,na,na,1,na,na,na,na,na,na
2nd innings,10.3,Sarfraz Ahmed,PADLR Sandakan,Iftikhar Ahmed,2,2,0,na,na,na,na,na,na,na,na,na
2nd innings,10.4,Sarfraz Ahmed,PADLR Sandakan,Iftikhar Ahmed,0,0,0,na,na,na,na,na,na,na,na,na
2nd innings,10.5,Sarfraz Ahmed,PADLR Sandakan,Iftikhar Ahmed,1,1,0,na,na,na,na,na,na,na,na,na
2nd innings,10.6,Iftikhar Ahmed,PADLR Sandakan,Sarfraz Ahmed,0,0,0,na,na,na,na,na,na,na,na,na
2nd innings,10.7,Iftikhar Ahmed,PADLR Sandakan,Sarfraz Ahmed,4,4,0,na,na,na,na,na,na,na,na,na
2nd innings,11.1,Sarfraz Ahmed,I Udana,Iftikhar Ahmed,1,0,1,1,na,na,na,na,na,na,na,na
2nd innings,11.2,Iftikhar Ahmed,I Udana,Sarfraz Ahmed,1,1,0,na,na,na,na,na,na,na,na,na
2nd innings,11.3,Sarfraz Ahmed,I Udana,Iftikhar Ahmed,0,0,0,na,na,na,na,na,run out,na,na,Iftikhar Ahmed
2nd innings,11.4,Asif Ali,I Udana,Sarfraz Ahmed,1,1,0,na,na,na,na,na,na,na,na,na
2nd innings,11.5,Sarfraz Ahmed,I Udana,Asif Ali,1,1,0,na,na,na,na,na,na,na,na,na
2nd innings,11.6,Asif Ali,I Udana,Sarfraz Ahmed,1,1,0,na,na,na,na,na,na,na,na,na
2nd innings,12.1,Asif Ali,PADLR Sandakan,Sarfraz Ahmed,1,1,0,na,na,na,na,na,na,na,na,na
2nd innings,12.2,Sarfraz Ahmed,PADLR Sandakan,Asif Ali,0,0,0,na,na,na,na,na,na,na,na,na
2nd innings,12.3,Sarfraz Ahmed,PADLR Sandakan,Asif Ali,1,1,0,na,na,na,na,na,na,na,na,na
2nd innings,12.4,Asif Ali,PADLR Sandakan,Sarfraz Ahmed,1,1,0,na,na,na,na,na,na,na,na,na
2nd innings,12.5,Sarfraz Ahmed,PADLR Sandakan,Asif Ali,0,0,0,na,na,na,na,na,na,na,na,na
2nd innings,12.6,Sarfraz Ahmed,PADLR Sandakan,Asif Ali,1,1,0,na,na,na,na,na,na,na,na,na
2nd innings,13.1,Sarfraz Ahmed,PWH de Silva,Asif Ali,1,1,0,na,na,na,na,na,na,na,na,na
2nd innings,13.2,Asif Ali,PWH de Silva,Sarfraz Ahmed,0,0,0,na,na,na,na,na,bowled,na,na,Sarfraz Ahmed
2nd innings,13.3,Asif Ali,PWH de Silva,Imad Wasim,1,1,0,na,na,na,na,na,na,na,na,na
2nd innings,13.4,Imad Wasim,PWH de Silva,Asif Ali,0,0,0,na,na,na,na,na,na,na,na,na
2nd innings,13.5,Imad Wasim,PWH de Silva,Asif Ali,1,1,0,na,na,na,na,na,na,na,na,na
2nd innings,13.6,Asif Ali,PWH de Silva,Imad Wasim,1,1,0,na,na,na,na,na,na,na,na,na
2nd innings,14.1,Asif Ali,CAK Rajitha,Imad Wasim,4,4,0,na,na,na,na,na,na,na,na,na
2nd innings,14.2,Asif Ali,CAK Rajitha,Imad Wasim,1,1,0,na,na,na,na,na,na,na,na,na
2nd innings,14.3,Imad Wasim,CAK Rajitha,Asif Ali,1,1,0,na,na,na,na,na,na,na,na,na
2nd innings,14.4,Asif Ali,CAK Rajitha,Imad Wasim,0,0,0,na,na,na,na,na,caught,PWH de Silva,na,Imad Wasim
2nd innings,14.5,Asif Ali,CAK Rajitha,Faheem Ashraf,0,0,0,na,na,na,na,na,na,na,na,na
2nd innings,14.6,Asif Ali,CAK Rajitha,Faheem Ashraf,1,1,0,na,na,na,na,na,na,na,na,na
2nd innings,15.1,Asif Ali,PWH de Silva,Faheem Ashraf,1,0,1,1,na,na,na,na,na,na,na,na
2nd innings,15.2,Faheem Ashraf,PWH de Silva,Asif Ali,0,0,0,na,na,na,na,na,caught,MD Gunathilaka,na,Asif Ali
2nd innings,15.3,Shadab Khan,PWH de Silva,Faheem Ashraf,1,1,0,na,na,na,na,na,na,na,na,na
2nd innings,15.4,Faheem Ashraf,PWH de Silva,Shadab Khan,0,0,0,na,na,na,na,na,na,na,na,na
2nd innings,15.5,Faheem Ashraf,PWH de Silva,Shadab Khan,1,1,0,na,na,na,na,na,na,na,na,na
2nd innings,15.6,Shadab Khan,PWH de Silva,Faheem Ashraf,1,1,0,na,na,na,na,na,na,na,na,na
2nd innings,16.1,Shadab Khan,N Pradeep,Faheem Ashraf,4,4,0,na,na,na,na,na,na,na,na,na
2nd innings,16.2,Shadab Khan,N Pradeep,Faheem Ashraf,1,1,0,na,na,na,na,na,na,na,na,na
2nd innings,16.3,Faheem Ashraf,N Pradeep,Shadab Khan,1,1,0,na,na,na,na,na,na,na,na,na
2nd innings,16.4,Shadab Khan,N Pradeep,Faheem Ashraf,0,0,0,na,na,na,na,na,caught,MD Gunathilaka,na,Faheem Ashraf
2nd innings,16.5,Mohammad Amir,N Pradeep,Shadab Khan,0,0,0,na,na,na,na,na,na,na,na,na
2nd innings,16.6,Mohammad Amir,N Pradeep,Shadab Khan,4,4,0,na,na,na,na,na,na,na,na,na
2nd innings,17.1,Shadab Khan,I Udana,Mohammad Amir,1,1,0,na,na,na,na,na,na,na,na,na
2nd innings,17.2,Mohammad Amir,I Udana,Shadab Khan,0,0,0,na,na,na,na,na,na,na,na,na
2nd innings,17.3,Mohammad Amir,I Udana,Shadab Khan,0,0,0,na,na,na,na,na,caught,WIA Fernando,na,Shadab Khan
2nd innings,17.4,Mohammad Hasnain,I Udana,Mohammad Amir,0,0,0,na,na,na,na,na,caught,MD Gunathilaka,na,Mohammad Amir
