inngs,deliveries,non_striker,bowler,batsman,totalruns,batsman_runs,extra_runs,legbyes,byes,wides,noballs,penalty,wicket_kind,fielder1,fielder2,player_out
1st innings,0.1,Rahmanullah Gurbaz,PR Stirling,Hazratullah,0,0,0,na,na,na,na,na,na,na,na,na
1st innings,0.2,Rahmanullah Gurbaz,PR Stirling,Hazratullah,1,1,0,na,na,na,na,na,na,na,na,na
1st innings,0.3,Hazratullah,PR Stirling,Rahmanullah Gurbaz,1,1,0,na,na,na,na,na,na,na,na,na
1st innings,0.4,Rahmanullah Gurbaz,PR Stirling,Hazratullah,0,0,0,na,na,na,na,na,na,na,na,na
1st innings,0.5,Rahmanullah Gurbaz,PR Stirling,Hazratullah,1,1,0,na,na,na,na,na,na,na,na,na
1st innings,0.6,Hazratullah,PR Stirling,Rahmanullah Gurbaz,0,0,0,na,na,na,na,na,na,na,na,na
1st innings,1.1,Rahmanullah Gurbaz,WB Rankin,Hazratullah,1,0,1,1,na,na,na,na,na,na,na,na
1st innings,1.2,Hazratullah,WB Rankin,Rahmanullah Gurbaz,0,0,0,na,na,na,na,na,na,na,na,na
1st innings,1.3,Hazratullah,WB Rankin,Rahmanullah Gurbaz,0,0,0,na,na,na,na,na,na,na,na,na
1st innings,1.4,Hazratullah,WB Rankin,Rahmanullah Gurbaz,0,0,0,na,na,na,na,na,na,na,na,na
1st innings,1.5,Hazratullah,WB Rankin,Rahmanullah Gurbaz,1,1,0,na,na,na,na,na,na,na,na,na
1st innings,1.6,Rahmanullah Gurbaz,WB Rankin,Hazratullah,1,1,0,na,na,na,na,na,na,na,na,na
1st innings,2.1,Rahmanullah Gurbaz,Simi Singh,Hazratullah,0,0,0,na,na,na,na,na,na,na,na,na
1st innings,2.2,Rahmanullah Gurbaz,Simi Singh,Hazratullah,1,1,0,na,na,na,na,na,na,na,na,na
1st innings,2.3,Hazratullah,Simi Singh,Rahmanullah Gurbaz,0,0,0,na,na,na,na,na,na,na,na,na
1st innings,2.4,Hazratullah,Simi Singh,Rahmanullah Gurbaz,2,2,0,na,na,na,na,na,na,na,na,na
1st innings,2.5,Hazratullah,Simi Singh,Rahmanullah Gurbaz,1,1,0,na,na,na,na,na,na,na,na,na
1st innings,2.6,Rahmanullah Gurbaz,Simi Singh,Hazratullah,1,1,0,na,na,na,na,na,na,na,na,na
1st innings,3.1,Rahmanullah Gurbaz,J Little,Hazratullah,0,0,0,na,na,na,na,na,na,na,na,na
1st innings,3.2,Rahmanullah Gurbaz,J Little,Hazratullah,2,2,0,na,na,na,na,na,na,na,na,na
1st innings,3.3,Rahmanullah Gurbaz,J Little,Hazratullah,0,0,0,na,na,na,na,na,na,na,na,na
1st innings,3.4,Rahmanullah Gurbaz,J Little,Hazratullah,0,0,0,na,na,na,na,na,na,na,na,na
1st innings,3.5,Rahmanullah Gurbaz,J Little,Hazratullah,4,4,0,na,na,na,na,na,na,na,na,na
1st innings,3.6,Rahmanullah Gurbaz,J Little,Hazratullah,1,1,0,na,na,na,na,na,na,na,na,na
1st innings,4.1,Rahmanullah Gurbaz,Simi Singh,Hazratullah,1,1,0,na,na,na,na,na,na,na,na,na
1st innings,4.2,Hazratullah,Simi Singh,Rahmanullah Gurbaz,6,6,0,na,na,na,na,na,na,na,na,na
1st innings,4.3,Hazratullah,Simi Singh,Rahmanullah Gurbaz,1,1,0,na,na,na,na,na,na,na,na,na
1st innings,4.4,Rahmanullah Gurbaz,Simi Singh,Hazratullah,1,0,1,1,na,na,na,na,na,na,na,na
1st innings,4.5,Hazratullah,Simi Singh,Rahmanullah Gurbaz,1,1,0,na,na,na,na,na,na,na,na,na
1st innings,4.6,Rahmanullah Gurbaz,Simi Singh,Hazratullah,1,1,0,na,na,na,na,na,na,na,na,na
1st innings,5.1,Rahmanullah Gurbaz,WB Rankin,Hazratullah,2,2,0,na,na,na,na,na,na,na,na,na
1st innings,5.2,Rahmanullah Gurbaz,WB Rankin,Hazratullah,2,2,0,na,na,na,na,na,na,na,na,na
1st innings,5.3,Rahmanullah Gurbaz,WB Rankin,Hazratullah,0,0,0,na,na,na,na,na,na,na,na,na
1st innings,5.4,Rahmanullah Gurbaz,WB Rankin,Hazratullah,0,0,0,na,na,na,na,na,na,na,na,na
1st innings,5.5,Rahmanullah Gurbaz,WB Rankin,Hazratullah,0,0,0,na,na,na,na,na,na,na,na,na
1st innings,5.6,Rahmanullah Gurbaz,WB Rankin,Hazratullah,1,1,0,na,na,na,na,na,na,na,na,na
1st innings,6.1,Rahmanullah Gurbaz,GH Dockrell,Hazratullah,6,6,0,na,na,na,na,na,na,na,na,na
1st innings,6.2,Rahmanullah Gurbaz,GH Dockrell,Hazratullah,1,1,0,na,na,na,na,na,na,na,na,na
1st innings,6.3,Hazratullah,GH Dockrell,Rahmanullah Gurbaz,1,1,0,na,na,na,na,na,na,na,na,na
1st innings,6.4,Rahmanullah Gurbaz,GH Dockrell,Hazratullah,1,0,1,na,na,1,na,na,na,na,na,na
1st innings,6.5,Rahmanullah Gurbaz,GH Dockrell,Hazratullah,0,0,0,na,na,na,na,na,na,na,na,na
1st innings,6.6,Rahmanullah Gurbaz,GH Dockrell,Hazratullah,1,1,0,na,na,na,na,na,na,na,na,na
1st innings,6.7,Hazratullah,GH Dockrell,Rahmanullah Gurbaz,2,2,0,na,na,na,na,na,na,na,na,na
1st innings,7.1,Rahmanullah Gurbaz,CA Young,Hazratullah,1,1,0,na,na,na,na,na,na,na,na,na
1st innings,7.2,Hazratullah,CA Young,Rahmanullah Gurbaz,0,0,0,na,na,na,na,na,na,na,na,na
1st innings,7.3,Hazratullah,CA Young,Rahmanullah Gurbaz,1,0,1,1,na,na,na,na,na,na,na,na
1st innings,7.4,Rahmanullah Gurbaz,CA Young,Hazratullah,0,0,0,na,na,na,na,na,na,na,na,na
1st innings,7.5,Rahmanullah Gurbaz,CA Young,Hazratullah,2,0,2,2,na,na,na,na,na,na,na,na
1st innings,7.6,Rahmanullah Gurbaz,CA Young,Hazratullah,0,0,0,na,na,na,na,na,na,na,na,na
1st innings,8.1,Hazratullah,GJ Delany,Rahmanullah Gurbaz,0,0,0,na,na,na,na,na,na,na,na,na
1st innings,8.2,Hazratullah,GJ Delany,Rahmanullah Gurbaz,6,6,0,na,na,na,na,na,na,na,na,na
1st innings,8.3,Hazratullah,GJ Delany,Rahmanullah Gurbaz,1,1,0,na,na,na,na,na,na,na,na,na
1st innings,8.4,Rahmanullah Gurbaz,GJ Delany,Hazratullah,0,0,0,na,na,na,na,na,caught and bowled,na,na,Hazratullah
1st innings,8.5,Rahmanullah Gurbaz,GJ Delany,Asghar Stanikzai,0,0,0,na,na,na,na,na,na,na,na,na
1st innings,8.6,Rahmanullah Gurbaz,GJ Delany,Asghar Stanikzai,1,1,0,na,na,na,na,na,na,na,na,na
1st innings,9.1,Rahmanullah Gurbaz,J Little,Asghar Stanikzai,1,1,0,na,na,na,na,na,na,na,na,na
1st innings,9.2,Asghar Stanikzai,J Little,Rahmanullah Gurbaz,1,1,0,na,na,na,na,na,na,na,na,na
1st innings,9.3,Rahmanullah Gurbaz,J Little,Asghar Stanikzai,1,1,0,na,na,na,na,na,na,na,na,na
1st innings,9.4,Asghar Stanikzai,J Little,Rahmanullah Gurbaz,1,1,0,na,na,na,na,na,na,na,na,na
1st innings,9.5,Rahmanullah Gurbaz,J Little,Asghar Stanikzai,1,1,0,na,na,na,na,na,na,na,na,na
1st innings,9.6,Asghar Stanikzai,J Little,Rahmanullah Gurbaz,1,1,0,na,na,na,na,na,na,na,na,na
1st innings,10.1,Asghar Stanikzai,GJ Delany,Rahmanullah Gurbaz,0,0,0,na,na,na,na,na,na,na,na,na
1st innings,10.2,Asghar Stanikzai,GJ Delany,Rahmanullah Gurbaz,6,6,0,na,na,na,na,na,na,na,na,na
1st innings,10.3,Asghar Stanikzai,GJ Delany,Rahmanullah Gurbaz,1,1,0,na,na,na,na,na,na,na,na,na
1st innings,10.4,Rahmanullah Gurbaz,GJ Delany,Asghar Stanikzai,0,0,0,na,na,na,na,na,na,na,na,na
1st innings,10.5,Rahmanullah Gurbaz,GJ Delany,Asghar Stanikzai,1,1,0,na,na,na,na,na,na,na,na,na
1st innings,10.6,Asghar Stanikzai,GJ Delany,Rahmanullah Gurbaz,1,1,0,na,na,na,na,na,na,na,na,na
1st innings,11.1,Asghar Stanikzai,CA Young,Rahmanullah Gurbaz,0,0,0,na,na,na,na,na,na,na,na,na
1st innings,11.2,Asghar Stanikzai,CA Young,Rahmanullah Gurbaz,0,0,0,na,na,na,na,na,na,na,na,na
1st innings,11.3,Asghar Stanikzai,CA Young,Rahmanullah Gurbaz,1,0,1,na,na,1,na,na,na,na,na,na
1st innings,11.4,Asghar Stanikzai,CA Young,Rahmanullah Gurbaz,1,1,0,na,na,na,na,na,na,na,na,na
1st innings,11.5,Rahmanullah Gurbaz,CA Young,Asghar Stanikzai,0,0,0,na,na,na,na,na,na,na,na,na
1st innings,11.6,Rahmanullah Gurbaz,CA Young,Asghar Stanikzai,1,1,0,na,na,na,na,na,na,na,na,na
1st innings,11.7,Asghar Stanikzai,CA Young,Rahmanullah Gurbaz,0,0,0,na,na,na,na,na,run out,na,na,Rahmanullah Gurbaz
1st innings,12.1,Asghar Stanikzai,GJ Delany,Mohammad Nabi,1,1,0,na,na,na,na,na,na,na,na,na
1st innings,12.2,Mohammad Nabi,GJ Delany,Asghar Stanikzai,1,0,1,na,na,1,na,na,na,na,na,na
1st innings,12.3,Mohammad Nabi,GJ Delany,Asghar Stanikzai,1,1,0,na,na,na,na,na,na,na,na,na
1st innings,12.4,Asghar Stanikzai,GJ Delany,Mohammad Nabi,4,4,0,na,na,na,na,na,na,na,na,na
1st innings,12.5,Asghar Stanikzai,GJ Delany,Mohammad Nabi,0,0,0,na,na,na,na,na,na,na,na,na
1st innings,12.6,Asghar Stanikzai,GJ Delany,Mohammad Nabi,1,1,0,na,na,na,na,na,na,na,na,na
1st innings,12.7,Mohammad Nabi,GJ Delany,Asghar Stanikzai,1,1,0,na,na,na,na,na,na,na,na,na
1st innings,13.1,Mohammad Nabi,WB Rankin,Asghar Stanikzai,1,1,0,na,na,na,na,na,na,na,na,na
1st innings,13.2,Asghar Stanikzai,WB Rankin,Mohammad Nabi,1,1,0,na,na,na,na,na,na,na,na,na
1st innings,13.3,Mohammad Nabi,WB Rankin,Asghar Stanikzai,6,6,0,na,na,na,na,na,na,na,na,na
1st innings,13.4,Mohammad Nabi,WB Rankin,Asghar Stanikzai,4,4,0,na,na,na,na,na,na,na,na,na
1st innings,13.5,Mohammad Nabi,WB Rankin,Asghar Stanikzai,4,4,0,na,na,na,na,na,na,na,na,na
1st innings,13.6,Mohammad Nabi,WB Rankin,Asghar Stanikzai,1,1,0,na,na,na,na,na,na,na,na,na
1st innings,14.1,Mohammad Nabi,GJ Delany,Asghar Stanikzai,1,1,0,na,na,na,na,na,na,na,na,na
1st innings,14.2,Asghar Stanikzai,GJ Delany,Mohammad Nabi,0,0,0,na,na,na,na,na,na,na,na,na
1st innings,14.3,Asghar Stanikzai,GJ Delany,Mohammad Nabi,6,6,0,na,na,na,na,na,na,na,na,na
1st innings,14.4,Asghar Stanikzai,GJ Delany,Mohammad Nabi,1,1,0,na,na,na,na,na,na,na,na,na
1st innings,14.5,Mohammad Nabi,GJ Delany,Asghar Stanikzai,1,1,0,na,na,na,na,na,na,na,na,na
1st innings,14.6,Asghar Stanikzai,GJ Delany,Mohammad Nabi,1,1,0,na,na,na,na,na,na,na,na,na
1st innings,15.1,Asghar Stanikzai,CA Young,Mohammad Nabi,4,0,4,4,na,na,na,na,na,na,na,na
1st innings,15.2,Asghar Stanikzai,CA Young,Mohammad Nabi,1,1,0,na,na,na,na,na,na,na,na,na
1st innings,15.3,Mohammad Nabi,CA Young,Asghar Stanikzai,4,4,0,na,na,na,na,na,na,na,na,na
1st innings,15.4,Mohammad Nabi,CA Young,Asghar Stanikzai,6,6,0,na,na,na,na,na,na,na,na,na
1st innings,15.5,Mohammad Nabi,CA Young,Asghar Stanikzai,4,4,0,na,na,na,na,na,na,na,na,na
1st innings,15.6,Mohammad Nabi,CA Young,Asghar Stanikzai,6,6,0,na,na,na,na,na,na,na,na,na
1st innings,16.1,Asghar Stanikzai,WB Rankin,Mohammad Nabi,2,2,0,na,na,na,na,na,na,na,na,na
1st innings,16.2,Asghar Stanikzai,WB Rankin,Mohammad Nabi,4,4,0,na,na,na,na,na,na,na,na,na
1st innings,16.3,Asghar Stanikzai,WB Rankin,Mohammad Nabi,1,1,0,na,na,na,na,na,na,na,na,na
1st innings,16.4,Mohammad Nabi,WB Rankin,Asghar Stanikzai,2,1,1,na,na,na,1,na,na,na,na,na
1st innings,16.5,Asghar Stanikzai,WB Rankin,Mohammad Nabi,2,2,0,na,na,na,na,na,na,na,na,na
1st innings,16.6,Asghar Stanikzai,WB Rankin,Mohammad Nabi,2,2,0,na,na,na,na,na,na,na,na,na
1st innings,16.7,Asghar Stanikzai,WB Rankin,Mohammad Nabi,0,0,0,na,na,na,na,na,caught,GH Dockrell,na,Mohammad Nabi
1st innings,17.1,Najibullah Zadran,J Little,Asghar Stanikzai,1,1,0,na,na,na,na,na,na,na,na,na
1st innings,17.2,Asghar Stanikzai,J Little,Najibullah Zadran,1,1,0,na,na,na,na,na,na,na,na,na
1st innings,17.3,Najibullah Zadran,J Little,Asghar Stanikzai,1,1,0,na,na,na,na,na,na,na,na,na
1st innings,17.4,Asghar Stanikzai,J Little,Najibullah Zadran,0,0,0,na,na,na,na,na,na,na,na,na
1st innings,17.5,Asghar Stanikzai,J Little,Najibullah Zadran,1,1,0,na,na,na,na,na,na,na,na,na
1st innings,17.6,Najibullah Zadran,J Little,Asghar Stanikzai,1,0,1,1,na,na,na,na,na,na,na,na
1st innings,18.1,Najibullah Zadran,CA Young,Asghar Stanikzai,1,0,1,1,na,na,na,na,na,na,na,na
1st innings,18.2,Asghar Stanikzai,CA Young,Najibullah Zadran,0,0,0,na,na,na,na,na,na,na,na,na
1st innings,18.3,Asghar Stanikzai,CA Young,Najibullah Zadran,1,1,0,na,na,na,na,na,na,na,na,na
1st innings,18.4,Najibullah Zadran,CA Young,Asghar Stanikzai,0,0,0,na,na,na,na,na,caught,HT Tector,na,Asghar Stanikzai
1st innings,18.5,Najibullah Zadran,CA Young,Gulbadin Naib,1,1,0,na,na,na,na,na,na,na,na,na
1st innings,18.6,Gulbadin Naib,CA Young,Najibullah Zadran,0,0,0,na,na,na,na,na,na,na,na,na
1st innings,19.1,Najibullah Zadran,J Little,Gulbadin Naib,1,0,1,1,na,na,na,na,na,na,na,na
1st innings,19.2,Gulbadin Naib,J Little,Najibullah Zadran,6,6,0,na,na,na,na,na,na,na,na,na
1st innings,19.3,Gulbadin Naib,J Little,Najibullah Zadran,6,6,0,na,na,na,na,na,na,na,na,na
1st innings,19.4,Gulbadin Naib,J Little,Najibullah Zadran,1,1,0,na,na,na,na,na,na,na,na,na
1st innings,19.5,Najibullah Zadran,J Little,Gulbadin Naib,6,6,0,na,na,na,na,na,na,na,na,na
1st innings,19.6,Najibullah Zadran,J Little,Gulbadin Naib,6,6,0,na,na,na,na,na,na,na,na,na
2nd innings,0.1,KJ O'Brien,Mujeeb Ur Rahman,PR Stirling,1,1,0,na,na,na,na,na,na,na,na,na
2nd innings,0.2,PR Stirling,Mujeeb Ur Rahman,KJ O'Brien,0,0,0,na,na,na,na,na,na,na,na,na
2nd innings,0.3,PR Stirling,Mujeeb Ur Rahman,KJ O'Brien,1,1,0,na,na,na,na,na,na,na,na,na
2nd innings,0.4,KJ O'Brien,Mujeeb Ur Rahman,PR Stirling,1,1,0,na,na,na,na,na,na,na,na,na
2nd innings,0.5,PR Stirling,Mujeeb Ur Rahman,KJ O'Brien,1,1,0,na,na,na,na,na,na,na,na,na
2nd innings,0.6,KJ O'Brien,Mujeeb Ur Rahman,PR Stirling,4,4,0,na,na,na,na,na,na,na,na,na
2nd innings,1.1,PR Stirling,Shapoor Zadran,KJ O'Brien,0,0,0,na,na,na,na,na,na,na,na,na
2nd innings,1.2,PR Stirling,Shapoor Zadran,KJ O'Brien,1,1,0,na,na,na,na,na,na,na,na,na
2nd innings,1.3,KJ O'Brien,Shapoor Zadran,PR Stirling,0,0,0,na,na,na,na,na,na,na,na,na
2nd innings,1.4,KJ O'Brien,Shapoor Zadran,PR Stirling,0,0,0,na,na,na,na,na,na,na,na,na
2nd innings,1.5,KJ O'Brien,Shapoor Zadran,PR Stirling,4,4,0,na,na,na,na,na,na,na,na,na
2nd innings,1.6,KJ O'Brien,Shapoor Zadran,PR Stirling,0,0,0,na,na,na,na,na,na,na,na,na
2nd innings,2.1,PR Stirling,Mujeeb Ur Rahman,KJ O'Brien,0,0,0,na,na,na,na,na,na,na,na,na
2nd innings,2.2,PR Stirling,Mujeeb Ur Rahman,KJ O'Brien,0,0,0,na,na,na,na,na,na,na,na,na
2nd innings,2.3,PR Stirling,Mujeeb Ur Rahman,KJ O'Brien,6,6,0,na,na,na,na,na,na,na,na,na
2nd innings,2.4,PR Stirling,Mujeeb Ur Rahman,KJ O'Brien,4,4,0,na,na,na,na,na,na,na,na,na
2nd innings,2.5,PR Stirling,Mujeeb Ur Rahman,KJ O'Brien,6,6,0,na,na,na,na,na,na,na,na,na
2nd innings,2.6,PR Stirling,Mujeeb Ur Rahman,KJ O'Brien,0,0,0,na,na,na,na,na,caught,Karim Janat,na,KJ O'Brien
2nd innings,3.1,PR Stirling,Shapoor Zadran,A Balbirnie,0,0,0,na,na,na,na,na,na,na,na,na
2nd innings,3.2,PR Stirling,Shapoor Zadran,A Balbirnie,1,1,0,na,na,na,na,na,na,na,na,na
2nd innings,3.3,A Balbirnie,Shapoor Zadran,PR Stirling,1,1,0,na,na,na,na,na,na,na,na,na
2nd innings,3.4,PR Stirling,Shapoor Zadran,A Balbirnie,4,4,0,na,na,na,na,na,na,na,na,na
2nd innings,3.5,PR Stirling,Shapoor Zadran,A Balbirnie,1,1,0,na,na,na,na,na,na,na,na,na
2nd innings,3.6,A Balbirnie,Shapoor Zadran,PR Stirling,1,1,0,na,na,na,na,na,na,na,na,na
2nd innings,4.1,A Balbirnie,Mujeeb Ur Rahman,PR Stirling,0,0,0,na,na,na,na,na,caught,Najibullah Zadran,na,PR Stirling
2nd innings,4.2,GJ Delany,Mujeeb Ur Rahman,A Balbirnie,0,0,0,na,na,na,na,na,na,na,na,na
2nd innings,4.3,GJ Delany,Mujeeb Ur Rahman,A Balbirnie,1,1,0,na,na,na,na,na,na,na,na,na
2nd innings,4.4,A Balbirnie,Mujeeb Ur Rahman,GJ Delany,0,0,0,na,na,na,na,na,na,na,na,na
2nd innings,4.5,A Balbirnie,Mujeeb Ur Rahman,GJ Delany,1,1,0,na,na,na,na,na,na,na,na,na
2nd innings,4.6,GJ Delany,Mujeeb Ur Rahman,A Balbirnie,0,0,0,na,na,na,na,na,na,na,na,na
2nd innings,5.1,A Balbirnie,Karim Janat,GJ Delany,4,4,0,na,na,na,na,na,na,na,na,na
2nd innings,5.2,A Balbirnie,Karim Janat,GJ Delany,1,1,0,na,na,na,na,na,na,na,na,na
2nd innings,5.3,GJ Delany,Karim Janat,A Balbirnie,4,4,0,na,na,na,na,na,na,na,na,na
2nd innings,5.4,GJ Delany,Karim Janat,A Balbirnie,0,0,0,na,na,na,na,na,na,na,na,na
2nd innings,5.5,GJ Delany,Karim Janat,A Balbirnie,2,2,0,na,na,na,na,na,na,na,na,na
2nd innings,5.6,GJ Delany,Karim Janat,A Balbirnie,1,1,0,na,na,na,na,na,na,na,na,na
2nd innings,6.1,GJ Delany,Gulbadin Naib,A Balbirnie,1,1,0,na,na,na,na,na,na,na,na,na
2nd innings,6.2,A Balbirnie,Gulbadin Naib,GJ Delany,1,1,0,na,na,na,na,na,na,na,na,na
2nd innings,6.3,GJ Delany,Gulbadin Naib,A Balbirnie,0,0,0,na,na,na,na,na,na,na,na,na
2nd innings,6.4,GJ Delany,Gulbadin Naib,A Balbirnie,2,0,2,na,na,2,na,na,na,na,na,na
2nd innings,6.5,A Balbirnie,Gulbadin Naib,GJ Delany,0,0,0,na,na,na,na,na,caught,Rashid Khan,na,GJ Delany
2nd innings,6.6,A Balbirnie,Gulbadin Naib,HT Tector,1,1,0,na,na,na,na,na,na,na,na,na
2nd innings,6.7,HT Tector,Gulbadin Naib,A Balbirnie,4,4,0,na,na,na,na,na,na,na,na,na
2nd innings,7.1,A Balbirnie,Karim Janat,HT Tector,0,0,0,na,na,na,na,na,na,na,na,na
2nd innings,7.2,A Balbirnie,Karim Janat,HT Tector,4,4,0,na,na,na,na,na,na,na,na,na
2nd innings,7.3,A Balbirnie,Karim Janat,HT Tector,1,1,0,na,na,na,na,na,na,na,na,na
2nd innings,7.4,HT Tector,Karim Janat,A Balbirnie,1,1,0,na,na,na,na,na,na,na,na,na
2nd innings,7.5,A Balbirnie,Karim Janat,HT Tector,0,0,0,na,na,na,na,na,na,na,na,na
2nd innings,7.6,A Balbirnie,Karim Janat,HT Tector,4,4,0,na,na,na,na,na,na,na,na,na
2nd innings,8.1,HT Tector,Gulbadin Naib,A Balbirnie,0,0,0,na,na,na,na,na,na,na,na,na
2nd innings,8.2,HT Tector,Gulbadin Naib,A Balbirnie,6,6,0,na,na,na,na,na,na,na,na,na
2nd innings,8.3,HT Tector,Gulbadin Naib,A Balbirnie,1,1,0,na,na,na,na,na,na,na,na,na
2nd innings,8.4,A Balbirnie,Gulbadin Naib,HT Tector,1,1,0,na,na,na,na,na,na,na,na,na
2nd innings,8.5,HT Tector,Gulbadin Naib,A Balbirnie,4,4,0,na,na,na,na,na,na,na,na,na
2nd innings,8.6,HT Tector,Gulbadin Naib,A Balbirnie,1,1,0,na,na,na,na,na,na,na,na,na
2nd innings,9.1,HT Tector,Mohammad Nabi,A Balbirnie,1,1,0,na,na,na,na,na,na,na,na,na
2nd innings,9.2,A Balbirnie,Mohammad Nabi,HT Tector,1,1,0,na,na,na,na,na,na,na,na,na
2nd innings,9.3,HT Tector,Mohammad Nabi,A Balbirnie,4,4,0,na,na,na,na,na,na,na,na,na
2nd innings,9.4,HT Tector,Mohammad Nabi,A Balbirnie,0,0,0,na,na,na,na,na,na,na,na,na
2nd innings,9.5,HT Tector,Mohammad Nabi,A Balbirnie,0,0,0,na,na,na,na,na,na,na,na,na
2nd innings,9.6,HT Tector,Mohammad Nabi,A Balbirnie,1,1,0,na,na,na,na,na,na,na,na,na
2nd innings,10.1,HT Tector,Rashid Khan,A Balbirnie,1,1,0,na,na,na,na,na,na,na,na,na
2nd innings,10.2,A Balbirnie,Rashid Khan,HT Tector,1,1,0,na,na,na,na,na,na,na,na,na
2nd innings,10.3,HT Tector,Rashid Khan,A Balbirnie,0,0,0,na,na,na,na,na,na,na,na,na
2nd innings,10.4,HT Tector,Rashid Khan,A Balbirnie,1,1,0,na,na,na,na,na,na,na,na,na
2nd innings,10.5,A Balbirnie,Rashid Khan,HT Tector,1,1,0,na,na,na,na,na,na,na,na,na
2nd innings,10.6,HT Tector,Rashid Khan,A Balbirnie,1,1,0,na,na,na,na,na,na,na,na,na
2nd innings,11.1,HT Tector,Mohammad Nabi,A Balbirnie,1,1,0,na,na,na,na,na,na,na,na,na
2nd innings,11.2,A Balbirnie,Mohammad Nabi,HT Tector,1,1,0,na,na,na,na,na,na,na,na,na
2nd innings,11.3,HT Tector,Mohammad Nabi,A Balbirnie,1,1,0,na,na,na,na,na,na,na,na,na
2nd innings,11.4,A Balbirnie,Mohammad Nabi,HT Tector,1,1,0,na,na,na,na,na,na,na,na,na
2nd innings,11.5,HT Tector,Mohammad Nabi,A Balbirnie,2,2,0,na,na,na,na,na,na,na,na,na
2nd innings,11.6,HT Tector,Mohammad Nabi,A Balbirnie,0,0,0,na,na,na,na,na,na,na,na,na
2nd innings,12.1,A Balbirnie,Rashid Khan,HT Tector,1,1,0,na,na,na,na,na,na,na,na,na
2nd innings,12.2,HT Tector,Rashid Khan,A Balbirnie,1,1,0,na,na,na,na,na,na,na,na,na
2nd innings,12.3,A Balbirnie,Rashid Khan,HT Tector,1,1,0,na,na,na,na,na,na,na,na,na
2nd innings,12.4,HT Tector,Rashid Khan,A Balbirnie,0,0,0,na,na,na,na,na,caught,Samiullah Shenwari,na,A Balbirnie
2nd innings,12.5,L Tucker,Rashid Khan,HT Tector,0,0,0,na,na,na,na,na,na,na,na,na
2nd innings,12.6,L Tucker,Rashid Khan,HT Tector,0,0,0,na,na,na,na,na,na,na,na,na
2nd innings,13.1,HT Tector,Mohammad Nabi,L Tucker,0,0,0,na,na,na,na,na,na,na,na,na
2nd innings,13.2,HT Tector,Mohammad Nabi,L Tucker,1,1,0,na,na,na,na,na,na,na,na,na
2nd innings,13.3,L Tucker,Mohammad Nabi,HT Tector,1,1,0,na,na,na,na,na,na,na,na,na
2nd innings,13.4,HT Tector,Mohammad Nabi,L Tucker,1,1,0,na,na,na,na,na,na,na,na,na
2nd innings,13.5,L Tucker,Mohammad Nabi,HT Tector,1,1,0,na,na,na,na,na,na,na,na,na
2nd innings,13.6,HT Tector,Mohammad Nabi,L Tucker,1,1,0,na,na,na,na,na,na,na,na,na
2nd innings,14.1,HT Tector,Rashid Khan,L Tucker,1,1,0,na,na,na,na,na,na,na,na,na
2nd innings,14.2,L Tucker,Rashid Khan,HT Tector,0,0,0,na,na,na,na,na,na,na,na,na
2nd innings,14.3,L Tucker,Rashid Khan,HT Tector,1,1,0,na,na,na,na,na,na,na,na,na
2nd innings,14.4,HT Tector,Rashid Khan,L Tucker,2,0,2,2,na,na,na,na,na,na,na,na
2nd innings,14.5,HT Tector,Rashid Khan,L Tucker,1,1,0,na,na,na,na,na,na,na,na,na
2nd innings,14.6,L Tucker,Rashid Khan,HT Tector,0,0,0,na,na,na,na,na,na,na,na,na
2nd innings,15.1,HT Tector,Karim Janat,L Tucker,1,1,0,na,na,na,na,na,na,na,na,na
2nd innings,15.2,L Tucker,Karim Janat,HT Tector,2,2,0,na,na,na,na,na,na,na,na,na
2nd innings,15.3,L Tucker,Karim Janat,HT Tector,1,1,0,na,na,na,na,na,na,na,na,na
2nd innings,15.4,HT Tector,Karim Janat,L Tucker,1,1,0,na,na,na,na,na,na,na,na,na
2nd innings,15.5,L Tucker,Karim Janat,HT Tector,1,1,0,na,na,na,na,na,na,na,na,na
2nd innings,15.6,HT Tector,Karim Janat,L Tucker,4,4,0,na,na,na,na,na,na,na,na,na
2nd innings,16.1,L Tucker,Mujeeb Ur Rahman,HT Tector,4,4,0,na,na,na,na,na,na,na,na,na
2nd innings,16.2,L Tucker,Mujeeb Ur Rahman,HT Tector,2,2,0,na,na,na,na,na,na,na,na,na
2nd innings,16.3,L Tucker,Mujeeb Ur Rahman,HT Tector,6,6,0,na,na,na,na,na,na,na,na,na
2nd innings,16.4,L Tucker,Mujeeb Ur Rahman,HT Tector,0,0,0,na,na,na,na,na,na,na,na,na
2nd innings,16.5,L Tucker,Mujeeb Ur Rahman,HT Tector,0,0,0,na,na,na,na,na,bowled,na,na,HT Tector
2nd innings,16.6,L Tucker,Mujeeb Ur Rahman,Simi Singh,0,0,0,na,na,na,na,na,na,na,na,na
2nd innings,17.1,Simi Singh,Shapoor Zadran,L Tucker,0,0,0,na,na,na,na,na,na,na,na,na
2nd innings,17.2,Simi Singh,Shapoor Zadran,L Tucker,4,4,0,na,na,na,na,na,na,na,na,na
2nd innings,17.3,Simi Singh,Shapoor Zadran,L Tucker,1,1,0,na,na,na,na,na,na,na,na,na
2nd innings,17.4,L Tucker,Shapoor Zadran,Simi Singh,2,2,0,na,na,na,na,na,na,na,na,na
2nd innings,17.5,L Tucker,Shapoor Zadran,Simi Singh,1,1,0,na,na,na,na,na,na,na,na,na
2nd innings,17.6,Simi Singh,Shapoor Zadran,L Tucker,0,0,0,na,na,na,na,na,caught,Mohammad Nabi,na,L Tucker
2nd innings,18.1,GH Dockrell,Rashid Khan,Simi Singh,1,1,0,na,na,na,na,na,na,na,na,na
2nd innings,18.2,Simi Singh,Rashid Khan,GH Dockrell,4,4,0,na,na,na,na,na,na,na,na,na
2nd innings,18.3,Simi Singh,Rashid Khan,GH Dockrell,2,2,0,na,na,na,na,na,na,na,na,na
2nd innings,18.4,Simi Singh,Rashid Khan,GH Dockrell,1,1,0,na,na,na,na,na,na,na,na,na
2nd innings,18.5,GH Dockrell,Rashid Khan,Simi Singh,6,6,0,na,na,na,na,na,na,na,na,na
2nd innings,18.6,GH Dockrell,Rashid Khan,Simi Singh,1,1,0,na,na,na,na,na,na,na,na,na
2nd innings,19.1,GH Dockrell,Shapoor Zadran,Simi Singh,1,1,0,na,na,na,na,na,na,na,na,na
2nd innings,19.2,Simi Singh,Shapoor Zadran,GH Dockrell,1,1,0,na,na,na,na,na,na,na,na,na
2nd innings,19.3,GH Dockrell,Shapoor Zadran,Simi Singh,0,0,0,na,na,na,na,na,na,na,na,na
2nd innings,19.4,GH Dockrell,Shapoor Zadran,Simi Singh,1,1,0,na,na,na,na,na,na,na,na,na
2nd innings,19.5,Simi Singh,Shapoor Zadran,GH Dockrell,1,1,0,na,na,na,na,na,na,na,na,na
2nd innings,19.6,GH Dockrell,Shapoor Zadran,Simi Singh,0,0,0,na,na,na,na,na,na,na,na,na
