inngs,deliveries,non_striker,bowler,batsman,totalruns,batsman_runs,extra_runs,legbyes,byes,wides,noballs,penalty,wicket_kind,fielder1,fielder2,player_out
1st innings,0.1,KJ O'Brien,Naveen-ul-Haq,PR Stirling,0,0,0,na,na,na,na,na,na,na,na,na
1st innings,0.2,KJ O'Brien,Naveen-ul-Haq,PR Stirling,0,0,0,na,na,na,na,na,na,na,na,na
1st innings,0.3,KJ O'Brien,Naveen-ul-Haq,PR Stirling,0,0,0,na,na,na,na,na,na,na,na,na
1st innings,0.4,KJ O'Brien,Naveen-ul-Haq,PR Stirling,0,0,0,na,na,na,na,na,caught,Mohammad Nabi,na,PR Stirling
1st innings,0.5,KJ O'Brien,Naveen-ul-Haq,A Balbirnie,0,0,0,na,na,na,na,na,na,na,na,na
1st innings,0.6,KJ O'Brien,Naveen-ul-Haq,A Balbirnie,4,4,0,na,na,na,na,na,na,na,na,na
1st innings,1.1,A Balbirnie,Mujeeb Ur Rahman,KJ O'Brien,0,0,0,na,na,na,na,na,na,na,na,na
1st innings,1.2,A Balbirnie,Mujeeb Ur Rahman,KJ O'Brien,1,0,1,1,na,na,na,na,na,na,na,na
1st innings,1.3,KJ O'Brien,Mujeeb Ur Rahman,A Balbirnie,0,0,0,na,na,na,na,na,na,na,na,na
1st innings,1.4,KJ O'Brien,Mujeeb Ur Rahman,A Balbirnie,4,4,0,na,na,na,na,na,na,na,na,na
1st innings,1.5,KJ O'Brien,Mujeeb Ur Rahman,A Balbirnie,1,1,0,na,na,na,na,na,na,na,na,na
1st innings,1.6,A Balbirnie,Mujeeb Ur Rahman,KJ O'Brien,1,1,0,na,na,na,na,na,na,na,na,na
1st innings,2.1,A Balbirnie,Naveen-ul-Haq,KJ O'Brien,1,1,0,na,na,na,na,na,na,na,na,na
1st innings,2.2,KJ O'Brien,Naveen-ul-Haq,A Balbirnie,0,0,0,na,na,na,na,na,bowled,na,na,A Balbirnie
1st innings,2.3,KJ O'Brien,Naveen-ul-Haq,GJ Delany,0,0,0,na,na,na,na,na,na,na,na,na
1st innings,2.4,KJ O'Brien,Naveen-ul-Haq,GJ Delany,0,0,0,na,na,na,na,na,na,na,na,na
1st innings,2.5,KJ O'Brien,Naveen-ul-Haq,GJ Delany,0,0,0,na,na,na,na,na,na,na,na,na
1st innings,2.6,KJ O'Brien,Naveen-ul-Haq,GJ Delany,0,0,0,na,na,na,na,na,na,na,na,na
1st innings,3.1,GJ Delany,Mujeeb Ur Rahman,KJ O'Brien,1,0,1,1,na,na,na,na,na,na,na,na
1st innings,3.2,KJ O'Brien,Mujeeb Ur Rahman,GJ Delany,1,1,0,na,na,na,na,na,na,na,na,na
1st innings,3.3,GJ Delany,Mujeeb Ur Rahman,KJ O'Brien,4,4,0,na,na,na,na,na,na,na,na,na
1st innings,3.4,GJ Delany,Mujeeb Ur Rahman,KJ O'Brien,1,1,0,na,na,na,na,na,na,na,na,na
1st innings,3.5,KJ O'Brien,Mujeeb Ur Rahman,GJ Delany,0,0,0,na,na,na,na,na,na,na,na,na
1st innings,3.6,KJ O'Brien,Mujeeb Ur Rahman,GJ Delany,0,0,0,na,na,na,na,na,na,na,na,na
1st innings,4.1,GJ Delany,Naveen-ul-Haq,KJ O'Brien,4,4,0,na,na,na,na,na,na,na,na,na
1st innings,4.2,GJ Delany,Naveen-ul-Haq,KJ O'Brien,1,0,1,na,na,1,na,na,na,na,na,na
1st innings,4.3,GJ Delany,Naveen-ul-Haq,KJ O'Brien,4,4,0,na,na,na,na,na,na,na,na,na
1st innings,4.4,GJ Delany,Naveen-ul-Haq,KJ O'Brien,0,0,0,na,na,na,na,na,na,na,na,na
1st innings,4.5,GJ Delany,Naveen-ul-Haq,KJ O'Brien,1,1,0,na,na,na,na,na,na,na,na,na
1st innings,4.6,KJ O'Brien,Naveen-ul-Haq,GJ Delany,0,0,0,na,na,na,na,na,na,na,na,na
1st innings,4.7,KJ O'Brien,Naveen-ul-Haq,GJ Delany,4,4,0,na,na,na,na,na,na,na,na,na
1st innings,5.1,GJ Delany,Mujeeb Ur Rahman,KJ O'Brien,1,1,0,na,na,na,na,na,na,na,na,na
1st innings,5.2,KJ O'Brien,Mujeeb Ur Rahman,GJ Delany,4,4,0,na,na,na,na,na,na,na,na,na
1st innings,5.3,KJ O'Brien,Mujeeb Ur Rahman,GJ Delany,4,4,0,na,na,na,na,na,na,na,na,na
1st innings,5.4,KJ O'Brien,Mujeeb Ur Rahman,GJ Delany,6,6,0,na,na,na,na,na,na,na,na,na
1st innings,5.5,KJ O'Brien,Mujeeb Ur Rahman,GJ Delany,1,1,0,na,na,na,na,na,na,na,na,na
1st innings,5.6,GJ Delany,Mujeeb Ur Rahman,KJ O'Brien,1,1,0,na,na,na,na,na,na,na,na,na
1st innings,6.1,GJ Delany,Karim Janat,KJ O'Brien,1,1,0,na,na,na,na,na,na,na,na,na
1st innings,6.2,KJ O'Brien,Karim Janat,GJ Delany,0,0,0,na,na,na,na,na,na,na,na,na
1st innings,6.3,KJ O'Brien,Karim Janat,GJ Delany,1,0,1,na,na,1,na,na,na,na,na,na
1st innings,6.4,KJ O'Brien,Karim Janat,GJ Delany,0,0,0,na,na,na,na,na,na,na,na,na
1st innings,6.5,KJ O'Brien,Karim Janat,GJ Delany,0,0,0,na,na,na,na,na,na,na,na,na
1st innings,6.6,KJ O'Brien,Karim Janat,GJ Delany,4,4,0,na,na,na,na,na,na,na,na,na
1st innings,6.7,KJ O'Brien,Karim Janat,GJ Delany,1,1,0,na,na,na,na,na,na,na,na,na
1st innings,7.1,KJ O'Brien,Qais Ahmad,GJ Delany,4,4,0,na,na,na,na,na,na,na,na,na
1st innings,7.2,KJ O'Brien,Qais Ahmad,GJ Delany,1,1,0,na,na,na,na,na,na,na,na,na
1st innings,7.3,GJ Delany,Qais Ahmad,KJ O'Brien,0,0,0,na,na,na,na,na,na,na,na,na
1st innings,7.4,GJ Delany,Qais Ahmad,KJ O'Brien,0,0,0,na,na,na,na,na,na,na,na,na
1st innings,7.5,GJ Delany,Qais Ahmad,KJ O'Brien,1,1,0,na,na,na,na,na,na,na,na,na
1st innings,7.6,KJ O'Brien,Qais Ahmad,GJ Delany,1,1,0,na,na,na,na,na,na,na,na,na
1st innings,8.1,KJ O'Brien,Karim Janat,GJ Delany,1,1,0,na,na,na,na,na,na,na,na,na
1st innings,8.2,GJ Delany,Karim Janat,KJ O'Brien,4,4,0,na,na,na,na,na,na,na,na,na
1st innings,8.3,GJ Delany,Karim Janat,KJ O'Brien,1,1,0,na,na,na,na,na,na,na,na,na
1st innings,8.4,KJ O'Brien,Karim Janat,GJ Delany,2,2,0,na,na,na,na,na,na,na,na,na
1st innings,8.5,KJ O'Brien,Karim Janat,GJ Delany,1,1,0,na,na,na,na,na,na,na,na,na
1st innings,8.6,GJ Delany,Karim Janat,KJ O'Brien,1,1,0,na,na,na,na,na,na,na,na,na
1st innings,9.1,GJ Delany,Qais Ahmad,KJ O'Brien,0,0,0,na,na,na,na,na,caught,Rashid Khan,na,KJ O'Brien
1st innings,9.2,GJ Delany,Qais Ahmad,HT Tector,1,1,0,na,na,na,na,na,na,na,na,na
1st innings,9.3,HT Tector,Qais Ahmad,GJ Delany,1,1,0,na,na,na,na,na,na,na,na,na
1st innings,9.4,GJ Delany,Qais Ahmad,HT Tector,1,1,0,na,na,na,na,na,na,na,na,na
1st innings,9.5,HT Tector,Qais Ahmad,GJ Delany,0,0,0,na,na,na,na,na,na,na,na,na
1st innings,9.6,HT Tector,Qais Ahmad,GJ Delany,0,0,0,na,na,na,na,na,na,na,na,na
1st innings,10.1,GJ Delany,Rashid Khan,HT Tector,1,1,0,na,na,na,na,na,na,na,na,na
1st innings,10.2,HT Tector,Rashid Khan,GJ Delany,1,1,0,na,na,na,na,na,na,na,na,na
1st innings,10.3,GJ Delany,Rashid Khan,HT Tector,1,1,0,na,na,na,na,na,na,na,na,na
1st innings,10.4,HT Tector,Rashid Khan,GJ Delany,0,0,0,na,na,na,na,na,caught,Mohammad Nabi,na,GJ Delany
1st innings,10.5,L Tucker,Rashid Khan,HT Tector,1,1,0,na,na,na,na,na,na,na,na,na
1st innings,10.6,HT Tector,Rashid Khan,L Tucker,0,0,0,na,na,na,na,na,na,na,na,na
1st innings,11.1,L Tucker,Qais Ahmad,HT Tector,4,4,0,na,na,na,na,na,na,na,na,na
1st innings,11.2,L Tucker,Qais Ahmad,HT Tector,1,1,0,na,na,na,na,na,na,na,na,na
1st innings,11.3,HT Tector,Qais Ahmad,L Tucker,1,1,0,na,na,na,na,na,na,na,na,na
1st innings,11.4,L Tucker,Qais Ahmad,HT Tector,1,1,0,na,na,na,na,na,na,na,na,na
1st innings,11.5,HT Tector,Qais Ahmad,L Tucker,4,4,0,na,na,na,na,na,na,na,na,na
1st innings,11.6,HT Tector,Qais Ahmad,L Tucker,1,1,0,na,na,na,na,na,na,na,na,na
1st innings,12.1,HT Tector,Rashid Khan,L Tucker,1,1,0,na,na,na,na,na,na,na,na,na
1st innings,12.2,L Tucker,Rashid Khan,HT Tector,0,0,0,na,na,na,na,na,na,na,na,na
1st innings,12.3,L Tucker,Rashid Khan,HT Tector,1,1,0,na,na,na,na,na,na,na,na,na
1st innings,12.4,HT Tector,Rashid Khan,L Tucker,0,0,0,na,na,na,na,na,na,na,na,na
1st innings,12.5,HT Tector,Rashid Khan,L Tucker,1,1,0,na,na,na,na,na,na,na,na,na
1st innings,12.6,L Tucker,Rashid Khan,HT Tector,6,6,0,na,na,na,na,na,na,na,na,na
1st innings,13.1,HT Tector,Mujeeb Ur Rahman,L Tucker,1,1,0,na,na,na,na,na,na,na,na,na
1st innings,13.2,L Tucker,Mujeeb Ur Rahman,HT Tector,1,1,0,na,na,na,na,na,na,na,na,na
1st innings,13.3,HT Tector,Mujeeb Ur Rahman,L Tucker,1,0,1,1,na,na,na,na,na,na,na,na
1st innings,13.4,L Tucker,Mujeeb Ur Rahman,HT Tector,1,1,0,na,na,na,na,na,na,na,na,na
1st innings,13.5,HT Tector,Mujeeb Ur Rahman,L Tucker,0,0,0,na,na,na,na,na,bowled,na,na,L Tucker
1st innings,13.6,HT Tector,Mujeeb Ur Rahman,SC Getkate,0,0,0,na,na,na,na,na,na,na,na,na
1st innings,14.1,SC Getkate,Rashid Khan,HT Tector,1,1,0,na,na,na,na,na,na,na,na,na
1st innings,14.2,HT Tector,Rashid Khan,SC Getkate,0,0,0,na,na,na,na,na,na,na,na,na
1st innings,14.3,HT Tector,Rashid Khan,SC Getkate,1,1,0,na,na,na,na,na,na,na,na,na
1st innings,14.4,SC Getkate,Rashid Khan,HT Tector,0,0,0,na,na,na,na,na,na,na,na,na
1st innings,14.5,SC Getkate,Rashid Khan,HT Tector,1,1,0,na,na,na,na,na,na,na,na,na
1st innings,14.6,HT Tector,Rashid Khan,SC Getkate,0,0,0,na,na,na,na,na,na,na,na,na
1st innings,15.1,SC Getkate,Gulbadin Naib,HT Tector,0,0,0,na,na,na,na,na,na,na,na,na
1st innings,15.2,SC Getkate,Gulbadin Naib,HT Tector,1,1,0,na,na,na,na,na,na,na,na,na
1st innings,15.3,HT Tector,Gulbadin Naib,SC Getkate,1,1,0,na,na,na,na,na,na,na,na,na
1st innings,15.4,SC Getkate,Gulbadin Naib,HT Tector,6,6,0,na,na,na,na,na,na,na,na,na
1st innings,15.5,SC Getkate,Gulbadin Naib,HT Tector,1,1,0,na,na,na,na,na,na,na,na,na
1st innings,15.6,HT Tector,Gulbadin Naib,SC Getkate,1,1,0,na,na,na,na,na,na,na,na,na
1st innings,16.1,HT Tector,Qais Ahmad,SC Getkate,0,0,0,na,na,na,na,na,na,na,na,na
1st innings,16.2,HT Tector,Qais Ahmad,SC Getkate,1,1,0,na,na,na,na,na,na,na,na,na
1st innings,16.3,SC Getkate,Qais Ahmad,HT Tector,1,1,0,na,na,na,na,na,na,na,na,na
1st innings,16.4,HT Tector,Qais Ahmad,SC Getkate,1,1,0,na,na,na,na,na,na,na,na,na
1st innings,16.5,SC Getkate,Qais Ahmad,HT Tector,0,0,0,na,na,na,na,na,caught,Najibullah Zadran,na,HT Tector
1st innings,16.6,Simi Singh,Qais Ahmad,SC Getkate,0,0,0,na,na,na,na,na,caught,Najibullah Zadran,na,SC Getkate
1st innings,17.1,BJ McCarthy,Naveen-ul-Haq,Simi Singh,0,0,0,na,na,na,na,na,na,na,na,na
1st innings,17.2,BJ McCarthy,Naveen-ul-Haq,Simi Singh,1,1,0,na,na,na,na,na,na,na,na,na
1st innings,17.3,Simi Singh,Naveen-ul-Haq,BJ McCarthy,0,0,0,na,na,na,na,na,na,na,na,na
1st innings,17.4,Simi Singh,Naveen-ul-Haq,BJ McCarthy,0,0,0,na,na,na,na,na,caught,Rashid Khan,na,BJ McCarthy
1st innings,17.5,CA Young,Naveen-ul-Haq,Simi Singh,0,0,0,na,na,na,na,na,na,na,na,na
1st innings,17.6,CA Young,Naveen-ul-Haq,Simi Singh,1,1,0,na,na,na,na,na,na,na,na,na
1st innings,18.1,CA Young,Rashid Khan,Simi Singh,1,1,0,na,na,na,na,na,na,na,na,na
1st innings,18.2,Simi Singh,Rashid Khan,CA Young,0,0,0,na,na,na,na,na,na,na,na,na
1st innings,18.3,Simi Singh,Rashid Khan,CA Young,1,1,0,na,na,na,na,na,na,na,na,na
1st innings,18.4,CA Young,Rashid Khan,Simi Singh,1,1,0,na,na,na,na,na,na,na,na,na
1st innings,18.5,Simi Singh,Rashid Khan,CA Young,4,4,0,na,na,na,na,na,na,na,na,na
1st innings,18.6,Simi Singh,Rashid Khan,CA Young,1,1,0,na,na,na,na,na,na,na,na,na
1st innings,19.1,Simi Singh,Gulbadin Naib,CA Young,0,0,0,na,na,na,na,na,na,na,na,na
1st innings,19.2,Simi Singh,Gulbadin Naib,CA Young,0,0,0,na,na,na,na,na,na,na,na,na
1st innings,19.3,Simi Singh,Gulbadin Naib,CA Young,1,1,0,na,na,na,na,na,na,na,na,na
1st innings,19.4,CA Young,Gulbadin Naib,Simi Singh,2,2,0,na,na,na,na,na,na,na,na,na
1st innings,19.5,CA Young,Gulbadin Naib,Simi Singh,1,0,1,na,na,1,na,na,na,na,na,na
1st innings,19.6,CA Young,Gulbadin Naib,Simi Singh,4,4,0,na,na,na,na,na,na,na,na,na
1st innings,19.7,CA Young,Gulbadin Naib,Simi Singh,2,2,0,na,na,na,na,na,na,na,na,na
2nd innings,0.1,Usman Ghani,GJ Delany,Rahmanullah Gurbaz,0,0,0,na,na,na,na,na,na,na,na,na
2nd innings,0.2,Usman Ghani,GJ Delany,Rahmanullah Gurbaz,0,0,0,na,na,na,na,na,na,na,na,na
2nd innings,0.3,Usman Ghani,GJ Delany,Rahmanullah Gurbaz,0,0,0,na,na,na,na,na,na,na,na,na
2nd innings,0.4,Usman Ghani,GJ Delany,Rahmanullah Gurbaz,0,0,0,na,na,na,na,na,na,na,na,na
2nd innings,0.5,Usman Ghani,GJ Delany,Rahmanullah Gurbaz,2,2,0,na,na,na,na,na,na,na,na,na
2nd innings,0.6,Usman Ghani,GJ Delany,Rahmanullah Gurbaz,1,1,0,na,na,na,na,na,na,na,na,na
2nd innings,1.1,Usman Ghani,BJ McCarthy,Rahmanullah Gurbaz,1,1,0,na,na,na,na,na,na,na,na,na
2nd innings,1.2,Rahmanullah Gurbaz,BJ McCarthy,Usman Ghani,0,0,0,na,na,na,na,na,na,na,na,na
2nd innings,1.3,Rahmanullah Gurbaz,BJ McCarthy,Usman Ghani,0,0,0,na,na,na,na,na,na,na,na,na
2nd innings,1.4,Rahmanullah Gurbaz,BJ McCarthy,Usman Ghani,1,1,0,na,na,na,na,na,na,na,na,na
2nd innings,1.5,Usman Ghani,BJ McCarthy,Rahmanullah Gurbaz,0,0,0,na,na,na,na,na,na,na,na,na
2nd innings,1.6,Usman Ghani,BJ McCarthy,Rahmanullah Gurbaz,1,1,0,na,na,na,na,na,na,na,na,na
2nd innings,2.1,Usman Ghani,GJ Delany,Rahmanullah Gurbaz,6,6,0,na,na,na,na,na,na,na,na,na
2nd innings,2.2,Usman Ghani,GJ Delany,Rahmanullah Gurbaz,1,1,0,na,na,na,na,na,na,na,na,na
2nd innings,2.3,Rahmanullah Gurbaz,GJ Delany,Usman Ghani,1,1,0,na,na,na,na,na,na,na,na,na
2nd innings,2.4,Usman Ghani,GJ Delany,Rahmanullah Gurbaz,0,0,0,na,na,na,na,na,na,na,na,na
2nd innings,2.5,Usman Ghani,GJ Delany,Rahmanullah Gurbaz,6,6,0,na,na,na,na,na,na,na,na,na
2nd innings,2.6,Usman Ghani,GJ Delany,Rahmanullah Gurbaz,1,1,0,na,na,na,na,na,na,na,na,na
2nd innings,3.1,Usman Ghani,Simi Singh,Rahmanullah Gurbaz,0,0,0,na,na,na,na,na,na,na,na,na
2nd innings,3.2,Usman Ghani,Simi Singh,Rahmanullah Gurbaz,0,0,0,na,na,na,na,na,na,na,na,na
2nd innings,3.3,Usman Ghani,Simi Singh,Rahmanullah Gurbaz,4,4,0,na,na,na,na,na,na,na,na,na
2nd innings,3.4,Usman Ghani,Simi Singh,Rahmanullah Gurbaz,1,1,0,na,na,na,na,na,na,na,na,na
2nd innings,3.5,Rahmanullah Gurbaz,Simi Singh,Usman Ghani,1,1,0,na,na,na,na,na,na,na,na,na
2nd innings,3.6,Usman Ghani,Simi Singh,Rahmanullah Gurbaz,6,6,0,na,na,na,na,na,na,na,na,na
2nd innings,4.1,Rahmanullah Gurbaz,J Little,Usman Ghani,0,0,0,na,na,na,na,na,na,na,na,na
2nd innings,4.2,Rahmanullah Gurbaz,J Little,Usman Ghani,1,1,0,na,na,na,na,na,na,na,na,na
2nd innings,4.3,Usman Ghani,J Little,Rahmanullah Gurbaz,1,1,0,na,na,na,na,na,na,na,na,na
2nd innings,4.4,Rahmanullah Gurbaz,J Little,Usman Ghani,1,1,0,na,na,na,na,na,na,na,na,na
2nd innings,4.5,Usman Ghani,J Little,Rahmanullah Gurbaz,0,0,0,na,na,na,na,na,na,na,na,na
2nd innings,4.6,Usman Ghani,J Little,Rahmanullah Gurbaz,4,4,0,na,na,na,na,na,na,na,na,na
2nd innings,5.1,Rahmanullah Gurbaz,BJ McCarthy,Usman Ghani,4,4,0,na,na,na,na,na,na,na,na,na
2nd innings,5.2,Rahmanullah Gurbaz,BJ McCarthy,Usman Ghani,0,0,0,na,na,na,na,na,na,na,na,na
2nd innings,5.3,Rahmanullah Gurbaz,BJ McCarthy,Usman Ghani,1,1,0,na,na,na,na,na,na,na,na,na
2nd innings,5.4,Usman Ghani,BJ McCarthy,Rahmanullah Gurbaz,1,1,0,na,na,na,na,na,na,na,na,na
2nd innings,5.5,Rahmanullah Gurbaz,BJ McCarthy,Usman Ghani,1,1,0,na,na,na,na,na,na,na,na,na
2nd innings,5.6,Usman Ghani,BJ McCarthy,Rahmanullah Gurbaz,4,4,0,na,na,na,na,na,na,na,na,na
2nd innings,6.1,Rahmanullah Gurbaz,GJ Delany,Usman Ghani,0,0,0,na,na,na,na,na,na,na,na,na
2nd innings,6.2,Rahmanullah Gurbaz,GJ Delany,Usman Ghani,0,0,0,na,na,na,na,na,na,na,na,na
2nd innings,6.3,Rahmanullah Gurbaz,GJ Delany,Usman Ghani,0,0,0,na,na,na,na,na,na,na,na,na
2nd innings,6.4,Rahmanullah Gurbaz,GJ Delany,Usman Ghani,0,0,0,na,na,na,na,na,na,na,na,na
2nd innings,6.5,Rahmanullah Gurbaz,GJ Delany,Usman Ghani,1,1,0,na,na,na,na,na,na,na,na,na
2nd innings,6.6,Usman Ghani,GJ Delany,Rahmanullah Gurbaz,1,1,0,na,na,na,na,na,na,na,na,na
2nd innings,7.1,Usman Ghani,Simi Singh,Rahmanullah Gurbaz,0,0,0,na,na,na,na,na,na,na,na,na
2nd innings,7.2,Usman Ghani,Simi Singh,Rahmanullah Gurbaz,0,0,0,na,na,na,na,na,na,na,na,na
2nd innings,7.3,Usman Ghani,Simi Singh,Rahmanullah Gurbaz,1,1,0,na,na,na,na,na,na,na,na,na
2nd innings,7.4,Rahmanullah Gurbaz,Simi Singh,Usman Ghani,0,0,0,na,na,na,na,na,na,na,na,na
2nd innings,7.5,Rahmanullah Gurbaz,Simi Singh,Usman Ghani,4,4,0,na,na,na,na,na,na,na,na,na
2nd innings,7.6,Rahmanullah Gurbaz,Simi Singh,Usman Ghani,1,1,0,na,na,na,na,na,na,na,na,na
2nd innings,8.1,Rahmanullah Gurbaz,GJ Delany,Usman Ghani,1,1,0,na,na,na,na,na,na,na,na,na
2nd innings,8.2,Usman Ghani,GJ Delany,Rahmanullah Gurbaz,0,0,0,na,na,na,na,na,caught,HT Tector,na,Rahmanullah Gurbaz
2nd innings,8.3,Karim Janat,GJ Delany,Usman Ghani,0,0,0,na,na,na,na,na,na,na,na,na
2nd innings,8.4,Karim Janat,GJ Delany,Usman Ghani,0,0,0,na,na,na,na,na,na,na,na,na
2nd innings,8.5,Karim Janat,GJ Delany,Usman Ghani,0,0,0,na,na,na,na,na,caught,HT Tector,na,Usman Ghani
2nd innings,8.6,Asghar Stanikzai,GJ Delany,Karim Janat,0,0,0,na,na,na,na,na,na,na,na,na
2nd innings,9.1,Karim Janat,CA Young,Asghar Stanikzai,0,0,0,na,na,na,na,na,na,na,na,na
2nd innings,9.2,Karim Janat,CA Young,Asghar Stanikzai,0,0,0,na,na,na,na,na,na,na,na,na
2nd innings,9.3,Karim Janat,CA Young,Asghar Stanikzai,4,4,0,na,na,na,na,na,na,na,na,na
2nd innings,9.4,Karim Janat,CA Young,Asghar Stanikzai,1,1,0,na,na,na,na,na,na,na,na,na
2nd innings,9.5,Asghar Stanikzai,CA Young,Karim Janat,2,2,0,na,na,na,na,na,na,na,na,na
2nd innings,9.6,Asghar Stanikzai,CA Young,Karim Janat,1,1,0,na,na,na,na,na,na,na,na,na
2nd innings,10.1,Asghar Stanikzai,Simi Singh,Karim Janat,6,6,0,na,na,na,na,na,na,na,na,na
2nd innings,10.2,Asghar Stanikzai,Simi Singh,Karim Janat,0,0,0,na,na,na,na,na,na,na,na,na
2nd innings,10.3,Asghar Stanikzai,Simi Singh,Karim Janat,1,1,0,na,na,na,na,na,na,na,na,na
2nd innings,10.4,Karim Janat,Simi Singh,Asghar Stanikzai,1,1,0,na,na,na,na,na,na,na,na,na
2nd innings,10.5,Asghar Stanikzai,Simi Singh,Karim Janat,1,1,0,na,na,na,na,na,na,na,na,na
2nd innings,10.6,Karim Janat,Simi Singh,Asghar Stanikzai,6,6,0,na,na,na,na,na,na,na,na,na
2nd innings,11.1,Asghar Stanikzai,CA Young,Karim Janat,1,1,0,na,na,na,na,na,na,na,na,na
2nd innings,11.2,Karim Janat,CA Young,Asghar Stanikzai,0,0,0,na,na,na,na,na,na,na,na,na
2nd innings,11.3,Karim Janat,CA Young,Asghar Stanikzai,1,1,0,na,na,na,na,na,na,na,na,na
2nd innings,11.4,Asghar Stanikzai,CA Young,Karim Janat,1,1,0,na,na,na,na,na,na,na,na,na
2nd innings,11.5,Karim Janat,CA Young,Asghar Stanikzai,1,1,0,na,na,na,na,na,na,na,na,na
2nd innings,11.6,Asghar Stanikzai,CA Young,Karim Janat,4,4,0,na,na,na,na,na,na,na,na,na
2nd innings,12.1,Karim Janat,BJ McCarthy,Asghar Stanikzai,1,1,0,na,na,na,na,na,na,na,na,na
2nd innings,12.2,Asghar Stanikzai,BJ McCarthy,Karim Janat,0,0,0,na,na,na,na,na,bowled,na,na,Karim Janat
2nd innings,12.3,Asghar Stanikzai,BJ McCarthy,Mohammad Nabi,1,1,0,na,na,na,na,na,na,na,na,na
2nd innings,12.4,Mohammad Nabi,BJ McCarthy,Asghar Stanikzai,1,1,0,na,na,na,na,na,na,na,na,na
2nd innings,12.5,Asghar Stanikzai,BJ McCarthy,Mohammad Nabi,0,0,0,na,na,na,na,na,na,na,na,na
2nd innings,12.6,Asghar Stanikzai,BJ McCarthy,Mohammad Nabi,0,0,0,na,na,na,na,na,na,na,na,na
2nd innings,13.1,Mohammad Nabi,J Little,Asghar Stanikzai,0,0,0,na,na,na,na,na,na,na,na,na
2nd innings,13.2,Mohammad Nabi,J Little,Asghar Stanikzai,1,1,0,na,na,na,na,na,na,na,na,na
2nd innings,13.3,Asghar Stanikzai,J Little,Mohammad Nabi,0,0,0,na,na,na,na,na,na,na,na,na
2nd innings,13.4,Asghar Stanikzai,J Little,Mohammad Nabi,0,0,0,na,na,na,na,na,na,na,na,na
2nd innings,13.5,Asghar Stanikzai,J Little,Mohammad Nabi,1,1,0,na,na,na,na,na,na,na,na,na
2nd innings,13.6,Mohammad Nabi,J Little,Asghar Stanikzai,1,1,0,na,na,na,na,na,na,na,na,na
2nd innings,14.1,Mohammad Nabi,Simi Singh,Asghar Stanikzai,0,0,0,na,na,na,na,na,na,na,na,na
2nd innings,14.2,Mohammad Nabi,Simi Singh,Asghar Stanikzai,1,1,0,na,na,na,na,na,na,na,na,na
2nd innings,14.3,Asghar Stanikzai,Simi Singh,Mohammad Nabi,2,2,0,na,na,na,na,na,na,na,na,na
2nd innings,14.4,Asghar Stanikzai,Simi Singh,Mohammad Nabi,0,0,0,na,na,na,na,na,caught,KJ O'Brien,na,Mohammad Nabi
2nd innings,14.5,Asghar Stanikzai,Simi Singh,Najibullah Zadran,0,0,0,na,na,na,na,na,lbw,na,na,Najibullah Zadran
2nd innings,14.6,Asghar Stanikzai,Simi Singh,Gulbadin Naib,1,1,0,na,na,na,na,na,na,na,na,na
2nd innings,15.1,Asghar Stanikzai,BJ McCarthy,Gulbadin Naib,0,0,0,na,na,na,na,na,na,na,na,na
2nd innings,15.2,Asghar Stanikzai,BJ McCarthy,Gulbadin Naib,1,1,0,na,na,na,na,na,na,na,na,na
2nd innings,15.3,Gulbadin Naib,BJ McCarthy,Asghar Stanikzai,0,0,0,na,na,na,na,na,na,na,na,na
2nd innings,15.4,Gulbadin Naib,BJ McCarthy,Asghar Stanikzai,1,1,0,na,na,na,na,na,na,na,na,na
2nd innings,15.5,Asghar Stanikzai,BJ McCarthy,Gulbadin Naib,1,1,0,na,na,na,na,na,na,na,na,na
2nd innings,15.6,Gulbadin Naib,BJ McCarthy,Asghar Stanikzai,1,1,0,na,na,na,na,na,na,na,na,na
2nd innings,16.1,Gulbadin Naib,CA Young,Asghar Stanikzai,1,1,0,na,na,na,na,na,na,na,na,na
2nd innings,16.2,Asghar Stanikzai,CA Young,Gulbadin Naib,1,0,1,1,na,na,na,na,na,na,na,na
2nd innings,16.3,Gulbadin Naib,CA Young,Asghar Stanikzai,4,4,0,na,na,na,na,na,na,na,na,na
2nd innings,16.4,Gulbadin Naib,CA Young,Asghar Stanikzai,0,0,0,na,na,na,na,na,na,na,na,na
2nd innings,16.5,Gulbadin Naib,CA Young,Asghar Stanikzai,1,1,0,na,na,na,na,na,na,na,na,na
2nd innings,16.6,Asghar Stanikzai,CA Young,Gulbadin Naib,1,1,0,na,na,na,na,na,na,na,na,na
2nd innings,17.1,Asghar Stanikzai,J Little,Gulbadin Naib,4,4,0,na,na,na,na,na,na,na,na,na
2nd innings,17.2,Asghar Stanikzai,J Little,Gulbadin Naib,1,0,1,na,na,1,na,na,na,na,na,na
2nd innings,17.3,Asghar Stanikzai,J Little,Gulbadin Naib,1,1,0,na,na,na,na,na,na,na,na,na
2nd innings,17.4,Gulbadin Naib,J Little,Asghar Stanikzai,0,0,0,na,na,na,na,na,na,na,na,na
2nd innings,17.5,Gulbadin Naib,J Little,Asghar Stanikzai,0,0,0,na,na,na,na,na,na,na,na,na
2nd innings,17.6,Gulbadin Naib,J Little,Asghar Stanikzai,1,1,0,na,na,na,na,na,na,na,na,na
2nd innings,17.7,Asghar Stanikzai,J Little,Gulbadin Naib,1,0,1,na,na,1,na,na,na,na,na,na
2nd innings,17.8,Asghar Stanikzai,J Little,Gulbadin Naib,0,0,0,na,na,na,na,na,na,na,na,na
2nd innings,18.1,Gulbadin Naib,CA Young,Asghar Stanikzai,1,1,0,na,na,na,na,na,na,na,na,na
2nd innings,18.2,Asghar Stanikzai,CA Young,Gulbadin Naib,1,1,0,na,na,na,na,na,na,na,na,na
2nd innings,18.3,Gulbadin Naib,CA Young,Asghar Stanikzai,1,1,0,na,na,na,na,na,na,na,na,na
2nd innings,18.4,Asghar Stanikzai,CA Young,Gulbadin Naib,0,0,0,na,na,na,na,na,bowled,na,na,Gulbadin Naib
2nd innings,18.5,Asghar Stanikzai,CA Young,Rashid Khan,2,2,0,na,na,na,na,na,na,na,na,na
2nd innings,18.6,Asghar Stanikzai,CA Young,Rashid Khan,1,1,0,na,na,na,na,na,na,na,na,na
2nd innings,19.1,Asghar Stanikzai,J Little,Rashid Khan,1,1,0,na,na,na,na,na,na,na,na,na
2nd innings,19.2,Rashid Khan,J Little,Asghar Stanikzai,2,2,0,na,na,na,na,na,na,na,na,na
2nd innings,19.3,Rashid Khan,J Little,Asghar Stanikzai,0,0,0,na,na,na,na,na,caught,A Balbirnie,na,Asghar Stanikzai
2nd innings,19.4,Qais Ahmad,J Little,Rashid Khan,1,0,1,na,na,1,na,na,na,na,na,na
2nd innings,19.5,Qais Ahmad,J Little,Rashid Khan,6,6,0,na,na,na,na,na,na,na,na,na
2nd innings,19.6,Qais Ahmad,J Little,Rashid Khan,1,0,1,na,na,1,na,na,na,na,na,na
2nd innings,19.7,Qais Ahmad,J Little,Rashid Khan,0,0,0,na,na,na,na,na,na,na,na,na
2nd innings,19.8,Qais Ahmad,J Little,Rashid Khan,4,4,0,na,na,na,na,na,na,na,na,na
