inngs,deliveries,non_striker,bowler,batsman,totalruns,batsman_runs,extra_runs,legbyes,byes,wides,noballs,penalty,wicket_kind,fielder1,fielder2,player_out
1st innings,0.1,TL Seifert,DR Sams,MJ Guptill,0,0,0,na,na,na,na,na,na,na,na,na
1st innings,0.2,TL Seifert,DR Sams,MJ Guptill,0,0,0,na,na,na,na,na,na,na,na,na
1st innings,0.3,TL Seifert,DR Sams,MJ Guptill,0,0,0,na,na,na,na,na,caught,AC Agar,na,MJ Guptill
1st innings,0.4,TL Seifert,DR Sams,KS Williamson,0,0,0,na,na,na,na,na,na,na,na,na
1st innings,0.5,TL Seifert,DR Sams,KS Williamson,4,4,0,na,na,na,na,na,na,na,na,na
1st innings,0.6,TL Seifert,DR Sams,KS Williamson,2,2,0,na,na,na,na,na,na,na,na,na
1st innings,1.1,KS Williamson,A Zampa,TL Seifert,1,1,0,na,na,na,na,na,na,na,na,na
1st innings,1.2,TL Seifert,A Zampa,KS Williamson,0,0,0,na,na,na,na,na,na,na,na,na
1st innings,1.3,TL Seifert,A Zampa,KS Williamson,1,1,0,na,na,na,na,na,na,na,na,na
1st innings,1.4,KS Williamson,A Zampa,TL Seifert,0,0,0,na,na,na,na,na,na,na,na,na
1st innings,1.5,KS Williamson,A Zampa,TL Seifert,2,0,2,2,na,na,na,na,na,na,na,na
1st innings,1.6,KS Williamson,A Zampa,TL Seifert,0,0,0,na,na,na,na,na,na,na,na,na
1st innings,2.1,TL Seifert,JA Richardson,KS Williamson,1,1,0,na,na,na,na,na,na,na,na,na
1st innings,2.2,KS Williamson,JA Richardson,TL Seifert,0,0,0,na,na,na,na,na,bowled,na,na,TL Seifert
1st innings,2.3,KS Williamson,JA Richardson,DP Conway,0,0,0,na,na,na,na,na,na,na,na,na
1st innings,2.4,KS Williamson,JA Richardson,DP Conway,2,2,0,na,na,na,na,na,na,na,na,na
1st innings,2.5,KS Williamson,JA Richardson,DP Conway,1,1,0,na,na,na,na,na,na,na,na,na
1st innings,2.6,DP Conway,JA Richardson,KS Williamson,1,0,1,1,na,na,na,na,na,na,na,na
1st innings,3.1,DP Conway,DR Sams,KS Williamson,0,0,0,na,na,na,na,na,na,na,na,na
1st innings,3.2,DP Conway,DR Sams,KS Williamson,0,0,0,na,na,na,na,na,na,na,na,na
1st innings,3.3,DP Conway,DR Sams,KS Williamson,0,0,0,na,na,na,na,na,na,na,na,na
1st innings,3.4,DP Conway,DR Sams,KS Williamson,0,0,0,na,na,na,na,na,na,na,na,na
1st innings,3.5,DP Conway,DR Sams,KS Williamson,4,4,0,na,na,na,na,na,na,na,na,na
1st innings,3.6,DP Conway,DR Sams,KS Williamson,0,0,0,na,na,na,na,na,caught,MS Wade,na,KS Williamson
1st innings,4.1,GD Phillips,JA Richardson,DP Conway,0,0,0,na,na,na,na,na,na,na,na,na
1st innings,4.2,GD Phillips,JA Richardson,DP Conway,1,0,1,na,na,1,na,na,na,na,na,na
1st innings,4.3,GD Phillips,JA Richardson,DP Conway,0,0,0,na,na,na,na,na,na,na,na,na
1st innings,4.4,GD Phillips,JA Richardson,DP Conway,2,2,0,na,na,na,na,na,na,na,na,na
1st innings,4.5,GD Phillips,JA Richardson,DP Conway,0,0,0,na,na,na,na,na,na,na,na,na
1st innings,4.6,GD Phillips,JA Richardson,DP Conway,0,0,0,na,na,na,na,na,na,na,na,na
1st innings,4.7,GD Phillips,JA Richardson,DP Conway,6,6,0,na,na,na,na,na,na,na,na,na
1st innings,5.1,DP Conway,KW Richardson,GD Phillips,0,0,0,na,na,na,na,na,na,na,na,na
1st innings,5.2,DP Conway,KW Richardson,GD Phillips,0,0,0,na,na,na,na,na,na,na,na,na
1st innings,5.3,DP Conway,KW Richardson,GD Phillips,1,1,0,na,na,na,na,na,na,na,na,na
1st innings,5.4,GD Phillips,KW Richardson,DP Conway,0,0,0,na,na,na,na,na,na,na,na,na
1st innings,5.5,GD Phillips,KW Richardson,DP Conway,4,4,0,na,na,na,na,na,na,na,na,na
1st innings,5.6,GD Phillips,KW Richardson,DP Conway,1,1,0,na,na,na,na,na,na,na,na,na
1st innings,6.1,GD Phillips,A Zampa,DP Conway,1,1,0,na,na,na,na,na,na,na,na,na
1st innings,6.2,DP Conway,A Zampa,GD Phillips,0,0,0,na,na,na,na,na,na,na,na,na
1st innings,6.3,DP Conway,A Zampa,GD Phillips,1,1,0,na,na,na,na,na,na,na,na,na
1st innings,6.4,GD Phillips,A Zampa,DP Conway,1,1,0,na,na,na,na,na,na,na,na,na
1st innings,6.5,DP Conway,A Zampa,GD Phillips,0,0,0,na,na,na,na,na,na,na,na,na
1st innings,6.6,DP Conway,A Zampa,GD Phillips,1,1,0,na,na,na,na,na,na,na,na,na
1st innings,7.1,DP Conway,AC Agar,GD Phillips,1,1,0,na,na,na,na,na,na,na,na,na
1st innings,7.2,GD Phillips,AC Agar,DP Conway,0,0,0,na,na,na,na,na,na,na,na,na
1st innings,7.3,GD Phillips,AC Agar,DP Conway,4,4,0,na,na,na,na,na,na,na,na,na
1st innings,7.4,GD Phillips,AC Agar,DP Conway,0,0,0,na,na,na,na,na,na,na,na,na
1st innings,7.5,GD Phillips,AC Agar,DP Conway,1,1,0,na,na,na,na,na,na,na,na,na
1st innings,7.6,DP Conway,AC Agar,GD Phillips,2,2,0,na,na,na,na,na,na,na,na,na
1st innings,8.1,GD Phillips,JA Richardson,DP Conway,1,1,0,na,na,na,na,na,na,na,na,na
1st innings,8.2,DP Conway,JA Richardson,GD Phillips,1,1,0,na,na,na,na,na,na,na,na,na
1st innings,8.3,GD Phillips,JA Richardson,DP Conway,0,0,0,na,na,na,na,na,na,na,na,na
1st innings,8.4,GD Phillips,JA Richardson,DP Conway,1,1,0,na,na,na,na,na,na,na,na,na
1st innings,8.5,DP Conway,JA Richardson,GD Phillips,6,6,0,na,na,na,na,na,na,na,na,na
1st innings,8.6,DP Conway,JA Richardson,GD Phillips,0,0,0,na,na,na,na,na,na,na,na,na
1st innings,9.1,GD Phillips,AC Agar,DP Conway,1,1,0,na,na,na,na,na,na,na,na,na
1st innings,9.2,DP Conway,AC Agar,GD Phillips,1,1,0,na,na,na,na,na,na,na,na,na
1st innings,9.3,GD Phillips,AC Agar,DP Conway,2,2,0,na,na,na,na,na,na,na,na,na
1st innings,9.4,GD Phillips,AC Agar,DP Conway,0,0,0,na,na,na,na,na,na,na,na,na
1st innings,9.5,GD Phillips,AC Agar,DP Conway,4,4,0,na,na,na,na,na,na,na,na,na
1st innings,9.6,GD Phillips,AC Agar,DP Conway,4,4,0,na,na,na,na,na,na,na,na,na
1st innings,10.1,DP Conway,A Zampa,GD Phillips,6,6,0,na,na,na,na,na,na,na,na,na
1st innings,10.2,DP Conway,A Zampa,GD Phillips,1,1,0,na,na,na,na,na,na,na,na,na
1st innings,10.3,GD Phillips,A Zampa,DP Conway,0,0,0,na,na,na,na,na,na,na,na,na
1st innings,10.4,GD Phillips,A Zampa,DP Conway,1,1,0,na,na,na,na,na,na,na,na,na
1st innings,10.5,DP Conway,A Zampa,GD Phillips,0,0,0,na,na,na,na,na,na,na,na,na
1st innings,10.6,DP Conway,A Zampa,GD Phillips,6,6,0,na,na,na,na,na,na,na,na,na
1st innings,11.1,GD Phillips,KW Richardson,DP Conway,0,0,0,na,na,na,na,na,na,na,na,na
1st innings,11.2,GD Phillips,KW Richardson,DP Conway,4,4,0,na,na,na,na,na,na,na,na,na
1st innings,11.3,GD Phillips,KW Richardson,DP Conway,4,4,0,na,na,na,na,na,na,na,na,na
1st innings,11.4,GD Phillips,KW Richardson,DP Conway,1,1,0,na,na,na,na,na,na,na,na,na
1st innings,11.5,DP Conway,KW Richardson,GD Phillips,1,1,0,na,na,na,na,na,na,na,na,na
1st innings,11.6,GD Phillips,KW Richardson,DP Conway,0,0,0,na,na,na,na,na,na,na,na,na
1st innings,12.1,DP Conway,MP Stoinis,GD Phillips,2,2,0,na,na,na,na,na,na,na,na,na
1st innings,12.2,DP Conway,MP Stoinis,GD Phillips,0,0,0,na,na,na,na,na,caught,MR Marsh,na,GD Phillips
1st innings,12.3,JDS Neesham,MP Stoinis,DP Conway,1,1,0,na,na,na,na,na,na,na,na,na
1st innings,12.4,DP Conway,MP Stoinis,JDS Neesham,1,1,0,na,na,na,na,na,na,na,na,na
1st innings,12.5,JDS Neesham,MP Stoinis,DP Conway,2,2,0,na,na,na,na,na,na,na,na,na
1st innings,12.6,JDS Neesham,MP Stoinis,DP Conway,1,1,0,na,na,na,na,na,na,na,na,na
1st innings,13.1,JDS Neesham,GJ Maxwell,DP Conway,1,1,0,na,na,na,na,na,na,na,na,na
1st innings,13.2,DP Conway,GJ Maxwell,JDS Neesham,2,2,0,na,na,na,na,na,na,na,na,na
1st innings,13.3,DP Conway,GJ Maxwell,JDS Neesham,1,0,1,na,na,1,na,na,na,na,na,na
1st innings,13.4,DP Conway,GJ Maxwell,JDS Neesham,1,0,1,na,na,1,na,na,na,na,na,na
1st innings,13.5,DP Conway,GJ Maxwell,JDS Neesham,2,2,0,na,na,na,na,na,na,na,na,na
1st innings,13.6,DP Conway,GJ Maxwell,JDS Neesham,1,1,0,na,na,na,na,na,na,na,na,na
1st innings,13.7,JDS Neesham,GJ Maxwell,DP Conway,1,0,1,na,1,na,na,na,na,na,na,na
1st innings,13.8,DP Conway,GJ Maxwell,JDS Neesham,1,1,0,na,na,na,na,na,na,na,na,na
1st innings,14.1,DP Conway,MP Stoinis,JDS Neesham,2,2,0,na,na,na,na,na,na,na,na,na
1st innings,14.2,DP Conway,MP Stoinis,JDS Neesham,1,1,0,na,na,na,na,na,na,na,na,na
1st innings,14.3,JDS Neesham,MP Stoinis,DP Conway,2,2,0,na,na,na,na,na,na,na,na,na
1st innings,14.4,JDS Neesham,MP Stoinis,DP Conway,1,1,0,na,na,na,na,na,na,na,na,na
1st innings,14.5,DP Conway,MP Stoinis,JDS Neesham,4,4,0,na,na,na,na,na,na,na,na,na
1st innings,14.6,DP Conway,MP Stoinis,JDS Neesham,0,0,0,na,na,na,na,na,na,na,na,na
1st innings,15.1,JDS Neesham,DR Sams,DP Conway,1,1,0,na,na,na,na,na,na,na,na,na
1st innings,15.2,DP Conway,DR Sams,JDS Neesham,2,2,0,na,na,na,na,na,na,na,na,na
1st innings,15.3,DP Conway,DR Sams,JDS Neesham,4,4,0,na,na,na,na,na,na,na,na,na
1st innings,15.4,DP Conway,DR Sams,JDS Neesham,1,1,0,na,na,na,na,na,na,na,na,na
1st innings,15.5,JDS Neesham,DR Sams,DP Conway,2,2,0,na,na,na,na,na,na,na,na,na
1st innings,15.6,JDS Neesham,DR Sams,DP Conway,4,4,0,na,na,na,na,na,na,na,na,na
1st innings,16.1,DP Conway,JA Richardson,JDS Neesham,1,1,0,na,na,na,na,na,na,na,na,na
1st innings,16.2,JDS Neesham,JA Richardson,DP Conway,2,2,0,na,na,na,na,na,na,na,na,na
1st innings,16.3,JDS Neesham,JA Richardson,DP Conway,1,1,0,na,na,na,na,na,na,na,na,na
1st innings,16.4,DP Conway,JA Richardson,JDS Neesham,4,4,0,na,na,na,na,na,na,na,na,na
1st innings,16.5,DP Conway,JA Richardson,JDS Neesham,0,0,0,na,na,na,na,na,caught,MS Wade,na,JDS Neesham
1st innings,16.6,DP Conway,JA Richardson,MJ Santner,1,1,0,na,na,na,na,na,na,na,na,na
1st innings,17.1,DP Conway,KW Richardson,MJ Santner,1,1,0,na,na,na,na,na,na,na,na,na
1st innings,17.2,MJ Santner,KW Richardson,DP Conway,4,4,0,na,na,na,na,na,na,na,na,na
1st innings,17.3,MJ Santner,KW Richardson,DP Conway,2,2,0,na,na,na,na,na,na,na,na,na
1st innings,17.4,MJ Santner,KW Richardson,DP Conway,1,1,0,na,na,na,na,na,na,na,na,na
1st innings,17.5,DP Conway,KW Richardson,MJ Santner,1,1,0,na,na,na,na,na,na,na,na,na
1st innings,17.6,MJ Santner,KW Richardson,DP Conway,1,1,0,na,na,na,na,na,na,na,na,na
1st innings,18.1,MJ Santner,DR Sams,DP Conway,0,0,0,na,na,na,na,na,na,na,na,na
1st innings,18.2,MJ Santner,DR Sams,DP Conway,2,2,0,na,na,na,na,na,na,na,na,na
1st innings,18.3,MJ Santner,DR Sams,DP Conway,1,0,1,na,na,1,na,na,na,na,na,na
1st innings,18.4,MJ Santner,DR Sams,DP Conway,6,6,0,na,na,na,na,na,na,na,na,na
1st innings,18.5,MJ Santner,DR Sams,DP Conway,2,2,0,na,na,na,na,na,na,na,na,na
1st innings,18.6,MJ Santner,DR Sams,DP Conway,4,4,0,na,na,na,na,na,na,na,na,na
1st innings,18.7,MJ Santner,DR Sams,DP Conway,1,1,0,na,na,na,na,na,na,na,na,na
1st innings,19.1,MJ Santner,KW Richardson,DP Conway,1,1,0,na,na,na,na,na,na,na,na,na
1st innings,19.2,DP Conway,KW Richardson,MJ Santner,4,4,0,na,na,na,na,na,na,na,na,na
1st innings,19.3,DP Conway,KW Richardson,MJ Santner,1,0,1,na,1,na,na,na,na,na,na,na
1st innings,19.4,MJ Santner,KW Richardson,DP Conway,6,6,0,na,na,na,na,na,na,na,na,na
1st innings,19.5,MJ Santner,KW Richardson,DP Conway,4,4,0,na,na,na,na,na,na,na,na,na
1st innings,19.6,MJ Santner,KW Richardson,DP Conway,1,1,0,na,na,na,na,na,na,na,na,na
2nd innings,0.1,AJ Finch,TG Southee,MS Wade,0,0,0,na,na,na,na,na,na,na,na,na
2nd innings,0.2,AJ Finch,TG Southee,MS Wade,1,1,0,na,na,na,na,na,na,na,na,na
2nd innings,0.3,MS Wade,TG Southee,AJ Finch,1,1,0,na,na,na,na,na,na,na,na,na
2nd innings,0.4,AJ Finch,TG Southee,MS Wade,1,1,0,na,na,na,na,na,na,na,na,na
2nd innings,0.5,MS Wade,TG Southee,AJ Finch,0,0,0,na,na,na,na,na,caught,DP Conway,na,AJ Finch
2nd innings,0.6,MS Wade,TG Southee,JR Philippe,0,0,0,na,na,na,na,na,na,na,na,na
2nd innings,1.1,JR Philippe,TA Boult,MS Wade,0,0,0,na,na,na,na,na,na,na,na,na
2nd innings,1.2,JR Philippe,TA Boult,MS Wade,0,0,0,na,na,na,na,na,na,na,na,na
2nd innings,1.3,JR Philippe,TA Boult,MS Wade,3,3,0,na,na,na,na,na,na,na,na,na
2nd innings,1.4,MS Wade,TA Boult,JR Philippe,2,2,0,na,na,na,na,na,na,na,na,na
2nd innings,1.5,MS Wade,TA Boult,JR Philippe,0,0,0,na,na,na,na,na,caught,DP Conway,na,JR Philippe
2nd innings,1.6,MS Wade,TA Boult,MR Marsh,1,0,1,na,na,1,na,na,na,na,na,na
2nd innings,1.7,MS Wade,TA Boult,MR Marsh,0,0,0,na,na,na,na,na,na,na,na,na
2nd innings,2.1,MR Marsh,TG Southee,MS Wade,0,0,0,na,na,na,na,na,na,na,na,na
2nd innings,2.2,MR Marsh,TG Southee,MS Wade,0,0,0,na,na,na,na,na,na,na,na,na
2nd innings,2.3,MR Marsh,TG Southee,MS Wade,0,0,0,na,na,na,na,na,na,na,na,na
2nd innings,2.4,MR Marsh,TG Southee,MS Wade,1,1,0,na,na,na,na,na,na,na,na,na
2nd innings,2.5,MS Wade,TG Southee,MR Marsh,0,0,0,na,na,na,na,na,na,na,na,na
2nd innings,2.6,MS Wade,TG Southee,MR Marsh,0,0,0,na,na,na,na,na,na,na,na,na
2nd innings,3.1,MR Marsh,TA Boult,MS Wade,6,6,0,na,na,na,na,na,na,na,na,na
2nd innings,3.2,MR Marsh,TA Boult,MS Wade,0,0,0,na,na,na,na,na,caught,KS Williamson,na,MS Wade
2nd innings,3.3,MR Marsh,TA Boult,GJ Maxwell,0,0,0,na,na,na,na,na,na,na,na,na
2nd innings,3.4,MR Marsh,TA Boult,GJ Maxwell,0,0,0,na,na,na,na,na,na,na,na,na
2nd innings,3.5,MR Marsh,TA Boult,GJ Maxwell,1,1,0,na,na,na,na,na,na,na,na,na
2nd innings,3.6,GJ Maxwell,TA Boult,MR Marsh,1,0,1,na,na,1,na,na,na,na,na,na
2nd innings,3.7,GJ Maxwell,TA Boult,MR Marsh,0,0,0,na,na,na,na,na,na,na,na,na
2nd innings,4.1,MR Marsh,TG Southee,GJ Maxwell,0,0,0,na,na,na,na,na,na,na,na,na
2nd innings,4.2,MR Marsh,TG Southee,GJ Maxwell,1,0,1,na,na,1,na,na,na,na,na,na
2nd innings,4.3,MR Marsh,TG Southee,GJ Maxwell,0,0,0,na,na,na,na,na,caught,JDS Neesham,na,GJ Maxwell
2nd innings,4.4,MR Marsh,TG Southee,MP Stoinis,0,0,0,na,na,na,na,na,na,na,na,na
2nd innings,4.5,MR Marsh,TG Southee,MP Stoinis,0,0,0,na,na,na,na,na,na,na,na,na
2nd innings,4.6,MR Marsh,TG Southee,MP Stoinis,1,1,0,na,na,na,na,na,na,na,na,na
2nd innings,4.7,MP Stoinis,TG Southee,MR Marsh,4,4,0,na,na,na,na,na,na,na,na,na
2nd innings,5.1,MR Marsh,KA Jamieson,MP Stoinis,1,1,0,na,na,na,na,na,na,na,na,na
2nd innings,5.2,MP Stoinis,KA Jamieson,MR Marsh,4,4,0,na,na,na,na,na,na,na,na,na
2nd innings,5.3,MP Stoinis,KA Jamieson,MR Marsh,0,0,0,na,na,na,na,na,na,na,na,na
2nd innings,5.4,MP Stoinis,KA Jamieson,MR Marsh,0,0,0,na,na,na,na,na,na,na,na,na
2nd innings,5.5,MP Stoinis,KA Jamieson,MR Marsh,6,6,0,na,na,na,na,na,na,na,na,na
2nd innings,5.6,MP Stoinis,KA Jamieson,MR Marsh,1,1,0,na,na,na,na,na,na,na,na,na
2nd innings,6.1,MP Stoinis,JDS Neesham,MR Marsh,4,4,0,na,na,na,na,na,na,na,na,na
2nd innings,6.2,MP Stoinis,JDS Neesham,MR Marsh,0,0,0,na,na,na,na,na,na,na,na,na
2nd innings,6.3,MP Stoinis,JDS Neesham,MR Marsh,2,2,0,na,na,na,na,na,na,na,na,na
2nd innings,6.4,MP Stoinis,JDS Neesham,MR Marsh,1,1,0,na,na,na,na,na,na,na,na,na
2nd innings,6.5,MR Marsh,JDS Neesham,MP Stoinis,1,1,0,na,na,na,na,na,na,na,na,na
2nd innings,6.6,MP Stoinis,JDS Neesham,MR Marsh,1,1,0,na,na,na,na,na,na,na,na,na
2nd innings,7.1,MP Stoinis,KA Jamieson,MR Marsh,4,4,0,na,na,na,na,na,na,na,na,na
2nd innings,7.2,MP Stoinis,KA Jamieson,MR Marsh,1,0,1,na,na,1,na,na,na,na,na,na
2nd innings,7.3,MP Stoinis,KA Jamieson,MR Marsh,0,0,0,na,na,na,na,na,na,na,na,na
2nd innings,7.4,MP Stoinis,KA Jamieson,MR Marsh,0,0,0,na,na,na,na,na,na,na,na,na
2nd innings,7.5,MP Stoinis,KA Jamieson,MR Marsh,1,1,0,na,na,na,na,na,na,na,na,na
2nd innings,7.6,MR Marsh,KA Jamieson,MP Stoinis,1,1,0,na,na,na,na,na,na,na,na,na
2nd innings,7.7,MP Stoinis,KA Jamieson,MR Marsh,0,0,0,na,na,na,na,na,na,na,na,na
2nd innings,8.1,MR Marsh,IS Sodhi,MP Stoinis,0,0,0,na,na,na,na,na,na,na,na,na
2nd innings,8.2,MR Marsh,IS Sodhi,MP Stoinis,0,0,0,na,na,na,na,na,na,na,na,na
2nd innings,8.3,MR Marsh,IS Sodhi,MP Stoinis,0,0,0,na,na,na,na,na,na,na,na,na
2nd innings,8.4,MR Marsh,IS Sodhi,MP Stoinis,4,4,0,na,na,na,na,na,na,na,na,na
2nd innings,8.5,MR Marsh,IS Sodhi,MP Stoinis,0,0,0,na,na,na,na,na,caught and bowled,na,na,MP Stoinis
2nd innings,8.6,MR Marsh,IS Sodhi,AC Agar,1,1,0,na,na,na,na,na,na,na,na,na
2nd innings,9.1,MR Marsh,MJ Santner,AC Agar,1,1,0,na,na,na,na,na,na,na,na,na
2nd innings,9.2,AC Agar,MJ Santner,MR Marsh,0,0,0,na,na,na,na,na,na,na,na,na
2nd innings,9.3,AC Agar,MJ Santner,MR Marsh,1,1,0,na,na,na,na,na,na,na,na,na
2nd innings,9.4,MR Marsh,MJ Santner,AC Agar,1,1,0,na,na,na,na,na,na,na,na,na
2nd innings,9.5,AC Agar,MJ Santner,MR Marsh,1,1,0,na,na,na,na,na,na,na,na,na
2nd innings,9.6,MR Marsh,MJ Santner,AC Agar,2,0,2,na,na,2,na,na,na,na,na,na
2nd innings,9.7,AC Agar,MJ Santner,MR Marsh,0,0,0,na,na,na,na,na,na,na,na,na
2nd innings,10.1,MR Marsh,IS Sodhi,AC Agar,2,2,0,na,na,na,na,na,na,na,na,na
2nd innings,10.2,MR Marsh,IS Sodhi,AC Agar,6,6,0,na,na,na,na,na,na,na,na,na
2nd innings,10.3,MR Marsh,IS Sodhi,AC Agar,1,1,0,na,na,na,na,na,na,na,na,na
2nd innings,10.4,AC Agar,IS Sodhi,MR Marsh,0,0,0,na,na,na,na,na,na,na,na,na
2nd innings,10.5,AC Agar,IS Sodhi,MR Marsh,0,0,0,na,na,na,na,na,na,na,na,na
2nd innings,10.6,AC Agar,IS Sodhi,MR Marsh,4,4,0,na,na,na,na,na,na,na,na,na
2nd innings,11.1,MR Marsh,MJ Santner,AC Agar,1,1,0,na,na,na,na,na,na,na,na,na
2nd innings,11.2,AC Agar,MJ Santner,MR Marsh,1,1,0,na,na,na,na,na,na,na,na,na
2nd innings,11.3,MR Marsh,MJ Santner,AC Agar,4,4,0,na,na,na,na,na,na,na,na,na
2nd innings,11.4,MR Marsh,MJ Santner,AC Agar,1,1,0,na,na,na,na,na,na,na,na,na
2nd innings,11.5,AC Agar,MJ Santner,MR Marsh,2,2,0,na,na,na,na,na,na,na,na,na
2nd innings,11.6,AC Agar,MJ Santner,MR Marsh,1,1,0,na,na,na,na,na,na,na,na,na
2nd innings,12.1,AC Agar,KA Jamieson,MR Marsh,1,1,0,na,na,na,na,na,na,na,na,na
2nd innings,12.2,MR Marsh,KA Jamieson,AC Agar,4,4,0,na,na,na,na,na,na,na,na,na
2nd innings,12.3,MR Marsh,KA Jamieson,AC Agar,1,1,0,na,na,na,na,na,na,na,na,na
2nd innings,12.4,AC Agar,KA Jamieson,MR Marsh,6,6,0,na,na,na,na,na,na,na,na,na
2nd innings,12.5,AC Agar,KA Jamieson,MR Marsh,0,0,0,na,na,na,na,na,caught,MJ Santner,na,MR Marsh
2nd innings,12.6,AC Agar,KA Jamieson,DR Sams,1,1,0,na,na,na,na,na,na,na,na,na
2nd innings,13.1,AC Agar,IS Sodhi,DR Sams,0,0,0,na,na,na,na,na,na,na,na,na
2nd innings,13.2,AC Agar,IS Sodhi,DR Sams,0,0,0,na,na,na,na,na,caught,KA Jamieson,na,DR Sams
2nd innings,13.3,JA Richardson,IS Sodhi,AC Agar,0,0,0,na,na,na,na,na,na,na,na,na
2nd innings,13.4,JA Richardson,IS Sodhi,AC Agar,0,0,0,na,na,na,na,na,caught,KA Jamieson,na,AC Agar
2nd innings,13.5,JA Richardson,IS Sodhi,KW Richardson,2,2,0,na,na,na,na,na,na,na,na,na
2nd innings,13.6,JA Richardson,IS Sodhi,KW Richardson,0,0,0,na,na,na,na,na,na,na,na,na
2nd innings,14.1,KW Richardson,MJ Santner,JA Richardson,0,0,0,na,na,na,na,na,na,na,na,na
2nd innings,14.2,KW Richardson,MJ Santner,JA Richardson,1,1,0,na,na,na,na,na,na,na,na,na
2nd innings,14.3,JA Richardson,MJ Santner,KW Richardson,1,1,0,na,na,na,na,na,na,na,na,na
2nd innings,14.4,KW Richardson,MJ Santner,JA Richardson,0,0,0,na,na,na,na,na,na,na,na,na
2nd innings,14.5,KW Richardson,MJ Santner,JA Richardson,1,1,0,na,na,na,na,na,na,na,na,na
2nd innings,14.6,JA Richardson,MJ Santner,KW Richardson,1,0,1,na,na,1,na,na,na,na,na,na
2nd innings,14.7,JA Richardson,MJ Santner,KW Richardson,2,2,0,na,na,na,na,na,na,na,na,na
2nd innings,15.1,KW Richardson,IS Sodhi,JA Richardson,1,1,0,na,na,na,na,na,na,na,na,na
2nd innings,15.2,JA Richardson,IS Sodhi,KW Richardson,0,0,0,na,na,na,na,na,caught,JDS Neesham,na,KW Richardson
2nd innings,15.3,A Zampa,IS Sodhi,JA Richardson,0,0,0,na,na,na,na,na,na,na,na,na
2nd innings,15.4,A Zampa,IS Sodhi,JA Richardson,1,1,0,na,na,na,na,na,na,na,na,na
2nd innings,15.5,JA Richardson,IS Sodhi,A Zampa,1,0,1,na,na,na,1,na,na,na,na,na
2nd innings,15.6,JA Richardson,IS Sodhi,A Zampa,4,4,0,na,na,na,na,na,na,na,na,na
2nd innings,15.7,JA Richardson,IS Sodhi,A Zampa,1,1,0,na,na,na,na,na,na,na,na,na
2nd innings,16.1,JA Richardson,TA Boult,A Zampa,2,2,0,na,na,na,na,na,na,na,na,na
2nd innings,16.2,JA Richardson,TA Boult,A Zampa,4,4,0,na,na,na,na,na,na,na,na,na
2nd innings,16.3,JA Richardson,TA Boult,A Zampa,1,1,0,na,na,na,na,na,na,na,na,na
2nd innings,16.4,A Zampa,TA Boult,JA Richardson,0,0,0,na,na,na,na,na,na,na,na,na
2nd innings,16.5,A Zampa,TA Boult,JA Richardson,1,1,0,na,na,na,na,na,na,na,na,na
2nd innings,16.6,JA Richardson,TA Boult,A Zampa,1,0,1,1,na,na,na,na,na,na,na,na
2nd innings,17.1,JA Richardson,MJ Santner,A Zampa,1,1,0,na,na,na,na,na,na,na,na,na
2nd innings,17.2,A Zampa,MJ Santner,JA Richardson,6,6,0,na,na,na,na,na,na,na,na,na
2nd innings,17.3,A Zampa,MJ Santner,JA Richardson,0,0,0,na,na,na,na,na,stumped,TL Seifert,na,JA Richardson
