inngs,deliveries,non_striker,bowler,batsman,totalruns,batsman_runs,extra_runs,legbyes,byes,wides,noballs,penalty,wicket_kind,fielder1,fielder2,player_out
1st innings,0.1,AJ Finch,TG Southee,MS Wade,1,0,1,na,na,1,na,na,na,na,na,na
1st innings,0.2,AJ Finch,TG Southee,MS Wade,0,0,0,na,na,na,na,na,na,na,na,na
1st innings,0.3,AJ Finch,TG Southee,MS Wade,0,0,0,na,na,na,na,na,na,na,na,na
1st innings,0.4,AJ Finch,TG Southee,MS Wade,1,1,0,na,na,na,na,na,na,na,na,na
1st innings,0.5,MS Wade,TG Southee,AJ Finch,0,0,0,na,na,na,na,na,na,na,na,na
1st innings,0.6,MS Wade,TG Southee,AJ Finch,0,0,0,na,na,na,na,na,na,na,na,na
1st innings,0.7,MS Wade,TG Southee,AJ Finch,0,0,0,na,na,na,na,na,na,na,na,na
1st innings,1.1,AJ Finch,TA Boult,MS Wade,4,4,0,na,na,na,na,na,na,na,na,na
1st innings,1.2,AJ Finch,TA Boult,MS Wade,0,0,0,na,na,na,na,na,na,na,na,na
1st innings,1.3,AJ Finch,TA Boult,MS Wade,0,0,0,na,na,na,na,na,caught,MJ Guptill,na,MS Wade
1st innings,1.4,AJ Finch,TA Boult,JR Philippe,0,0,0,na,na,na,na,na,na,na,na,na
1st innings,1.5,AJ Finch,TA Boult,JR Philippe,1,1,0,na,na,na,na,na,na,na,na,na
1st innings,1.6,JR Philippe,TA Boult,AJ Finch,0,0,0,na,na,na,na,na,na,na,na,na
1st innings,2.1,AJ Finch,TG Southee,JR Philippe,0,0,0,na,na,na,na,na,na,na,na,na
1st innings,2.2,AJ Finch,TG Southee,JR Philippe,0,0,0,na,na,na,na,na,na,na,na,na
1st innings,2.3,AJ Finch,TG Southee,JR Philippe,1,1,0,na,na,na,na,na,na,na,na,na
1st innings,2.4,JR Philippe,TG Southee,AJ Finch,4,4,0,na,na,na,na,na,na,na,na,na
1st innings,2.5,JR Philippe,TG Southee,AJ Finch,1,1,0,na,na,na,na,na,na,na,na,na
1st innings,2.6,AJ Finch,TG Southee,JR Philippe,1,1,0,na,na,na,na,na,na,na,na,na
1st innings,3.1,AJ Finch,TA Boult,JR Philippe,2,2,0,na,na,na,na,na,na,na,na,na
1st innings,3.2,AJ Finch,TA Boult,JR Philippe,6,6,0,na,na,na,na,na,na,na,na,na
1st innings,3.3,AJ Finch,TA Boult,JR Philippe,0,0,0,na,na,na,na,na,na,na,na,na
1st innings,3.4,AJ Finch,TA Boult,JR Philippe,2,2,0,na,na,na,na,na,na,na,na,na
1st innings,3.5,AJ Finch,TA Boult,JR Philippe,4,4,0,na,na,na,na,na,na,na,na,na
1st innings,3.6,AJ Finch,TA Boult,JR Philippe,0,0,0,na,na,na,na,na,na,na,na,na
1st innings,4.1,JR Philippe,JDS Neesham,AJ Finch,6,6,0,na,na,na,na,na,na,na,na,na
1st innings,4.2,JR Philippe,JDS Neesham,AJ Finch,0,0,0,na,na,na,na,na,na,na,na,na
1st innings,4.3,JR Philippe,JDS Neesham,AJ Finch,4,4,0,na,na,na,na,na,na,na,na,na
1st innings,4.4,JR Philippe,JDS Neesham,AJ Finch,0,0,0,na,na,na,na,na,na,na,na,na
1st innings,4.5,JR Philippe,JDS Neesham,AJ Finch,0,0,0,na,na,na,na,na,na,na,na,na
1st innings,4.6,JR Philippe,JDS Neesham,AJ Finch,0,0,0,na,na,na,na,na,na,na,na,na
1st innings,5.1,AJ Finch,KA Jamieson,JR Philippe,3,3,0,na,na,na,na,na,na,na,na,na
1st innings,5.2,JR Philippe,KA Jamieson,AJ Finch,4,4,0,na,na,na,na,na,na,na,na,na
1st innings,5.3,JR Philippe,KA Jamieson,AJ Finch,0,0,0,na,na,na,na,na,na,na,na,na
1st innings,5.4,JR Philippe,KA Jamieson,AJ Finch,1,1,0,na,na,na,na,na,na,na,na,na
1st innings,5.5,AJ Finch,KA Jamieson,JR Philippe,1,1,0,na,na,na,na,na,na,na,na,na
1st innings,5.6,JR Philippe,KA Jamieson,AJ Finch,0,0,0,na,na,na,na,na,na,na,na,na
1st innings,6.1,AJ Finch,JDS Neesham,JR Philippe,1,1,0,na,na,na,na,na,na,na,na,na
1st innings,6.2,JR Philippe,JDS Neesham,AJ Finch,0,0,0,na,na,na,na,na,na,na,na,na
1st innings,6.3,JR Philippe,JDS Neesham,AJ Finch,2,1,1,na,na,na,1,na,na,na,na,na
1st innings,6.4,AJ Finch,JDS Neesham,JR Philippe,2,2,0,na,na,na,na,na,na,na,na,na
1st innings,6.5,AJ Finch,JDS Neesham,JR Philippe,4,4,0,na,na,na,na,na,na,na,na,na
1st innings,6.6,AJ Finch,JDS Neesham,JR Philippe,4,4,0,na,na,na,na,na,na,na,na,na
1st innings,6.7,AJ Finch,JDS Neesham,JR Philippe,2,2,0,na,na,na,na,na,na,na,na,na
1st innings,7.1,JR Philippe,IS Sodhi,AJ Finch,1,1,0,na,na,na,na,na,na,na,na,na
1st innings,7.2,AJ Finch,IS Sodhi,JR Philippe,1,1,0,na,na,na,na,na,na,na,na,na
1st innings,7.3,JR Philippe,IS Sodhi,AJ Finch,1,1,0,na,na,na,na,na,na,na,na,na
1st innings,7.4,AJ Finch,IS Sodhi,JR Philippe,1,1,0,na,na,na,na,na,na,na,na,na
1st innings,7.5,JR Philippe,IS Sodhi,AJ Finch,2,2,0,na,na,na,na,na,na,na,na,na
1st innings,7.6,JR Philippe,IS Sodhi,AJ Finch,1,1,0,na,na,na,na,na,na,na,na,na
1st innings,8.1,JR Philippe,KA Jamieson,AJ Finch,4,4,0,na,na,na,na,na,na,na,na,na
1st innings,8.2,JR Philippe,KA Jamieson,AJ Finch,4,4,0,na,na,na,na,na,na,na,na,na
1st innings,8.3,JR Philippe,KA Jamieson,AJ Finch,2,2,0,na,na,na,na,na,na,na,na,na
1st innings,8.4,JR Philippe,KA Jamieson,AJ Finch,1,1,0,na,na,na,na,na,na,na,na,na
1st innings,8.5,AJ Finch,KA Jamieson,JR Philippe,2,2,0,na,na,na,na,na,na,na,na,na
1st innings,8.6,AJ Finch,KA Jamieson,JR Philippe,2,2,0,na,na,na,na,na,na,na,na,na
1st innings,9.1,JR Philippe,IS Sodhi,AJ Finch,1,1,0,na,na,na,na,na,na,na,na,na
1st innings,9.2,AJ Finch,IS Sodhi,JR Philippe,1,1,0,na,na,na,na,na,na,na,na,na
1st innings,9.3,JR Philippe,IS Sodhi,AJ Finch,1,1,0,na,na,na,na,na,na,na,na,na
1st innings,9.4,AJ Finch,IS Sodhi,JR Philippe,0,0,0,na,na,na,na,na,na,na,na,na
1st innings,9.5,AJ Finch,IS Sodhi,JR Philippe,2,2,0,na,na,na,na,na,na,na,na,na
1st innings,9.6,AJ Finch,IS Sodhi,JR Philippe,0,0,0,na,na,na,na,na,caught,MJ Guptill,na,JR Philippe
1st innings,10.1,AJ Finch,KA Jamieson,GJ Maxwell,1,1,0,na,na,na,na,na,na,na,na,na
1st innings,10.2,GJ Maxwell,KA Jamieson,AJ Finch,1,1,0,na,na,na,na,na,na,na,na,na
1st innings,10.3,AJ Finch,KA Jamieson,GJ Maxwell,0,0,0,na,na,na,na,na,na,na,na,na
1st innings,10.4,AJ Finch,KA Jamieson,GJ Maxwell,1,1,0,na,na,na,na,na,na,na,na,na
1st innings,10.5,GJ Maxwell,KA Jamieson,AJ Finch,2,2,0,na,na,na,na,na,na,na,na,na
1st innings,10.6,GJ Maxwell,KA Jamieson,AJ Finch,1,1,0,na,na,na,na,na,na,na,na,na
1st innings,11.1,GJ Maxwell,IS Sodhi,AJ Finch,1,1,0,na,na,na,na,na,na,na,na,na
1st innings,11.2,AJ Finch,IS Sodhi,GJ Maxwell,1,0,1,na,1,na,na,na,na,na,na,na
1st innings,11.3,GJ Maxwell,IS Sodhi,AJ Finch,1,1,0,na,na,na,na,na,na,na,na,na
1st innings,11.4,AJ Finch,IS Sodhi,GJ Maxwell,2,1,1,na,na,na,1,na,na,na,na,na
1st innings,11.5,GJ Maxwell,IS Sodhi,AJ Finch,6,6,0,na,na,na,na,na,na,na,na,na
1st innings,11.6,GJ Maxwell,IS Sodhi,AJ Finch,2,2,0,na,na,na,na,na,na,na,na,na
1st innings,11.7,GJ Maxwell,IS Sodhi,AJ Finch,1,1,0,na,na,na,na,na,na,na,na,na
1st innings,12.1,GJ Maxwell,JDS Neesham,AJ Finch,1,1,0,na,na,na,na,na,na,na,na,na
1st innings,12.2,AJ Finch,JDS Neesham,GJ Maxwell,2,2,0,na,na,na,na,na,na,na,na,na
1st innings,12.3,AJ Finch,JDS Neesham,GJ Maxwell,0,0,0,na,na,na,na,na,na,na,na,na
1st innings,12.4,AJ Finch,JDS Neesham,GJ Maxwell,0,0,0,na,na,na,na,na,na,na,na,na
1st innings,12.5,AJ Finch,JDS Neesham,GJ Maxwell,0,0,0,na,na,na,na,na,na,na,na,na
1st innings,12.6,AJ Finch,JDS Neesham,GJ Maxwell,4,4,0,na,na,na,na,na,na,na,na,na
1st innings,13.1,GJ Maxwell,TA Boult,AJ Finch,4,4,0,na,na,na,na,na,na,na,na,na
1st innings,13.2,GJ Maxwell,TA Boult,AJ Finch,4,4,0,na,na,na,na,na,na,na,na,na
1st innings,13.3,GJ Maxwell,TA Boult,AJ Finch,0,0,0,na,na,na,na,na,na,na,na,na
1st innings,13.4,GJ Maxwell,TA Boult,AJ Finch,1,1,0,na,na,na,na,na,na,na,na,na
1st innings,13.5,AJ Finch,TA Boult,GJ Maxwell,1,1,0,na,na,na,na,na,na,na,na,na
1st innings,13.6,GJ Maxwell,TA Boult,AJ Finch,4,4,0,na,na,na,na,na,na,na,na,na
1st innings,14.1,AJ Finch,TG Southee,GJ Maxwell,4,4,0,na,na,na,na,na,na,na,na,na
1st innings,14.2,AJ Finch,TG Southee,GJ Maxwell,0,0,0,na,na,na,na,na,na,na,na,na
1st innings,14.3,AJ Finch,TG Southee,GJ Maxwell,4,4,0,na,na,na,na,na,na,na,na,na
1st innings,14.4,AJ Finch,TG Southee,GJ Maxwell,0,0,0,na,na,na,na,na,na,na,na,na
1st innings,14.5,AJ Finch,TG Southee,GJ Maxwell,1,0,1,na,na,1,na,na,na,na,na,na
1st innings,14.6,AJ Finch,TG Southee,GJ Maxwell,0,0,0,na,na,na,na,na,na,na,na,na
1st innings,14.7,AJ Finch,TG Southee,GJ Maxwell,6,6,0,na,na,na,na,na,na,na,na,na
1st innings,15.1,GJ Maxwell,IS Sodhi,AJ Finch,1,1,0,na,na,na,na,na,na,na,na,na
1st innings,15.2,AJ Finch,IS Sodhi,GJ Maxwell,0,0,0,na,na,na,na,na,na,na,na,na
1st innings,15.3,AJ Finch,IS Sodhi,GJ Maxwell,6,6,0,na,na,na,na,na,na,na,na,na
1st innings,15.4,AJ Finch,IS Sodhi,GJ Maxwell,1,0,1,1,na,na,na,na,na,na,na,na
1st innings,15.5,GJ Maxwell,IS Sodhi,AJ Finch,0,0,0,na,na,na,na,na,caught,KA Jamieson,na,AJ Finch
1st innings,15.6,GJ Maxwell,IS Sodhi,MP Stoinis,0,0,0,na,na,na,na,na,na,na,na,na
1st innings,16.1,MP Stoinis,JDS Neesham,GJ Maxwell,4,4,0,na,na,na,na,na,na,na,na,na
1st innings,16.2,MP Stoinis,JDS Neesham,GJ Maxwell,6,6,0,na,na,na,na,na,na,na,na,na
1st innings,16.3,MP Stoinis,JDS Neesham,GJ Maxwell,4,4,0,na,na,na,na,na,na,na,na,na
1st innings,16.4,MP Stoinis,JDS Neesham,GJ Maxwell,4,4,0,na,na,na,na,na,na,na,na,na
1st innings,16.5,MP Stoinis,JDS Neesham,GJ Maxwell,4,4,0,na,na,na,na,na,na,na,na,na
1st innings,16.6,MP Stoinis,JDS Neesham,GJ Maxwell,6,6,0,na,na,na,na,na,na,na,na,na
1st innings,17.1,GJ Maxwell,TG Southee,MP Stoinis,1,1,0,na,na,na,na,na,na,na,na,na
1st innings,17.2,MP Stoinis,TG Southee,GJ Maxwell,4,4,0,na,na,na,na,na,na,na,na,na
1st innings,17.3,MP Stoinis,TG Southee,GJ Maxwell,2,2,0,na,na,na,na,na,na,na,na,na
1st innings,17.4,MP Stoinis,TG Southee,GJ Maxwell,6,6,0,na,na,na,na,na,na,na,na,na
1st innings,17.5,MP Stoinis,TG Southee,GJ Maxwell,0,0,0,na,na,na,na,na,na,na,na,na
1st innings,17.6,MP Stoinis,TG Southee,GJ Maxwell,0,0,0,na,na,na,na,na,caught,TL Seifert,na,GJ Maxwell
1st innings,18.1,MR Marsh,TA Boult,MP Stoinis,1,1,0,na,na,na,na,na,na,na,na,na
1st innings,18.2,MP Stoinis,TA Boult,MR Marsh,0,0,0,na,na,na,na,na,na,na,na,na
1st innings,18.3,MP Stoinis,TA Boult,MR Marsh,0,0,0,na,na,na,na,na,na,na,na,na
1st innings,18.4,MP Stoinis,TA Boult,MR Marsh,3,3,0,na,na,na,na,na,na,na,na,na
1st innings,18.5,MR Marsh,TA Boult,MP Stoinis,1,1,0,na,na,na,na,na,na,na,na,na
1st innings,18.6,MP Stoinis,TA Boult,MR Marsh,1,1,0,na,na,na,na,na,na,na,na,na
1st innings,19.1,MP Stoinis,KA Jamieson,MR Marsh,1,1,0,na,na,na,na,na,na,na,na,na
1st innings,19.2,MR Marsh,KA Jamieson,MP Stoinis,0,0,0,na,na,na,na,na,na,na,na,na
1st innings,19.3,MR Marsh,KA Jamieson,MP Stoinis,1,1,0,na,na,na,na,na,na,na,na,na
1st innings,19.4,MP Stoinis,KA Jamieson,MR Marsh,1,1,0,na,na,na,na,na,na,na,na,na
1st innings,19.5,MR Marsh,KA Jamieson,MP Stoinis,4,4,0,na,na,na,na,na,na,na,na,na
1st innings,19.6,MR Marsh,KA Jamieson,MP Stoinis,1,1,0,na,na,na,na,na,na,na,na,na
2nd innings,0.1,TL Seifert,JA Richardson,MJ Guptill,0,0,0,na,na,na,na,na,na,na,na,na
2nd innings,0.2,TL Seifert,JA Richardson,MJ Guptill,2,2,0,na,na,na,na,na,na,na,na,na
2nd innings,0.3,TL Seifert,JA Richardson,MJ Guptill,0,0,0,na,na,na,na,na,na,na,na,na
2nd innings,0.4,TL Seifert,JA Richardson,MJ Guptill,0,0,0,na,na,na,na,na,na,na,na,na
2nd innings,0.5,TL Seifert,JA Richardson,MJ Guptill,0,0,0,na,na,na,na,na,na,na,na,na
2nd innings,0.6,TL Seifert,JA Richardson,MJ Guptill,6,6,0,na,na,na,na,na,na,na,na,na
2nd innings,1.1,MJ Guptill,RP Meredith,TL Seifert,0,0,0,na,na,na,na,na,na,na,na,na
2nd innings,1.2,MJ Guptill,RP Meredith,TL Seifert,1,0,1,1,na,na,na,na,na,na,na,na
2nd innings,1.3,TL Seifert,RP Meredith,MJ Guptill,6,6,0,na,na,na,na,na,na,na,na,na
2nd innings,1.4,TL Seifert,RP Meredith,MJ Guptill,1,1,0,na,na,na,na,na,na,na,na,na
2nd innings,1.5,MJ Guptill,RP Meredith,TL Seifert,4,4,0,na,na,na,na,na,na,na,na,na
2nd innings,1.6,MJ Guptill,RP Meredith,TL Seifert,0,0,0,na,na,na,na,na,caught,MP Stoinis,na,TL Seifert
2nd innings,2.1,MJ Guptill,A Zampa,KS Williamson,1,1,0,na,na,na,na,na,na,na,na,na
2nd innings,2.2,KS Williamson,A Zampa,MJ Guptill,1,1,0,na,na,na,na,na,na,na,na,na
2nd innings,2.3,MJ Guptill,A Zampa,KS Williamson,6,6,0,na,na,na,na,na,na,na,na,na
2nd innings,2.4,MJ Guptill,A Zampa,KS Williamson,1,1,0,na,na,na,na,na,na,na,na,na
2nd innings,2.5,KS Williamson,A Zampa,MJ Guptill,0,0,0,na,na,na,na,na,na,na,na,na
2nd innings,2.6,KS Williamson,A Zampa,MJ Guptill,4,4,0,na,na,na,na,na,na,na,na,na
2nd innings,3.1,MJ Guptill,JA Richardson,KS Williamson,1,1,0,na,na,na,na,na,na,na,na,na
2nd innings,3.2,KS Williamson,JA Richardson,MJ Guptill,6,6,0,na,na,na,na,na,na,na,na,na
2nd innings,3.3,KS Williamson,JA Richardson,MJ Guptill,2,2,0,na,na,na,na,na,na,na,na,na
2nd innings,3.4,KS Williamson,JA Richardson,MJ Guptill,0,0,0,na,na,na,na,na,na,na,na,na
2nd innings,3.5,KS Williamson,JA Richardson,MJ Guptill,4,4,0,na,na,na,na,na,na,na,na,na
2nd innings,3.6,KS Williamson,JA Richardson,MJ Guptill,1,1,0,na,na,na,na,na,na,na,na,na
2nd innings,4.1,KS Williamson,RP Meredith,MJ Guptill,0,0,0,na,na,na,na,na,na,na,na,na
2nd innings,4.2,KS Williamson,RP Meredith,MJ Guptill,1,1,0,na,na,na,na,na,na,na,na,na
2nd innings,4.3,MJ Guptill,RP Meredith,KS Williamson,0,0,0,na,na,na,na,na,na,na,na,na
2nd innings,4.4,MJ Guptill,RP Meredith,KS Williamson,0,0,0,na,na,na,na,na,lbw,na,na,KS Williamson
2nd innings,4.5,MJ Guptill,RP Meredith,DP Conway,0,0,0,na,na,na,na,na,na,na,na,na
2nd innings,4.6,MJ Guptill,RP Meredith,DP Conway,4,4,0,na,na,na,na,na,na,na,na,na
2nd innings,5.1,DP Conway,KW Richardson,MJ Guptill,1,0,1,na,na,1,na,na,na,na,na,na
2nd innings,5.2,DP Conway,KW Richardson,MJ Guptill,1,1,0,na,na,na,na,na,na,na,na,na
2nd innings,5.3,MJ Guptill,KW Richardson,DP Conway,1,1,0,na,na,na,na,na,na,na,na,na
2nd innings,5.4,DP Conway,KW Richardson,MJ Guptill,1,1,0,na,na,na,na,na,na,na,na,na
2nd innings,5.5,MJ Guptill,KW Richardson,DP Conway,1,1,0,na,na,na,na,na,na,na,na,na
2nd innings,5.6,DP Conway,KW Richardson,MJ Guptill,1,1,0,na,na,na,na,na,na,na,na,na
2nd innings,5.7,MJ Guptill,KW Richardson,DP Conway,1,1,0,na,na,na,na,na,na,na,na,na
2nd innings,6.1,MJ Guptill,AC Agar,DP Conway,0,0,0,na,na,na,na,na,na,na,na,na
2nd innings,6.2,MJ Guptill,AC Agar,DP Conway,4,4,0,na,na,na,na,na,na,na,na,na
2nd innings,6.3,MJ Guptill,AC Agar,DP Conway,0,0,0,na,na,na,na,na,na,na,na,na
2nd innings,6.4,MJ Guptill,AC Agar,DP Conway,0,0,0,na,na,na,na,na,na,na,na,na
2nd innings,6.5,MJ Guptill,AC Agar,DP Conway,4,4,0,na,na,na,na,na,na,na,na,na
2nd innings,6.6,MJ Guptill,AC Agar,DP Conway,4,4,0,na,na,na,na,na,na,na,na,na
2nd innings,7.1,DP Conway,MP Stoinis,MJ Guptill,0,0,0,na,na,na,na,na,na,na,na,na
2nd innings,7.2,DP Conway,MP Stoinis,MJ Guptill,0,0,0,na,na,na,na,na,na,na,na,na
2nd innings,7.3,DP Conway,MP Stoinis,MJ Guptill,2,2,0,na,na,na,na,na,na,na,na,na
2nd innings,7.4,DP Conway,MP Stoinis,MJ Guptill,2,2,0,na,na,na,na,na,na,na,na,na
2nd innings,7.5,DP Conway,MP Stoinis,MJ Guptill,1,1,0,na,na,na,na,na,na,na,na,na
2nd innings,7.6,MJ Guptill,MP Stoinis,DP Conway,1,1,0,na,na,na,na,na,na,na,na,na
2nd innings,8.1,MJ Guptill,A Zampa,DP Conway,1,1,0,na,na,na,na,na,na,na,na,na
2nd innings,8.2,DP Conway,A Zampa,MJ Guptill,1,1,0,na,na,na,na,na,na,na,na,na
2nd innings,8.3,MJ Guptill,A Zampa,DP Conway,1,1,0,na,na,na,na,na,na,na,na,na
2nd innings,8.4,DP Conway,A Zampa,MJ Guptill,0,0,0,na,na,na,na,na,caught,AC Agar,na,MJ Guptill
2nd innings,8.5,GD Phillips,A Zampa,DP Conway,1,1,0,na,na,na,na,na,na,na,na,na
2nd innings,8.6,DP Conway,A Zampa,GD Phillips,0,0,0,na,na,na,na,na,na,na,na,na
2nd innings,9.1,GD Phillips,GJ Maxwell,DP Conway,6,6,0,na,na,na,na,na,na,na,na,na
2nd innings,9.2,GD Phillips,GJ Maxwell,DP Conway,1,1,0,na,na,na,na,na,na,na,na,na
2nd innings,9.3,DP Conway,GJ Maxwell,GD Phillips,0,0,0,na,na,na,na,na,na,na,na,na
2nd innings,9.4,DP Conway,GJ Maxwell,GD Phillips,6,6,0,na,na,na,na,na,na,na,na,na
2nd innings,9.5,DP Conway,GJ Maxwell,GD Phillips,1,1,0,na,na,na,na,na,na,na,na,na
2nd innings,9.6,GD Phillips,GJ Maxwell,DP Conway,1,1,0,na,na,na,na,na,na,na,na,na
2nd innings,10.1,GD Phillips,RP Meredith,DP Conway,0,0,0,na,na,na,na,na,na,na,na,na
2nd innings,10.2,GD Phillips,RP Meredith,DP Conway,1,1,0,na,na,na,na,na,na,na,na,na
2nd innings,10.3,DP Conway,RP Meredith,GD Phillips,1,1,0,na,na,na,na,na,na,na,na,na
2nd innings,10.4,GD Phillips,RP Meredith,DP Conway,0,0,0,na,na,na,na,na,na,na,na,na
2nd innings,10.5,GD Phillips,RP Meredith,DP Conway,1,1,0,na,na,na,na,na,na,na,na,na
2nd innings,10.6,DP Conway,RP Meredith,GD Phillips,0,0,0,na,na,na,na,na,na,na,na,na
2nd innings,11.1,GD Phillips,KW Richardson,DP Conway,0,0,0,na,na,na,na,na,na,na,na,na
2nd innings,11.2,GD Phillips,KW Richardson,DP Conway,4,4,0,na,na,na,na,na,na,na,na,na
2nd innings,11.3,GD Phillips,KW Richardson,DP Conway,1,1,0,na,na,na,na,na,na,na,na,na
2nd innings,11.4,DP Conway,KW Richardson,GD Phillips,2,2,0,na,na,na,na,na,na,na,na,na
2nd innings,11.5,DP Conway,KW Richardson,GD Phillips,2,2,0,na,na,na,na,na,na,na,na,na
2nd innings,11.6,DP Conway,KW Richardson,GD Phillips,1,1,0,na,na,na,na,na,na,na,na,na
2nd innings,12.1,DP Conway,AC Agar,GD Phillips,0,0,0,na,na,na,na,na,caught,KW Richardson,na,GD Phillips
2nd innings,12.2,JDS Neesham,AC Agar,DP Conway,0,0,0,na,na,na,na,na,na,na,na,na
2nd innings,12.3,JDS Neesham,AC Agar,DP Conway,0,0,0,na,na,na,na,na,caught,MP Stoinis,na,DP Conway
2nd innings,12.4,JDS Neesham,AC Agar,MS Chapman,1,1,0,na,na,na,na,na,na,na,na,na
2nd innings,12.5,MS Chapman,AC Agar,JDS Neesham,0,0,0,na,na,na,na,na,caught,MS Wade,na,JDS Neesham
2nd innings,12.6,MS Chapman,AC Agar,TG Southee,1,1,0,na,na,na,na,na,na,na,na,na
2nd innings,13.1,MS Chapman,RP Meredith,TG Southee,0,0,0,na,na,na,na,na,na,na,na,na
2nd innings,13.2,MS Chapman,RP Meredith,TG Southee,2,2,0,na,na,na,na,na,na,na,na,na
2nd innings,13.3,MS Chapman,RP Meredith,TG Southee,1,1,0,na,na,na,na,na,na,na,na,na
2nd innings,13.4,TG Southee,RP Meredith,MS Chapman,0,0,0,na,na,na,na,na,na,na,na,na
2nd innings,13.5,TG Southee,RP Meredith,MS Chapman,1,1,0,na,na,na,na,na,na,na,na,na
2nd innings,13.6,MS Chapman,RP Meredith,TG Southee,1,1,0,na,na,na,na,na,na,na,na,na
2nd innings,14.1,MS Chapman,AC Agar,TG Southee,0,0,0,na,na,na,na,na,caught,GJ Maxwell,na,TG Southee
2nd innings,14.2,KA Jamieson,AC Agar,MS Chapman,2,2,0,na,na,na,na,na,na,na,na,na
2nd innings,14.3,KA Jamieson,AC Agar,MS Chapman,1,1,0,na,na,na,na,na,na,na,na,na
2nd innings,14.4,MS Chapman,AC Agar,KA Jamieson,0,0,0,na,na,na,na,na,na,na,na,na
2nd innings,14.5,MS Chapman,AC Agar,KA Jamieson,0,0,0,na,na,na,na,na,na,na,na,na
2nd innings,14.6,MS Chapman,AC Agar,KA Jamieson,1,1,0,na,na,na,na,na,na,na,na,na
2nd innings,15.1,MS Chapman,JA Richardson,KA Jamieson,4,4,0,na,na,na,na,na,na,na,na,na
2nd innings,15.2,MS Chapman,JA Richardson,KA Jamieson,0,0,0,na,na,na,na,na,na,na,na,na
2nd innings,15.3,MS Chapman,JA Richardson,KA Jamieson,1,1,0,na,na,na,na,na,na,na,na,na
2nd innings,15.4,KA Jamieson,JA Richardson,MS Chapman,4,4,0,na,na,na,na,na,na,na,na,na
2nd innings,15.5,KA Jamieson,JA Richardson,MS Chapman,2,2,0,na,na,na,na,na,na,na,na,na
2nd innings,15.6,KA Jamieson,JA Richardson,MS Chapman,1,1,0,na,na,na,na,na,na,na,na,na
2nd innings,16.1,KA Jamieson,AC Agar,MS Chapman,6,6,0,na,na,na,na,na,na,na,na,na
2nd innings,16.2,KA Jamieson,AC Agar,MS Chapman,0,0,0,na,na,na,na,na,caught,A Zampa,na,MS Chapman
2nd innings,16.3,IS Sodhi,AC Agar,KA Jamieson,1,1,0,na,na,na,na,na,na,na,na,na
2nd innings,16.4,KA Jamieson,AC Agar,IS Sodhi,1,1,0,na,na,na,na,na,na,na,na,na
2nd innings,16.5,IS Sodhi,AC Agar,KA Jamieson,4,4,0,na,na,na,na,na,na,na,na,na
2nd innings,16.6,IS Sodhi,AC Agar,KA Jamieson,0,0,0,na,na,na,na,na,lbw,na,na,KA Jamieson
2nd innings,17.1,TA Boult,KW Richardson,IS Sodhi,0,0,0,na,na,na,na,na,caught and bowled,na,na,IS Sodhi
