inngs,deliveries,non_striker,bowler,batsman,totalruns,batsman_runs,extra_runs,legbyes,byes,wides,noballs,penalty,wicket_kind,fielder1,fielder2,player_out
1st innings,0.1,T Bavuma,SM Curran,Q de Kock,1,1,0,na,na,na,na,na,na,na,na,na
1st innings,0.2,Q de Kock,SM Curran,T Bavuma,1,1,0,na,na,na,na,na,na,na,na,na
1st innings,0.3,T Bavuma,SM Curran,Q de Kock,1,1,0,na,na,na,na,na,na,na,na,na
1st innings,0.4,Q de Kock,SM Curran,T Bavuma,0,0,0,na,na,na,na,na,na,na,na,na
1st innings,0.5,Q de Kock,SM Curran,T Bavuma,0,0,0,na,na,na,na,na,na,na,na,na
1st innings,0.6,Q de Kock,SM Curran,T Bavuma,1,1,0,na,na,na,na,na,na,na,na,na
1st innings,1.1,Q de Kock,JC Archer,T Bavuma,0,0,0,na,na,na,na,na,na,na,na,na
1st innings,1.2,Q de Kock,JC Archer,T Bavuma,0,0,0,na,na,na,na,na,na,na,na,na
1st innings,1.3,Q de Kock,JC Archer,T Bavuma,0,0,0,na,na,na,na,na,na,na,na,na
1st innings,1.4,Q de Kock,JC Archer,T Bavuma,0,0,0,na,na,na,na,na,na,na,na,na
1st innings,1.5,Q de Kock,JC Archer,T Bavuma,1,1,0,na,na,na,na,na,na,na,na,na
1st innings,1.6,T Bavuma,JC Archer,Q de Kock,1,1,0,na,na,na,na,na,na,na,na,na
1st innings,2.1,T Bavuma,SM Curran,Q de Kock,1,1,0,na,na,na,na,na,na,na,na,na
1st innings,2.2,Q de Kock,SM Curran,T Bavuma,4,4,0,na,na,na,na,na,na,na,na,na
1st innings,2.3,Q de Kock,SM Curran,T Bavuma,6,6,0,na,na,na,na,na,na,na,na,na
1st innings,2.4,Q de Kock,SM Curran,T Bavuma,1,1,0,na,na,na,na,na,na,na,na,na
1st innings,2.5,T Bavuma,SM Curran,Q de Kock,1,1,0,na,na,na,na,na,na,na,na,na
1st innings,2.6,Q de Kock,SM Curran,T Bavuma,1,1,0,na,na,na,na,na,na,na,na,na
1st innings,3.1,Q de Kock,JC Archer,T Bavuma,0,0,0,na,na,na,na,na,na,na,na,na
1st innings,3.2,Q de Kock,JC Archer,T Bavuma,1,1,0,na,na,na,na,na,na,na,na,na
1st innings,3.3,T Bavuma,JC Archer,Q de Kock,0,0,0,na,na,na,na,na,na,na,na,na
1st innings,3.4,T Bavuma,JC Archer,Q de Kock,4,4,0,na,na,na,na,na,na,na,na,na
1st innings,3.5,T Bavuma,JC Archer,Q de Kock,6,6,0,na,na,na,na,na,na,na,na,na
1st innings,3.6,T Bavuma,JC Archer,Q de Kock,1,1,0,na,na,na,na,na,na,na,na,na
1st innings,4.1,T Bavuma,CJ Jordan,Q de Kock,1,1,0,na,na,na,na,na,na,na,na,na
1st innings,4.2,Q de Kock,CJ Jordan,T Bavuma,1,1,0,na,na,na,na,na,na,na,na,na
1st innings,4.3,T Bavuma,CJ Jordan,Q de Kock,0,0,0,na,na,na,na,na,na,na,na,na
1st innings,4.4,T Bavuma,CJ Jordan,Q de Kock,0,0,0,na,na,na,na,na,caught,TK Curran,na,Q de Kock
1st innings,4.5,RR Hendricks,CJ Jordan,T Bavuma,1,1,0,na,na,na,na,na,na,na,na,na
1st innings,4.6,T Bavuma,CJ Jordan,RR Hendricks,1,1,0,na,na,na,na,na,na,na,na,na
1st innings,5.1,T Bavuma,TK Curran,RR Hendricks,0,0,0,na,na,na,na,na,na,na,na,na
1st innings,5.2,T Bavuma,TK Curran,RR Hendricks,1,1,0,na,na,na,na,na,na,na,na,na
1st innings,5.3,RR Hendricks,TK Curran,T Bavuma,2,2,0,na,na,na,na,na,na,na,na,na
1st innings,5.4,RR Hendricks,TK Curran,T Bavuma,1,1,0,na,na,na,na,na,na,na,na,na
1st innings,5.5,T Bavuma,TK Curran,RR Hendricks,4,4,0,na,na,na,na,na,na,na,na,na
1st innings,5.6,T Bavuma,TK Curran,RR Hendricks,0,0,0,na,na,na,na,na,na,na,na,na
1st innings,6.1,RR Hendricks,AU Rashid,T Bavuma,1,1,0,na,na,na,na,na,na,na,na,na
1st innings,6.2,T Bavuma,AU Rashid,RR Hendricks,0,0,0,na,na,na,na,na,na,na,na,na
1st innings,6.3,T Bavuma,AU Rashid,RR Hendricks,0,0,0,na,na,na,na,na,na,na,na,na
1st innings,6.4,T Bavuma,AU Rashid,RR Hendricks,1,1,0,na,na,na,na,na,na,na,na,na
1st innings,6.5,RR Hendricks,AU Rashid,T Bavuma,0,0,0,na,na,na,na,na,na,na,na,na
1st innings,6.6,RR Hendricks,AU Rashid,T Bavuma,6,6,0,na,na,na,na,na,na,na,na,na
1st innings,7.1,T Bavuma,BA Stokes,RR Hendricks,4,4,0,na,na,na,na,na,na,na,na,na
1st innings,7.2,T Bavuma,BA Stokes,RR Hendricks,1,1,0,na,na,na,na,na,na,na,na,na
1st innings,7.3,RR Hendricks,BA Stokes,T Bavuma,0,0,0,na,na,na,na,na,na,na,na,na
1st innings,7.4,RR Hendricks,BA Stokes,T Bavuma,2,2,0,na,na,na,na,na,na,na,na,na
1st innings,7.5,RR Hendricks,BA Stokes,T Bavuma,2,2,0,na,na,na,na,na,na,na,na,na
1st innings,7.6,RR Hendricks,BA Stokes,T Bavuma,0,0,0,na,na,na,na,na,caught,CJ Jordan,na,T Bavuma
1st innings,8.1,F du Plessis,AU Rashid,RR Hendricks,0,0,0,na,na,na,na,na,na,na,na,na
1st innings,8.2,F du Plessis,AU Rashid,RR Hendricks,1,1,0,na,na,na,na,na,na,na,na,na
1st innings,8.3,RR Hendricks,AU Rashid,F du Plessis,0,0,0,na,na,na,na,na,na,na,na,na
1st innings,8.4,RR Hendricks,AU Rashid,F du Plessis,0,0,0,na,na,na,na,na,na,na,na,na
1st innings,8.5,RR Hendricks,AU Rashid,F du Plessis,0,0,0,na,na,na,na,na,na,na,na,na
1st innings,8.6,RR Hendricks,AU Rashid,F du Plessis,1,1,0,na,na,na,na,na,na,na,na,na
1st innings,9.1,RR Hendricks,BA Stokes,F du Plessis,1,1,0,na,na,na,na,na,na,na,na,na
1st innings,9.2,F du Plessis,BA Stokes,RR Hendricks,0,0,0,na,na,na,na,na,na,na,na,na
1st innings,9.3,F du Plessis,BA Stokes,RR Hendricks,0,0,0,na,na,na,na,na,caught,JC Buttler,na,RR Hendricks
1st innings,9.4,F du Plessis,BA Stokes,HE van der Dussen,0,0,0,na,na,na,na,na,na,na,na,na
1st innings,9.5,F du Plessis,BA Stokes,HE van der Dussen,1,1,0,na,na,na,na,na,na,na,na,na
1st innings,9.6,HE van der Dussen,BA Stokes,F du Plessis,1,1,0,na,na,na,na,na,na,na,na,na
1st innings,10.1,HE van der Dussen,AU Rashid,F du Plessis,0,0,0,na,na,na,na,na,na,na,na,na
1st innings,10.2,HE van der Dussen,AU Rashid,F du Plessis,0,0,0,na,na,na,na,na,na,na,na,na
1st innings,10.3,HE van der Dussen,AU Rashid,F du Plessis,1,1,0,na,na,na,na,na,na,na,na,na
1st innings,10.4,F du Plessis,AU Rashid,HE van der Dussen,1,1,0,na,na,na,na,na,na,na,na,na
1st innings,10.5,HE van der Dussen,AU Rashid,F du Plessis,1,1,0,na,na,na,na,na,na,na,na,na
1st innings,10.6,F du Plessis,AU Rashid,HE van der Dussen,1,1,0,na,na,na,na,na,na,na,na,na
1st innings,11.1,F du Plessis,BA Stokes,HE van der Dussen,2,2,0,na,na,na,na,na,na,na,na,na
1st innings,11.2,F du Plessis,BA Stokes,HE van der Dussen,0,0,0,na,na,na,na,na,na,na,na,na
1st innings,11.3,F du Plessis,BA Stokes,HE van der Dussen,1,1,0,na,na,na,na,na,na,na,na,na
1st innings,11.4,HE van der Dussen,BA Stokes,F du Plessis,4,4,0,na,na,na,na,na,na,na,na,na
1st innings,11.5,HE van der Dussen,BA Stokes,F du Plessis,1,1,0,na,na,na,na,na,na,na,na,na
1st innings,11.6,F du Plessis,BA Stokes,HE van der Dussen,6,6,0,na,na,na,na,na,na,na,na,na
1st innings,12.1,HE van der Dussen,AU Rashid,F du Plessis,0,0,0,na,na,na,na,na,na,na,na,na
1st innings,12.2,HE van der Dussen,AU Rashid,F du Plessis,1,1,0,na,na,na,na,na,na,na,na,na
1st innings,12.3,F du Plessis,AU Rashid,HE van der Dussen,4,4,0,na,na,na,na,na,na,na,na,na
1st innings,12.4,F du Plessis,AU Rashid,HE van der Dussen,1,1,0,na,na,na,na,na,na,na,na,na
1st innings,12.5,HE van der Dussen,AU Rashid,F du Plessis,0,0,0,na,na,na,na,na,na,na,na,na
1st innings,12.6,HE van der Dussen,AU Rashid,F du Plessis,0,0,0,na,na,na,na,na,na,na,na,na
1st innings,13.1,F du Plessis,JC Archer,HE van der Dussen,1,1,0,na,na,na,na,na,na,na,na,na
1st innings,13.2,HE van der Dussen,JC Archer,F du Plessis,4,4,0,na,na,na,na,na,na,na,na,na
1st innings,13.3,HE van der Dussen,JC Archer,F du Plessis,0,0,0,na,na,na,na,na,na,na,na,na
1st innings,13.4,HE van der Dussen,JC Archer,F du Plessis,1,1,0,na,na,na,na,na,na,na,na,na
1st innings,13.5,F du Plessis,JC Archer,HE van der Dussen,1,1,0,na,na,na,na,na,na,na,na,na
1st innings,13.6,HE van der Dussen,JC Archer,F du Plessis,1,1,0,na,na,na,na,na,na,na,na,na
1st innings,14.1,HE van der Dussen,CJ Jordan,F du Plessis,1,1,0,na,na,na,na,na,na,na,na,na
1st innings,14.2,F du Plessis,CJ Jordan,HE van der Dussen,1,1,0,na,na,na,na,na,na,na,na,na
1st innings,14.3,HE van der Dussen,CJ Jordan,F du Plessis,1,1,0,na,na,na,na,na,na,na,na,na
1st innings,14.4,F du Plessis,CJ Jordan,HE van der Dussen,1,1,0,na,na,na,na,na,na,na,na,na
1st innings,14.5,HE van der Dussen,CJ Jordan,F du Plessis,1,1,0,na,na,na,na,na,na,na,na,na
1st innings,14.6,F du Plessis,CJ Jordan,HE van der Dussen,4,4,0,na,na,na,na,na,na,na,na,na
1st innings,15.1,HE van der Dussen,TK Curran,F du Plessis,6,6,0,na,na,na,na,na,na,na,na,na
1st innings,15.2,HE van der Dussen,TK Curran,F du Plessis,0,0,0,na,na,na,na,na,na,na,na,na
1st innings,15.3,HE van der Dussen,TK Curran,F du Plessis,1,1,0,na,na,na,na,na,na,na,na,na
1st innings,15.4,F du Plessis,TK Curran,HE van der Dussen,2,2,0,na,na,na,na,na,na,na,na,na
1st innings,15.5,F du Plessis,TK Curran,HE van der Dussen,1,1,0,na,na,na,na,na,na,na,na,na
1st innings,15.6,HE van der Dussen,TK Curran,F du Plessis,6,6,0,na,na,na,na,na,na,na,na,na
1st innings,16.1,F du Plessis,JC Archer,HE van der Dussen,6,6,0,na,na,na,na,na,na,na,na,na
1st innings,16.2,F du Plessis,JC Archer,HE van der Dussen,4,4,0,na,na,na,na,na,na,na,na,na
1st innings,16.3,F du Plessis,JC Archer,HE van der Dussen,4,4,0,na,na,na,na,na,na,na,na,na
1st innings,16.4,F du Plessis,JC Archer,HE van der Dussen,0,0,0,na,na,na,na,na,na,na,na,na
1st innings,16.5,F du Plessis,JC Archer,HE van der Dussen,6,6,0,na,na,na,na,na,na,na,na,na
1st innings,16.6,F du Plessis,JC Archer,HE van der Dussen,2,2,0,na,na,na,na,na,na,na,na,na
1st innings,17.1,HE van der Dussen,CJ Jordan,F du Plessis,6,6,0,na,na,na,na,na,na,na,na,na
1st innings,17.2,HE van der Dussen,CJ Jordan,F du Plessis,0,0,0,na,na,na,na,na,na,na,na,na
1st innings,17.3,HE van der Dussen,CJ Jordan,F du Plessis,1,0,1,na,na,na,1,na,na,na,na,na
1st innings,17.4,HE van der Dussen,CJ Jordan,F du Plessis,0,0,0,na,na,na,na,na,na,na,na,na
1st innings,17.5,HE van der Dussen,CJ Jordan,F du Plessis,1,1,0,na,na,na,na,na,na,na,na,na
1st innings,17.6,F du Plessis,CJ Jordan,HE van der Dussen,1,1,0,na,na,na,na,na,na,na,na,na
1st innings,17.7,HE van der Dussen,CJ Jordan,F du Plessis,0,0,0,na,na,na,na,na,na,na,na,na
1st innings,18.1,F du Plessis,SM Curran,HE van der Dussen,1,0,1,na,na,1,na,na,na,na,na,na
1st innings,18.2,F du Plessis,SM Curran,HE van der Dussen,2,2,0,na,na,na,na,na,na,na,na,na
1st innings,18.3,F du Plessis,SM Curran,HE van der Dussen,1,1,0,na,na,na,na,na,na,na,na,na
1st innings,18.4,HE van der Dussen,SM Curran,F du Plessis,1,0,1,na,na,1,na,na,na,na,na,na
1st innings,18.5,HE van der Dussen,SM Curran,F du Plessis,0,0,0,na,na,na,na,na,na,na,na,na
1st innings,18.6,HE van der Dussen,SM Curran,F du Plessis,4,4,0,na,na,na,na,na,na,na,na,na
1st innings,18.7,HE van der Dussen,SM Curran,F du Plessis,4,4,0,na,na,na,na,na,na,na,na,na
1st innings,18.8,HE van der Dussen,SM Curran,F du Plessis,4,4,0,na,na,na,na,na,na,na,na,na
1st innings,19.1,F du Plessis,CJ Jordan,HE van der Dussen,4,4,0,na,na,na,na,na,na,na,na,na
1st innings,19.2,F du Plessis,CJ Jordan,HE van der Dussen,6,6,0,na,na,na,na,na,na,na,na,na
1st innings,19.3,F du Plessis,CJ Jordan,HE van der Dussen,2,2,0,na,na,na,na,na,na,na,na,na
1st innings,19.4,F du Plessis,CJ Jordan,HE van der Dussen,0,0,0,na,na,na,na,na,na,na,na,na
1st innings,19.5,F du Plessis,CJ Jordan,HE van der Dussen,6,6,0,na,na,na,na,na,na,na,na,na
1st innings,19.6,F du Plessis,CJ Jordan,HE van der Dussen,2,2,0,na,na,na,na,na,na,na,na,na
2nd innings,0.1,JC Buttler,GF Linde,JJ Roy,0,0,0,na,na,na,na,na,na,na,na,na
2nd innings,0.2,JC Buttler,GF Linde,JJ Roy,1,1,0,na,na,na,na,na,na,na,na,na
2nd innings,0.3,JJ Roy,GF Linde,JC Buttler,0,0,0,na,na,na,na,na,na,na,na,na
2nd innings,0.4,JJ Roy,GF Linde,JC Buttler,0,0,0,na,na,na,na,na,na,na,na,na
2nd innings,0.5,JJ Roy,GF Linde,JC Buttler,0,0,0,na,na,na,na,na,na,na,na,na
2nd innings,0.6,JJ Roy,GF Linde,JC Buttler,0,0,0,na,na,na,na,na,na,na,na,na
2nd innings,1.1,JC Buttler,A Nortje,JJ Roy,0,0,0,na,na,na,na,na,na,na,na,na
2nd innings,1.2,JC Buttler,A Nortje,JJ Roy,2,2,0,na,na,na,na,na,na,na,na,na
2nd innings,1.3,JC Buttler,A Nortje,JJ Roy,0,0,0,na,na,na,na,na,na,na,na,na
2nd innings,1.4,JC Buttler,A Nortje,JJ Roy,1,1,0,na,na,na,na,na,na,na,na,na
2nd innings,1.5,JJ Roy,A Nortje,JC Buttler,0,0,0,na,na,na,na,na,na,na,na,na
2nd innings,1.6,JJ Roy,A Nortje,JC Buttler,2,2,0,na,na,na,na,na,na,na,na,na
2nd innings,2.1,JC Buttler,GF Linde,JJ Roy,2,2,0,na,na,na,na,na,na,na,na,na
2nd innings,2.2,JC Buttler,GF Linde,JJ Roy,0,0,0,na,na,na,na,na,na,na,na,na
2nd innings,2.3,JC Buttler,GF Linde,JJ Roy,0,0,0,na,na,na,na,na,na,na,na,na
2nd innings,2.4,JC Buttler,GF Linde,JJ Roy,4,4,0,na,na,na,na,na,na,na,na,na
2nd innings,2.5,JC Buttler,GF Linde,JJ Roy,0,0,0,na,na,na,na,na,na,na,na,na
2nd innings,2.6,JC Buttler,GF Linde,JJ Roy,6,6,0,na,na,na,na,na,na,na,na,na
2nd innings,3.1,JJ Roy,A Nortje,JC Buttler,6,6,0,na,na,na,na,na,na,na,na,na
2nd innings,3.2,JJ Roy,A Nortje,JC Buttler,1,1,0,na,na,na,na,na,na,na,na,na
2nd innings,3.3,JC Buttler,A Nortje,JJ Roy,0,0,0,na,na,na,na,na,na,na,na,na
2nd innings,3.4,JC Buttler,A Nortje,JJ Roy,0,0,0,na,na,na,na,na,lbw,na,na,JJ Roy
2nd innings,3.5,JC Buttler,A Nortje,DJ Malan,4,4,0,na,na,na,na,na,na,na,na,na
2nd innings,3.6,JC Buttler,A Nortje,DJ Malan,1,0,1,na,na,1,na,na,na,na,na,na
2nd innings,3.7,JC Buttler,A Nortje,DJ Malan,4,4,0,na,na,na,na,na,na,na,na,na
2nd innings,4.1,DJ Malan,L Sipamla,JC Buttler,2,1,1,na,na,na,1,na,na,na,na,na
2nd innings,4.2,JC Buttler,L Sipamla,DJ Malan,6,6,0,na,na,na,na,na,na,na,na,na
2nd innings,4.3,JC Buttler,L Sipamla,DJ Malan,0,0,0,na,na,na,na,na,na,na,na,na
2nd innings,4.4,JC Buttler,L Sipamla,DJ Malan,1,1,0,na,na,na,na,na,na,na,na,na
2nd innings,4.5,DJ Malan,L Sipamla,JC Buttler,0,0,0,na,na,na,na,na,na,na,na,na
2nd innings,4.6,DJ Malan,L Sipamla,JC Buttler,1,1,0,na,na,na,na,na,na,na,na,na
2nd innings,4.7,JC Buttler,L Sipamla,DJ Malan,1,1,0,na,na,na,na,na,na,na,na,na
2nd innings,5.1,JC Buttler,L Ngidi,DJ Malan,0,0,0,na,na,na,na,na,na,na,na,na
2nd innings,5.2,JC Buttler,L Ngidi,DJ Malan,4,4,0,na,na,na,na,na,na,na,na,na
2nd innings,5.3,JC Buttler,L Ngidi,DJ Malan,1,1,0,na,na,na,na,na,na,na,na,na
2nd innings,5.4,DJ Malan,L Ngidi,JC Buttler,1,1,0,na,na,na,na,na,na,na,na,na
2nd innings,5.5,JC Buttler,L Ngidi,DJ Malan,1,1,0,na,na,na,na,na,na,na,na,na
2nd innings,5.6,DJ Malan,L Ngidi,JC Buttler,4,4,0,na,na,na,na,na,na,na,na,na
2nd innings,6.1,JC Buttler,GF Linde,DJ Malan,0,0,0,na,na,na,na,na,na,na,na,na
2nd innings,6.2,JC Buttler,GF Linde,DJ Malan,1,1,0,na,na,na,na,na,na,na,na,na
2nd innings,6.3,DJ Malan,GF Linde,JC Buttler,1,1,0,na,na,na,na,na,na,na,na,na
2nd innings,6.4,JC Buttler,GF Linde,DJ Malan,1,1,0,na,na,na,na,na,na,na,na,na
2nd innings,6.5,DJ Malan,GF Linde,JC Buttler,1,1,0,na,na,na,na,na,na,na,na,na
2nd innings,6.6,JC Buttler,GF Linde,DJ Malan,1,1,0,na,na,na,na,na,na,na,na,na
2nd innings,7.1,JC Buttler,T Shamsi,DJ Malan,4,4,0,na,na,na,na,na,na,na,na,na
2nd innings,7.2,JC Buttler,T Shamsi,DJ Malan,1,1,0,na,na,na,na,na,na,na,na,na
2nd innings,7.3,DJ Malan,T Shamsi,JC Buttler,0,0,0,na,na,na,na,na,na,na,na,na
2nd innings,7.4,DJ Malan,T Shamsi,JC Buttler,1,1,0,na,na,na,na,na,na,na,na,na
2nd innings,7.5,JC Buttler,T Shamsi,DJ Malan,1,1,0,na,na,na,na,na,na,na,na,na
2nd innings,7.6,DJ Malan,T Shamsi,JC Buttler,1,1,0,na,na,na,na,na,na,na,na,na
2nd innings,8.1,DJ Malan,GF Linde,JC Buttler,0,0,0,na,na,na,na,na,na,na,na,na
2nd innings,8.2,DJ Malan,GF Linde,JC Buttler,0,0,0,na,na,na,na,na,na,na,na,na
2nd innings,8.3,DJ Malan,GF Linde,JC Buttler,1,1,0,na,na,na,na,na,na,na,na,na
2nd innings,8.4,JC Buttler,GF Linde,DJ Malan,4,4,0,na,na,na,na,na,na,na,na,na
2nd innings,8.5,JC Buttler,GF Linde,DJ Malan,2,2,0,na,na,na,na,na,na,na,na,na
2nd innings,8.6,JC Buttler,GF Linde,DJ Malan,1,1,0,na,na,na,na,na,na,na,na,na
2nd innings,9.1,JC Buttler,T Shamsi,DJ Malan,4,4,0,na,na,na,na,na,na,na,na,na
2nd innings,9.2,JC Buttler,T Shamsi,DJ Malan,1,1,0,na,na,na,na,na,na,na,na,na
2nd innings,9.3,DJ Malan,T Shamsi,JC Buttler,1,1,0,na,na,na,na,na,na,na,na,na
2nd innings,9.4,JC Buttler,T Shamsi,DJ Malan,1,1,0,na,na,na,na,na,na,na,na,na
2nd innings,9.5,DJ Malan,T Shamsi,JC Buttler,0,0,0,na,na,na,na,na,na,na,na,na
2nd innings,9.6,DJ Malan,T Shamsi,JC Buttler,1,1,0,na,na,na,na,na,na,na,na,na
2nd innings,10.1,DJ Malan,L Sipamla,JC Buttler,6,6,0,na,na,na,na,na,na,na,na,na
2nd innings,10.2,DJ Malan,L Sipamla,JC Buttler,6,6,0,na,na,na,na,na,na,na,na,na
2nd innings,10.3,DJ Malan,L Sipamla,JC Buttler,2,2,0,na,na,na,na,na,na,na,na,na
2nd innings,10.4,DJ Malan,L Sipamla,JC Buttler,1,0,1,na,na,1,na,na,na,na,na,na
2nd innings,10.5,DJ Malan,L Sipamla,JC Buttler,1,1,0,na,na,na,na,na,na,na,na,na
2nd innings,10.6,JC Buttler,L Sipamla,DJ Malan,1,1,0,na,na,na,na,na,na,na,na,na
2nd innings,10.7,DJ Malan,L Sipamla,JC Buttler,4,4,0,na,na,na,na,na,na,na,na,na
2nd innings,11.1,JC Buttler,T Shamsi,DJ Malan,1,1,0,na,na,na,na,na,na,na,na,na
2nd innings,11.2,DJ Malan,T Shamsi,JC Buttler,6,6,0,na,na,na,na,na,na,na,na,na
2nd innings,11.3,DJ Malan,T Shamsi,JC Buttler,1,1,0,na,na,na,na,na,na,na,na,na
2nd innings,11.4,JC Buttler,T Shamsi,DJ Malan,4,4,0,na,na,na,na,na,na,na,na,na
2nd innings,11.5,JC Buttler,T Shamsi,DJ Malan,6,6,0,na,na,na,na,na,na,na,na,na
2nd innings,11.6,JC Buttler,T Shamsi,DJ Malan,1,1,0,na,na,na,na,na,na,na,na,na
2nd innings,12.1,JC Buttler,A Nortje,DJ Malan,2,2,0,na,na,na,na,na,na,na,na,na
2nd innings,12.2,JC Buttler,A Nortje,DJ Malan,1,1,0,na,na,na,na,na,na,na,na,na
2nd innings,12.3,DJ Malan,A Nortje,JC Buttler,0,0,0,na,na,na,na,na,na,na,na,na
2nd innings,12.4,DJ Malan,A Nortje,JC Buttler,0,0,0,na,na,na,na,na,na,na,na,na
2nd innings,12.5,DJ Malan,A Nortje,JC Buttler,1,1,0,na,na,na,na,na,na,na,na,na
2nd innings,12.6,JC Buttler,A Nortje,DJ Malan,1,1,0,na,na,na,na,na,na,na,na,na
2nd innings,13.1,JC Buttler,L Ngidi,DJ Malan,0,0,0,na,na,na,na,na,na,na,na,na
2nd innings,13.2,JC Buttler,L Ngidi,DJ Malan,6,6,0,na,na,na,na,na,na,na,na,na
2nd innings,13.3,JC Buttler,L Ngidi,DJ Malan,4,0,4,na,4,na,na,na,na,na,na,na
2nd innings,13.4,JC Buttler,L Ngidi,DJ Malan,0,0,0,na,na,na,na,na,na,na,na,na
2nd innings,13.5,JC Buttler,L Ngidi,DJ Malan,1,1,0,na,na,na,na,na,na,na,na,na
2nd innings,13.6,DJ Malan,L Ngidi,JC Buttler,1,0,1,na,na,1,na,na,na,na,na,na
2nd innings,13.7,DJ Malan,L Ngidi,JC Buttler,1,1,0,na,na,na,na,na,na,na,na,na
2nd innings,14.1,DJ Malan,T Shamsi,JC Buttler,6,6,0,na,na,na,na,na,na,na,na,na
2nd innings,14.2,DJ Malan,T Shamsi,JC Buttler,1,1,0,na,na,na,na,na,na,na,na,na
2nd innings,14.3,JC Buttler,T Shamsi,DJ Malan,4,4,0,na,na,na,na,na,na,na,na,na
2nd innings,14.4,JC Buttler,T Shamsi,DJ Malan,1,0,1,na,na,1,na,na,na,na,na,na
2nd innings,14.5,JC Buttler,T Shamsi,DJ Malan,0,0,0,na,na,na,na,na,na,na,na,na
2nd innings,14.6,JC Buttler,T Shamsi,DJ Malan,4,4,0,na,na,na,na,na,na,na,na,na
2nd innings,14.7,JC Buttler,T Shamsi,DJ Malan,6,6,0,na,na,na,na,na,na,na,na,na
2nd innings,15.1,DJ Malan,L Ngidi,JC Buttler,1,1,0,na,na,na,na,na,na,na,na,na
2nd innings,15.2,JC Buttler,L Ngidi,DJ Malan,1,1,0,na,na,na,na,na,na,na,na,na
2nd innings,15.3,DJ Malan,L Ngidi,JC Buttler,0,0,0,na,na,na,na,na,na,na,na,na
2nd innings,15.4,DJ Malan,L Ngidi,JC Buttler,0,0,0,na,na,na,na,na,na,na,na,na
2nd innings,15.5,DJ Malan,L Ngidi,JC Buttler,1,1,0,na,na,na,na,na,na,na,na,na
2nd innings,15.6,JC Buttler,L Ngidi,DJ Malan,0,0,0,na,na,na,na,na,na,na,na,na
2nd innings,16.1,DJ Malan,A Nortje,JC Buttler,1,1,0,na,na,na,na,na,na,na,na,na
2nd innings,16.2,JC Buttler,A Nortje,DJ Malan,4,4,0,na,na,na,na,na,na,na,na,na
2nd innings,16.3,JC Buttler,A Nortje,DJ Malan,1,1,0,na,na,na,na,na,na,na,na,na
2nd innings,16.4,DJ Malan,A Nortje,JC Buttler,4,4,0,na,na,na,na,na,na,na,na,na
2nd innings,16.5,DJ Malan,A Nortje,JC Buttler,0,0,0,na,na,na,na,na,na,na,na,na
2nd innings,16.6,DJ Malan,A Nortje,JC Buttler,1,1,0,na,na,na,na,na,na,na,na,na
2nd innings,17.1,DJ Malan,L Sipamla,JC Buttler,1,1,0,na,na,na,na,na,na,na,na,na
2nd innings,17.2,JC Buttler,L Sipamla,DJ Malan,6,6,0,na,na,na,na,na,na,na,na,na
2nd innings,17.3,JC Buttler,L Sipamla,DJ Malan,1,0,1,na,na,1,na,na,na,na,na,na
2nd innings,17.4,JC Buttler,L Sipamla,DJ Malan,4,4,0,na,na,na,na,na,na,na,na,na
2nd innings,17.5,JC Buttler,L Sipamla,DJ Malan,1,1,0,na,na,na,na,na,na,na,na,na
