inngs,deliveries,non_striker,bowler,batsman,totalruns,batsman_runs,extra_runs,legbyes,byes,wides,noballs,penalty,wicket_kind,fielder1,fielder2,player_out
1st innings,0.1,Soumya Sarkar,AJ Turner,Mohammad Naim,0,0,0,na,na,na,na,na,na,na,na,na
1st innings,0.2,Soumya Sarkar,AJ Turner,Mohammad Naim,0,0,0,na,na,na,na,na,na,na,na,na
1st innings,0.3,Soumya Sarkar,AJ Turner,Mohammad Naim,1,1,0,na,na,na,na,na,na,na,na,na
1st innings,0.4,Mohammad Naim,AJ Turner,Soumya Sarkar,0,0,0,na,na,na,na,na,na,na,na,na
1st innings,0.5,Mohammad Naim,AJ Turner,Soumya Sarkar,1,1,0,na,na,na,na,na,na,na,na,na
1st innings,0.6,Soumya Sarkar,AJ Turner,Mohammad Naim,0,0,0,na,na,na,na,na,na,na,na,na
1st innings,1.1,Mohammad Naim,JR Hazlewood,Soumya Sarkar,0,0,0,na,na,na,na,na,na,na,na,na
1st innings,1.2,Mohammad Naim,JR Hazlewood,Soumya Sarkar,0,0,0,na,na,na,na,na,na,na,na,na
1st innings,1.3,Mohammad Naim,JR Hazlewood,Soumya Sarkar,1,1,0,na,na,na,na,na,na,na,na,na
1st innings,1.4,Soumya Sarkar,JR Hazlewood,Mohammad Naim,4,4,0,na,na,na,na,na,na,na,na,na
1st innings,1.5,Soumya Sarkar,JR Hazlewood,Mohammad Naim,4,4,0,na,na,na,na,na,na,na,na,na
1st innings,1.6,Soumya Sarkar,JR Hazlewood,Mohammad Naim,1,1,0,na,na,na,na,na,na,na,na,na
1st innings,2.1,Soumya Sarkar,AJ Turner,Mohammad Naim,1,1,0,na,na,na,na,na,na,na,na,na
1st innings,2.2,Mohammad Naim,AJ Turner,Soumya Sarkar,6,6,0,na,na,na,na,na,na,na,na,na
1st innings,2.3,Mohammad Naim,AJ Turner,Soumya Sarkar,2,0,2,na,na,2,na,na,na,na,na,na
1st innings,2.4,Soumya Sarkar,AJ Turner,Mohammad Naim,1,1,0,na,na,na,na,na,na,na,na,na
1st innings,2.5,Mohammad Naim,AJ Turner,Soumya Sarkar,0,0,0,na,na,na,na,na,na,na,na,na
1st innings,2.6,Mohammad Naim,AJ Turner,Soumya Sarkar,0,0,0,na,na,na,na,na,na,na,na,na
1st innings,2.7,Mohammad Naim,AJ Turner,Soumya Sarkar,0,0,0,na,na,na,na,na,na,na,na,na
1st innings,3.1,Soumya Sarkar,JR Hazlewood,Mohammad Naim,1,0,1,na,na,na,1,na,na,na,na,na
1st innings,3.2,Soumya Sarkar,JR Hazlewood,Mohammad Naim,0,0,0,na,na,na,na,na,na,na,na,na
1st innings,3.3,Soumya Sarkar,JR Hazlewood,Mohammad Naim,1,1,0,na,na,na,na,na,na,na,na,na
1st innings,3.4,Mohammad Naim,JR Hazlewood,Soumya Sarkar,0,0,0,na,na,na,na,na,caught,AT Carey,na,Soumya Sarkar
1st innings,3.5,Shakib Al Hasan,JR Hazlewood,Mohammad Naim,2,2,0,na,na,na,na,na,na,na,na,na
1st innings,3.6,Shakib Al Hasan,JR Hazlewood,Mohammad Naim,0,0,0,na,na,na,na,na,na,na,na,na
1st innings,3.7,Shakib Al Hasan,JR Hazlewood,Mohammad Naim,0,0,0,na,na,na,na,na,na,na,na,na
1st innings,4.1,Mohammad Naim,AC Agar,Shakib Al Hasan,0,0,0,na,na,na,na,na,na,na,na,na
1st innings,4.2,Mohammad Naim,AC Agar,Shakib Al Hasan,0,0,0,na,na,na,na,na,na,na,na,na
1st innings,4.3,Mohammad Naim,AC Agar,Shakib Al Hasan,1,0,1,na,na,1,na,na,na,na,na,na
1st innings,4.4,Mohammad Naim,AC Agar,Shakib Al Hasan,0,0,0,na,na,na,na,na,na,na,na,na
1st innings,4.5,Mohammad Naim,AC Agar,Shakib Al Hasan,0,0,0,na,na,na,na,na,na,na,na,na
1st innings,4.6,Mohammad Naim,AC Agar,Shakib Al Hasan,0,0,0,na,na,na,na,na,na,na,na,na
1st innings,4.7,Mohammad Naim,AC Agar,Shakib Al Hasan,2,2,0,na,na,na,na,na,na,na,na,na
1st innings,5.1,Shakib Al Hasan,AJ Tye,Mohammad Naim,0,0,0,na,na,na,na,na,na,na,na,na
1st innings,5.2,Shakib Al Hasan,AJ Tye,Mohammad Naim,0,0,0,na,na,na,na,na,na,na,na,na
1st innings,5.3,Shakib Al Hasan,AJ Tye,Mohammad Naim,1,1,0,na,na,na,na,na,na,na,na,na
1st innings,5.4,Mohammad Naim,AJ Tye,Shakib Al Hasan,0,0,0,na,na,na,na,na,na,na,na,na
1st innings,5.5,Mohammad Naim,AJ Tye,Shakib Al Hasan,0,0,0,na,na,na,na,na,na,na,na,na
1st innings,5.6,Mohammad Naim,AJ Tye,Shakib Al Hasan,0,0,0,na,na,na,na,na,na,na,na,na
1st innings,6.1,Shakib Al Hasan,AJ Turner,Mohammad Naim,1,1,0,na,na,na,na,na,na,na,na,na
1st innings,6.2,Mohammad Naim,AJ Turner,Shakib Al Hasan,1,1,0,na,na,na,na,na,na,na,na,na
1st innings,6.3,Shakib Al Hasan,AJ Turner,Mohammad Naim,1,1,0,na,na,na,na,na,na,na,na,na
1st innings,6.4,Mohammad Naim,AJ Turner,Shakib Al Hasan,2,2,0,na,na,na,na,na,na,na,na,na
1st innings,6.5,Mohammad Naim,AJ Turner,Shakib Al Hasan,0,0,0,na,na,na,na,na,na,na,na,na
1st innings,6.6,Mohammad Naim,AJ Turner,Shakib Al Hasan,2,2,0,na,na,na,na,na,na,na,na,na
1st innings,7.1,Shakib Al Hasan,AC Agar,Mohammad Naim,1,1,0,na,na,na,na,na,na,na,na,na
1st innings,7.2,Mohammad Naim,AC Agar,Shakib Al Hasan,0,0,0,na,na,na,na,na,na,na,na,na
1st innings,7.3,Mohammad Naim,AC Agar,Shakib Al Hasan,0,0,0,na,na,na,na,na,na,na,na,na
1st innings,7.4,Mohammad Naim,AC Agar,Shakib Al Hasan,0,0,0,na,na,na,na,na,na,na,na,na
1st innings,7.5,Mohammad Naim,AC Agar,Shakib Al Hasan,0,0,0,na,na,na,na,na,na,na,na,na
1st innings,7.6,Mohammad Naim,AC Agar,Shakib Al Hasan,1,1,0,na,na,na,na,na,na,na,na,na
1st innings,8.1,Mohammad Naim,MJ Swepson,Shakib Al Hasan,1,1,0,na,na,na,na,na,na,na,na,na
1st innings,8.2,Shakib Al Hasan,MJ Swepson,Mohammad Naim,1,1,0,na,na,na,na,na,na,na,na,na
1st innings,8.3,Mohammad Naim,MJ Swepson,Shakib Al Hasan,0,0,0,na,na,na,na,na,na,na,na,na
1st innings,8.4,Mohammad Naim,MJ Swepson,Shakib Al Hasan,2,2,0,na,na,na,na,na,na,na,na,na
1st innings,8.5,Mohammad Naim,MJ Swepson,Shakib Al Hasan,0,0,0,na,na,na,na,na,na,na,na,na
1st innings,8.6,Mohammad Naim,MJ Swepson,Shakib Al Hasan,0,0,0,na,na,na,na,na,na,na,na,na
1st innings,9.1,Shakib Al Hasan,JR Hazlewood,Mohammad Naim,0,0,0,na,na,na,na,na,na,na,na,na
1st innings,9.2,Shakib Al Hasan,JR Hazlewood,Mohammad Naim,1,1,0,na,na,na,na,na,na,na,na,na
1st innings,9.3,Mohammad Naim,JR Hazlewood,Shakib Al Hasan,4,4,0,na,na,na,na,na,na,na,na,na
1st innings,9.4,Mohammad Naim,JR Hazlewood,Shakib Al Hasan,0,0,0,na,na,na,na,na,na,na,na,na
1st innings,9.5,Mohammad Naim,JR Hazlewood,Shakib Al Hasan,0,0,0,na,na,na,na,na,caught,MS Wade,na,Shakib Al Hasan
1st innings,9.6,Mohammad Naim,JR Hazlewood,Mahmudullah,0,0,0,na,na,na,na,na,na,na,na,na
1st innings,10.1,Mahmudullah,MJ Swepson,Mohammad Naim,2,2,0,na,na,na,na,na,na,na,na,na
1st innings,10.2,Mahmudullah,MJ Swepson,Mohammad Naim,0,0,0,na,na,na,na,na,na,na,na,na
1st innings,10.3,Mahmudullah,MJ Swepson,Mohammad Naim,1,1,0,na,na,na,na,na,na,na,na,na
1st innings,10.4,Mohammad Naim,MJ Swepson,Mahmudullah,0,0,0,na,na,na,na,na,na,na,na,na
1st innings,10.5,Mohammad Naim,MJ Swepson,Mahmudullah,0,0,0,na,na,na,na,na,lbw,na,na,Mahmudullah
1st innings,10.6,Mohammad Naim,MJ Swepson,Nurul Hasan,0,0,0,na,na,na,na,na,lbw,na,na,Nurul Hasan
1st innings,11.1,Afif Hossain,MC Henriques,Mohammad Naim,0,0,0,na,na,na,na,na,na,na,na,na
1st innings,11.2,Afif Hossain,MC Henriques,Mohammad Naim,1,1,0,na,na,na,na,na,na,na,na,na
1st innings,11.3,Mohammad Naim,MC Henriques,Afif Hossain,2,2,0,na,na,na,na,na,na,na,na,na
1st innings,11.4,Mohammad Naim,MC Henriques,Afif Hossain,0,0,0,na,na,na,na,na,na,na,na,na
1st innings,11.5,Mohammad Naim,MC Henriques,Afif Hossain,1,1,0,na,na,na,na,na,na,na,na,na
1st innings,11.6,Afif Hossain,MC Henriques,Mohammad Naim,1,1,0,na,na,na,na,na,na,na,na,na
1st innings,12.1,Afif Hossain,MJ Swepson,Mohammad Naim,0,0,0,na,na,na,na,na,na,na,na,na
1st innings,12.2,Afif Hossain,MJ Swepson,Mohammad Naim,1,1,0,na,na,na,na,na,na,na,na,na
1st innings,12.3,Mohammad Naim,MJ Swepson,Afif Hossain,0,0,0,na,na,na,na,na,na,na,na,na
1st innings,12.4,Mohammad Naim,MJ Swepson,Afif Hossain,2,2,0,na,na,na,na,na,na,na,na,na
1st innings,12.5,Mohammad Naim,MJ Swepson,Afif Hossain,0,0,0,na,na,na,na,na,na,na,na,na
1st innings,12.6,Mohammad Naim,MJ Swepson,Afif Hossain,1,0,1,1,na,na,na,na,na,na,na,na
1st innings,13.1,Mohammad Naim,AC Agar,Afif Hossain,2,2,0,na,na,na,na,na,na,na,na,na
1st innings,13.2,Mohammad Naim,AC Agar,Afif Hossain,2,2,0,na,na,na,na,na,na,na,na,na
1st innings,13.3,Mohammad Naim,AC Agar,Afif Hossain,2,2,0,na,na,na,na,na,na,na,na,na
1st innings,13.4,Mohammad Naim,AC Agar,Afif Hossain,1,1,0,na,na,na,na,na,na,na,na,na
1st innings,13.5,Afif Hossain,AC Agar,Mohammad Naim,1,1,0,na,na,na,na,na,na,na,na,na
1st innings,13.6,Mohammad Naim,AC Agar,Afif Hossain,0,0,0,na,na,na,na,na,na,na,na,na
1st innings,14.1,Afif Hossain,MJ Swepson,Mohammad Naim,0,0,0,na,na,na,na,na,na,na,na,na
1st innings,14.2,Afif Hossain,MJ Swepson,Mohammad Naim,0,0,0,na,na,na,na,na,na,na,na,na
1st innings,14.3,Afif Hossain,MJ Swepson,Mohammad Naim,0,0,0,na,na,na,na,na,caught,MS Wade,na,Mohammad Naim
1st innings,14.4,Afif Hossain,MJ Swepson,Shamim Hossain,1,1,0,na,na,na,na,na,na,na,na,na
1st innings,14.5,Shamim Hossain,MJ Swepson,Afif Hossain,0,0,0,na,na,na,na,na,na,na,na,na
1st innings,14.6,Shamim Hossain,MJ Swepson,Afif Hossain,1,1,0,na,na,na,na,na,na,na,na,na
1st innings,15.1,Shamim Hossain,AC Agar,Afif Hossain,6,6,0,na,na,na,na,na,na,na,na,na
1st innings,15.2,Shamim Hossain,AC Agar,Afif Hossain,1,1,0,na,na,na,na,na,na,na,na,na
1st innings,15.3,Afif Hossain,AC Agar,Shamim Hossain,1,1,0,na,na,na,na,na,na,na,na,na
1st innings,15.4,Shamim Hossain,AC Agar,Afif Hossain,0,0,0,na,na,na,na,na,caught,MC Henriques,na,Afif Hossain
1st innings,15.5,Shamim Hossain,AC Agar,Mahedi Hasan,0,0,0,na,na,na,na,na,na,na,na,na
1st innings,15.6,Shamim Hossain,AC Agar,Mahedi Hasan,1,1,0,na,na,na,na,na,na,na,na,na
1st innings,16.1,Shamim Hossain,AJ Turner,Mahedi Hasan,0,0,0,na,na,na,na,na,na,na,na,na
1st innings,16.2,Shamim Hossain,AJ Turner,Mahedi Hasan,1,1,0,na,na,na,na,na,na,na,na,na
1st innings,16.3,Mahedi Hasan,AJ Turner,Shamim Hossain,0,0,0,na,na,na,na,na,na,na,na,na
1st innings,16.4,Mahedi Hasan,AJ Turner,Shamim Hossain,1,1,0,na,na,na,na,na,na,na,na,na
1st innings,16.5,Shamim Hossain,AJ Turner,Mahedi Hasan,1,1,0,na,na,na,na,na,na,na,na,na
1st innings,16.6,Mahedi Hasan,AJ Turner,Shamim Hossain,0,0,0,na,na,na,na,na,na,na,na,na
1st innings,17.1,Shamim Hossain,AJ Tye,Mahedi Hasan,1,1,0,na,na,na,na,na,na,na,na,na
1st innings,17.2,Mahedi Hasan,AJ Tye,Shamim Hossain,0,0,0,na,na,na,na,na,caught,AT Carey,na,Shamim Hossain
1st innings,17.3,Mahedi Hasan,AJ Tye,Nasum Ahmed,0,0,0,na,na,na,na,na,na,na,na,na
1st innings,17.4,Mahedi Hasan,AJ Tye,Nasum Ahmed,1,1,0,na,na,na,na,na,na,na,na,na
1st innings,17.5,Nasum Ahmed,AJ Tye,Mahedi Hasan,1,1,0,na,na,na,na,na,na,na,na,na
1st innings,17.6,Mahedi Hasan,AJ Tye,Nasum Ahmed,0,0,0,na,na,na,na,na,na,na,na,na
1st innings,18.1,Nasum Ahmed,JR Hazlewood,Mahedi Hasan,2,2,0,na,na,na,na,na,na,na,na,na
1st innings,18.2,Nasum Ahmed,JR Hazlewood,Mahedi Hasan,1,1,0,na,na,na,na,na,na,na,na,na
1st innings,18.3,Mahedi Hasan,JR Hazlewood,Nasum Ahmed,1,1,0,na,na,na,na,na,na,na,na,na
1st innings,18.4,Nasum Ahmed,JR Hazlewood,Mahedi Hasan,0,0,0,na,na,na,na,na,na,na,na,na
1st innings,18.5,Nasum Ahmed,JR Hazlewood,Mahedi Hasan,1,1,0,na,na,na,na,na,na,na,na,na
1st innings,18.6,Mahedi Hasan,JR Hazlewood,Nasum Ahmed,0,0,0,na,na,na,na,na,na,na,na,na
1st innings,19.1,Nasum Ahmed,AJ Tye,Mahedi Hasan,2,2,0,na,na,na,na,na,na,na,na,na
1st innings,19.2,Nasum Ahmed,AJ Tye,Mahedi Hasan,4,4,0,na,na,na,na,na,na,na,na,na
1st innings,19.3,Nasum Ahmed,AJ Tye,Mahedi Hasan,6,6,0,na,na,na,na,na,na,na,na,na
1st innings,19.4,Nasum Ahmed,AJ Tye,Mahedi Hasan,2,2,0,na,na,na,na,na,na,na,na,na
1st innings,19.5,Nasum Ahmed,AJ Tye,Mahedi Hasan,0,0,0,na,na,na,na,na,caught,AT Carey,na,Mahedi Hasan
1st innings,19.6,Nasum Ahmed,AJ Tye,Shoriful Islam,0,0,0,na,na,na,na,na,caught,BR McDermott,na,Shoriful Islam
2nd innings,0.1,MS Wade,Mahedi Hasan,BR McDermott,1,1,0,na,na,na,na,na,na,na,na,na
2nd innings,0.2,BR McDermott,Mahedi Hasan,MS Wade,2,2,0,na,na,na,na,na,na,na,na,na
2nd innings,0.3,BR McDermott,Mahedi Hasan,MS Wade,0,0,0,na,na,na,na,na,na,na,na,na
2nd innings,0.4,BR McDermott,Mahedi Hasan,MS Wade,0,0,0,na,na,na,na,na,bowled,na,na,MS Wade
2nd innings,0.5,BR McDermott,Mahedi Hasan,DT Christian,2,2,0,na,na,na,na,na,na,na,na,na
2nd innings,0.6,BR McDermott,Mahedi Hasan,DT Christian,4,4,0,na,na,na,na,na,na,na,na,na
2nd innings,1.1,DT Christian,Shakib Al Hasan,BR McDermott,1,1,0,na,na,na,na,na,na,na,na,na
2nd innings,1.2,BR McDermott,Shakib Al Hasan,DT Christian,1,1,0,na,na,na,na,na,na,na,na,na
2nd innings,1.3,DT Christian,Shakib Al Hasan,BR McDermott,0,0,0,na,na,na,na,na,na,na,na,na
2nd innings,1.4,DT Christian,Shakib Al Hasan,BR McDermott,2,2,0,na,na,na,na,na,na,na,na,na
2nd innings,1.5,DT Christian,Shakib Al Hasan,BR McDermott,1,0,1,na,na,1,na,na,na,na,na,na
2nd innings,1.6,DT Christian,Shakib Al Hasan,BR McDermott,0,0,0,na,na,na,na,na,na,na,na,na
2nd innings,1.7,DT Christian,Shakib Al Hasan,BR McDermott,0,0,0,na,na,na,na,na,na,na,na,na
2nd innings,2.1,BR McDermott,Nasum Ahmed,DT Christian,0,0,0,na,na,na,na,na,na,na,na,na
2nd innings,2.2,BR McDermott,Nasum Ahmed,DT Christian,0,0,0,na,na,na,na,na,na,na,na,na
2nd innings,2.3,BR McDermott,Nasum Ahmed,DT Christian,1,1,0,na,na,na,na,na,na,na,na,na
2nd innings,2.4,DT Christian,Nasum Ahmed,BR McDermott,0,0,0,na,na,na,na,na,na,na,na,na
2nd innings,2.5,DT Christian,Nasum Ahmed,BR McDermott,0,0,0,na,na,na,na,na,na,na,na,na
2nd innings,2.6,DT Christian,Nasum Ahmed,BR McDermott,0,0,0,na,na,na,na,na,na,na,na,na
2nd innings,3.1,BR McDermott,Shakib Al Hasan,DT Christian,6,6,0,na,na,na,na,na,na,na,na,na
2nd innings,3.2,BR McDermott,Shakib Al Hasan,DT Christian,6,6,0,na,na,na,na,na,na,na,na,na
2nd innings,3.3,BR McDermott,Shakib Al Hasan,DT Christian,6,6,0,na,na,na,na,na,na,na,na,na
2nd innings,3.4,BR McDermott,Shakib Al Hasan,DT Christian,0,0,0,na,na,na,na,na,na,na,na,na
2nd innings,3.5,BR McDermott,Shakib Al Hasan,DT Christian,6,6,0,na,na,na,na,na,na,na,na,na
2nd innings,3.6,BR McDermott,Shakib Al Hasan,DT Christian,6,6,0,na,na,na,na,na,na,na,na,na
2nd innings,4.1,DT Christian,Nasum Ahmed,BR McDermott,1,1,0,na,na,na,na,na,na,na,na,na
2nd innings,4.2,BR McDermott,Nasum Ahmed,DT Christian,1,1,0,na,na,na,na,na,na,na,na,na
2nd innings,4.3,DT Christian,Nasum Ahmed,BR McDermott,0,0,0,na,na,na,na,na,na,na,na,na
2nd innings,4.4,DT Christian,Nasum Ahmed,BR McDermott,0,0,0,na,na,na,na,na,lbw,na,na,BR McDermott
2nd innings,4.5,DT Christian,Nasum Ahmed,MR Marsh,0,0,0,na,na,na,na,na,na,na,na,na
2nd innings,4.6,DT Christian,Nasum Ahmed,MR Marsh,2,2,0,na,na,na,na,na,na,na,na,na
2nd innings,5.1,MR Marsh,Mustafizur Rahman,DT Christian,0,0,0,na,na,na,na,na,na,na,na,na
2nd innings,5.2,MR Marsh,Mustafizur Rahman,DT Christian,0,0,0,na,na,na,na,na,caught,Shamim Hossain,na,DT Christian
2nd innings,5.3,MR Marsh,Mustafizur Rahman,MC Henriques,0,0,0,na,na,na,na,na,na,na,na,na
2nd innings,5.4,MR Marsh,Mustafizur Rahman,MC Henriques,0,0,0,na,na,na,na,na,na,na,na,na
2nd innings,5.5,MR Marsh,Mustafizur Rahman,MC Henriques,0,0,0,na,na,na,na,na,na,na,na,na
2nd innings,5.6,MR Marsh,Mustafizur Rahman,MC Henriques,0,0,0,na,na,na,na,na,na,na,na,na
2nd innings,6.1,MC Henriques,Nasum Ahmed,MR Marsh,1,1,0,na,na,na,na,na,na,na,na,na
2nd innings,6.2,MR Marsh,Nasum Ahmed,MC Henriques,0,0,0,na,na,na,na,na,na,na,na,na
2nd innings,6.3,MR Marsh,Nasum Ahmed,MC Henriques,1,1,0,na,na,na,na,na,na,na,na,na
2nd innings,6.4,MC Henriques,Nasum Ahmed,MR Marsh,0,0,0,na,na,na,na,na,na,na,na,na
2nd innings,6.5,MC Henriques,Nasum Ahmed,MR Marsh,1,1,0,na,na,na,na,na,na,na,na,na
2nd innings,6.6,MR Marsh,Nasum Ahmed,MC Henriques,0,0,0,na,na,na,na,na,na,na,na,na
2nd innings,7.1,MC Henriques,Shakib Al Hasan,MR Marsh,1,1,0,na,na,na,na,na,na,na,na,na
2nd innings,7.2,MR Marsh,Shakib Al Hasan,MC Henriques,2,2,0,na,na,na,na,na,na,na,na,na
2nd innings,7.3,MR Marsh,Shakib Al Hasan,MC Henriques,1,1,0,na,na,na,na,na,na,na,na,na
2nd innings,7.4,MC Henriques,Shakib Al Hasan,MR Marsh,4,4,0,na,na,na,na,na,na,na,na,na
2nd innings,7.5,MC Henriques,Shakib Al Hasan,MR Marsh,0,0,0,na,na,na,na,na,na,na,na,na
2nd innings,7.6,MC Henriques,Shakib Al Hasan,MR Marsh,0,0,0,na,na,na,na,na,run out,na,na,MC Henriques
2nd innings,8.1,MR Marsh,Mahedi Hasan,AT Carey,0,0,0,na,na,na,na,na,na,na,na,na
2nd innings,8.2,MR Marsh,Mahedi Hasan,AT Carey,0,0,0,na,na,na,na,na,na,na,na,na
2nd innings,8.3,MR Marsh,Mahedi Hasan,AT Carey,0,0,0,na,na,na,na,na,na,na,na,na
2nd innings,8.4,MR Marsh,Mahedi Hasan,AT Carey,0,0,0,na,na,na,na,na,na,na,na,na
2nd innings,8.5,MR Marsh,Mahedi Hasan,AT Carey,1,1,0,na,na,na,na,na,na,na,na,na
2nd innings,8.6,AT Carey,Mahedi Hasan,MR Marsh,1,1,0,na,na,na,na,na,na,na,na,na
2nd innings,9.1,AT Carey,Mustafizur Rahman,MR Marsh,0,0,0,na,na,na,na,na,na,na,na,na
2nd innings,9.2,AT Carey,Mustafizur Rahman,MR Marsh,1,1,0,na,na,na,na,na,na,na,na,na
2nd innings,9.3,MR Marsh,Mustafizur Rahman,AT Carey,0,0,0,na,na,na,na,na,lbw,na,na,AT Carey
2nd innings,9.4,MR Marsh,Mustafizur Rahman,AJ Turner,1,1,0,na,na,na,na,na,na,na,na,na
2nd innings,9.5,AJ Turner,Mustafizur Rahman,MR Marsh,0,0,0,na,na,na,na,na,na,na,na,na
2nd innings,9.6,AJ Turner,Mustafizur Rahman,MR Marsh,0,0,0,na,na,na,na,na,na,na,na,na
2nd innings,10.1,MR Marsh,Mahedi Hasan,AJ Turner,1,1,0,na,na,na,na,na,na,na,na,na
2nd innings,10.2,AJ Turner,Mahedi Hasan,MR Marsh,0,0,0,na,na,na,na,na,bowled,na,na,MR Marsh
2nd innings,10.3,AJ Turner,Mahedi Hasan,AC Agar,0,0,0,na,na,na,na,na,na,na,na,na
2nd innings,10.4,AJ Turner,Mahedi Hasan,AC Agar,0,0,0,na,na,na,na,na,na,na,na,na
2nd innings,10.5,AJ Turner,Mahedi Hasan,AC Agar,0,0,0,na,na,na,na,na,na,na,na,na
2nd innings,10.6,AJ Turner,Mahedi Hasan,AC Agar,1,1,0,na,na,na,na,na,na,na,na,na
2nd innings,11.1,AJ Turner,Shoriful Islam,AC Agar,0,0,0,na,na,na,na,na,na,na,na,na
2nd innings,11.2,AJ Turner,Shoriful Islam,AC Agar,1,0,1,1,na,na,na,na,na,na,na,na
2nd innings,11.3,AC Agar,Shoriful Islam,AJ Turner,0,0,0,na,na,na,na,na,na,na,na,na
2nd innings,11.4,AC Agar,Shoriful Islam,AJ Turner,0,0,0,na,na,na,na,na,na,na,na,na
2nd innings,11.5,AC Agar,Shoriful Islam,AJ Turner,1,1,0,na,na,na,na,na,na,na,na,na
2nd innings,11.6,AJ Turner,Shoriful Islam,AC Agar,1,1,0,na,na,na,na,na,na,na,na,na
2nd innings,12.1,AJ Turner,Mahedi Hasan,AC Agar,0,0,0,na,na,na,na,na,na,na,na,na
2nd innings,12.2,AJ Turner,Mahedi Hasan,AC Agar,2,2,0,na,na,na,na,na,na,na,na,na
2nd innings,12.3,AJ Turner,Mahedi Hasan,AC Agar,1,1,0,na,na,na,na,na,na,na,na,na
2nd innings,12.4,AC Agar,Mahedi Hasan,AJ Turner,0,0,0,na,na,na,na,na,na,na,na,na
2nd innings,12.5,AC Agar,Mahedi Hasan,AJ Turner,0,0,0,na,na,na,na,na,na,na,na,na
2nd innings,12.6,AC Agar,Mahedi Hasan,AJ Turner,1,1,0,na,na,na,na,na,na,na,na,na
2nd innings,13.1,AC Agar,Nasum Ahmed,AJ Turner,1,1,0,na,na,na,na,na,na,na,na,na
2nd innings,13.2,AJ Turner,Nasum Ahmed,AC Agar,6,6,0,na,na,na,na,na,na,na,na,na
2nd innings,13.3,AJ Turner,Nasum Ahmed,AC Agar,1,0,1,na,na,1,na,na,na,na,na,na
2nd innings,13.4,AJ Turner,Nasum Ahmed,AC Agar,0,0,0,na,na,na,na,na,na,na,na,na
2nd innings,13.5,AJ Turner,Nasum Ahmed,AC Agar,1,1,0,na,na,na,na,na,na,na,na,na
2nd innings,13.6,AC Agar,Nasum Ahmed,AJ Turner,0,0,0,na,na,na,na,na,na,na,na,na
2nd innings,13.7,AC Agar,Nasum Ahmed,AJ Turner,0,0,0,na,na,na,na,na,na,na,na,na
2nd innings,14.1,AJ Turner,Mahmudullah,AC Agar,1,1,0,na,na,na,na,na,na,na,na,na
2nd innings,14.2,AC Agar,Mahmudullah,AJ Turner,0,0,0,na,na,na,na,na,na,na,na,na
2nd innings,14.3,AC Agar,Mahmudullah,AJ Turner,1,1,0,na,na,na,na,na,na,na,na,na
2nd innings,14.4,AJ Turner,Mahmudullah,AC Agar,0,0,0,na,na,na,na,na,na,na,na,na
2nd innings,14.5,AJ Turner,Mahmudullah,AC Agar,1,1,0,na,na,na,na,na,na,na,na,na
2nd innings,14.6,AC Agar,Mahmudullah,AJ Turner,0,0,0,na,na,na,na,na,na,na,na,na
2nd innings,15.1,AJ Turner,Shakib Al Hasan,AC Agar,4,4,0,na,na,na,na,na,na,na,na,na
2nd innings,15.2,AJ Turner,Shakib Al Hasan,AC Agar,1,1,0,na,na,na,na,na,na,na,na,na
2nd innings,15.3,AC Agar,Shakib Al Hasan,AJ Turner,0,0,0,na,na,na,na,na,na,na,na,na
2nd innings,15.4,AC Agar,Shakib Al Hasan,AJ Turner,0,0,0,na,na,na,na,na,na,na,na,na
2nd innings,15.5,AC Agar,Shakib Al Hasan,AJ Turner,1,1,0,na,na,na,na,na,na,na,na,na
2nd innings,15.6,AJ Turner,Shakib Al Hasan,AC Agar,1,1,0,na,na,na,na,na,na,na,na,na
2nd innings,16.1,AJ Turner,Mustafizur Rahman,AC Agar,2,2,0,na,na,na,na,na,na,na,na,na
2nd innings,16.2,AJ Turner,Mustafizur Rahman,AC Agar,0,0,0,na,na,na,na,na,na,na,na,na
2nd innings,16.3,AJ Turner,Mustafizur Rahman,AC Agar,0,0,0,na,na,na,na,na,na,na,na,na
2nd innings,16.4,AJ Turner,Mustafizur Rahman,AC Agar,0,0,0,na,na,na,na,na,na,na,na,na
2nd innings,16.5,AJ Turner,Mustafizur Rahman,AC Agar,1,1,0,na,na,na,na,na,na,na,na,na
2nd innings,16.6,AC Agar,Mustafizur Rahman,AJ Turner,0,0,0,na,na,na,na,na,na,na,na,na
2nd innings,17.1,AJ Turner,Shoriful Islam,AC Agar,4,4,0,na,na,na,na,na,na,na,na,na
2nd innings,17.2,AJ Turner,Shoriful Islam,AC Agar,0,0,0,na,na,na,na,na,na,na,na,na
2nd innings,17.3,AJ Turner,Shoriful Islam,AC Agar,0,0,0,na,na,na,na,na,caught,Shamim Hossain,na,AC Agar
2nd innings,17.4,AJ Turner,Shoriful Islam,AJ Tye,0,0,0,na,na,na,na,na,na,na,na,na
2nd innings,17.5,AJ Turner,Shoriful Islam,AJ Tye,1,1,0,na,na,na,na,na,na,na,na,na
2nd innings,17.6,AJ Tye,Shoriful Islam,AJ Turner,1,1,0,na,na,na,na,na,na,na,na,na
2nd innings,18.1,AJ Tye,Mustafizur Rahman,AJ Turner,1,1,0,na,na,na,na,na,na,na,na,na
2nd innings,18.2,AJ Turner,Mustafizur Rahman,AJ Tye,0,0,0,na,na,na,na,na,na,na,na,na
2nd innings,18.3,AJ Turner,Mustafizur Rahman,AJ Tye,2,2,0,na,na,na,na,na,na,na,na,na
2nd innings,18.4,AJ Turner,Mustafizur Rahman,AJ Tye,0,0,0,na,na,na,na,na,na,na,na,na
2nd innings,18.5,AJ Turner,Mustafizur Rahman,AJ Tye,0,0,0,na,na,na,na,na,na,na,na,na
2nd innings,18.6,AJ Turner,Mustafizur Rahman,AJ Tye,1,1,0,na,na,na,na,na,na,na,na,na
