inngs,deliveries,non_striker,bowler,batsman,totalruns,batsman_runs,extra_runs,legbyes,byes,wides,noballs,penalty,wicket_kind,fielder1,fielder2,player_out
1st innings,0.1,Liton Das,AY Patel,Mohammad Naim,2,2,0,na,na,na,na,na,na,na,na,na
1st innings,0.2,Liton Das,AY Patel,Mohammad Naim,0,0,0,na,na,na,na,na,na,na,na,na
1st innings,0.3,Liton Das,AY Patel,Mohammad Naim,1,1,0,na,na,na,na,na,na,na,na,na
1st innings,0.4,Mohammad Naim,AY Patel,Liton Das,0,0,0,na,na,na,na,na,na,na,na,na
1st innings,0.5,Mohammad Naim,AY Patel,Liton Das,0,0,0,na,na,na,na,na,na,na,na,na
1st innings,0.6,Mohammad Naim,AY Patel,Liton Das,0,0,0,na,na,na,na,na,na,na,na,na
1st innings,1.1,Liton Das,CE McConchie,Mohammad Naim,0,0,0,na,na,na,na,na,na,na,na,na
1st innings,1.2,Liton Das,CE McConchie,Mohammad Naim,1,1,0,na,na,na,na,na,na,na,na,na
1st innings,1.3,Mohammad Naim,CE McConchie,Liton Das,0,0,0,na,na,na,na,na,na,na,na,na
1st innings,1.4,Mohammad Naim,CE McConchie,Liton Das,0,0,0,na,na,na,na,na,na,na,na,na
1st innings,1.5,Mohammad Naim,CE McConchie,Liton Das,2,2,0,na,na,na,na,na,na,na,na,na
1st innings,1.6,Mohammad Naim,CE McConchie,Liton Das,0,0,0,na,na,na,na,na,na,na,na,na
1st innings,2.1,Liton Das,AY Patel,Mohammad Naim,1,1,0,na,na,na,na,na,na,na,na,na
1st innings,2.2,Mohammad Naim,AY Patel,Liton Das,4,4,0,na,na,na,na,na,na,na,na,na
1st innings,2.3,Mohammad Naim,AY Patel,Liton Das,4,4,0,na,na,na,na,na,na,na,na,na
1st innings,2.4,Mohammad Naim,AY Patel,Liton Das,0,0,0,na,na,na,na,na,na,na,na,na
1st innings,2.5,Mohammad Naim,AY Patel,Liton Das,0,0,0,na,na,na,na,na,na,na,na,na
1st innings,2.6,Mohammad Naim,AY Patel,Liton Das,0,0,0,na,na,na,na,na,na,na,na,na
1st innings,3.1,Liton Das,HK Bennett,Mohammad Naim,0,0,0,na,na,na,na,na,na,na,na,na
1st innings,3.2,Liton Das,HK Bennett,Mohammad Naim,0,0,0,na,na,na,na,na,na,na,na,na
1st innings,3.3,Liton Das,HK Bennett,Mohammad Naim,0,0,0,na,na,na,na,na,na,na,na,na
1st innings,3.4,Liton Das,HK Bennett,Mohammad Naim,1,1,0,na,na,na,na,na,na,na,na,na
1st innings,3.5,Mohammad Naim,HK Bennett,Liton Das,1,1,0,na,na,na,na,na,na,na,na,na
1st innings,3.6,Liton Das,HK Bennett,Mohammad Naim,4,4,0,na,na,na,na,na,na,na,na,na
1st innings,4.1,Mohammad Naim,DAJ Bracewell,Liton Das,1,1,0,na,na,na,na,na,na,na,na,na
1st innings,4.2,Liton Das,DAJ Bracewell,Mohammad Naim,1,1,0,na,na,na,na,na,na,na,na,na
1st innings,4.3,Mohammad Naim,DAJ Bracewell,Liton Das,1,1,0,na,na,na,na,na,na,na,na,na
1st innings,4.4,Liton Das,DAJ Bracewell,Mohammad Naim,0,0,0,na,na,na,na,na,na,na,na,na
1st innings,4.5,Liton Das,DAJ Bracewell,Mohammad Naim,1,1,0,na,na,na,na,na,na,na,na,na
1st innings,4.6,Mohammad Naim,DAJ Bracewell,Liton Das,2,2,0,na,na,na,na,na,na,na,na,na
1st innings,5.1,Liton Das,HK Bennett,Mohammad Naim,1,1,0,na,na,na,na,na,na,na,na,na
1st innings,5.2,Mohammad Naim,HK Bennett,Liton Das,4,4,0,na,na,na,na,na,na,na,na,na
1st innings,5.3,Mohammad Naim,HK Bennett,Liton Das,1,1,0,na,na,na,na,na,na,na,na,na
1st innings,5.4,Liton Das,HK Bennett,Mohammad Naim,2,2,0,na,na,na,na,na,na,na,na,na
1st innings,5.5,Liton Das,HK Bennett,Mohammad Naim,0,0,0,na,na,na,na,na,na,na,na,na
1st innings,5.6,Liton Das,HK Bennett,Mohammad Naim,1,1,0,na,na,na,na,na,na,na,na,na
1st innings,6.1,Liton Das,CE McConchie,Mohammad Naim,0,0,0,na,na,na,na,na,na,na,na,na
1st innings,6.2,Liton Das,CE McConchie,Mohammad Naim,2,2,0,na,na,na,na,na,na,na,na,na
1st innings,6.3,Liton Das,CE McConchie,Mohammad Naim,1,1,0,na,na,na,na,na,na,na,na,na
1st innings,6.4,Mohammad Naim,CE McConchie,Liton Das,1,1,0,na,na,na,na,na,na,na,na,na
1st innings,6.5,Liton Das,CE McConchie,Mohammad Naim,2,2,0,na,na,na,na,na,na,na,na,na
1st innings,6.6,Liton Das,CE McConchie,Mohammad Naim,0,0,0,na,na,na,na,na,na,na,na,na
1st innings,7.1,Mohammad Naim,R Ravindra,Liton Das,1,1,0,na,na,na,na,na,na,na,na,na
1st innings,7.2,Liton Das,R Ravindra,Mohammad Naim,0,0,0,na,na,na,na,na,na,na,na,na
1st innings,7.3,Liton Das,R Ravindra,Mohammad Naim,1,1,0,na,na,na,na,na,na,na,na,na
1st innings,7.4,Mohammad Naim,R Ravindra,Liton Das,1,1,0,na,na,na,na,na,na,na,na,na
1st innings,7.5,Liton Das,R Ravindra,Mohammad Naim,1,1,0,na,na,na,na,na,na,na,na,na
1st innings,7.6,Mohammad Naim,R Ravindra,Liton Das,1,1,0,na,na,na,na,na,na,na,na,na
1st innings,8.1,Mohammad Naim,AY Patel,Liton Das,1,1,0,na,na,na,na,na,na,na,na,na
1st innings,8.2,Liton Das,AY Patel,Mohammad Naim,1,1,0,na,na,na,na,na,na,na,na,na
1st innings,8.3,Mohammad Naim,AY Patel,Liton Das,0,0,0,na,na,na,na,na,na,na,na,na
1st innings,8.4,Mohammad Naim,AY Patel,Liton Das,1,0,1,na,na,1,na,na,na,na,na,na
1st innings,8.5,Mohammad Naim,AY Patel,Liton Das,1,1,0,na,na,na,na,na,na,na,na,na
1st innings,8.6,Liton Das,AY Patel,Mohammad Naim,1,1,0,na,na,na,na,na,na,na,na,na
1st innings,8.7,Mohammad Naim,AY Patel,Liton Das,1,1,0,na,na,na,na,na,na,na,na,na
1st innings,9.1,Mohammad Naim,R Ravindra,Liton Das,6,6,0,na,na,na,na,na,na,na,na,na
1st innings,9.2,Mohammad Naim,R Ravindra,Liton Das,0,0,0,na,na,na,na,na,na,na,na,na
1st innings,9.3,Mohammad Naim,R Ravindra,Liton Das,0,0,0,na,na,na,na,na,bowled,na,na,Liton Das
1st innings,9.4,Mohammad Naim,R Ravindra,Mushfiqur Rahim,0,0,0,na,na,na,na,na,stumped,TWM Latham,na,Mushfiqur Rahim
1st innings,9.5,Mohammad Naim,R Ravindra,Shakib Al Hasan,0,0,0,na,na,na,na,na,na,na,na,na
1st innings,9.6,Mohammad Naim,R Ravindra,Shakib Al Hasan,1,1,0,na,na,na,na,na,na,na,na,na
1st innings,10.1,Mohammad Naim,CE McConchie,Shakib Al Hasan,2,2,0,na,na,na,na,na,na,na,na,na
1st innings,10.2,Mohammad Naim,CE McConchie,Shakib Al Hasan,4,4,0,na,na,na,na,na,na,na,na,na
1st innings,10.3,Mohammad Naim,CE McConchie,Shakib Al Hasan,1,1,0,na,na,na,na,na,na,na,na,na
1st innings,10.4,Shakib Al Hasan,CE McConchie,Mohammad Naim,1,1,0,na,na,na,na,na,na,na,na,na
1st innings,10.5,Mohammad Naim,CE McConchie,Shakib Al Hasan,4,4,0,na,na,na,na,na,na,na,na,na
1st innings,10.6,Mohammad Naim,CE McConchie,Shakib Al Hasan,0,0,0,na,na,na,na,na,caught,BV Sears,na,Shakib Al Hasan
1st innings,11.1,Mohammad Naim,BV Sears,Mahmudullah,0,0,0,na,na,na,na,na,na,na,na,na
1st innings,11.2,Mohammad Naim,BV Sears,Mahmudullah,1,1,0,na,na,na,na,na,na,na,na,na
1st innings,11.3,Mahmudullah,BV Sears,Mohammad Naim,1,1,0,na,na,na,na,na,na,na,na,na
1st innings,11.4,Mohammad Naim,BV Sears,Mahmudullah,1,1,0,na,na,na,na,na,na,na,na,na
1st innings,11.5,Mahmudullah,BV Sears,Mohammad Naim,4,4,0,na,na,na,na,na,na,na,na,na
1st innings,11.6,Mahmudullah,BV Sears,Mohammad Naim,4,4,0,na,na,na,na,na,na,na,na,na
1st innings,12.1,Mohammad Naim,CE McConchie,Mahmudullah,0,0,0,na,na,na,na,na,na,na,na,na
1st innings,12.2,Mohammad Naim,CE McConchie,Mahmudullah,0,0,0,na,na,na,na,na,na,na,na,na
1st innings,12.3,Mohammad Naim,CE McConchie,Mahmudullah,1,1,0,na,na,na,na,na,na,na,na,na
1st innings,12.4,Mahmudullah,CE McConchie,Mohammad Naim,1,1,0,na,na,na,na,na,na,na,na,na
1st innings,12.5,Mohammad Naim,CE McConchie,Mahmudullah,1,1,0,na,na,na,na,na,na,na,na,na
1st innings,12.6,Mahmudullah,CE McConchie,Mohammad Naim,0,0,0,na,na,na,na,na,na,na,na,na
1st innings,13.1,Mohammad Naim,R Ravindra,Mahmudullah,4,4,0,na,na,na,na,na,na,na,na,na
1st innings,13.2,Mohammad Naim,R Ravindra,Mahmudullah,0,0,0,na,na,na,na,na,na,na,na,na
1st innings,13.3,Mohammad Naim,R Ravindra,Mahmudullah,0,0,0,na,na,na,na,na,na,na,na,na
1st innings,13.4,Mohammad Naim,R Ravindra,Mahmudullah,1,1,0,na,na,na,na,na,na,na,na,na
1st innings,13.5,Mahmudullah,R Ravindra,Mohammad Naim,1,1,0,na,na,na,na,na,na,na,na,na
1st innings,13.6,Mohammad Naim,R Ravindra,Mahmudullah,0,0,0,na,na,na,na,na,na,na,na,na
1st innings,14.1,Mahmudullah,DAJ Bracewell,Mohammad Naim,1,1,0,na,na,na,na,na,na,na,na,na
1st innings,14.2,Mohammad Naim,DAJ Bracewell,Mahmudullah,4,4,0,na,na,na,na,na,na,na,na,na
1st innings,14.3,Mohammad Naim,DAJ Bracewell,Mahmudullah,0,0,0,na,na,na,na,na,na,na,na,na
1st innings,14.4,Mohammad Naim,DAJ Bracewell,Mahmudullah,1,0,1,na,na,1,na,na,na,na,na,na
1st innings,14.5,Mohammad Naim,DAJ Bracewell,Mahmudullah,0,0,0,na,na,na,na,na,na,na,na,na
1st innings,14.6,Mohammad Naim,DAJ Bracewell,Mahmudullah,4,4,0,na,na,na,na,na,na,na,na,na
1st innings,14.7,Mohammad Naim,DAJ Bracewell,Mahmudullah,1,1,0,na,na,na,na,na,na,na,na,na
1st innings,15.1,Mohammad Naim,R Ravindra,Mahmudullah,1,1,0,na,na,na,na,na,na,na,na,na
1st innings,15.2,Mahmudullah,R Ravindra,Mohammad Naim,1,1,0,na,na,na,na,na,na,na,na,na
1st innings,15.3,Mohammad Naim,R Ravindra,Mahmudullah,1,1,0,na,na,na,na,na,na,na,na,na
1st innings,15.4,Mahmudullah,R Ravindra,Mohammad Naim,0,0,0,na,na,na,na,na,na,na,na,na
1st innings,15.5,Mahmudullah,R Ravindra,Mohammad Naim,0,0,0,na,na,na,na,na,caught,TA Blundell,na,Mohammad Naim
1st innings,15.6,Mahmudullah,R Ravindra,Afif Hossain,1,1,0,na,na,na,na,na,na,na,na,na
1st innings,16.1,Mahmudullah,AY Patel,Afif Hossain,2,2,0,na,na,na,na,na,na,na,na,na
1st innings,16.2,Mahmudullah,AY Patel,Afif Hossain,0,0,0,na,na,na,na,na,caught,C de Grandhomme,na,Afif Hossain
1st innings,16.3,Nurul Hasan,AY Patel,Mahmudullah,0,0,0,na,na,na,na,na,na,na,na,na
1st innings,16.4,Nurul Hasan,AY Patel,Mahmudullah,0,0,0,na,na,na,na,na,na,na,na,na
1st innings,16.5,Nurul Hasan,AY Patel,Mahmudullah,1,0,1,1,na,na,na,na,na,na,na,na
1st innings,16.6,Mahmudullah,AY Patel,Nurul Hasan,0,0,0,na,na,na,na,na,na,na,na,na
1st innings,17.1,Nurul Hasan,HK Bennett,Mahmudullah,1,1,0,na,na,na,na,na,na,na,na,na
1st innings,17.2,Mahmudullah,HK Bennett,Nurul Hasan,1,1,0,na,na,na,na,na,na,na,na,na
1st innings,17.3,Nurul Hasan,HK Bennett,Mahmudullah,1,1,0,na,na,na,na,na,na,na,na,na
1st innings,17.4,Mahmudullah,HK Bennett,Nurul Hasan,1,1,0,na,na,na,na,na,na,na,na,na
1st innings,17.5,Nurul Hasan,HK Bennett,Mahmudullah,1,1,0,na,na,na,na,na,na,na,na,na
1st innings,17.6,Mahmudullah,HK Bennett,Nurul Hasan,2,2,0,na,na,na,na,na,na,na,na,na
1st innings,18.1,Nurul Hasan,DAJ Bracewell,Mahmudullah,1,1,0,na,na,na,na,na,na,na,na,na
1st innings,18.2,Mahmudullah,DAJ Bracewell,Nurul Hasan,1,1,0,na,na,na,na,na,na,na,na,na
1st innings,18.3,Nurul Hasan,DAJ Bracewell,Mahmudullah,4,4,0,na,na,na,na,na,na,na,na,na
1st innings,18.4,Nurul Hasan,DAJ Bracewell,Mahmudullah,4,4,0,na,na,na,na,na,na,na,na,na
1st innings,18.5,Nurul Hasan,DAJ Bracewell,Mahmudullah,2,2,0,na,na,na,na,na,na,na,na,na
1st innings,18.6,Nurul Hasan,DAJ Bracewell,Mahmudullah,1,1,0,na,na,na,na,na,na,na,na,na
1st innings,19.1,Nurul Hasan,HK Bennett,Mahmudullah,2,2,0,na,na,na,na,na,na,na,na,na
1st innings,19.2,Nurul Hasan,HK Bennett,Mahmudullah,1,0,1,1,na,na,na,na,na,na,na,na
1st innings,19.3,Mahmudullah,HK Bennett,Nurul Hasan,2,2,0,na,na,na,na,na,na,na,na,na
1st innings,19.4,Mahmudullah,HK Bennett,Nurul Hasan,4,4,0,na,na,na,na,na,na,na,na,na
1st innings,19.5,Mahmudullah,HK Bennett,Nurul Hasan,2,2,0,na,na,na,na,na,na,na,na,na
1st innings,19.6,Mahmudullah,HK Bennett,Nurul Hasan,0,0,0,na,na,na,na,na,caught,WA Young,na,Nurul Hasan
2nd innings,0.1,R Ravindra,Mahedi Hasan,TA Blundell,0,0,0,na,na,na,na,na,na,na,na,na
2nd innings,0.2,R Ravindra,Mahedi Hasan,TA Blundell,1,1,0,na,na,na,na,na,na,na,na,na
2nd innings,0.3,TA Blundell,Mahedi Hasan,R Ravindra,0,0,0,na,na,na,na,na,na,na,na,na
2nd innings,0.4,TA Blundell,Mahedi Hasan,R Ravindra,0,0,0,na,na,na,na,na,na,na,na,na
2nd innings,0.5,TA Blundell,Mahedi Hasan,R Ravindra,3,3,0,na,na,na,na,na,na,na,na,na
2nd innings,0.6,R Ravindra,Mahedi Hasan,TA Blundell,0,0,0,na,na,na,na,na,na,na,na,na
2nd innings,1.1,TA Blundell,Nasum Ahmed,R Ravindra,1,0,1,na,na,1,na,na,na,na,na,na
2nd innings,1.2,TA Blundell,Nasum Ahmed,R Ravindra,0,0,0,na,na,na,na,na,na,na,na,na
2nd innings,1.3,TA Blundell,Nasum Ahmed,R Ravindra,0,0,0,na,na,na,na,na,na,na,na,na
2nd innings,1.4,TA Blundell,Nasum Ahmed,R Ravindra,1,1,0,na,na,na,na,na,na,na,na,na
2nd innings,1.5,R Ravindra,Nasum Ahmed,TA Blundell,0,0,0,na,na,na,na,na,na,na,na,na
2nd innings,1.6,R Ravindra,Nasum Ahmed,TA Blundell,0,0,0,na,na,na,na,na,na,na,na,na
2nd innings,1.7,R Ravindra,Nasum Ahmed,TA Blundell,4,4,0,na,na,na,na,na,na,na,na,na
2nd innings,2.1,TA Blundell,Shakib Al Hasan,R Ravindra,0,0,0,na,na,na,na,na,na,na,na,na
2nd innings,2.2,TA Blundell,Shakib Al Hasan,R Ravindra,6,6,0,na,na,na,na,na,na,na,na,na
2nd innings,2.3,TA Blundell,Shakib Al Hasan,R Ravindra,0,0,0,na,na,na,na,na,bowled,na,na,R Ravindra
2nd innings,2.4,TA Blundell,Shakib Al Hasan,TWM Latham,1,1,0,na,na,na,na,na,na,na,na,na
2nd innings,2.5,TWM Latham,Shakib Al Hasan,TA Blundell,1,1,0,na,na,na,na,na,na,na,na,na
2nd innings,2.6,TA Blundell,Shakib Al Hasan,TWM Latham,0,0,0,na,na,na,na,na,na,na,na,na
2nd innings,3.1,TWM Latham,Mahedi Hasan,TA Blundell,0,0,0,na,na,na,na,na,stumped,Nurul Hasan,na,TA Blundell
2nd innings,3.2,TWM Latham,Mahedi Hasan,WA Young,0,0,0,na,na,na,na,na,na,na,na,na
2nd innings,3.3,TWM Latham,Mahedi Hasan,WA Young,0,0,0,na,na,na,na,na,na,na,na,na
2nd innings,3.4,TWM Latham,Mahedi Hasan,WA Young,0,0,0,na,na,na,na,na,na,na,na,na
2nd innings,3.5,TWM Latham,Mahedi Hasan,WA Young,1,1,0,na,na,na,na,na,na,na,na,na
2nd innings,3.6,WA Young,Mahedi Hasan,TWM Latham,0,0,0,na,na,na,na,na,na,na,na,na
2nd innings,4.1,TWM Latham,Nasum Ahmed,WA Young,0,0,0,na,na,na,na,na,na,na,na,na
2nd innings,4.2,TWM Latham,Nasum Ahmed,WA Young,0,0,0,na,na,na,na,na,na,na,na,na
2nd innings,4.3,TWM Latham,Nasum Ahmed,WA Young,0,0,0,na,na,na,na,na,na,na,na,na
2nd innings,4.4,TWM Latham,Nasum Ahmed,WA Young,4,4,0,na,na,na,na,na,na,na,na,na
2nd innings,4.5,TWM Latham,Nasum Ahmed,WA Young,4,4,0,na,na,na,na,na,na,na,na,na
2nd innings,4.6,TWM Latham,Nasum Ahmed,WA Young,0,0,0,na,na,na,na,na,na,na,na,na
2nd innings,5.1,WA Young,Mahedi Hasan,TWM Latham,0,0,0,na,na,na,na,na,na,na,na,na
2nd innings,5.2,WA Young,Mahedi Hasan,TWM Latham,1,1,0,na,na,na,na,na,na,na,na,na
2nd innings,5.3,TWM Latham,Mahedi Hasan,WA Young,0,0,0,na,na,na,na,na,na,na,na,na
2nd innings,5.4,TWM Latham,Mahedi Hasan,WA Young,0,0,0,na,na,na,na,na,na,na,na,na
2nd innings,5.5,TWM Latham,Mahedi Hasan,WA Young,0,0,0,na,na,na,na,na,na,na,na,na
2nd innings,5.6,TWM Latham,Mahedi Hasan,WA Young,0,0,0,na,na,na,na,na,na,na,na,na
2nd innings,6.1,WA Young,Mustafizur Rahman,TWM Latham,4,4,0,na,na,na,na,na,na,na,na,na
2nd innings,6.2,WA Young,Mustafizur Rahman,TWM Latham,1,1,0,na,na,na,na,na,na,na,na,na
2nd innings,6.3,TWM Latham,Mustafizur Rahman,WA Young,1,1,0,na,na,na,na,na,na,na,na,na
2nd innings,6.4,WA Young,Mustafizur Rahman,TWM Latham,1,1,0,na,na,na,na,na,na,na,na,na
2nd innings,6.5,TWM Latham,Mustafizur Rahman,WA Young,1,1,0,na,na,na,na,na,na,na,na,na
2nd innings,6.6,WA Young,Mustafizur Rahman,TWM Latham,1,1,0,na,na,na,na,na,na,na,na,na
2nd innings,7.1,WA Young,Mahmudullah,TWM Latham,1,1,0,na,na,na,na,na,na,na,na,na
2nd innings,7.2,TWM Latham,Mahmudullah,WA Young,1,1,0,na,na,na,na,na,na,na,na,na
2nd innings,7.3,WA Young,Mahmudullah,TWM Latham,1,1,0,na,na,na,na,na,na,na,na,na
2nd innings,7.4,TWM Latham,Mahmudullah,WA Young,0,0,0,na,na,na,na,na,na,na,na,na
2nd innings,7.5,TWM Latham,Mahmudullah,WA Young,0,0,0,na,na,na,na,na,na,na,na,na
2nd innings,7.6,TWM Latham,Mahmudullah,WA Young,4,4,0,na,na,na,na,na,na,na,na,na
2nd innings,8.1,WA Young,Shakib Al Hasan,TWM Latham,1,1,0,na,na,na,na,na,na,na,na,na
2nd innings,8.2,TWM Latham,Shakib Al Hasan,WA Young,1,1,0,na,na,na,na,na,na,na,na,na
2nd innings,8.3,WA Young,Shakib Al Hasan,TWM Latham,1,1,0,na,na,na,na,na,na,na,na,na
2nd innings,8.4,TWM Latham,Shakib Al Hasan,WA Young,1,1,0,na,na,na,na,na,na,na,na,na
2nd innings,8.5,WA Young,Shakib Al Hasan,TWM Latham,2,2,0,na,na,na,na,na,na,na,na,na
2nd innings,8.6,WA Young,Shakib Al Hasan,TWM Latham,0,0,0,na,na,na,na,na,na,na,na,na
2nd innings,9.1,TWM Latham,Mohammad Saifuddin,WA Young,1,1,0,na,na,na,na,na,na,na,na,na
2nd innings,9.2,WA Young,Mohammad Saifuddin,TWM Latham,1,1,0,na,na,na,na,na,na,na,na,na
2nd innings,9.3,TWM Latham,Mohammad Saifuddin,WA Young,1,1,0,na,na,na,na,na,na,na,na,na
2nd innings,9.4,WA Young,Mohammad Saifuddin,TWM Latham,2,2,0,na,na,na,na,na,na,na,na,na
2nd innings,9.5,WA Young,Mohammad Saifuddin,TWM Latham,1,1,0,na,na,na,na,na,na,na,na,na
2nd innings,9.6,TWM Latham,Mohammad Saifuddin,WA Young,1,1,0,na,na,na,na,na,na,na,na,na
2nd innings,10.1,TWM Latham,Shakib Al Hasan,WA Young,1,1,0,na,na,na,na,na,na,na,na,na
2nd innings,10.2,WA Young,Shakib Al Hasan,TWM Latham,0,0,0,na,na,na,na,na,na,na,na,na
2nd innings,10.3,WA Young,Shakib Al Hasan,TWM Latham,2,2,0,na,na,na,na,na,na,na,na,na
2nd innings,10.4,WA Young,Shakib Al Hasan,TWM Latham,1,1,0,na,na,na,na,na,na,na,na,na
2nd innings,10.5,TWM Latham,Shakib Al Hasan,WA Young,0,0,0,na,na,na,na,na,na,na,na,na
2nd innings,10.6,TWM Latham,Shakib Al Hasan,WA Young,0,0,0,na,na,na,na,na,caught,Mohammad Saifuddin,na,WA Young
2nd innings,11.1,C de Grandhomme,Mohammad Saifuddin,TWM Latham,1,1,0,na,na,na,na,na,na,na,na,na
2nd innings,11.2,TWM Latham,Mohammad Saifuddin,C de Grandhomme,2,2,0,na,na,na,na,na,na,na,na,na
2nd innings,11.3,TWM Latham,Mohammad Saifuddin,C de Grandhomme,1,1,0,na,na,na,na,na,na,na,na,na
2nd innings,11.4,C de Grandhomme,Mohammad Saifuddin,TWM Latham,4,4,0,na,na,na,na,na,na,na,na,na
2nd innings,11.5,C de Grandhomme,Mohammad Saifuddin,TWM Latham,1,1,0,na,na,na,na,na,na,na,na,na
2nd innings,11.6,TWM Latham,Mohammad Saifuddin,C de Grandhomme,1,1,0,na,na,na,na,na,na,na,na,na
2nd innings,12.1,TWM Latham,Mustafizur Rahman,C de Grandhomme,1,1,0,na,na,na,na,na,na,na,na,na
2nd innings,12.2,C de Grandhomme,Mustafizur Rahman,TWM Latham,0,0,0,na,na,na,na,na,na,na,na,na
2nd innings,12.3,C de Grandhomme,Mustafizur Rahman,TWM Latham,1,1,0,na,na,na,na,na,na,na,na,na
2nd innings,12.4,TWM Latham,Mustafizur Rahman,C de Grandhomme,0,0,0,na,na,na,na,na,na,na,na,na
2nd innings,12.5,TWM Latham,Mustafizur Rahman,C de Grandhomme,1,1,0,na,na,na,na,na,na,na,na,na
2nd innings,12.6,C de Grandhomme,Mustafizur Rahman,TWM Latham,0,0,0,na,na,na,na,na,na,na,na,na
2nd innings,13.1,TWM Latham,Mohammad Saifuddin,C de Grandhomme,1,1,0,na,na,na,na,na,na,na,na,na
2nd innings,13.2,C de Grandhomme,Mohammad Saifuddin,TWM Latham,1,1,0,na,na,na,na,na,na,na,na,na
2nd innings,13.3,TWM Latham,Mohammad Saifuddin,C de Grandhomme,1,1,0,na,na,na,na,na,na,na,na,na
2nd innings,13.4,C de Grandhomme,Mohammad Saifuddin,TWM Latham,2,2,0,na,na,na,na,na,na,na,na,na
2nd innings,13.5,C de Grandhomme,Mohammad Saifuddin,TWM Latham,0,0,0,na,na,na,na,na,na,na,na,na
2nd innings,13.6,C de Grandhomme,Mohammad Saifuddin,TWM Latham,6,6,0,na,na,na,na,na,na,na,na,na
2nd innings,14.1,TWM Latham,Nasum Ahmed,C de Grandhomme,0,0,0,na,na,na,na,na,na,na,na,na
2nd innings,14.2,TWM Latham,Nasum Ahmed,C de Grandhomme,0,0,0,na,na,na,na,na,caught,Mushfiqur Rahim,na,C de Grandhomme
2nd innings,14.3,TWM Latham,Nasum Ahmed,HM Nicholls,1,1,0,na,na,na,na,na,na,na,na,na
2nd innings,14.4,HM Nicholls,Nasum Ahmed,TWM Latham,1,1,0,na,na,na,na,na,na,na,na,na
2nd innings,14.5,TWM Latham,Nasum Ahmed,HM Nicholls,1,1,0,na,na,na,na,na,na,na,na,na
2nd innings,14.6,HM Nicholls,Nasum Ahmed,TWM Latham,0,0,0,na,na,na,na,na,na,na,na,na
2nd innings,15.1,TWM Latham,Mahedi Hasan,HM Nicholls,4,4,0,na,na,na,na,na,na,na,na,na
2nd innings,15.2,TWM Latham,Mahedi Hasan,HM Nicholls,0,0,0,na,na,na,na,na,na,na,na,na
2nd innings,15.3,TWM Latham,Mahedi Hasan,HM Nicholls,0,0,0,na,na,na,na,na,caught,Mushfiqur Rahim,na,HM Nicholls
2nd innings,15.4,CE McConchie,Mahedi Hasan,TWM Latham,0,0,0,na,na,na,na,na,na,na,na,na
2nd innings,15.5,CE McConchie,Mahedi Hasan,TWM Latham,1,1,0,na,na,na,na,na,na,na,na,na
2nd innings,15.6,TWM Latham,Mahedi Hasan,CE McConchie,1,1,0,na,na,na,na,na,na,na,na,na
2nd innings,16.1,TWM Latham,Shakib Al Hasan,CE McConchie,0,0,0,na,na,na,na,na,na,na,na,na
2nd innings,16.2,TWM Latham,Shakib Al Hasan,CE McConchie,2,2,0,na,na,na,na,na,na,na,na,na
2nd innings,16.3,TWM Latham,Shakib Al Hasan,CE McConchie,2,2,0,na,na,na,na,na,na,na,na,na
2nd innings,16.4,TWM Latham,Shakib Al Hasan,CE McConchie,1,1,0,na,na,na,na,na,na,na,na,na
2nd innings,16.5,CE McConchie,Shakib Al Hasan,TWM Latham,2,2,0,na,na,na,na,na,na,na,na,na
2nd innings,16.6,CE McConchie,Shakib Al Hasan,TWM Latham,4,4,0,na,na,na,na,na,na,na,na,na
2nd innings,17.1,TWM Latham,Mustafizur Rahman,CE McConchie,1,0,1,na,na,1,na,na,na,na,na,na
2nd innings,17.2,TWM Latham,Mustafizur Rahman,CE McConchie,0,0,0,na,na,na,na,na,na,na,na,na
2nd innings,17.3,TWM Latham,Mustafizur Rahman,CE McConchie,1,1,0,na,na,na,na,na,na,na,na,na
2nd innings,17.4,CE McConchie,Mustafizur Rahman,TWM Latham,4,4,0,na,na,na,na,na,na,na,na,na
2nd innings,17.5,CE McConchie,Mustafizur Rahman,TWM Latham,1,1,0,na,na,na,na,na,na,na,na,na
2nd innings,17.6,TWM Latham,Mustafizur Rahman,CE McConchie,1,1,0,na,na,na,na,na,na,na,na,na
2nd innings,17.7,CE McConchie,Mustafizur Rahman,TWM Latham,1,1,0,na,na,na,na,na,na,na,na,na
2nd innings,18.1,CE McConchie,Mohammad Saifuddin,TWM Latham,0,0,0,na,na,na,na,na,na,na,na,na
2nd innings,18.2,CE McConchie,Mohammad Saifuddin,TWM Latham,4,4,0,na,na,na,na,na,na,na,na,na
2nd innings,18.3,CE McConchie,Mohammad Saifuddin,TWM Latham,2,2,0,na,na,na,na,na,na,na,na,na
2nd innings,18.4,CE McConchie,Mohammad Saifuddin,TWM Latham,0,0,0,na,na,na,na,na,na,na,na,na
2nd innings,18.5,CE McConchie,Mohammad Saifuddin,TWM Latham,1,1,0,na,na,na,na,na,na,na,na,na
2nd innings,18.6,TWM Latham,Mohammad Saifuddin,CE McConchie,1,1,0,na,na,na,na,na,na,na,na,na
2nd innings,19.1,TWM Latham,Mustafizur Rahman,CE McConchie,3,3,0,na,na,na,na,na,na,na,na,na
2nd innings,19.2,CE McConchie,Mustafizur Rahman,TWM Latham,1,1,0,na,na,na,na,na,na,na,na,na
2nd innings,19.3,TWM Latham,Mustafizur Rahman,CE McConchie,2,2,0,na,na,na,na,na,na,na,na,na
2nd innings,19.4,TWM Latham,Mustafizur Rahman,CE McConchie,1,1,0,na,na,na,na,na,na,na,na,na
2nd innings,19.5,CE McConchie,Mustafizur Rahman,TWM Latham,5,4,1,na,na,na,1,na,na,na,na,na
2nd innings,19.6,CE McConchie,Mustafizur Rahman,TWM Latham,2,0,2,2,na,na,na,na,na,na,na,na
2nd innings,19.7,CE McConchie,Mustafizur Rahman,TWM Latham,1,1,0,na,na,na,na,na,na,na,na,na
