inngs,deliveries,non_striker,bowler,batsman,totalruns,batsman_runs,extra_runs,legbyes,byes,wides,noballs,penalty,wicket_kind,fielder1,fielder2,player_out
1st innings,0.1,R Ravindra,Mahedi Hasan,TA Blundell,0,0,0,na,na,na,na,na,na,na,na,na
1st innings,0.2,R Ravindra,Mahedi Hasan,TA Blundell,1,1,0,na,na,na,na,na,na,na,na,na
1st innings,0.3,TA Blundell,Mahedi Hasan,R Ravindra,0,0,0,na,na,na,na,na,caught and bowled,na,na,R Ravindra
1st innings,0.4,TA Blundell,Mahedi Hasan,WA Young,0,0,0,na,na,na,na,na,na,na,na,na
1st innings,0.5,TA Blundell,Mahedi Hasan,WA Young,1,1,0,na,na,na,na,na,na,na,na,na
1st innings,0.6,WA Young,Mahedi Hasan,TA Blundell,0,0,0,na,na,na,na,na,na,na,na,na
1st innings,1.1,TA Blundell,Nasum Ahmed,WA Young,0,0,0,na,na,na,na,na,na,na,na,na
1st innings,1.2,TA Blundell,Nasum Ahmed,WA Young,0,0,0,na,na,na,na,na,na,na,na,na
1st innings,1.3,TA Blundell,Nasum Ahmed,WA Young,0,0,0,na,na,na,na,na,na,na,na,na
1st innings,1.4,TA Blundell,Nasum Ahmed,WA Young,0,0,0,na,na,na,na,na,na,na,na,na
1st innings,1.5,TA Blundell,Nasum Ahmed,WA Young,4,4,0,na,na,na,na,na,na,na,na,na
1st innings,1.6,TA Blundell,Nasum Ahmed,WA Young,0,0,0,na,na,na,na,na,na,na,na,na
1st innings,2.1,WA Young,Shakib Al Hasan,TA Blundell,0,0,0,na,na,na,na,na,na,na,na,na
1st innings,2.2,WA Young,Shakib Al Hasan,TA Blundell,1,1,0,na,na,na,na,na,na,na,na,na
1st innings,2.3,TA Blundell,Shakib Al Hasan,WA Young,0,0,0,na,na,na,na,na,na,na,na,na
1st innings,2.4,TA Blundell,Shakib Al Hasan,WA Young,0,0,0,na,na,na,na,na,na,na,na,na
1st innings,2.5,TA Blundell,Shakib Al Hasan,WA Young,0,0,0,na,na,na,na,na,bowled,na,na,WA Young
1st innings,2.6,TA Blundell,Shakib Al Hasan,C de Grandhomme,1,1,0,na,na,na,na,na,na,na,na,na
1st innings,3.1,TA Blundell,Nasum Ahmed,C de Grandhomme,0,0,0,na,na,na,na,na,na,na,na,na
1st innings,3.2,TA Blundell,Nasum Ahmed,C de Grandhomme,0,0,0,na,na,na,na,na,na,na,na,na
1st innings,3.3,TA Blundell,Nasum Ahmed,C de Grandhomme,0,0,0,na,na,na,na,na,caught,Mohammad Naim,na,C de Grandhomme
1st innings,3.4,TA Blundell,Nasum Ahmed,TWM Latham,0,0,0,na,na,na,na,na,na,na,na,na
1st innings,3.5,TA Blundell,Nasum Ahmed,TWM Latham,1,1,0,na,na,na,na,na,na,na,na,na
1st innings,3.6,TWM Latham,Nasum Ahmed,TA Blundell,0,0,0,na,na,na,na,na,bowled,na,na,TA Blundell
1st innings,4.1,HM Nicholls,Mahedi Hasan,TWM Latham,0,0,0,na,na,na,na,na,na,na,na,na
1st innings,4.2,HM Nicholls,Mahedi Hasan,TWM Latham,0,0,0,na,na,na,na,na,na,na,na,na
1st innings,4.3,HM Nicholls,Mahedi Hasan,TWM Latham,1,1,0,na,na,na,na,na,na,na,na,na
1st innings,4.4,TWM Latham,Mahedi Hasan,HM Nicholls,0,0,0,na,na,na,na,na,na,na,na,na
1st innings,4.5,TWM Latham,Mahedi Hasan,HM Nicholls,0,0,0,na,na,na,na,na,na,na,na,na
1st innings,4.6,TWM Latham,Mahedi Hasan,HM Nicholls,0,0,0,na,na,na,na,na,na,na,na,na
1st innings,5.1,HM Nicholls,Mustafizur Rahman,TWM Latham,0,0,0,na,na,na,na,na,na,na,na,na
1st innings,5.2,HM Nicholls,Mustafizur Rahman,TWM Latham,4,4,0,na,na,na,na,na,na,na,na,na
1st innings,5.3,HM Nicholls,Mustafizur Rahman,TWM Latham,1,1,0,na,na,na,na,na,na,na,na,na
1st innings,5.4,TWM Latham,Mustafizur Rahman,HM Nicholls,1,1,0,na,na,na,na,na,na,na,na,na
1st innings,5.5,HM Nicholls,Mustafizur Rahman,TWM Latham,1,1,0,na,na,na,na,na,na,na,na,na
1st innings,5.6,TWM Latham,Mustafizur Rahman,HM Nicholls,1,1,0,na,na,na,na,na,na,na,na,na
1st innings,6.1,TWM Latham,Mahedi Hasan,HM Nicholls,1,1,0,na,na,na,na,na,na,na,na,na
1st innings,6.2,HM Nicholls,Mahedi Hasan,TWM Latham,0,0,0,na,na,na,na,na,na,na,na,na
1st innings,6.3,HM Nicholls,Mahedi Hasan,TWM Latham,2,2,0,na,na,na,na,na,na,na,na,na
1st innings,6.4,HM Nicholls,Mahedi Hasan,TWM Latham,0,0,0,na,na,na,na,na,na,na,na,na
1st innings,6.5,HM Nicholls,Mahedi Hasan,TWM Latham,1,1,0,na,na,na,na,na,na,na,na,na
1st innings,6.6,TWM Latham,Mahedi Hasan,HM Nicholls,1,1,0,na,na,na,na,na,na,na,na,na
1st innings,7.1,TWM Latham,Mahmudullah,HM Nicholls,1,1,0,na,na,na,na,na,na,na,na,na
1st innings,7.2,HM Nicholls,Mahmudullah,TWM Latham,0,0,0,na,na,na,na,na,na,na,na,na
1st innings,7.3,HM Nicholls,Mahmudullah,TWM Latham,2,0,2,na,2,na,na,na,na,na,na,na
1st innings,7.4,HM Nicholls,Mahmudullah,TWM Latham,1,1,0,na,na,na,na,na,na,na,na,na
1st innings,7.5,TWM Latham,Mahmudullah,HM Nicholls,1,1,0,na,na,na,na,na,na,na,na,na
1st innings,7.6,HM Nicholls,Mahmudullah,TWM Latham,1,1,0,na,na,na,na,na,na,na,na,na
1st innings,8.1,HM Nicholls,Mahedi Hasan,TWM Latham,1,1,0,na,na,na,na,na,na,na,na,na
1st innings,8.2,TWM Latham,Mahedi Hasan,HM Nicholls,0,0,0,na,na,na,na,na,na,na,na,na
1st innings,8.3,TWM Latham,Mahedi Hasan,HM Nicholls,0,0,0,na,na,na,na,na,na,na,na,na
1st innings,8.4,TWM Latham,Mahedi Hasan,HM Nicholls,1,1,0,na,na,na,na,na,na,na,na,na
1st innings,8.5,HM Nicholls,Mahedi Hasan,TWM Latham,1,1,0,na,na,na,na,na,na,na,na,na
1st innings,8.6,TWM Latham,Mahedi Hasan,HM Nicholls,4,4,0,na,na,na,na,na,na,na,na,na
1st innings,9.1,HM Nicholls,Mahmudullah,TWM Latham,1,1,0,na,na,na,na,na,na,na,na,na
1st innings,9.2,TWM Latham,Mahmudullah,HM Nicholls,1,1,0,na,na,na,na,na,na,na,na,na
1st innings,9.3,HM Nicholls,Mahmudullah,TWM Latham,1,1,0,na,na,na,na,na,na,na,na,na
1st innings,9.4,TWM Latham,Mahmudullah,HM Nicholls,0,0,0,na,na,na,na,na,na,na,na,na
1st innings,9.5,TWM Latham,Mahmudullah,HM Nicholls,1,1,0,na,na,na,na,na,na,na,na,na
1st innings,9.6,HM Nicholls,Mahmudullah,TWM Latham,0,0,0,na,na,na,na,na,na,na,na,na
1st innings,10.1,TWM Latham,Mohammad Saifuddin,HM Nicholls,1,1,0,na,na,na,na,na,na,na,na,na
1st innings,10.2,HM Nicholls,Mohammad Saifuddin,TWM Latham,1,1,0,na,na,na,na,na,na,na,na,na
1st innings,10.3,TWM Latham,Mohammad Saifuddin,HM Nicholls,1,1,0,na,na,na,na,na,na,na,na,na
1st innings,10.4,HM Nicholls,Mohammad Saifuddin,TWM Latham,0,0,0,na,na,na,na,na,na,na,na,na
1st innings,10.5,HM Nicholls,Mohammad Saifuddin,TWM Latham,0,0,0,na,na,na,na,na,caught,Nasum Ahmed,na,TWM Latham
1st innings,10.6,CE McConchie,Mohammad Saifuddin,HM Nicholls,1,1,0,na,na,na,na,na,na,na,na,na
1st innings,11.1,CE McConchie,Shakib Al Hasan,HM Nicholls,1,1,0,na,na,na,na,na,na,na,na,na
1st innings,11.2,HM Nicholls,Shakib Al Hasan,CE McConchie,0,0,0,na,na,na,na,na,na,na,na,na
1st innings,11.3,HM Nicholls,Shakib Al Hasan,CE McConchie,0,0,0,na,na,na,na,na,na,na,na,na
1st innings,11.4,HM Nicholls,Shakib Al Hasan,CE McConchie,0,0,0,na,na,na,na,na,caught,Mushfiqur Rahim,na,CE McConchie
1st innings,11.5,HM Nicholls,Shakib Al Hasan,DAJ Bracewell,0,0,0,na,na,na,na,na,na,na,na,na
1st innings,11.6,HM Nicholls,Shakib Al Hasan,DAJ Bracewell,1,1,0,na,na,na,na,na,na,na,na,na
1st innings,12.1,HM Nicholls,Mohammad Saifuddin,DAJ Bracewell,1,1,0,na,na,na,na,na,na,na,na,na
1st innings,12.2,DAJ Bracewell,Mohammad Saifuddin,HM Nicholls,1,1,0,na,na,na,na,na,na,na,na,na
1st innings,12.3,HM Nicholls,Mohammad Saifuddin,DAJ Bracewell,1,1,0,na,na,na,na,na,na,na,na,na
1st innings,12.4,DAJ Bracewell,Mohammad Saifuddin,HM Nicholls,0,0,0,na,na,na,na,na,na,na,na,na
1st innings,12.5,DAJ Bracewell,Mohammad Saifuddin,HM Nicholls,0,0,0,na,na,na,na,na,na,na,na,na
1st innings,12.6,DAJ Bracewell,Mohammad Saifuddin,HM Nicholls,0,0,0,na,na,na,na,na,caught,Mushfiqur Rahim,na,HM Nicholls
1st innings,13.1,DAJ Bracewell,Shakib Al Hasan,AY Patel,0,0,0,na,na,na,na,na,na,na,na,na
1st innings,13.2,DAJ Bracewell,Shakib Al Hasan,AY Patel,0,0,0,na,na,na,na,na,na,na,na,na
1st innings,13.3,DAJ Bracewell,Shakib Al Hasan,AY Patel,0,0,0,na,na,na,na,na,na,na,na,na
1st innings,13.4,DAJ Bracewell,Shakib Al Hasan,AY Patel,2,2,0,na,na,na,na,na,na,na,na,na
1st innings,13.5,DAJ Bracewell,Shakib Al Hasan,AY Patel,1,1,0,na,na,na,na,na,na,na,na,na
1st innings,13.6,AY Patel,Shakib Al Hasan,DAJ Bracewell,0,0,0,na,na,na,na,na,na,na,na,na
1st innings,14.1,DAJ Bracewell,Mustafizur Rahman,AY Patel,0,0,0,na,na,na,na,na,bowled,na,na,AY Patel
1st innings,14.2,DAJ Bracewell,Mustafizur Rahman,BM Tickner,0,0,0,na,na,na,na,na,na,na,na,na
1st innings,14.3,DAJ Bracewell,Mustafizur Rahman,BM Tickner,1,1,0,na,na,na,na,na,na,na,na,na
1st innings,14.4,BM Tickner,Mustafizur Rahman,DAJ Bracewell,2,2,0,na,na,na,na,na,na,na,na,na
1st innings,14.5,BM Tickner,Mustafizur Rahman,DAJ Bracewell,0,0,0,na,na,na,na,na,caught,Mahedi Hasan,na,DAJ Bracewell
1st innings,14.6,JA Duffy,Mustafizur Rahman,BM Tickner,0,0,0,na,na,na,na,na,na,na,na,na
1st innings,15.1,BM Tickner,Shakib Al Hasan,JA Duffy,1,1,0,na,na,na,na,na,na,na,na,na
1st innings,15.2,JA Duffy,Shakib Al Hasan,BM Tickner,0,0,0,na,na,na,na,na,na,na,na,na
1st innings,15.3,JA Duffy,Shakib Al Hasan,BM Tickner,0,0,0,na,na,na,na,na,na,na,na,na
1st innings,15.4,JA Duffy,Shakib Al Hasan,BM Tickner,1,1,0,na,na,na,na,na,na,na,na,na
1st innings,15.5,BM Tickner,Shakib Al Hasan,JA Duffy,0,0,0,na,na,na,na,na,na,na,na,na
1st innings,15.6,BM Tickner,Shakib Al Hasan,JA Duffy,1,1,0,na,na,na,na,na,na,na,na,na
1st innings,16.1,BM Tickner,Mustafizur Rahman,JA Duffy,1,1,0,na,na,na,na,na,na,na,na,na
1st innings,16.2,JA Duffy,Mustafizur Rahman,BM Tickner,0,0,0,na,na,na,na,na,na,na,na,na
1st innings,16.3,JA Duffy,Mustafizur Rahman,BM Tickner,0,0,0,na,na,na,na,na,na,na,na,na
1st innings,16.4,JA Duffy,Mustafizur Rahman,BM Tickner,1,1,0,na,na,na,na,na,na,na,na,na
1st innings,16.5,BM Tickner,Mustafizur Rahman,JA Duffy,0,0,0,na,na,na,na,na,caught,Mohammad Saifuddin,na,JA Duffy
2nd innings,0.1,Liton Das,AY Patel,Mohammad Naim,0,0,0,na,na,na,na,na,na,na,na,na
2nd innings,0.2,Liton Das,AY Patel,Mohammad Naim,0,0,0,na,na,na,na,na,na,na,na,na
2nd innings,0.3,Liton Das,AY Patel,Mohammad Naim,0,0,0,na,na,na,na,na,na,na,na,na
2nd innings,0.4,Liton Das,AY Patel,Mohammad Naim,0,0,0,na,na,na,na,na,na,na,na,na
2nd innings,0.5,Liton Das,AY Patel,Mohammad Naim,1,1,0,na,na,na,na,na,na,na,na,na
2nd innings,0.6,Mohammad Naim,AY Patel,Liton Das,0,0,0,na,na,na,na,na,na,na,na,na
2nd innings,1.1,Liton Das,CE McConchie,Mohammad Naim,0,0,0,na,na,na,na,na,caught,HM Nicholls,na,Mohammad Naim
2nd innings,1.2,Liton Das,CE McConchie,Shakib Al Hasan,0,0,0,na,na,na,na,na,na,na,na,na
2nd innings,1.3,Liton Das,CE McConchie,Shakib Al Hasan,2,2,0,na,na,na,na,na,na,na,na,na
2nd innings,1.4,Liton Das,CE McConchie,Shakib Al Hasan,0,0,0,na,na,na,na,na,na,na,na,na
2nd innings,1.5,Liton Das,CE McConchie,Shakib Al Hasan,0,0,0,na,na,na,na,na,na,na,na,na
2nd innings,1.6,Liton Das,CE McConchie,Shakib Al Hasan,1,1,0,na,na,na,na,na,na,na,na,na
2nd innings,2.1,Liton Das,AY Patel,Shakib Al Hasan,1,1,0,na,na,na,na,na,na,na,na,na
2nd innings,2.2,Shakib Al Hasan,AY Patel,Liton Das,1,1,0,na,na,na,na,na,na,na,na,na
2nd innings,2.3,Liton Das,AY Patel,Shakib Al Hasan,0,0,0,na,na,na,na,na,na,na,na,na
2nd innings,2.4,Liton Das,AY Patel,Shakib Al Hasan,1,1,0,na,na,na,na,na,na,na,na,na
2nd innings,2.5,Shakib Al Hasan,AY Patel,Liton Das,0,0,0,na,na,na,na,na,stumped,TWM Latham,na,Liton Das
2nd innings,2.6,Shakib Al Hasan,AY Patel,Mushfiqur Rahim,0,0,0,na,na,na,na,na,na,na,na,na
2nd innings,3.1,Mushfiqur Rahim,CE McConchie,Shakib Al Hasan,0,0,0,na,na,na,na,na,na,na,na,na
2nd innings,3.2,Mushfiqur Rahim,CE McConchie,Shakib Al Hasan,0,0,0,na,na,na,na,na,na,na,na,na
2nd innings,3.3,Mushfiqur Rahim,CE McConchie,Shakib Al Hasan,3,3,0,na,na,na,na,na,na,na,na,na
2nd innings,3.4,Shakib Al Hasan,CE McConchie,Mushfiqur Rahim,1,1,0,na,na,na,na,na,na,na,na,na
2nd innings,3.5,Mushfiqur Rahim,CE McConchie,Shakib Al Hasan,0,0,0,na,na,na,na,na,na,na,na,na
2nd innings,3.6,Mushfiqur Rahim,CE McConchie,Shakib Al Hasan,0,0,0,na,na,na,na,na,na,na,na,na
2nd innings,4.1,Shakib Al Hasan,AY Patel,Mushfiqur Rahim,0,0,0,na,na,na,na,na,na,na,na,na
2nd innings,4.2,Shakib Al Hasan,AY Patel,Mushfiqur Rahim,0,0,0,na,na,na,na,na,na,na,na,na
2nd innings,4.3,Shakib Al Hasan,AY Patel,Mushfiqur Rahim,0,0,0,na,na,na,na,na,na,na,na,na
2nd innings,4.4,Shakib Al Hasan,AY Patel,Mushfiqur Rahim,0,0,0,na,na,na,na,na,na,na,na,na
2nd innings,4.5,Shakib Al Hasan,AY Patel,Mushfiqur Rahim,0,0,0,na,na,na,na,na,na,na,na,na
2nd innings,4.6,Shakib Al Hasan,AY Patel,Mushfiqur Rahim,1,1,0,na,na,na,na,na,na,na,na,na
2nd innings,5.1,Shakib Al Hasan,R Ravindra,Mushfiqur Rahim,1,0,1,na,na,1,na,na,na,na,na,na
2nd innings,5.2,Shakib Al Hasan,R Ravindra,Mushfiqur Rahim,1,1,0,na,na,na,na,na,na,na,na,na
2nd innings,5.3,Mushfiqur Rahim,R Ravindra,Shakib Al Hasan,4,4,0,na,na,na,na,na,na,na,na,na
2nd innings,5.4,Mushfiqur Rahim,R Ravindra,Shakib Al Hasan,2,2,0,na,na,na,na,na,na,na,na,na
2nd innings,5.5,Mushfiqur Rahim,R Ravindra,Shakib Al Hasan,0,0,0,na,na,na,na,na,na,na,na,na
2nd innings,5.6,Mushfiqur Rahim,R Ravindra,Shakib Al Hasan,1,1,0,na,na,na,na,na,na,na,na,na
2nd innings,5.7,Shakib Al Hasan,R Ravindra,Mushfiqur Rahim,1,1,0,na,na,na,na,na,na,na,na,na
2nd innings,6.1,Shakib Al Hasan,JA Duffy,Mushfiqur Rahim,0,0,0,na,na,na,na,na,na,na,na,na
2nd innings,6.2,Shakib Al Hasan,JA Duffy,Mushfiqur Rahim,1,1,0,na,na,na,na,na,na,na,na,na
2nd innings,6.3,Mushfiqur Rahim,JA Duffy,Shakib Al Hasan,0,0,0,na,na,na,na,na,na,na,na,na
2nd innings,6.4,Mushfiqur Rahim,JA Duffy,Shakib Al Hasan,0,0,0,na,na,na,na,na,na,na,na,na
2nd innings,6.5,Mushfiqur Rahim,JA Duffy,Shakib Al Hasan,1,0,1,na,na,1,na,na,na,na,na,na
2nd innings,6.6,Mushfiqur Rahim,JA Duffy,Shakib Al Hasan,1,1,0,na,na,na,na,na,na,na,na,na
2nd innings,6.7,Shakib Al Hasan,JA Duffy,Mushfiqur Rahim,0,0,0,na,na,na,na,na,na,na,na,na
2nd innings,7.1,Mushfiqur Rahim,R Ravindra,Shakib Al Hasan,0,0,0,na,na,na,na,na,na,na,na,na
2nd innings,7.2,Mushfiqur Rahim,R Ravindra,Shakib Al Hasan,0,0,0,na,na,na,na,na,na,na,na,na
2nd innings,7.3,Mushfiqur Rahim,R Ravindra,Shakib Al Hasan,0,0,0,na,na,na,na,na,na,na,na,na
2nd innings,7.4,Mushfiqur Rahim,R Ravindra,Shakib Al Hasan,2,2,0,na,na,na,na,na,na,na,na,na
2nd innings,7.5,Mushfiqur Rahim,R Ravindra,Shakib Al Hasan,1,1,0,na,na,na,na,na,na,na,na,na
2nd innings,7.6,Shakib Al Hasan,R Ravindra,Mushfiqur Rahim,0,0,0,na,na,na,na,na,na,na,na,na
2nd innings,8.1,Mushfiqur Rahim,CE McConchie,Shakib Al Hasan,0,0,0,na,na,na,na,na,na,na,na,na
2nd innings,8.2,Mushfiqur Rahim,CE McConchie,Shakib Al Hasan,1,1,0,na,na,na,na,na,na,na,na,na
2nd innings,8.3,Shakib Al Hasan,CE McConchie,Mushfiqur Rahim,2,2,0,na,na,na,na,na,na,na,na,na
2nd innings,8.4,Shakib Al Hasan,CE McConchie,Mushfiqur Rahim,1,1,0,na,na,na,na,na,na,na,na,na
2nd innings,8.5,Mushfiqur Rahim,CE McConchie,Shakib Al Hasan,1,1,0,na,na,na,na,na,na,na,na,na
2nd innings,8.6,Shakib Al Hasan,CE McConchie,Mushfiqur Rahim,0,0,0,na,na,na,na,na,na,na,na,na
2nd innings,9.1,Mushfiqur Rahim,R Ravindra,Shakib Al Hasan,4,4,0,na,na,na,na,na,na,na,na,na
2nd innings,9.2,Mushfiqur Rahim,R Ravindra,Shakib Al Hasan,0,0,0,na,na,na,na,na,na,na,na,na
2nd innings,9.3,Mushfiqur Rahim,R Ravindra,Shakib Al Hasan,0,0,0,na,na,na,na,na,na,na,na,na
2nd innings,9.4,Mushfiqur Rahim,R Ravindra,Shakib Al Hasan,0,0,0,na,na,na,na,na,na,na,na,na
2nd innings,9.5,Mushfiqur Rahim,R Ravindra,Shakib Al Hasan,0,0,0,na,na,na,na,na,caught,TWM Latham,na,Shakib Al Hasan
2nd innings,9.6,Mushfiqur Rahim,R Ravindra,Mahmudullah,0,0,0,na,na,na,na,na,na,na,na,na
2nd innings,10.1,Mahmudullah,AY Patel,Mushfiqur Rahim,1,1,0,na,na,na,na,na,na,na,na,na
2nd innings,10.2,Mushfiqur Rahim,AY Patel,Mahmudullah,0,0,0,na,na,na,na,na,na,na,na,na
2nd innings,10.3,Mushfiqur Rahim,AY Patel,Mahmudullah,1,1,0,na,na,na,na,na,na,na,na,na
2nd innings,10.4,Mahmudullah,AY Patel,Mushfiqur Rahim,0,0,0,na,na,na,na,na,na,na,na,na
2nd innings,10.5,Mahmudullah,AY Patel,Mushfiqur Rahim,0,0,0,na,na,na,na,na,na,na,na,na
2nd innings,10.6,Mahmudullah,AY Patel,Mushfiqur Rahim,0,0,0,na,na,na,na,na,na,na,na,na
2nd innings,11.1,Mushfiqur Rahim,R Ravindra,Mahmudullah,0,0,0,na,na,na,na,na,na,na,na,na
2nd innings,11.2,Mushfiqur Rahim,R Ravindra,Mahmudullah,0,0,0,na,na,na,na,na,na,na,na,na
2nd innings,11.3,Mushfiqur Rahim,R Ravindra,Mahmudullah,4,4,0,na,na,na,na,na,na,na,na,na
2nd innings,11.4,Mushfiqur Rahim,R Ravindra,Mahmudullah,0,0,0,na,na,na,na,na,na,na,na,na
2nd innings,11.5,Mushfiqur Rahim,R Ravindra,Mahmudullah,0,0,0,na,na,na,na,na,na,na,na,na
2nd innings,11.6,Mushfiqur Rahim,R Ravindra,Mahmudullah,0,0,0,na,na,na,na,na,na,na,na,na
2nd innings,12.1,Mahmudullah,DAJ Bracewell,Mushfiqur Rahim,0,0,0,na,na,na,na,na,na,na,na,na
2nd innings,12.2,Mahmudullah,DAJ Bracewell,Mushfiqur Rahim,1,1,0,na,na,na,na,na,na,na,na,na
2nd innings,12.3,Mushfiqur Rahim,DAJ Bracewell,Mahmudullah,0,0,0,na,na,na,na,na,na,na,na,na
2nd innings,12.4,Mushfiqur Rahim,DAJ Bracewell,Mahmudullah,1,0,1,na,na,1,na,na,na,na,na,na
2nd innings,12.5,Mushfiqur Rahim,DAJ Bracewell,Mahmudullah,0,0,0,na,na,na,na,na,na,na,na,na
2nd innings,12.6,Mushfiqur Rahim,DAJ Bracewell,Mahmudullah,0,0,0,na,na,na,na,na,na,na,na,na
2nd innings,12.7,Mushfiqur Rahim,DAJ Bracewell,Mahmudullah,1,1,0,na,na,na,na,na,na,na,na,na
2nd innings,13.1,Mushfiqur Rahim,BM Tickner,Mahmudullah,1,1,0,na,na,na,na,na,na,na,na,na
2nd innings,13.2,Mahmudullah,BM Tickner,Mushfiqur Rahim,1,0,1,na,na,1,na,na,na,na,na,na
2nd innings,13.3,Mahmudullah,BM Tickner,Mushfiqur Rahim,1,1,0,na,na,na,na,na,na,na,na,na
2nd innings,13.4,Mushfiqur Rahim,BM Tickner,Mahmudullah,4,4,0,na,na,na,na,na,na,na,na,na
2nd innings,13.5,Mushfiqur Rahim,BM Tickner,Mahmudullah,2,2,0,na,na,na,na,na,na,na,na,na
2nd innings,13.6,Mushfiqur Rahim,BM Tickner,Mahmudullah,0,0,0,na,na,na,na,na,na,na,na,na
2nd innings,13.7,Mushfiqur Rahim,BM Tickner,Mahmudullah,0,0,0,na,na,na,na,na,na,na,na,na
2nd innings,14.1,Mahmudullah,CE McConchie,Mushfiqur Rahim,1,1,0,na,na,na,na,na,na,na,na,na
2nd innings,14.2,Mushfiqur Rahim,CE McConchie,Mahmudullah,1,0,1,na,na,1,na,na,na,na,na,na
2nd innings,14.3,Mushfiqur Rahim,CE McConchie,Mahmudullah,0,0,0,na,na,na,na,na,na,na,na,na
2nd innings,14.4,Mushfiqur Rahim,CE McConchie,Mahmudullah,0,0,0,na,na,na,na,na,na,na,na,na
2nd innings,14.5,Mushfiqur Rahim,CE McConchie,Mahmudullah,0,0,0,na,na,na,na,na,na,na,na,na
2nd innings,14.6,Mushfiqur Rahim,CE McConchie,Mahmudullah,1,1,0,na,na,na,na,na,na,na,na,na
2nd innings,14.7,Mahmudullah,CE McConchie,Mushfiqur Rahim,4,4,0,na,na,na,na,na,na,na,na,na
