inngs,deliveries,non_striker,bowler,batsman,totalruns,batsman_runs,extra_runs,legbyes,byes,wides,noballs,penalty,wicket_kind,fielder1,fielder2,player_out
1st innings,0.1,KJ Coetzer,TL Chatara,HG Munsey,1,1,0,na,na,na,na,na,na,na,na,na
1st innings,0.2,HG Munsey,TL Chatara,KJ Coetzer,0,0,0,na,na,na,na,na,na,na,na,na
1st innings,0.3,HG Munsey,TL Chatara,KJ Coetzer,1,1,0,na,na,na,na,na,na,na,na,na
1st innings,0.4,KJ Coetzer,TL Chatara,HG Munsey,0,0,0,na,na,na,na,na,na,na,na,na
1st innings,0.5,KJ Coetzer,TL Chatara,HG Munsey,0,0,0,na,na,na,na,na,na,na,na,na
1st innings,0.6,KJ Coetzer,TL Chatara,HG Munsey,0,0,0,na,na,na,na,na,na,na,na,na
1st innings,1.1,HG Munsey,R Ngarava,KJ Coetzer,0,0,0,na,na,na,na,na,na,na,na,na
1st innings,1.2,HG Munsey,R Ngarava,KJ Coetzer,1,0,1,1,na,na,na,na,na,na,na,na
1st innings,1.3,KJ Coetzer,R Ngarava,HG Munsey,1,0,1,1,na,na,na,na,na,na,na,na
1st innings,1.4,HG Munsey,R Ngarava,KJ Coetzer,0,0,0,na,na,na,na,na,na,na,na,na
1st innings,1.5,HG Munsey,R Ngarava,KJ Coetzer,0,0,0,na,na,na,na,na,na,na,na,na
1st innings,1.6,HG Munsey,R Ngarava,KJ Coetzer,0,0,0,na,na,na,na,na,na,na,na,na
1st innings,2.1,KJ Coetzer,B Muzarabani,HG Munsey,0,0,0,na,na,na,na,na,na,na,na,na
1st innings,2.2,KJ Coetzer,B Muzarabani,HG Munsey,1,1,0,na,na,na,na,na,na,na,na,na
1st innings,2.3,HG Munsey,B Muzarabani,KJ Coetzer,0,0,0,na,na,na,na,na,na,na,na,na
1st innings,2.4,HG Munsey,B Muzarabani,KJ Coetzer,1,1,0,na,na,na,na,na,na,na,na,na
1st innings,2.5,KJ Coetzer,B Muzarabani,HG Munsey,4,4,0,na,na,na,na,na,na,na,na,na
1st innings,2.6,KJ Coetzer,B Muzarabani,HG Munsey,4,4,0,na,na,na,na,na,na,na,na,na
1st innings,3.1,HG Munsey,R Ngarava,KJ Coetzer,0,0,0,na,na,na,na,na,na,na,na,na
1st innings,3.2,HG Munsey,R Ngarava,KJ Coetzer,4,4,0,na,na,na,na,na,na,na,na,na
1st innings,3.3,HG Munsey,R Ngarava,KJ Coetzer,0,0,0,na,na,na,na,na,na,na,na,na
1st innings,3.4,HG Munsey,R Ngarava,KJ Coetzer,0,0,0,na,na,na,na,na,na,na,na,na
1st innings,3.5,HG Munsey,R Ngarava,KJ Coetzer,0,0,0,na,na,na,na,na,caught,RW Chakabva,na,KJ Coetzer
1st innings,3.6,OJ Hairs,R Ngarava,HG Munsey,0,0,0,na,na,na,na,na,na,na,na,na
1st innings,4.1,HG Munsey,TL Chatara,OJ Hairs,0,0,0,na,na,na,na,na,na,na,na,na
1st innings,4.2,HG Munsey,TL Chatara,OJ Hairs,1,1,0,na,na,na,na,na,na,na,na,na
1st innings,4.3,OJ Hairs,TL Chatara,HG Munsey,0,0,0,na,na,na,na,na,na,na,na,na
1st innings,4.4,OJ Hairs,TL Chatara,HG Munsey,4,4,0,na,na,na,na,na,na,na,na,na
1st innings,4.5,OJ Hairs,TL Chatara,HG Munsey,4,4,0,na,na,na,na,na,na,na,na,na
1st innings,4.6,OJ Hairs,TL Chatara,HG Munsey,1,1,0,na,na,na,na,na,na,na,na,na
1st innings,5.1,OJ Hairs,LM Jongwe,HG Munsey,1,0,1,na,na,1,na,na,na,na,na,na
1st innings,5.2,OJ Hairs,LM Jongwe,HG Munsey,4,4,0,na,na,na,na,na,na,na,na,na
1st innings,5.3,OJ Hairs,LM Jongwe,HG Munsey,4,4,0,na,na,na,na,na,na,na,na,na
1st innings,5.4,OJ Hairs,LM Jongwe,HG Munsey,0,0,0,na,na,na,na,na,na,na,na,na
1st innings,5.5,OJ Hairs,LM Jongwe,HG Munsey,1,0,1,na,na,1,na,na,na,na,na,na
1st innings,5.6,OJ Hairs,LM Jongwe,HG Munsey,6,6,0,na,na,na,na,na,na,na,na,na
1st innings,5.7,OJ Hairs,LM Jongwe,HG Munsey,0,0,0,na,na,na,na,na,na,na,na,na
1st innings,5.8,OJ Hairs,LM Jongwe,HG Munsey,6,6,0,na,na,na,na,na,na,na,na,na
1st innings,6.1,HG Munsey,B Muzarabani,OJ Hairs,1,1,0,na,na,na,na,na,na,na,na,na
1st innings,6.2,OJ Hairs,B Muzarabani,HG Munsey,0,0,0,na,na,na,na,na,na,na,na,na
1st innings,6.3,OJ Hairs,B Muzarabani,HG Munsey,0,0,0,na,na,na,na,na,na,na,na,na
1st innings,6.4,OJ Hairs,B Muzarabani,HG Munsey,1,1,0,na,na,na,na,na,na,na,na,na
1st innings,6.5,HG Munsey,B Muzarabani,OJ Hairs,2,2,0,na,na,na,na,na,na,na,na,na
1st innings,6.6,HG Munsey,B Muzarabani,OJ Hairs,4,4,0,na,na,na,na,na,na,na,na,na
1st innings,7.1,OJ Hairs,W Madhevere,HG Munsey,0,0,0,na,na,na,na,na,na,na,na,na
1st innings,7.2,OJ Hairs,W Madhevere,HG Munsey,0,0,0,na,na,na,na,na,na,na,na,na
1st innings,7.3,OJ Hairs,W Madhevere,HG Munsey,0,0,0,na,na,na,na,na,na,na,na,na
1st innings,7.4,OJ Hairs,W Madhevere,HG Munsey,4,4,0,na,na,na,na,na,na,na,na,na
1st innings,7.5,OJ Hairs,W Madhevere,HG Munsey,6,6,0,na,na,na,na,na,na,na,na,na
1st innings,7.6,OJ Hairs,W Madhevere,HG Munsey,4,4,0,na,na,na,na,na,na,na,na,na
1st innings,8.1,HG Munsey,LM Jongwe,OJ Hairs,0,0,0,na,na,na,na,na,caught,RW Chakabva,na,OJ Hairs
1st innings,8.2,HG Munsey,LM Jongwe,RD Berrington,4,4,0,na,na,na,na,na,na,na,na,na
1st innings,8.3,HG Munsey,LM Jongwe,RD Berrington,0,0,0,na,na,na,na,na,na,na,na,na
1st innings,8.4,HG Munsey,LM Jongwe,RD Berrington,1,1,0,na,na,na,na,na,na,na,na,na
1st innings,8.5,RD Berrington,LM Jongwe,HG Munsey,0,0,0,na,na,na,na,na,caught,CR Ervine,na,HG Munsey
1st innings,8.6,CS MacLeod,LM Jongwe,RD Berrington,0,0,0,na,na,na,na,na,na,na,na,na
1st innings,9.1,RD Berrington,WP Masakadza,CS MacLeod,1,1,0,na,na,na,na,na,na,na,na,na
1st innings,9.2,CS MacLeod,WP Masakadza,RD Berrington,1,1,0,na,na,na,na,na,na,na,na,na
1st innings,9.3,RD Berrington,WP Masakadza,CS MacLeod,0,0,0,na,na,na,na,na,na,na,na,na
1st innings,9.4,RD Berrington,WP Masakadza,CS MacLeod,0,0,0,na,na,na,na,na,na,na,na,na
1st innings,9.5,RD Berrington,WP Masakadza,CS MacLeod,1,1,0,na,na,na,na,na,na,na,na,na
1st innings,9.6,CS MacLeod,WP Masakadza,RD Berrington,1,1,0,na,na,na,na,na,na,na,na,na
1st innings,10.1,CS MacLeod,SC Williams,RD Berrington,1,1,0,na,na,na,na,na,na,na,na,na
1st innings,10.2,RD Berrington,SC Williams,CS MacLeod,0,0,0,na,na,na,na,na,na,na,na,na
1st innings,10.3,RD Berrington,SC Williams,CS MacLeod,1,1,0,na,na,na,na,na,na,na,na,na
1st innings,10.4,CS MacLeod,SC Williams,RD Berrington,1,1,0,na,na,na,na,na,na,na,na,na
1st innings,10.5,RD Berrington,SC Williams,CS MacLeod,0,0,0,na,na,na,na,na,na,na,na,na
1st innings,10.6,RD Berrington,SC Williams,CS MacLeod,0,0,0,na,na,na,na,na,na,na,na,na
1st innings,11.1,CS MacLeod,B Muzarabani,RD Berrington,0,0,0,na,na,na,na,na,na,na,na,na
1st innings,11.2,CS MacLeod,B Muzarabani,RD Berrington,2,2,0,na,na,na,na,na,na,na,na,na
1st innings,11.3,CS MacLeod,B Muzarabani,RD Berrington,1,1,0,na,na,na,na,na,na,na,na,na
1st innings,11.4,RD Berrington,B Muzarabani,CS MacLeod,2,2,0,na,na,na,na,na,na,na,na,na
1st innings,11.5,RD Berrington,B Muzarabani,CS MacLeod,1,1,0,na,na,na,na,na,na,na,na,na
1st innings,11.6,CS MacLeod,B Muzarabani,RD Berrington,1,0,1,na,na,na,1,na,na,na,na,na
1st innings,11.7,CS MacLeod,B Muzarabani,RD Berrington,0,0,0,na,na,na,na,na,na,na,na,na
1st innings,12.1,RD Berrington,SC Williams,CS MacLeod,1,1,0,na,na,na,na,na,na,na,na,na
1st innings,12.2,CS MacLeod,SC Williams,RD Berrington,1,1,0,na,na,na,na,na,na,na,na,na
1st innings,12.3,RD Berrington,SC Williams,CS MacLeod,1,1,0,na,na,na,na,na,na,na,na,na
1st innings,12.4,CS MacLeod,SC Williams,RD Berrington,1,1,0,na,na,na,na,na,na,na,na,na
1st innings,12.5,RD Berrington,SC Williams,CS MacLeod,1,1,0,na,na,na,na,na,na,na,na,na
1st innings,12.6,CS MacLeod,SC Williams,RD Berrington,0,0,0,na,na,na,na,na,na,na,na,na
1st innings,13.1,RD Berrington,WP Masakadza,CS MacLeod,3,3,0,na,na,na,na,na,na,na,na,na
1st innings,13.2,CS MacLeod,WP Masakadza,RD Berrington,0,0,0,na,na,na,na,na,na,na,na,na
1st innings,13.3,CS MacLeod,WP Masakadza,RD Berrington,0,0,0,na,na,na,na,na,na,na,na,na
1st innings,13.4,CS MacLeod,WP Masakadza,RD Berrington,2,2,0,na,na,na,na,na,na,na,na,na
1st innings,13.5,CS MacLeod,WP Masakadza,RD Berrington,4,4,0,na,na,na,na,na,na,na,na,na
1st innings,13.6,CS MacLeod,WP Masakadza,RD Berrington,0,0,0,na,na,na,na,na,na,na,na,na
1st innings,14.1,RD Berrington,TL Chatara,CS MacLeod,1,1,0,na,na,na,na,na,na,na,na,na
1st innings,14.2,CS MacLeod,TL Chatara,RD Berrington,1,1,0,na,na,na,na,na,na,na,na,na
1st innings,14.3,RD Berrington,TL Chatara,CS MacLeod,2,2,0,na,na,na,na,na,na,na,na,na
1st innings,14.4,RD Berrington,TL Chatara,CS MacLeod,1,1,0,na,na,na,na,na,na,na,na,na
1st innings,14.5,CS MacLeod,TL Chatara,RD Berrington,1,1,0,na,na,na,na,na,na,na,na,na
1st innings,14.6,RD Berrington,TL Chatara,CS MacLeod,4,4,0,na,na,na,na,na,na,na,na,na
1st innings,15.1,CS MacLeod,R Ngarava,RD Berrington,1,1,0,na,na,na,na,na,na,na,na,na
1st innings,15.2,RD Berrington,R Ngarava,CS MacLeod,4,4,0,na,na,na,na,na,na,na,na,na
1st innings,15.3,RD Berrington,R Ngarava,CS MacLeod,1,1,0,na,na,na,na,na,na,na,na,na
1st innings,15.4,CS MacLeod,R Ngarava,RD Berrington,0,0,0,na,na,na,na,na,na,na,na,na
1st innings,15.5,CS MacLeod,R Ngarava,RD Berrington,1,1,0,na,na,na,na,na,na,na,na,na
1st innings,15.6,RD Berrington,R Ngarava,CS MacLeod,0,0,0,na,na,na,na,na,na,na,na,na
1st innings,16.1,CS MacLeod,LM Jongwe,RD Berrington,0,0,0,na,na,na,na,na,na,na,na,na
1st innings,16.2,CS MacLeod,LM Jongwe,RD Berrington,1,1,0,na,na,na,na,na,na,na,na,na
1st innings,16.3,RD Berrington,LM Jongwe,CS MacLeod,0,0,0,na,na,na,na,na,na,na,na,na
1st innings,16.4,RD Berrington,LM Jongwe,CS MacLeod,1,1,0,na,na,na,na,na,na,na,na,na
1st innings,16.5,CS MacLeod,LM Jongwe,RD Berrington,2,2,0,na,na,na,na,na,na,na,na,na
1st innings,16.6,CS MacLeod,LM Jongwe,RD Berrington,1,1,0,na,na,na,na,na,na,na,na,na
1st innings,17.1,CS MacLeod,B Muzarabani,RD Berrington,0,0,0,na,na,na,na,na,na,na,na,na
1st innings,17.2,CS MacLeod,B Muzarabani,RD Berrington,6,6,0,na,na,na,na,na,na,na,na,na
1st innings,17.3,CS MacLeod,B Muzarabani,RD Berrington,2,2,0,na,na,na,na,na,na,na,na,na
1st innings,17.4,CS MacLeod,B Muzarabani,RD Berrington,1,1,0,na,na,na,na,na,na,na,na,na
1st innings,17.5,RD Berrington,B Muzarabani,CS MacLeod,0,0,0,na,na,na,na,na,na,na,na,na
1st innings,17.6,RD Berrington,B Muzarabani,CS MacLeod,2,2,0,na,na,na,na,na,na,na,na,na
1st innings,18.1,CS MacLeod,TL Chatara,RD Berrington,0,0,0,na,na,na,na,na,na,na,na,na
1st innings,18.2,CS MacLeod,TL Chatara,RD Berrington,4,4,0,na,na,na,na,na,na,na,na,na
1st innings,18.3,CS MacLeod,TL Chatara,RD Berrington,1,1,0,na,na,na,na,na,na,na,na,na
1st innings,18.4,RD Berrington,TL Chatara,CS MacLeod,1,1,0,na,na,na,na,na,na,na,na,na
1st innings,18.5,CS MacLeod,TL Chatara,RD Berrington,2,2,0,na,na,na,na,na,na,na,na,na
1st innings,18.6,CS MacLeod,TL Chatara,RD Berrington,1,0,1,na,na,1,na,na,na,na,na,na
1st innings,18.7,CS MacLeod,TL Chatara,RD Berrington,0,0,0,na,na,na,na,na,caught,SC Williams,na,RD Berrington
1st innings,19.1,MA Leask,R Ngarava,CS MacLeod,6,6,0,na,na,na,na,na,na,na,na,na
1st innings,19.2,MA Leask,R Ngarava,CS MacLeod,5,4,1,na,na,na,1,na,na,na,na,na
1st innings,19.3,MA Leask,R Ngarava,CS MacLeod,1,0,1,1,na,na,na,na,na,na,na,na
1st innings,19.4,CS MacLeod,R Ngarava,MA Leask,6,6,0,na,na,na,na,na,na,na,na,na
1st innings,19.5,CS MacLeod,R Ngarava,MA Leask,7,6,1,na,na,na,1,na,na,na,na,na
1st innings,19.6,CS MacLeod,R Ngarava,MA Leask,2,2,0,na,na,na,na,na,na,na,na,na
1st innings,19.7,CS MacLeod,R Ngarava,MA Leask,2,2,0,na,na,na,na,na,na,na,na,na
1st innings,19.8,CS MacLeod,R Ngarava,MA Leask,1,1,0,na,na,na,na,na,na,na,na,na
2nd innings,0.1,CR Ervine,SM Sharif,RW Chakabva,0,0,0,na,na,na,na,na,na,na,na,na
2nd innings,0.2,CR Ervine,SM Sharif,RW Chakabva,0,0,0,na,na,na,na,na,na,na,na,na
2nd innings,0.3,CR Ervine,SM Sharif,RW Chakabva,0,0,0,na,na,na,na,na,na,na,na,na
2nd innings,0.4,CR Ervine,SM Sharif,RW Chakabva,1,1,0,na,na,na,na,na,na,na,na,na
2nd innings,0.5,RW Chakabva,SM Sharif,CR Ervine,0,0,0,na,na,na,na,na,na,na,na,na
2nd innings,0.6,RW Chakabva,SM Sharif,CR Ervine,2,2,0,na,na,na,na,na,na,na,na,na
2nd innings,1.1,CR Ervine,AC Evans,RW Chakabva,5,0,5,na,na,5,na,na,na,na,na,na
2nd innings,1.2,CR Ervine,AC Evans,RW Chakabva,1,0,1,1,na,na,na,na,na,na,na,na
2nd innings,1.3,RW Chakabva,AC Evans,CR Ervine,0,0,0,na,na,na,na,na,na,na,na,na
2nd innings,1.4,RW Chakabva,AC Evans,CR Ervine,0,0,0,na,na,na,na,na,na,na,na,na
2nd innings,1.5,RW Chakabva,AC Evans,CR Ervine,4,4,0,na,na,na,na,na,na,na,na,na
2nd innings,1.6,RW Chakabva,AC Evans,CR Ervine,0,0,0,na,na,na,na,na,na,na,na,na
2nd innings,1.7,RW Chakabva,AC Evans,CR Ervine,1,1,0,na,na,na,na,na,na,na,na,na
2nd innings,2.1,RW Chakabva,CB Sole,CR Ervine,1,1,0,na,na,na,na,na,na,na,na,na
2nd innings,2.2,CR Ervine,CB Sole,RW Chakabva,6,6,0,na,na,na,na,na,na,na,na,na
2nd innings,2.3,CR Ervine,CB Sole,RW Chakabva,1,0,1,na,na,1,na,na,na,na,na,na
2nd innings,2.4,CR Ervine,CB Sole,RW Chakabva,2,1,1,na,na,na,1,na,na,na,na,na
2nd innings,2.5,RW Chakabva,CB Sole,CR Ervine,1,0,1,na,1,na,na,na,na,na,na,na
2nd innings,2.6,CR Ervine,CB Sole,RW Chakabva,0,0,0,na,na,na,na,na,na,na,na,na
2nd innings,2.7,CR Ervine,CB Sole,RW Chakabva,0,0,0,na,na,na,na,na,na,na,na,na
2nd innings,2.8,CR Ervine,CB Sole,RW Chakabva,1,1,0,na,na,na,na,na,na,na,na,na
2nd innings,3.1,CR Ervine,AC Evans,RW Chakabva,0,0,0,na,na,na,na,na,na,na,na,na
2nd innings,3.2,CR Ervine,AC Evans,RW Chakabva,1,1,0,na,na,na,na,na,na,na,na,na
2nd innings,3.3,RW Chakabva,AC Evans,CR Ervine,0,0,0,na,na,na,na,na,na,na,na,na
2nd innings,3.4,RW Chakabva,AC Evans,CR Ervine,1,1,0,na,na,na,na,na,na,na,na,na
2nd innings,3.5,CR Ervine,AC Evans,RW Chakabva,0,0,0,na,na,na,na,na,na,na,na,na
2nd innings,3.6,CR Ervine,AC Evans,RW Chakabva,0,0,0,na,na,na,na,na,na,na,na,na
2nd innings,4.1,RW Chakabva,CB Sole,CR Ervine,0,0,0,na,na,na,na,na,na,na,na,na
2nd innings,4.2,RW Chakabva,CB Sole,CR Ervine,4,4,0,na,na,na,na,na,na,na,na,na
2nd innings,4.3,RW Chakabva,CB Sole,CR Ervine,1,0,1,1,na,na,na,na,na,na,na,na
2nd innings,4.4,CR Ervine,CB Sole,RW Chakabva,0,0,0,na,na,na,na,na,na,na,na,na
2nd innings,4.5,CR Ervine,CB Sole,RW Chakabva,1,1,0,na,na,na,na,na,na,na,na,na
2nd innings,4.6,RW Chakabva,CB Sole,CR Ervine,0,0,0,na,na,na,na,na,na,na,na,na
2nd innings,5.1,CR Ervine,SM Sharif,RW Chakabva,1,1,0,na,na,na,na,na,na,na,na,na
2nd innings,5.2,RW Chakabva,SM Sharif,CR Ervine,0,0,0,na,na,na,na,na,na,na,na,na
2nd innings,5.3,RW Chakabva,SM Sharif,CR Ervine,1,1,0,na,na,na,na,na,na,na,na,na
2nd innings,5.4,CR Ervine,SM Sharif,RW Chakabva,6,6,0,na,na,na,na,na,na,na,na,na
2nd innings,5.5,CR Ervine,SM Sharif,RW Chakabva,1,1,0,na,na,na,na,na,na,na,na,na
2nd innings,5.6,RW Chakabva,SM Sharif,CR Ervine,4,4,0,na,na,na,na,na,na,na,na,na
2nd innings,6.1,CR Ervine,MRJ Watt,RW Chakabva,1,1,0,na,na,na,na,na,na,na,na,na
2nd innings,6.2,RW Chakabva,MRJ Watt,CR Ervine,1,1,0,na,na,na,na,na,na,na,na,na
2nd innings,6.3,CR Ervine,MRJ Watt,RW Chakabva,1,1,0,na,na,na,na,na,na,na,na,na
2nd innings,6.4,RW Chakabva,MRJ Watt,CR Ervine,4,4,0,na,na,na,na,na,na,na,na,na
2nd innings,6.5,RW Chakabva,MRJ Watt,CR Ervine,1,1,0,na,na,na,na,na,na,na,na,na
2nd innings,6.6,CR Ervine,MRJ Watt,RW Chakabva,1,1,0,na,na,na,na,na,na,na,na,na
2nd innings,7.1,CR Ervine,MA Leask,RW Chakabva,2,2,0,na,na,na,na,na,na,na,na,na
2nd innings,7.2,CR Ervine,MA Leask,RW Chakabva,1,1,0,na,na,na,na,na,na,na,na,na
2nd innings,7.3,RW Chakabva,MA Leask,CR Ervine,1,1,0,na,na,na,na,na,na,na,na,na
2nd innings,7.4,CR Ervine,MA Leask,RW Chakabva,0,0,0,na,na,na,na,na,na,na,na,na
2nd innings,7.5,CR Ervine,MA Leask,RW Chakabva,0,0,0,na,na,na,na,na,bowled,na,na,RW Chakabva
2nd innings,7.6,CR Ervine,MA Leask,SC Williams,1,0,1,na,na,1,na,na,na,na,na,na
2nd innings,7.7,CR Ervine,MA Leask,SC Williams,0,0,0,na,na,na,na,na,na,na,na,na
2nd innings,8.1,SC Williams,AC Evans,CR Ervine,0,0,0,na,na,na,na,na,bowled,na,na,CR Ervine
2nd innings,8.2,SC Williams,AC Evans,W Madhevere,0,0,0,na,na,na,na,na,na,na,na,na
2nd innings,8.3,SC Williams,AC Evans,W Madhevere,0,0,0,na,na,na,na,na,na,na,na,na
2nd innings,8.4,SC Williams,AC Evans,W Madhevere,1,1,0,na,na,na,na,na,na,na,na,na
2nd innings,8.5,W Madhevere,AC Evans,SC Williams,0,0,0,na,na,na,na,na,na,na,na,na
2nd innings,8.6,W Madhevere,AC Evans,SC Williams,1,1,0,na,na,na,na,na,na,na,na,na
2nd innings,9.1,W Madhevere,MA Leask,SC Williams,0,0,0,na,na,na,na,na,na,na,na,na
2nd innings,9.2,W Madhevere,MA Leask,SC Williams,0,0,0,na,na,na,na,na,bowled,na,na,SC Williams
2nd innings,9.3,W Madhevere,MA Leask,M Shumba,1,1,0,na,na,na,na,na,na,na,na,na
2nd innings,9.4,M Shumba,MA Leask,W Madhevere,0,0,0,na,na,na,na,na,na,na,na,na
2nd innings,9.5,M Shumba,MA Leask,W Madhevere,0,0,0,na,na,na,na,na,na,na,na,na
2nd innings,9.6,M Shumba,MA Leask,W Madhevere,1,1,0,na,na,na,na,na,na,na,na,na
2nd innings,10.1,M Shumba,MRJ Watt,W Madhevere,1,1,0,na,na,na,na,na,na,na,na,na
2nd innings,10.2,W Madhevere,MRJ Watt,M Shumba,1,1,0,na,na,na,na,na,na,na,na,na
2nd innings,10.3,M Shumba,MRJ Watt,W Madhevere,1,1,0,na,na,na,na,na,na,na,na,na
2nd innings,10.4,W Madhevere,MRJ Watt,M Shumba,1,1,0,na,na,na,na,na,na,na,na,na
2nd innings,10.5,M Shumba,MRJ Watt,W Madhevere,1,1,0,na,na,na,na,na,na,na,na,na
2nd innings,10.6,W Madhevere,MRJ Watt,M Shumba,1,1,0,na,na,na,na,na,na,na,na,na
2nd innings,11.1,W Madhevere,CS MacLeod,M Shumba,1,1,0,na,na,na,na,na,na,na,na,na
2nd innings,11.2,M Shumba,CS MacLeod,W Madhevere,1,1,0,na,na,na,na,na,na,na,na,na
2nd innings,11.3,W Madhevere,CS MacLeod,M Shumba,0,0,0,na,na,na,na,na,na,na,na,na
2nd innings,11.4,W Madhevere,CS MacLeod,M Shumba,1,1,0,na,na,na,na,na,na,na,na,na
2nd innings,11.5,M Shumba,CS MacLeod,W Madhevere,0,0,0,na,na,na,na,na,na,na,na,na
2nd innings,11.6,M Shumba,CS MacLeod,W Madhevere,0,0,0,na,na,na,na,na,na,na,na,na
2nd innings,12.1,W Madhevere,MRJ Watt,M Shumba,1,1,0,na,na,na,na,na,na,na,na,na
2nd innings,12.2,M Shumba,MRJ Watt,W Madhevere,2,2,0,na,na,na,na,na,na,na,na,na
2nd innings,12.3,M Shumba,MRJ Watt,W Madhevere,2,2,0,na,na,na,na,na,na,na,na,na
2nd innings,12.4,M Shumba,MRJ Watt,W Madhevere,4,4,0,na,na,na,na,na,na,na,na,na
2nd innings,12.5,M Shumba,MRJ Watt,W Madhevere,1,1,0,na,na,na,na,na,na,na,na,na
2nd innings,12.6,W Madhevere,MRJ Watt,M Shumba,1,1,0,na,na,na,na,na,na,na,na,na
2nd innings,13.1,W Madhevere,MA Leask,M Shumba,2,2,0,na,na,na,na,na,na,na,na,na
2nd innings,13.2,W Madhevere,MA Leask,M Shumba,6,6,0,na,na,na,na,na,na,na,na,na
2nd innings,13.3,W Madhevere,MA Leask,M Shumba,1,1,0,na,na,na,na,na,na,na,na,na
2nd innings,13.4,M Shumba,MA Leask,W Madhevere,0,0,0,na,na,na,na,na,na,na,na,na
2nd innings,13.5,M Shumba,MA Leask,W Madhevere,2,2,0,na,na,na,na,na,na,na,na,na
2nd innings,13.6,M Shumba,MA Leask,W Madhevere,4,4,0,na,na,na,na,na,na,na,na,na
2nd innings,14.1,W Madhevere,CB Sole,M Shumba,1,1,0,na,na,na,na,na,na,na,na,na
2nd innings,14.2,M Shumba,CB Sole,W Madhevere,1,1,0,na,na,na,na,na,na,na,na,na
2nd innings,14.3,W Madhevere,CB Sole,M Shumba,1,1,0,na,na,na,na,na,na,na,na,na
2nd innings,14.4,M Shumba,CB Sole,W Madhevere,4,4,0,na,na,na,na,na,na,na,na,na
2nd innings,14.5,M Shumba,CB Sole,W Madhevere,1,1,0,na,na,na,na,na,na,na,na,na
2nd innings,14.6,W Madhevere,CB Sole,M Shumba,2,2,0,na,na,na,na,na,na,na,na,na
2nd innings,15.1,M Shumba,RD Berrington,W Madhevere,1,1,0,na,na,na,na,na,na,na,na,na
2nd innings,15.2,W Madhevere,RD Berrington,M Shumba,6,6,0,na,na,na,na,na,na,na,na,na
2nd innings,15.3,W Madhevere,RD Berrington,M Shumba,2,2,0,na,na,na,na,na,na,na,na,na
2nd innings,15.4,W Madhevere,RD Berrington,M Shumba,1,1,0,na,na,na,na,na,na,na,na,na
2nd innings,15.5,M Shumba,RD Berrington,W Madhevere,0,0,0,na,na,na,na,na,na,na,na,na
2nd innings,15.6,M Shumba,RD Berrington,W Madhevere,2,2,0,na,na,na,na,na,na,na,na,na
2nd innings,16.1,W Madhevere,AC Evans,M Shumba,6,6,0,na,na,na,na,na,na,na,na,na
2nd innings,16.2,W Madhevere,AC Evans,M Shumba,6,6,0,na,na,na,na,na,na,na,na,na
2nd innings,16.3,W Madhevere,AC Evans,M Shumba,6,6,0,na,na,na,na,na,na,na,na,na
2nd innings,16.4,W Madhevere,AC Evans,M Shumba,1,1,0,na,na,na,na,na,na,na,na,na
2nd innings,16.5,M Shumba,AC Evans,W Madhevere,6,6,0,na,na,na,na,na,na,na,na,na
2nd innings,16.6,M Shumba,AC Evans,W Madhevere,0,0,0,na,na,na,na,na,na,na,na,na
2nd innings,17.1,W Madhevere,SM Sharif,M Shumba,1,1,0,na,na,na,na,na,na,na,na,na
2nd innings,17.2,M Shumba,SM Sharif,W Madhevere,1,1,0,na,na,na,na,na,na,na,na,na
2nd innings,17.3,W Madhevere,SM Sharif,M Shumba,1,1,0,na,na,na,na,na,na,na,na,na
2nd innings,17.4,M Shumba,SM Sharif,W Madhevere,4,4,0,na,na,na,na,na,na,na,na,na
2nd innings,17.5,M Shumba,SM Sharif,W Madhevere,1,1,0,na,na,na,na,na,na,na,na,na
2nd innings,17.6,W Madhevere,SM Sharif,M Shumba,6,6,0,na,na,na,na,na,na,na,na,na
2nd innings,18.1,M Shumba,CB Sole,W Madhevere,1,1,0,na,na,na,na,na,run out,na,na,W Madhevere
2nd innings,18.2,M Shumba,CB Sole,RP Burl,1,1,0,na,na,na,na,na,na,na,na,na
2nd innings,18.3,RP Burl,CB Sole,M Shumba,4,4,0,na,na,na,na,na,na,na,na,na
2nd innings,18.4,RP Burl,CB Sole,M Shumba,1,1,0,na,na,na,na,na,na,na,na,na
2nd innings,18.5,M Shumba,CB Sole,RP Burl,2,1,1,na,na,na,1,na,na,na,na,na
2nd innings,18.6,RP Burl,CB Sole,M Shumba,4,4,0,na,na,na,na,na,na,na,na,na
2nd innings,18.7,RP Burl,CB Sole,M Shumba,2,0,2,2,na,na,na,na,na,na,na,na
2nd innings,19.1,M Shumba,SM Sharif,RP Burl,4,4,0,na,na,na,na,na,na,na,na,na
