player,rating
Rashid Khan,430.0
JJ Bumrah,393.0
YS Chahal,358.0
SP Narine,340.0
K Rabada,319.0
RA Jadeja,308.0
Imran Tahir,305.0
HH Pandya,305.0
R Ashwin,305.0
AR Patel,303.0
KH Pandya,302.0
S Kaul,302.0
RD Chahar,298.0
Mohammed Siraj,297.0
SN Thakur,293.0
Mohammed Shami,287.0
Washington Sundar,287.0
Sandeep Sharma,285.0
A Mishra,284.0
PP Chawla,280.0
S Gopal,276.0
JC Archer,276.0
AD Russell,272.0
Harbhajan Singh,271.0
AJ Tye,265.0
BA Stokes,264.0
DJ Bravo,264.0
UT Yadav,262.0
Kuldeep Yadav,260.0
CH Morris,260.0
HV Patel,259.0
A Nortje,258.0
CR Woakes,257.0
T Natarajan,257.0
B Kumar,256.0
JD Unadkat,256.0
PJ Cummins,255.0
DT Christian,254.0
DL Chahar,253.0
M Ashwin,252.0
NM Coulter-Nile,250.0
R Tewatia,250.0
M Prasidh Krishna,250.0
CV Varun,250.0
KK Ahmed,248.0
MM Ali,246.0
Shakib Al Hasan,243.0
Ravi Bishnoi,243.0
MJ McClenaghan,242.0
GJ Maxwell,242.0
Mujeeb Ur Rahman,241.0
MM Sharma,240.0
MP Stoinis,237.0
KV Sharma,237.0
TA Boult,236.0
L Ngidi,236.0
SM Curran,236.0
DS Kulkarni,235.0
Basil Thampi,235.0
P Negi,234.0
Avesh Khan,234.0
SR Watson,232.0
S Nadeem,232.0
Mustafizur Rahman,230.0
K Gowtham,230.0
M Markande,228.0
Shivam Mavi,227.0
S Lamichhane,227.0
V Shankar,226.0
LH Ferguson,225.0
NA Saini,223.0
N Rana,222.0
IS Sodhi,222.0
Kartik Tyagi,222.0
Mohammad Nabi,221.0
AS Rajpoot,220.0
Abhishek Sharma,220.0
JP Faulkner,219.0
KA Pollard,218.0
CJ Jordan,218.0
JL Pattinson,218.0
STR Binny,217.0
A Zampa,217.0
Z Khan,215.0
I Udana,215.0
DJ Hooda,214.0
BCJ Cutting,214.0
SL Malinga,214.0
VR Aaron,213.0
CJ Anderson,213.0
Arshdeep Singh,213.0
I Sharma,212.0
KMA Paul,212.0
S Dube,212.0
C de Grandhomme,211.0
MG Johnson,210.0
J Yadav,210.0
R Parag,210.0
BB Sran,208.0
TK Curran,208.0
KL Nagarkoti,208.0
MC Henriques,207.0
DR Smith,205.0
CR Brathwaite,205.0
